ACC_X,ACC_Y,ACC_Z,QUAT_W,QUAT_X,QUAT_Y,QUAT_Z,TIME1,TIME2
-0.6,0.23,-0.64,-0.7236691612136672,-0.061109568953507755,-0.6874063400764209,0.006410094645472841,875852878,875862215
0.49,-0.79,-0.24,-0.7236691612136672,-0.061109568953507755,-0.6874063400764209,0.006410094645472841,875862231,875867874
-0.32,-1.1,0.02,-0.7236238128051776,-0.06074459577669381,-0.6874823045641698,0.00683758264019066,875867882,875873688
-0.32,-1.1,0.02,-0.7236238128051776,-0.06074459577669381,-0.6874823045641698,0.00683758264019066,875873696,875879564
0.98,0.46,-0.19,-0.7234569482677015,-0.0604407070704662,-0.6876809337795265,0.007204043873045466,875879572,875886743
-2.5300000000000002,-0.18,2.13,-0.7234528024255115,-0.05976880114553382,-0.6877380438247583,0.007753460414180587,875886751,875893959
-2.5300000000000002,-0.18,2.13,-0.7222885352578303,-0.05903583920161625,-0.6890160095444064,0.008424969813674294,875893967,875902072
1.35,0.71,1.51,-0.7223456603996272,-0.05897446821721094,-0.6889512151461962,0.009218576294822829,875902080,875910901
2.75,-1.59,-4.66,-0.7223456603996272,-0.05897446821721094,-0.6889512151461962,0.009218576294822829,875910909,875916552
2.75,-1.59,-4.66,-0.7230527468855489,-0.05836683492549056,-0.6882524373588442,0.009829561111928849,875916559,875922362
-1.02,-0.45,2.02,-0.7230527468855489,-0.05836683492549056,-0.6882524373588442,0.009829561111928849,875922369,875927999
-0.54,-1.86,-3.88,-0.7226294015974845,-0.05842821369793787,-0.6886836473487348,0.010379097522099725,875928007,875935366
2.42,-2.52,-4.2700000000000005,-0.7225098248132152,-0.059100009330673685,-0.6887471128712085,0.01068440251329328,875935373,875943530
2.42,-2.52,-4.2700000000000005,-0.7225608255439677,-0.06001498027120577,-0.6886154246988097,0.010623200983916382,875943555,875952039
-1.4000000000000001,0.51,0.18,-0.721894718385742,-0.062213355720151485,-0.6891090736146711,0.011233814968113712,875952047,875960580
0.53,-0.6900000000000001,-1.05,-0.721894718385742,-0.062213355720151485,-0.6891090736146711,0.011233814968113712,875960587,875966244
0.53,-0.6900000000000001,-1.05,-0.721536887904009,-0.06337411487936719,-0.689361397979706,0.012210812115485007,875966252,875972068
3.67,-1.35,-2.5,-0.721536887904009,-0.06337411487936719,-0.689361397979706,0.012210812115485007,875972076,875977706
-1.46,1.21,1.41,-0.7222346808512878,-0.06301007613817981,-0.6886537294210563,0.012760761543487967,875977713,875983539
-1.46,1.21,1.41,-0.7224237341266325,-0.06252213520500943,-0.6884761685270375,0.013982000939401525,875983546,875991733
-0.14,1.6,1.11,-0.7227245024142555,-0.06276597013448125,-0.6881055286144006,0.015508323360076107,875991741,876000284
0.36,-1.62,-1.3900000000000001,-0.7227245024142555,-0.06276597013448125,-0.6881055286144006,0.015508323360076107,876000291,876008291
-1.44,0.1,1.81,-0.7232908099283101,-0.0633887082662602,-0.687627028013574,0.00116029427462326,876008298,876014647
-1.44,0.1,1.81,-0.7231218485910386,-0.06638235363723155,-0.6875184335307755,0.002564911548080704,876014654,876020428
-1.02,1.57,1.55,-0.7231218485910386,-0.06638235363723155,-0.6875184335307755,0.002564911548080704,876020435,876026066
-1.02,1.57,1.55,-0.7224401188695126,-0.06931858440416745,-0.6879335107740461,0.004763744126453799,876026073,876032405
0.21,0.1,-1.08,-0.7223757241275818,-0.07225589597048528,-0.6876831214976278,0.006657559307508786,876032430,876041652
1.19,-0.85,-1.6,-0.7223757241275818,-0.07225589597048528,-0.6876831214976278,0.006657559307508786,876041677,876049983
-0.15,1.73,-0.96,-0.7230503136403635,-0.07457716108758944,-0.6867084538147159,0.008245632061281387,876049990,876057565
1.28,2.09,2.48,-0.7238842251777848,-0.07703105552313812,-0.6855214156071815,0.01087353519676335,876057572,876064295
1.28,2.09,2.48,-0.7238842251777848,-0.07703105552313812,-0.6855214156071815,0.01087353519676335,876064302,876069938
-4.54,1.1400000000000001,6.0600000000000005,-0.7230873134971258,-0.07960314037569745,-0.6860043463382246,0.01435666768095848,876069945,876075575
-4.54,1.1400000000000001,6.0600000000000005,-0.7217084509312447,-0.08213176613476654,-0.687303551873303,0.0022610679665077097,876075583,876081373
4.6000000000000005,-3.0500000000000003,-6.59,-0.7217084509312447,-0.08213176613476654,-0.687303551873303,0.0022610679665077097,876081381,876089482
-1.25,-0.76,-1.3800000000000001,-0.722774245376895,-0.08269182766742254,-0.686103811821497,0.0045838041944247536,876089490,876096789
-1.56,-0.67,-0.75,-0.7231488567674202,-0.08471678771698457,-0.6854358278919661,0.007518156485706423,876096797,876103663
-1.56,-0.67,-0.75,-0.7235019334508421,-0.09114840581117073,-0.6841938013672856,0.010759302094410495,876103671,876112382
3.5700000000000003,-1.01,1.22,-0.7235019334508421,-0.09114840581117073,-0.6841938013672856,0.010759302094410495,876112390,876118385
2.46,-3.04,-3.93,-0.7225913434190774,-0.09776811288941487,-0.6841933603705768,0.013512666009106118,876118405,876124282
2.46,-3.04,-3.93,-0.7225913434190774,-0.09776811288941487,-0.6841933603705768,0.013512666009106118,876124289,876130058
4.33,0.74,-1.43,-0.7235263358160035,-0.10162264600069279,-0.6826204692850386,0.014552460738968041,876130066,876137661
-2.57,5.18,1.79,-0.7262836370840567,-0.10145710289006822,-0.6798665538450201,6.11555773900351e-05,876137668,876144941
-2.57,5.18,1.79,-0.7282421978570496,-0.10214719220739735,-0.6776579296202127,0.002997133184528425,876144948,876152725
2.05,4.15,1.53,-0.7291282052201985,-0.10242180209269215,-0.6766324428572774,0.007097329177271379,876152732,876161350
-3.08,-2.24,3.0100000000000002,-0.7291282052201985,-0.10242180209269215,-0.6766324428572774,0.007097329177271379,876161358,876166998
-3.08,-2.24,3.0100000000000002,-0.7285339197107382,-0.103481802455343,-0.6770683987971111,0.010403256308343175,876167006,876172836
-0.85,-3.7,1.79,-0.7285339197107382,-0.103481802455343,-0.6770683987971111,0.010403256308343175,876172843,876178473
-1.9100000000000001,-2.05,2.63,-0.7267833714438606,-0.10416718300610113,-0.6788003682260092,0.0128525901476388,876178481,876184291
-1.9100000000000001,-2.05,2.63,-0.7249077695350279,-0.10644385807830901,-0.6804082382969999,0.014935193427893846,876184299,876192513
0.93,-0.8,-2.17,-0.7241583610223412,-0.10843700493536537,-0.681052967756109,0.001714419050361508,876192520,876200867
0.09,-0.8300000000000001,-2.06,-0.7241583610223412,-0.10843700493536537,-0.681052967756109,0.001714419050361508,876200874,876208972
0.46,-0.63,-0.68,-0.7241960307544248,-0.1102370279372486,-0.6807136475125102,0.004103267150997587,876208979,876215113
0.46,-0.63,-0.68,-0.7242670606889682,-0.11191102164062457,-0.6803479569580827,0.006309159950182995,876215121,876220828
-1.43,-1.0,0.05,-0.7242670606889682,-0.11191102164062457,-0.6803479569580827,0.006309159950182995,876220835,876226466
-1.43,-1.0,0.05,-0.7245645547755536,-0.11364397134595855,-0.6797196022012992,0.008515639901395276,876226473,876232265
-1.29,-1.6600000000000001,0.18,-0.7245645547755536,-0.11364397134595855,-0.6797196022012992,0.008515639901395276,876232272,876240280
-1.21,-1.6500000000000001,1.21,-0.7249499805192091,-0.1156880705959147,-0.6789321092175502,0.010723205696125568,876240287,876247828
0.74,-2.64,1.1300000000000001,-0.7246424109912573,-0.11851656852914094,-0.6787432849166314,0.012439950057608899,876247836,876255121
0.74,-2.64,1.1300000000000001,-0.7240505314234416,-0.1215331135781856,-0.6788203560221804,0.013544537620160876,876255128,876263152
-1.18,-0.73,0.38,-0.7240505314234416,-0.1215331135781856,-0.6788203560221804,0.013544537620160876,876263160,876268794
-1.48,-0.35000000000000003,-0.5,-0.7239244985581749,-0.12454615028957847,-0.6783842477387079,0.014710175231052575,876268801,876274696
-1.48,-0.35000000000000003,-0.5,-0.7239244985581749,-0.12454615028957847,-0.6783842477387079,0.014710175231052575,876274704,876280359
-0.13,-1.23,-0.5700000000000001,-0.7241255437109918,-0.127523590798312,-0.6777756232092976,0.00036785651191820765,876280367,876287523
0.78,-0.4,-0.25,-0.7242526513148202,-0.13066224178393854,-0.6770401097035426,0.0014715597385333292,876287531,876294820
0.78,-0.4,-0.25,-0.7242001425144521,-0.13404754543070213,-0.6764311407347097,0.002514157988407497,876294827,876302897
-0.89,-1.5,0.06,-0.7240607822638452,-0.1373060126610273,-0.6759208894818414,0.0037408069550346873,876302905,876311733
-2.14,3.0700000000000003,1.6300000000000001,-0.7240607822638452,-0.1373060126610273,-0.6759208894818414,0.0037408069550346873,876311740,876317379
-2.14,3.0700000000000003,1.6300000000000001,-0.7234338314714156,-0.13973056368423645,-0.6760800144546332,0.0058885575564910884,876317386,876323258
1.78,3.0300000000000002,-0.88,-0.7234338314714156,-0.13973056368423645,-0.6760800144546332,0.0058885575564910884,876323265,876328899
-0.51,-0.91,-0.46,-0.7227859959760277,-0.14105984760177315,-0.6764614266244232,0.009080842733824456,876328906,876334713
-0.51,-0.91,-0.46,-0.7219458677229211,-0.1412836340642833,-0.6772653787573268,0.01202936241381387,876334721,876342944
-1.02,-1.44,-0.36,-0.7212886151125973,-0.14285799705226096,-0.6775778742869807,0.014918132051439369,876342951,876351388
-0.55,-3.08,-1.84,-0.7212886151125973,-0.14285799705226096,-0.6775778742869807,0.014918132051439369,876351396,876360149
2.33,-1.76,-2.73,-0.7209529894919539,-0.144939863293382,-0.6776552760928716,0.001596795104079632,876360157,876365820
2.33,-1.76,-2.73,-0.7210903851587628,-0.1476088419402425,-0.6769244436876707,0.0036856140309673535,876365827,876371494
-1.84,-2.49,1.37,-0.7210903851587628,-0.1476088419402425,-0.6769244436876707,0.0036856140309673535,876371501,876377131
-1.84,-2.49,1.37,-0.7208403989534008,-0.1518722804238308,-0.6762371321298971,0.005222145564735282,876377139,876382980
1.22,-0.5,0.19,-0.7208581990011398,-0.15492613126017676,-0.6755049721586128,0.0073745084296791795,876382987,876391178
1.54,4.15,-1.48,-0.7208581990011398,-0.15492613126017676,-0.6755049721586128,0.0073745084296791795,876391185,876399312
0.75,1.24,3.0500000000000003,-0.7208508790460164,-0.1580511350867566,-0.6747449469903698,0.010635101660835821,876399320,876406410
-4.8100000000000005,-0.6900000000000001,1.87,-0.7196179612933801,-0.16131594842086455,-0.6752145626049073,0.014575630871423903,876406417,876413976
-4.8100000000000005,-0.6900000000000001,1.87,-0.7196179612933801,-0.16131594842086455,-0.6752145626049073,0.014575630871423903,876413984,876419614
6.25,-1.71,-7.0200000000000005,-0.7192134290742471,-0.16424922068958378,-0.6750895282745351,0.002892361698168017,876419621,876425463
6.25,-1.71,-7.0200000000000005,-0.7193170410478716,-0.1673789503302664,-0.6741942861408892,0.00541719294926938,876425470,876431251
4.37,1.05,-2.32,-0.7193170410478716,-0.1673789503302664,-0.6741942861408892,0.00541719294926938,876431258,876438320
-0.39,-3.06,-2.75,-0.7186674150387985,-0.17070660449764777,-0.6740201249014267,0.008559963212544387,876438327,876446096
-0.39,-3.06,-2.75,-0.7184295657257064,-0.17421701353732616,-0.6733352043716319,0.011273590338518632,876446103,876453568
0.51,-1.23,0.65,-0.7182720727286148,-0.17864368040839518,-0.6723016741136915,0.013495331496874282,876453576,876462424
0.6900000000000001,1.6300000000000001,-1.86,-0.7182720727286148,-0.17864368040839518,-0.6723016741136915,0.013495331496874282,876462432,876468062
0.6900000000000001,1.6300000000000001,-1.86,-0.7180431717985866,-0.1823777865516245,-0.6716780279558477,0.0009864924221859338,876468070,876473918
1.25,1.73,0.45,-0.7180431717985866,-0.1823777865516245,-0.6716780279558477,0.0009864924221859338,876473925,876479555
-2.5,-4.41,-0.8,-0.7173934489738903,-0.1848392477748345,-0.6716771997745737,0.005552580874410916,876479563,876485624
-2.5,-4.41,-0.8,-0.7164871795156558,-0.18776309442510553,-0.6717993161482079,0.00876474668256574,876485632,876493460
1.6400000000000001,-2.73,-1.5,-0.7161232362731003,-0.19122552705102533,-0.6711725796075703,0.011299409573890098,876493467,876501889
-1.1500000000000001,-2.85,-0.31,-0.7161232362731003,-0.19122552705102533,-0.6711725796075703,0.011299409573890098,876501896,876510791
0.35000000000000003,3.27,1.29,-0.7161051226199452,-0.19493080619187056,-0.670090087571484,0.013217741611235836,876510799,876516429
0.35000000000000003,3.27,1.29,-0.7161619862362785,-0.1998605957103486,-0.6685290590978924,0.015383396702280309,876516437,876522248
1.04,4.75,1.72,-0.7161619862362785,-0.1998605957103486,-0.6685290590978924,0.015383396702280309,876522255,876527886
1.04,4.75,1.72,-0.7158043610792898,-0.20360574941989298,-0.6679480446350149,0.0037716218386314826,876527894,876533666
0.49,0.99,0.71,-0.7149005134346017,-0.20585719302379432,-0.6681850999290517,0.008291212463236683,876533674,876541538
2.65,-4.0200000000000005,-3.02,-0.7149005134346017,-0.20585719302379432,-0.6681850999290517,0.008291212463236683,876541545,876550056
-0.11,-1.6600000000000001,-2.94,-0.7141503874018906,-0.2087916491901341,-0.6680342360094655,0.011204058257756973,876550064,876557326
-1.36,-2.48,1.48,-0.7141779812142874,-0.21128719950603908,-0.6671771065293274,0.013499592465508945,876557334,876564671
-1.36,-2.48,1.48,-0.7141779812142874,-0.21128719950603908,-0.6671771065293274,0.013499592465508945,876564678,876570526
0.9500000000000001,-1.7,-0.63,-0.7134959955849604,-0.21445764340294607,-0.6668505289522572,0.015548488877567724,876570533,876576169
0.9500000000000001,-1.7,-0.63,-0.7136232639722038,-0.21827018112983948,-0.6656558817477586,0.0014873606891300816,876576177,876581905
-0.59,2.9,1.41,-0.7136232639722038,-0.21827018112983948,-0.6656558817477586,0.0014873606891300816,876581913,876589613
-1.68,2.87,1.69,-0.7137457114586336,-0.22313853505382406,-0.6638975919300772,0.004030009663378317,876589620,876596596
-1.68,2.87,1.69,-0.7129625662799085,-0.227376244815164,-0.6632686039069354,0.007692947982832288,876596604,876603976
2.04,1.67,-0.98,-0.7123526357721599,-0.23078660744052285,-0.6626810495595105,0.012045359656567509,876603984,876612794
-0.33,-1.06,-0.21,-0.7123526357721599,-0.23078660744052285,-0.6626810495595105,0.012045359656567509,876612802,876618435
-0.33,-1.06,-0.21,-0.7112851954787617,-0.2337816569645017,-0.6627023478183204,0.015655853721779016,876618442,876624323
2.83,-2.48,-2.61,-0.7112851954787617,-0.2337816569645017,-0.6627023478183204,0.015655853721779016,876624330,876629960
-0.92,-2.08,-0.03,-0.7108365436082823,-0.23646892976702283,-0.6624113868552564,0.0022378763069434335,876629968,876635799
-0.92,-2.08,-0.03,-0.7105282051322255,-0.23862553374987738,-0.6619573055078694,0.0044777269820149,876635807,876643648
-0.96,-2.36,1.75,-0.7100557173384573,-0.24218038440499512,-0.6611592924367552,0.006158710006702933,876643655,876652199
1.19,-0.25,-0.58,-0.7100557173384573,-0.24218038440499512,-0.6611592924367552,0.006158710006702933,876652206,876660851
-2.4,1.67,1.94,-0.7103219525278793,-0.2464001235483987,-0.6592868170619316,0.008402125960857243,876660858,876666497
-2.4,1.67,1.94,-0.7102389460227186,-0.25044547088404123,-0.657808541625811,0.011208399989837749,876666505,876672353
-0.23,3.08,0.41000000000000003,-0.7102389460227186,-0.25044547088404123,-0.657808541625811,0.011208399989837749,876672360,876677993
-0.23,3.08,0.41000000000000003,-0.7091174842362261,-0.254320103099397,-0.6574557921339472,0.015018658379552728,876678000,876683858
2.1,2.21,-2.14,-0.7083556185559222,-0.2570167457904359,-0.6573889483348576,0.0038053450226253854,876683866,876692247
-1.77,-1.34,-0.56,-0.7083556185559222,-0.2570167457904359,-0.6573889483348576,0.0038053450226253854,876692255,876700798
1.52,-3.2800000000000002,-2.5100000000000002,-0.7073023167646343,-0.25990816000451694,-0.6573559972826228,0.007367082123596685,876700805,876707983
0.06,-1.6500000000000001,0.0,-0.7068705372241749,-0.2622966936907309,-0.6568348973941498,0.010119567606072494,876707991,876715061
0.06,-1.6500000000000001,0.0,-0.7068705372241749,-0.2622966936907309,-0.6568348973941498,0.010119567606072494,876715068,876720927
-0.22,-1.42,1.27,-0.7065836853829052,-0.26435954264723943,-0.6562741270304163,0.012561765501677334,876720934,876726565
-0.22,-1.42,1.27,-0.7059537959558407,-0.2673745289200332,-0.6556803812571255,0.014944460339543485,876726572,876732236
-0.8,-1.56,-0.14,-0.7059537959558407,-0.2673745289200332,-0.6556803812571255,0.014944460339543485,876732244,876739576
-0.04,1.8,-0.23,-0.705756810288899,-0.27129091572807323,-0.6544517939381103,0.001188774769103642,876739584,876746773
0.18,1.8800000000000001,0.58,-0.7055883473897603,-0.27547371149200933,-0.652872696236062,0.004069498010677411,876746781,876754447
0.18,1.8800000000000001,0.58,-0.7048837728007656,-0.2793845993705435,-0.6519391694215082,0.007644072913928304,876754454,876763285
-0.88,1.68,-0.11,-0.7048837728007656,-0.2793845993705435,-0.6519391694215082,0.007644072913928304,876763292,876768923
0.39,-0.26,0.49,-0.7038603818371438,-0.2824096319533688,-0.6516807651848668,0.011727870569682428,876768931,876774753
0.39,-0.26,0.49,-0.7038603818371438,-0.2824096319533688,-0.6516807651848668,0.011727870569682428,876774761,876780392
0.73,-1.6,-3.5300000000000002,-0.7028369508451648,-0.28491354111692446,-0.6516165389589761,0.015504217813588971,876780400,876786993
0.73,-1.6,-3.5300000000000002,-0.7029105574613347,-0.28636631398898493,-0.6510781289749563,0.002890050558028369,876787001,876794238
1.97,-2.3000000000000003,2.09,-0.7024354283105475,-0.2876514576191152,-0.6510039764346052,0.005910215741245208,876794245,876802805
-4.45,-3.91,5.2700000000000005,-0.7024354283105475,-0.2876514576191152,-0.6510039764346052,0.005910215741245208,876802813,876811725
7.17,0.92,-4.17,-0.7005768425702044,-0.2913881418105536,-0.6513308000410303,0.007295710004322085,876811732,876817363
7.17,0.92,-4.17,-0.7003922340874917,-0.2944680800876425,-0.6501079861734018,0.009943568423562197,876817370,876823081
-1.17,-2.35,-5.42,-0.7003922340874917,-0.2944680800876425,-0.6501079861734018,0.009943568423562197,876823089,876828719
-2.66,2.34,0.18,-0.7011116683658986,-0.29819130061192217,-0.6475820790269051,0.012721149466443144,876828727,876834544
-2.66,2.34,0.18,-0.7009273057659208,-0.3031701220929466,-0.6454101830130865,0.01531289537904511,876834551,876842505
-0.06,1.8,0.65,-0.7009273057659208,-0.3031701220929466,-0.6454101830130865,0.01531289537904511,876842512,876851395
-0.04,1.31,1.71,-0.7002150615930832,-0.3073376378451803,-0.6443871039795807,0.0027756272711797897,876851416,876858985
-2.74,-1.11,1.68,-0.6992392254396297,-0.3105905446813673,-0.6438533149708295,0.0071363829908488215,876858992,876865713
-2.74,-1.11,1.68,-0.6992392254396297,-0.3105905446813673,-0.6438533149708295,0.0071363829908488215,876865720,876871552
1.97,-2.04,-1.72,-0.6977573374884566,-0.3134439502824833,-0.644020476306506,0.011189911093182642,876871560,876877190
1.97,-2.04,-1.72,-0.6967156449831304,-0.31627473148280527,-0.6436867884439966,0.014997421240781282,876877198,876882985
0.75,-3.5,-2.0,-0.6967156449831304,-0.31627473148280527,-0.6436867884439966,0.014997421240781282,876882992,876891114
-0.53,-0.63,1.4000000000000001,-0.6965468595471433,-0.3194855287401829,-0.6424547418738451,0.0018368517711073163,876891121,876898346
0.4,-1.2,-0.91,-0.6957128314572865,-0.3232630685524928,-0.6414553438727897,0.00443694407817147,876898353,876905067
0.4,-1.2,-0.91,-0.6949942839501994,-0.3268807543989939,-0.640376715633193,0.007041289295223815,876905074,876913815
0.08,0.28,0.55,-0.6949942839501994,-0.3268807543989939,-0.640376715633193,0.007041289295223815,876913822,876919452
-1.07,0.62,0.36,-0.6943897105574273,-0.3299604822632331,-0.6394174562981045,0.009712188108171349,876919460,876925329
-1.07,0.62,0.36,-0.6943897105574273,-0.3299604822632331,-0.6394174562981045,0.009712188108171349,876925336,876931173
1.2,-0.21,-1.3800000000000001,-0.6935632632759072,-0.33302726262639054,-0.6386728483752584,0.012642583987533713,876931181,876937331
1.2,-0.21,-1.3800000000000001,-0.6927040436758835,-0.33579677388033236,-0.6380838147868083,0.01583287193641408,876937338,876944623
0.15,-0.85,-2.2600000000000002,-0.6924573566922927,-0.33820793676283795,-0.6372670157976229,0.002991863923932502,876944630,876953510
-0.32,0.6900000000000001,0.84,-0.6917836720905689,-0.34066649880215377,-0.6366627365380318,0.0064998097414552345,876953535,876962199
-1.2,-0.21,1.95,-0.6917836720905689,-0.34066649880215377,-0.6366627365380318,0.0064998097414552345,876962206,876967849
-1.2,-0.21,1.95,-0.6907033999796628,-0.34369319533528103,-0.63616411230118,0.009951027927302123,876967856,876973660
0.66,-2.29,-1.05,-0.6907033999796628,-0.34369319533528103,-0.63616411230118,0.009951027927302123,876973668,876979300
-1.45,-0.9500000000000001,1.48,-0.6902236880448219,-0.34622912406503276,-0.6352535099478288,0.013024293068277093,876979307,876985195
-1.45,-0.9500000000000001,1.48,-0.6896145726833379,-0.3495674351107701,-0.6340262581985326,0.015654180515835985,876985203,876993289
0.87,0.04,0.63,-0.6896145726833379,-0.3495674351107701,-0.6340262581985326,0.015654180515835985,876993297,877001945
-0.91,-0.6900000000000001,0.45,-0.6888526790201039,-0.3529970227959103,-0.6331432376620251,0.0021746509829789727,877001952,877009843
-0.64,-1.08,-0.47000000000000003,-0.6879285919785141,-0.3563836284705368,-0.6322336473459711,0.00505735704134586,877009851,877016419
-0.64,-1.08,-0.47000000000000003,-0.6872978685677117,-0.3595402144819532,-0.6311016881897624,0.00794564009904869,877016426,877022224
-0.97,0.16,0.74,-0.6872978685677117,-0.3595402144819532,-0.6311016881897624,0.00794564009904869,877022231,877027866
-0.97,0.16,0.74,-0.6864428908344792,-0.36278096351370037,-0.6301371305436839,0.010645508209877013,877027873,877033525
0.65,-0.43,-0.78,-0.6864428908344792,-0.36278096351370037,-0.6301371305436839,0.010645508209877013,877033532,877041495
1.27,0.78,-1.25,-0.6856935703024185,-0.3659214681544592,-0.6290819697214269,0.01347895251928371,877041503,877048738
1.1500000000000001,-0.63,-0.61,-0.685020387513479,-0.3684715667919596,-0.6284708620902275,0.0003855649460676243,877048746,877055836
1.1500000000000001,-0.63,-0.61,-0.6842977134020839,-0.3705862005637461,-0.6280020666150565,0.0039889486866236555,877055857,877064355
1.6,-1.05,-1.6500000000000001,-0.6842977134020839,-0.3705862005637461,-0.6280020666150565,0.0039889486866236555,877064362,877069993
-4.48,0.25,2.72,-0.683881194136721,-0.37244052599590477,-0.6273258876987403,0.007536413272487177,877070000,877075744
-4.48,0.25,2.72,-0.683881194136721,-0.37244052599590477,-0.6273258876987403,0.007536413272487177,877075751,877081585
2.79,-0.27,0.75,-0.682740629930916,-0.37515914100284,-0.626898791479823,0.010897541221980054,877081593,877088234
-0.21,-2.71,-1.21,-0.681462368897765,-0.378303285500275,-0.6263307979391926,0.0143316261742425,877088241,877095413
-0.21,-2.71,-1.21,-0.6807101273366142,-0.3816836620193718,-0.6252606552721677,0.0006462642431753671,877095420,877103799
0.72,-1.78,0.45,-0.6807101273366142,-0.3816836620193718,-0.6252606552721677,0.0006462642431753671,877103807,877112348
-2.08,-1.41,1.29,-0.6798898087171951,-0.38538516604862033,-0.6238737708188894,0.0031048150336243333,877112356,877117986
-2.08,-1.41,1.29,-0.6787577250560041,-0.3895445345591296,-0.6225074424817463,0.005243121850995264,877117993,877123709
-2.42,-0.51,-0.15,-0.6787577250560041,-0.3895445345591296,-0.6225074424817463,0.005243121850995264,877123716,877129346
0.42,0.62,1.44,-0.6781266733592138,-0.393220186023159,-0.6208603398428263,0.00738502491048437,877129354,877135170
0.42,0.62,1.44,-0.6771169282808545,-0.39706473774248285,-0.6194858177742313,0.009464726809861632,877135178,877143075
-0.34,0.28,0.56,-0.6771169282808545,-0.39706473774248285,-0.6194858177742313,0.009464726809861632,877143082,877151550
0.38,-1.06,-1.51,-0.6757694492839089,-0.4009461594253607,-0.6184172802010579,0.011742921497733056,877151558,877158847
-0.43,0.71,-0.8200000000000001,-0.6748578659066605,-0.40456411030059664,-0.6170073407457182,0.014024369735986019,877158867,877165879
-0.43,0.71,-0.8200000000000001,-0.6748578659066605,-0.40456411030059664,-0.6170073407457182,0.014024369735986019,877165887,877171770
0.25,1.37,0.07,-0.674492517628155,-0.40734746149905054,-0.6157336050391744,0.0001299975942234085,877171777,877177409
0.25,1.37,0.07,-0.6738811507851682,-0.4097556591825226,-0.614796167691992,0.0031885067968784515,877177416,877183151
-0.02,0.76,0.71,-0.6738811507851682,-0.4097556591825226,-0.614796167691992,0.0031885067968784515,877183158,877191065
-0.18,-0.36,0.28,-0.6730058350447593,-0.4119872102805705,-0.6142342924742904,0.0067763197642225735,877191073,877198320
0.11,-1.45,-0.53,-0.6719544075400655,-0.41452410733102685,-0.6136313744972676,0.010177173551092255,877198327,877205452
0.11,-1.45,-0.53,-0.6709146453213392,-0.41716626164986303,-0.6129150147678589,0.013454869250019067,877205459,877214394
0.32,-1.5,-0.42,-0.6709146453213392,-0.41716626164986303,-0.6129150147678589,0.013454869250019067,877214401,877220035
-0.34,-2.0300000000000002,0.23,-0.6700186522372413,-0.420282049378172,-0.6116879243633765,0.016609870941661067,877220043,877225695
-0.34,-2.0300000000000002,0.23,-0.6700186522372413,-0.420282049378172,-0.6116879243633765,0.016609870941661067,877225702,877231332
-0.14,-1.54,0.84,-0.6692123188502246,-0.4238148263298605,-0.6103509672558256,0.002749918539449118,877231340,877237154
-0.14,-1.54,0.84,-0.6680676236668647,-0.42768386423876387,-0.6088891790748322,0.005111759333531043,877237162,877244863
-0.99,-1.58,-0.89,-0.6669411026722017,-0.43161956895326575,-0.6073236907016017,0.0072144282912717265,877244870,877253375
1.57,-0.24,-1.08,-0.6669411026722017,-0.43161956895326575,-0.6073236907016017,0.0072144282912717265,877253383,877262358
0.19,-0.2,0.37,-0.6661508774129355,-0.43534810987412187,-0.6054962251928377,0.009452673073261995,877262379,877268040
0.19,-0.2,0.37,-0.6654443554939113,-0.43896462668392794,-0.6036174263351662,0.011826617692427335,877268047,877273906
-1.71,0.33,0.54,-0.6654443554939113,-0.43896462668392794,-0.6036174263351662,0.011826617692427335,877273914,877279545
-1.71,0.33,0.54,-0.6643051673080517,-0.4426947521597509,-0.6020964276254722,0.014138349927858949,877279552,877285221
1.31,0.75,-1.26,-0.6629727599690837,-0.44612912266016086,-0.6009610094089728,0.01678662037455231,877285229,877293286
0.77,0.37,-2.13,-0.6629727599690837,-0.44612912266016086,-0.6009610094089728,0.01678662037455231,877293293,877301599
0.24,0.74,-1.17,-0.6621737658184457,-0.44889896171423704,-0.6000043252403101,0.0032304375273898684,877301607,877308718
1.05,1.08,0.33,-0.6614457446974008,-0.4510217490544964,-0.5991834830434131,0.006932701456700647,877308725,877316213
1.05,1.08,0.33,-0.6614457446974008,-0.4510217490544964,-0.5991834830434131,0.006932701456700647,877316221,877322093
0.74,-1.4000000000000001,1.09,-0.6604302346287911,-0.45329349370576155,-0.5985273005598398,0.011044647424695386,877322100,877327733
0.74,-1.4000000000000001,1.09,-0.658525345215961,-0.45665616567072825,-0.5979910833707042,0.01470307016372758,877327740,877333474
1.6,-3.11,-1.44,-0.658525345215961,-0.45665616567072825,-0.5979910833707042,0.01470307016372758,877333481,877340894
-0.11,-2.79,-1.51,-0.6571009667979956,-0.4602227445633448,-0.5970026954554775,0.0010613381252541822,877340901,877348144
-0.11,-2.79,-1.51,-0.656300402261674,-0.46350136686745824,-0.5953326053302616,0.003918409606702971,877348151,877355415
-0.19,-1.43,1.21,-0.6552608360463933,-0.4671126860858319,-0.5936306823313967,0.006448894185927369,877355422,877364407
0.16,-1.01,0.65,-0.6552608360463933,-0.4671126860858319,-0.5936306823313967,0.006448894185927369,877364414,877370048
1.02,-0.63,-1.17,-0.6539328684476837,-0.47093547471296,-0.5920464771119408,0.008517696872016232,877370055,877375901
1.02,-0.63,-1.17,-0.6539328684476837,-0.47093547471296,-0.5920464771119408,0.008517696872016232,877375908,877381538
-0.27,0.78,-1.62,-0.6527482921643722,-0.47465943049234577,-0.5903439303892455,0.010589427451702396,877381546,877388149
-0.27,0.78,-1.62,-0.6517641344181172,-0.47807149296960616,-0.5886213584289656,0.013268650920634815,877388156,877395647
1.1500000000000001,1.16,-1.34,-0.6507410007280608,-0.4812118194384501,-0.5871091339423188,0.016558974777401918,877395655,877404122
-1.35,-0.23,1.47,-0.6507410007280608,-0.4812118194384501,-0.5871091339423188,0.016558974777401918,877404129,877412968
-0.14,-0.17,-0.74,-0.6494285881867581,-0.4843966940717541,-0.5861708200211204,0.002474141038190903,877412976,877418615
-0.14,-0.17,-0.74,-0.6478862964068915,-0.48733743428188114,-0.585420871735234,0.005289140995778075,877418622,877424351
2.47,-0.1,0.08,-0.6478862964068915,-0.48733743428188114,-0.585420871735234,0.005289140995778075,877424359,877429989
2.47,-0.1,0.08,-0.6466256155058592,-0.49018285277899315,-0.5843972040997162,0.008717342115084693,877429996,877435839
-1.0,-1.73,0.09,-0.6450369939560227,-0.4936308920125615,-0.5831988476633718,0.011615634428478393,877435847,877443818
2.16,-0.37,-0.25,-0.6450369939560227,-0.4936308920125615,-0.5831988476633718,0.011615634428478393,877443826,877452405
-0.33,-1.69,-3.02,-0.6430904817501848,-0.49735826010971224,-0.5821222506487509,0.014250567798791592,877452412,877459669
0.0,-0.18,0.63,-0.6421427395789334,-0.5004688619126872,-0.5804254256502172,0.01702778672188137,877459677,877466886
0.0,-0.18,0.63,-0.6421427395789334,-0.5004688619126872,-0.5804254256502172,0.01702778672188137,877466894,877472704
-0.41000000000000003,-0.85,0.34,-0.6409422847331355,-0.5039248646634757,-0.5790047495417842,0.002493676607268771,877472711,877478343
-0.41000000000000003,-0.85,0.34,-0.6394147776482938,-0.5076038149348552,-0.5774575509350646,0.00546681412175552,877478350,877484158
1.5,0.5700000000000001,-0.24,-0.6394147776482938,-0.5076038149348552,-0.5774575509350646,0.00546681412175552,877484165,877492358
-0.61,-0.26,0.47000000000000003,-0.6379553402783102,-0.5112969752310008,-0.5757751397214668,0.008448396814788513,877492365,877499430
-0.17,-0.81,-0.43,-0.6363648795719998,-0.5149398004449877,-0.5742309762060036,0.011641646382299932,877499438,877506426
-0.17,-0.81,-0.43,-0.634772378149105,-0.518459575062734,-0.5727524394404632,0.014776335124026149,877506434,877515139
-0.48,-1.28,0.05,-0.634772378149105,-0.518459575062734,-0.5727524394404632,0.014776335124026149,877515146,877520896
0.13,-1.96,-1.01,0.6398207288855998,0.5066118193631106,0.5777329729796218,0.014089403891801746,864101968,864107767
