ACC_X,ACC_Y,ACC_Z,QUAT_W,QUAT_X,QUAT_Y,QUAT_Z,TIME1,TIME2
-0.5700000000000001,0.7000000000000001,0.67,-0.7065691567844956,-0.024785474136383726,-0.7071796364430273,0.006532132346288321,366707329,366713546
-1.12,0.76,0.61,-0.7066932122233535,-0.024541350320817907,-0.707059501034112,0.007020535539537461,366713562,366720570
-1.12,0.76,0.61,-0.7066008583447424,-0.024420281954198805,-0.7071503146887119,0.0075702874058016295,366720582,366729170
-3.2,-1.08,-1.75,-0.7068778253334328,-0.024053015215594827,-0.7068778253334328,0.008302563627718012,366729177,366737600
1.1400000000000001,0.1,1.16,-0.7068778253334328,-0.024053015215594827,-0.7068778253334328,0.008302563627718012,366737607,366745724
-0.88,1.26,0.98,-0.7067621123975572,-0.023564841961255686,-0.7070063076510417,0.008607882685329148,366745732,366751797
-0.88,1.26,0.98,-0.7063101616619564,-0.022955538143737193,-0.707470148961773,0.00921884643538382,366751805,366757695
2.5500000000000003,-0.8300000000000001,0.13,-0.7063101616619564,-0.022955538143737193,-0.707470148961773,0.00921884643538382,366757702,366763334
2.5500000000000003,-0.8300000000000001,0.13,-0.706496625052631,-0.02252827986903049,-0.7072903042892094,0.00976835983480997,366763341,366769158
2.09,-0.5700000000000001,-1.45,-0.706496625052631,-0.02252827986903049,-0.7072903042892094,0.00976835983480997,366769165,366776952
-0.66,-0.7000000000000001,-1.17,-0.7062564700940585,-0.022039988390729175,-0.7075385746818847,0.010256836702610806,366776959,366784281
-0.7000000000000001,0.6900000000000001,0.34,-0.706506589970894,-0.021551747862057172,-0.7073002804020746,0.010501134935619924,366784288,366791259
-0.7000000000000001,0.6900000000000001,0.34,-0.7064537527853125,-0.020941460306400674,-0.7073695600873418,0.010623364703538534,366791266,366799981
0.2,0.9500000000000001,-0.96,-0.7064537527853125,-0.020941460306400674,-0.7073695600873418,0.010623364703538534,366800006,366806904
-1.1300000000000001,1.33,1.56,-0.706301841288078,-0.02069637169994455,-0.7075228661671309,0.010989223911474982,366806912,366812547
-1.1300000000000001,1.33,1.56,-0.7063861741656521,-0.020758107105991505,-0.7074240795209518,0.011783278445459884,366812555,366818208
1.72,-0.06,-0.68,-0.7063861741656521,-0.020758107105991505,-0.7074240795209518,0.011783278445459884,366818215,366826149
-0.08,0.48,0.32,-0.7063439964024872,-0.02081971672342019,-0.7074429843820227,0.013004691091168622,366826156,366833204
-0.52,0.47000000000000003,1.69,-0.7067316785378769,-0.02069823231311795,-0.7070369622003122,0.014165161937001075,366833212,366840521
-0.52,0.47000000000000003,1.69,-0.7068640783309681,-0.021248052108419877,-0.7068640783309681,0.015325462871302842,366840529,366849257
-0.79,-2.11,-1.22,-0.7068640783309681,-0.021248052108419877,-0.7068640783309681,0.015325462871302842,366849265,366854901
-0.79,-2.11,-1.22,-0.7066181314960663,-0.02271730575719788,-0.7072288117583566,0.0014656326294966377,366854909,366860731
2.3000000000000003,-2.0300000000000002,-1.49,-0.7066181314960663,-0.02271730575719788,-0.7072288117583566,0.0014656326294966377,366860738,366866368
-2.27,-0.54,2.04,-0.7066692123587645,-0.023207527499466814,-0.707157791885069,0.0028093322762512457,366866376,366872201
-2.27,-0.54,2.04,-0.7068718212731134,-0.023816847541815483,-0.7069328901129642,0.0032977173519436825,366872209,366879900
0.01,-0.92,-0.49,-0.7066462546445091,-0.024489253142550182,-0.7071348182982258,0.003419945576016983,366879907,366888434
-2.6,-0.14,0.81,-0.7066462546445091,-0.024489253142550182,-0.7071348182982258,0.003419945576016983,366888442,366897107
1.1500000000000001,2.62,1.44,-0.7070901630590921,-0.025283756046507528,-0.7066626599375329,0.0034810968469829204,366897114,366903068
1.1500000000000001,2.62,1.44,-0.7069207056319311,-0.029192924172100482,-0.706676413379445,0.004397260544751537,366903075,366908951
-1.16,4.22,2.1,-0.7069207056319311,-0.029192924172100482,-0.706676413379445,0.004397260544751537,366908959,366914595
-1.16,4.22,2.1,-0.70677009956646,-0.033103127719065095,-0.706647947803659,0.005374677563243041,366914602,366920294
-0.21,0.76,0.59,-0.7058819967915092,-0.03652482773049429,-0.7073478761653084,0.007451553483478769,366920301,366928441
1.6600000000000001,0.76,-1.52,-0.7058819967915092,-0.03652482773049429,-0.7073478761653084,0.007451553483478769,366928449,366936999
-0.53,3.25,1.22,-0.7063068667784854,-0.03854359880110908,-0.706795533641257,0.009223587034813742,366937006,366944263
0.64,3.42,4.17,-0.7069368803654855,-0.04117485805101428,-0.7059594356639778,0.01289005200113355,366944271,366951296
0.64,3.42,4.17,-0.7069368803654855,-0.04117485805101428,-0.7059594356639778,0.01289005200113355,366951303,366957123
-3.13,1.3,3.99,-0.7062558828318669,-0.04240712776304859,-0.7066836204317825,0.0015887396568289099,366957130,366962761
-3.13,1.3,3.99,-0.7059423743731386,-0.043452950236282706,-0.7069202185416062,0.004583644539692269,366962768,366968523
1.49,-3.0100000000000002,-2.3000000000000003,-0.7059423743731386,-0.043452950236282706,-0.7069202185416062,0.004583644539692269,366968530,366975699
-1.2,-1.17,-1.5,-0.7066307075126345,-0.04364106263852789,-0.7062028539573547,0.006784534948006437,366975707,366982862
-1.2,-1.17,-1.5,-0.7068443464154428,-0.04511382233456688,-0.705866268966455,0.009413995446508536,366982869,366990465
-0.27,-1.52,-1.2,-0.7075883251925446,-0.05123198691129708,-0.70465379610932,0.012532884626271957,366990472,366999220
-5.94,-3.31,6.47,-0.7075883251925446,-0.05123198691129708,-0.70465379610932,0.012532884626271957,366999227,367005150
-0.64,0.5,-3.0300000000000002,-0.7066539184573091,-0.058210135015259866,-0.7050030007625486,0.014919404352650639,367005157,367011039
-0.64,0.5,-3.0300000000000002,-0.7066539184573091,-0.058210135015259866,-0.7050030007625486,0.014919404352650639,367011046,367016677
4.51,-2.0100000000000002,-4.63,-0.7071862365503903,-0.061893321057597074,-0.7043117443668853,0.0013455069795129798,367016684,367023530
5.0600000000000005,1.95,1.1,-0.7094937657240599,-0.06342629612550432,-0.7018483587658265,0.002140713948305353,367023538,367030782
5.0600000000000005,1.95,1.1,-0.7112848650205273,-0.06404499945618268,-0.6999684133496641,0.004037220596091745,367030790,367039405
1.23,5.13,2.68,-0.7120856870127243,-0.06473506245570221,-0.69905301375841,0.008260145020340073,367039412,367048330
2.18,-0.38,1.18,-0.7120856870127243,-0.06473506245570221,-0.69905301375841,0.008260145020340073,367048337,367053978
2.18,-0.38,1.18,-0.7120368827839834,-0.06456927207642277,-0.6990618252672046,0.012118214095859439,367053986,367059863
-8.5,-2.29,4.58,-0.7120368827839834,-0.06456927207642277,-0.6990618252672046,0.012118214095859439,367059871,367065501
1.5,-1.3,0.98,-0.7104200029004962,-0.06476170627853912,-0.7006261720833259,0.0152416492092214,367065508,367071206
1.5,-1.3,0.98,-0.7092211633479939,-0.06613355693453923,-0.7018729903552673,0.0024493909975755275,367071213,367079197
-1.32,-0.85,-0.04,-0.7092211633479939,-0.06613355693453923,-0.7018729903552673,0.0024493909975755275,367079205,367087820
1.58,-0.58,-2.69,-0.7086235532912066,-0.0676775303705085,-0.7023151500078018,0.00508347060701557,367087828,367095521
0.6,0.27,0.12,-0.7088511310228935,-0.06904115674209671,-0.7019286370460907,0.007718887089178514,367095528,367102185
0.6,0.27,0.12,-0.7088511310228935,-0.06904115674209671,-0.7019286370460907,0.007718887089178514,367102192,367108331
-1.3900000000000001,-1.27,0.74,-0.7089987937806493,-0.0707038202577661,-0.7015853082943498,0.009986761440221729,367108338,367113968
-1.3900000000000001,-1.27,0.74,-0.7093556127943316,-0.0723694694808315,-0.7010217873503068,0.012071791268182733,367113976,367119806
0.27,0.21,-0.3,-0.7093556127943316,-0.0723694694808315,-0.7010217873503068,0.012071791268182733,367119813,367128045
-2.07,-0.92,1.3900000000000001,-0.7098051391401163,-0.07446794266947944,-0.7003051135320758,0.014280683655957785,367128052,367135839
1.43,-1.42,-0.1,-0.7095735543444921,-0.0773088173516852,-0.7003774222249419,0.0004291528322456752,367135847,367143102
1.43,-1.42,-0.1,-0.709692260918154,-0.08008105173311812,-0.6999427301175676,0.0020234875246499984,367143110,367151047
0.77,-0.04,0.0,-0.709692260918154,-0.08008105173311812,-0.6999427301175676,0.0020234875246499984,367151054,367156687
1.92,-0.22,-1.57,-0.7100100127131846,-0.08297145855941776,-0.6992783015173989,0.0033728235186755184,367156695,367162403
1.92,-0.22,-1.57,-0.7100100127131846,-0.08297145855941776,-0.6992783015173989,0.0033728235186755184,367162411,367168232
-0.11,0.51,0.06,-0.710847830201996,-0.08568200334703956,-0.6980905956306401,0.004845295822774607,367168239,367175137
-1.59,-1.51,1.18,-0.7114791570659016,-0.08912658118947797,-0.697002988338636,0.006379328591676331,367175145,367182377
-1.59,-1.51,1.18,-0.7118214235943318,-0.09269690347763813,-0.6961776708565438,0.007361765994253195,367182384,367190440
1.81,-0.41000000000000003,-0.22,-0.7121841870050916,-0.09669213290144937,-0.6952507931720967,0.008405344040290967,367190448,367199232
-2.48,1.18,1.86,-0.7121841870050916,-0.09669213290144937,-0.6952507931720967,0.008405344040290967,367199239,367204873
-2.48,1.18,1.86,-0.7119492543179738,-0.09995392013134356,-0.6950141518279488,0.009633373517876574,367204880,367210885
-0.33,4.94,1.01,-0.7119492543179738,-0.09995392013134356,-0.6950141518279488,0.009633373517876574,367210893,367216524
3.54,2.2600000000000002,-1.47,-0.7117117389802325,-0.10219041440169775,-0.6948948179315447,0.012029622355995652,367216532,367222588
3.54,2.2600000000000002,-1.47,-0.7117306004210402,-0.1032018579580582,-0.6946633092179825,0.015225497188339342,367222596,367230524
-0.72,3.91,0.97,-0.7112411914554665,-0.10356271256532658,-0.6952706663860804,0.0030712548210357826,367230531,367239027
-0.09,-1.72,1.03,-0.7112411914554665,-0.10356271256532658,-0.6952706663860804,0.0030712548210357826,367239035,367247713
-0.21,0.79,1.35,-0.710300136938989,-0.1042715685454554,-0.6961064231299141,0.0060830202038892655,367247721,367253434
-0.21,0.79,1.35,-0.709055763669887,-0.1056576679740409,-0.6971316289479766,0.009158227183322916,367253441,367259105
0.6900000000000001,-2.5300000000000002,0.63,-0.709055763669887,-0.1056576679740409,-0.6971316289479766,0.009158227183322916,367259113,367264746
0.6900000000000001,-2.5300000000000002,0.63,-0.7080590478996804,-0.10809029230701965,-0.697729600170682,0.011928052734676798,367264753,367270608
0.8200000000000001,1.45,-1.34,-0.7080590478996804,-0.10809029230701965,-0.697729600170682,0.011928052734676798,367270615,367278352
-0.6900000000000001,-2.1,-0.6900000000000001,-0.708241117235206,-0.11057811121820947,-0.6971095053717489,0.01432964400102492,367278360,367286197
-0.85,-0.75,1.6300000000000001,-0.7084088148891556,-0.11399752791920151,-0.6965353540751211,0.0001230410447050205,367286204,367293517
-0.85,-0.75,1.6300000000000001,-0.7083149402892707,-0.11881134031433128,-0.6958246750982767,0.001353624799023971,367293524,367301372
1.47,-1.25,-2.07,-0.7083149402892707,-0.11881134031433128,-0.6958246750982767,0.001353624799023971,367301380,367307010
1.99,4.64,-2.77,-0.7084011756143291,-0.12276410227159369,-0.6950478872970681,0.0022768279619293065,367307017,367312984
1.99,4.64,-2.77,-0.7082939144191651,-0.1256412201746494,-0.6946278924305458,0.0051093685813306715,367312991,367318875
2.71,2.81,-5.5,-0.7082939144191651,-0.1256412201746494,-0.6946278924305458,0.0051093685813306715,367318882,367326383
-1.46,4.79,-0.52,-0.7088004744068105,-0.12828494119292608,-0.6935885778755322,0.008930060716742334,367326391,367333631
-1.46,4.79,-0.52,-0.7084253542947999,-0.13131997477402738,-0.6933275627323238,0.013618824225743804,367333639,367341122
-1.31,-0.9500000000000001,3.6,-0.7070122837622511,-0.13503897622879207,-0.6941866641021649,0.0017265257234731408,367341129,367349903
3.9,-1.5,-5.3100000000000005,-0.7070122837622511,-0.13503897622879207,-0.6941866641021649,0.0017265257234731408,367349910,367355616
-2.67,-2.99,2.35,-0.7068388182051247,-0.13739461011982307,-0.6938828828099012,0.005305764018996311,367355623,367361427
-2.67,-2.99,2.35,-0.7068388182051247,-0.13739461011982307,-0.6938828828099012,0.005305764018996311,367361435,367367065
1.52,-0.55,0.66,-0.7067111918354829,-0.1404536039659063,-0.6933816758176289,0.00734357595428069,367367073,367372908
1.52,-0.55,0.66,-0.7067717401561936,-0.14395944606902294,-0.6925733385284598,0.009568488053472794,367372916,367380733
0.58,0.41000000000000003,-2.05,-0.7068619797047371,-0.14790620665672247,-0.6916081872019353,0.012165980255271118,367380740,367389319
0.14,1.69,-0.9400000000000001,-0.7068619797047371,-0.14790620665672247,-0.6916081872019353,0.012165980255271118,367389326,367398162
-0.17,2.31,-0.55,-0.7068283171353202,-0.15167061607964438,-0.6907654412979648,0.015259732045487641,367398169,367403799
-0.17,2.31,-0.55,-0.7067188995000037,-0.1551183377522097,-0.690273511759036,0.003029413531230879,367403807,367409671
-0.6900000000000001,0.81,0.77,-0.7067188995000037,-0.1551183377522097,-0.690273511759036,0.003029413531230879,367409678,367415593
-0.6900000000000001,0.81,0.77,-0.7063030356698624,-0.1584820789443149,-0.6899104709078626,0.006557025904799914,367415600,367421322
0.7000000000000001,0.16,-0.19,-0.7061236089001094,-0.16178517956568375,-0.6892890378052869,0.009778905268316004,367421329,367429449
-0.63,-0.08,0.8200000000000001,-0.7061236089001094,-0.16178517956568375,-0.6892890378052869,0.009778905268316004,367429456,367438102
1.2,-0.6,-1.23,-0.7057090056098458,-0.16538990558777733,-0.6888046835486465,0.013003324662460966,367438109,367445451
-0.32,-0.07,-0.16,-0.7057209707925839,-0.16890213927836556,-0.6880624565980372,0.00018587909678470163,367445459,367452471
-0.32,-0.07,-0.16,-0.7057209707925839,-0.16890213927836556,-0.6880624565980372,0.00018587909678470163,367452478,367458343
0.08,0.63,1.58,-0.7056382193993734,-0.17233367740756025,-0.6872890220926692,0.0030995265720784215,367458351,367463985
0.08,0.63,1.58,-0.7052413340407035,-0.17595371248557523,-0.6867590618092261,0.00607806268015029,367463992,367469833
0.9,0.5700000000000001,-0.84,-0.7052413340407035,-0.17595371248557523,-0.6867590618092261,0.00607806268015029,367469841,367477496
0.44,0.36,0.34,-0.7050121126825092,-0.17934028744410277,-0.686085196533564,0.009060097566380277,367477504,367484725
-1.62,0.32,1.07,-0.7046976057926244,-0.1827867622425979,-0.6854503584097421,0.012169227377564262,367484733,367491860
-1.62,0.32,1.07,-0.7042541575106939,-0.18617356532235596,-0.6849348452600256,0.015157273920138423,367491867,367500568
1.93,0.48,-1.24,-0.7042541575106939,-0.18617356532235596,-0.6849348452600256,0.015157273920138423,367500575,367506210
0.31,0.78,0.04,-0.7040787671235584,-0.18947837561297953,-0.6843725187412374,0.0023000983916273763,367506217,367512065
0.31,0.78,0.04,-0.7040787671235584,-0.18947837561297953,-0.6843725187412374,0.0023000983916273763,367512072,367518287
0.34,-0.28,-0.41000000000000003,-0.7036809022864448,-0.19300997434763884,-0.6837765543034462,0.0054736956953245946,367518295,367524854
-0.12,-0.22,0.21,-0.7033583359460994,-0.19654947570283884,-0.6830685547304168,0.00852668719800156,367524861,367531984
-0.12,-0.22,0.21,-0.7031113189727201,-0.19989259887542568,-0.6823125251956508,0.011271202615717148,367531991,367540395
0.12,-0.07,-0.22,-0.7031113189727201,-0.19989259887542568,-0.6823125251956508,0.011271202615717148,367540403,367549043
1.1400000000000001,1.79,-0.36,-0.7027979463169346,-0.203175895650667,-0.6816143202754668,0.014018576056853749,367549050,367554783
1.1400000000000001,1.79,-0.36,-0.7025286551060143,-0.20655639282625357,-0.6810188586903615,0.0011222502477731856,367554791,367560644
-0.08,0.32,-0.93,-0.7025286551060143,-0.20655639282625357,-0.6810188586903615,0.0011222502477731856,367560652,367566283
-0.07,1.32,0.74,-0.7022537536484834,-0.20981515400851541,-0.6802927265265691,0.0043672497117443,367566290,367572204
-0.07,1.32,0.74,-0.7017244360541007,-0.21303352396268277,-0.6798092054237075,0.007679696203813007,367572211,367580171
-0.19,0.77,-0.79,-0.7017244360541007,-0.21303352396268277,-0.6798092054237075,0.007679696203813007,367580178,367588614
0.04,-0.16,1.11,-0.7015069562407662,-0.2161126257246892,-0.6790147488800006,0.011058668619043073,367588622,367596059
-0.76,0.17,0.79,-0.7012752844108132,-0.2191915081701267,-0.6782057845492112,0.014316844087552485,367596067,367602968
-0.76,0.17,0.79,-0.7012752844108132,-0.2191915081701267,-0.6782057845492112,0.014316844087552485,367602975,367608839
1.18,0.5700000000000001,0.59,-0.7010105958800544,-0.22213582213462407,-0.677670691188163,0.0015017633045721064,367608847,367614479
1.18,0.5700000000000001,0.59,-0.7008065000605921,-0.22491931274282048,-0.6769495239595301,0.004571021667657543,367614487,367620573
-0.36,0.8,0.42,-0.7008065000605921,-0.22491931274282048,-0.6769495239595301,0.004571021667657543,367620581,367628604
-0.28,0.34,-0.52,-0.7004371349663757,-0.22769376048553622,-0.676377034793991,0.007581437814735796,367628611,367635899
2.09,0.6900000000000001,-2.14,-0.6998656278959681,-0.230864114129453,-0.6758512455734312,0.010721826050009903,367635907,367643017
2.09,0.6900000000000001,-2.14,-0.6997087479529422,-0.23367548895854695,-0.6749858310223119,0.014055668508784779,367643025,367651424
-0.36,0.23,-0.03,-0.6997087479529422,-0.23367548895854695,-0.6749858310223119,0.014055668508784779,367651432,367657141
1.86,0.65,-0.6900000000000001,-0.6993547855118358,-0.23676073467848607,-0.6744226869263295,0.001130422605891976,367657148,367662996
1.86,0.65,-0.6900000000000001,-0.6993547855118358,-0.23676073467848607,-0.6744226869263295,0.001130422605891976,367663003,367668860
-1.34,-0.73,0.58,-0.6990901571572539,-0.23990174681913495,-0.673572706486945,0.004462411324118046,367668868,367675460
0.89,1.12,-0.78,-0.6987929872794199,-0.2429736552529612,-0.6727533566103218,0.007421923717279166,367675468,367682445
0.89,1.12,-0.78,-0.699264622746326,-0.24511085074931974,-0.67144258986723,0.010700781876575336,367682453,367691100
1.48,0.9500000000000001,-1.56,-0.6995449607614819,-0.24756521348875496,-0.6701898998236295,0.013921606152929986,367691108,367699861
-3.6,-0.9400000000000001,5.17,-0.6995449607614819,-0.24756521348875496,-0.6701898998236295,0.013921606152929986,367699868,367705499
-3.6,-0.9400000000000001,5.17,-0.6981964262943446,-0.2513507134659641,-0.6703316118092791,0.00031521283354146484,367705507,367711468
-0.53,2.04,-0.85,-0.6981964262943446,-0.2513507134659641,-0.6703316118092791,0.00031521283354146484,367711475,367717107
5.64,0.54,-1.79,-0.6968608557411254,-0.25426430499200864,-0.6706142178064665,0.003343922621482992,367717114,367723152
5.64,0.54,-1.79,-0.6969175804179348,-0.2569319230516061,-0.669513192459125,0.006630093861002369,367723159,367731386
-2.95,-1.94,-2.39,-0.6967218357164336,-0.2598963277980856,-0.6685395448829918,0.009351970949213875,367731394,367739792
2.09,0.8300000000000001,-1.31,-0.6967218357164336,-0.2598963277980856,-0.6685395448829918,0.009351970949213875,367739800,367748066
0.15,0.52,-1.54,-0.6961432065121494,-0.2633303335680042,-0.667748557191296,0.012394991685717777,367748073,367754164
0.15,0.52,-1.54,-0.6959026081535025,-0.266525319048149,-0.6666614071560565,0.015696575427200418,367754172,367760111
-0.2,0.52,1.7,-0.6959026081535025,-0.266525319048149,-0.6666614071560565,0.015696575427200418,367760119,367765750
-0.2,0.52,1.7,-0.6955264818250536,-0.269898233974743,-0.665875689923603,0.002724324896928157,367765757,367771614
-2.0100000000000002,-0.45,0.35000000000000003,-0.6955264818250536,-0.269898233974743,-0.665875689923603,0.002724324896928157,367771621,367779372
0.21,0.02,-0.6900000000000001,-0.6949244961895548,-0.2732393150908652,-0.6651211826382188,0.005833840099410442,367779380,367787112
-1.05,0.55,-0.14,-0.6945743195156271,-0.2763319249973538,-0.6641739997926752,0.008948737120952432,367787120,367794416
-1.05,0.55,-0.14,-0.6939776839471034,-0.27949673312286083,-0.6634236092579906,0.012069177112123537,367794424,367802279
1.3,1.23,-0.43,-0.6939776839471034,-0.27949673312286083,-0.6634236092579906,0.012069177112123537,367802286,367807916
-1.03,0.06,-0.66,-0.6934324437437462,-0.28262490486346525,-0.6625948556990262,0.015577750661765801,367807924,367813711
-1.03,0.06,-0.66,-0.6934324437437462,-0.28262490486346525,-0.6625948556990262,0.015577750661765801,367813718,367819549
0.66,-0.86,-1.54,-0.6927361735738684,-0.2859931662103639,-0.6620554021264178,0.0026734282174127053,367819557,367827450
-0.24,0.05,0.35000000000000003,-0.6921841314573188,-0.2891958553649457,-0.6612193405986796,0.0059890747751277585,367827458,367834681
-0.24,0.05,0.35000000000000003,-0.6916917074973373,-0.2923395525694075,-0.66031494923727,0.009183441441970917,367834688,367842259
-0.79,0.65,1.41,-0.6909239062065929,-0.29567253635891894,-0.659582106691863,0.012383521600524671,367842267,367850942
0.44,-0.29,-0.54,-0.6909239062065929,-0.29567253635891894,-0.659582106691863,0.012383521600524671,367850950,367856637
-0.48,0.44,1.11,-0.6905080758712531,-0.2986153540546111,-0.6586276604512166,0.01539715454154071,367856645,367862545
-0.48,0.44,1.11,-0.6905080758712531,-0.2986153540546111,-0.6586276604512166,0.01539715454154071,367862553,367868183
0.31,0.09,-0.72,-0.6900380257293723,-0.3017517291121678,-0.6578673772038487,0.0019826841039587116,367868190,367873931
0.31,0.09,-0.72,-0.6896067508052307,-0.30425145145987764,-0.6571524091494011,0.004928963131161493,367873939,367881791
-0.13,0.13,-0.62,-0.6892709725433508,-0.3068338620106067,-0.6562746395019095,0.007880677600188896,367881798,367890195
0.86,1.26,0.63,-0.6892709725433508,-0.3068338620106067,-0.6562746395019095,0.007880677600188896,367890202,367898273
0.4,-0.98,-0.61,-0.6886376950495382,-0.309973547562114,-0.6554147905104993,0.011223954236161795,367898280,367904414
0.4,-0.98,-0.61,-0.6886376950495382,-0.309973547562114,-0.6554147905104993,0.011223954236161795,367904421,367910060
1.74,-0.31,-1.8800000000000001,-0.6879897266905011,-0.3129852480044973,-0.6546046335700214,0.014252866678358645,367910067,367915704
1.74,-0.31,-1.8800000000000001,-0.6879298175237777,-0.31578054690220686,-0.653478693334976,0.0008998427959761644,367915712,367921499
-2.13,0.46,1.16,-0.6872930339442043,-0.3187809588311834,-0.6526806916937146,0.0038601125186419785,367921507,367929893
0.78,0.48,-0.9400000000000001,-0.6872930339442043,-0.3187809588311834,-0.6526806916937146,0.0038601125186419785,367929901,367937844
-0.09,0.64,-0.53,-0.686762338903821,-0.32193594637848844,-0.6516643011410131,0.006955207483272005,367937852,367945057
-0.09,0.64,-0.53,-0.6862234008689774,-0.32480209447368547,-0.6507646569308022,0.010315270963832807,367945065,367952568
-1.42,0.63,0.79,-0.6862234008689774,-0.32480209447368547,-0.6507646569308022,0.010315270963832807,367952576,367958301
1.5,-0.59,-2.32,-0.6854810497936262,-0.3275413169854678,-0.6501130415752939,0.013617973967277576,367958308,367964034
1.5,-0.59,-2.32,-0.6854810497936262,-0.3275413169854678,-0.6501130415752939,0.013617973967277576,367964041,367969873
-3.81,1.19,2.67,-0.6854974562033256,-0.3297599471159097,-0.6491159452830322,0.00032310400462072286,367969881,367976435
2.61,1.74,0.63,-0.6850401524435106,-0.33204070845066475,-0.6484270527000708,0.003363747679609306,367976443,367983541
2.61,1.74,0.63,-0.6839726294257485,-0.3348298924468441,-0.6480933720919861,0.006735456250381389,367983549,367991821
-0.62,-1.18,-1.1500000000000001,-0.6832746073443857,-0.3377149093516373,-0.6472923123376362,0.009854610524371062,367991829,368000593
0.1,-1.28,-1.02,-0.6832746073443857,-0.3377149093516373,-0.6472923123376362,0.009854610524371062,368000600,368006237
0.1,-1.28,-1.02,-0.682802869281257,-0.3406550956047256,-0.6461998069987146,0.012655314087049247,368006245,368012098
-2.0300000000000002,-0.71,1.12,-0.682802869281257,-0.3406550956047256,-0.6461998069987146,0.012655314087049247,368012106,368017736
1.83,-0.21,-0.58,-0.6820429624720409,-0.3441715701494472,-0.6450862492402925,0.015068466554948434,368017743,368023511
1.83,-0.21,-0.58,-0.6813481833673517,-0.3479556753227162,-0.6439650530776353,0.0007151555359771821,368023519,368031764
-1.16,-0.44,-1.6600000000000001,-0.6809843009207712,-0.3512931626859587,-0.6425300947441828,0.002927985241872225,368031771,368040325
0.56,0.88,0.45,-0.6809843009207712,-0.3512931626859587,-0.6425300947441828,0.002927985241872225,368040333,368048379
-0.75,0.12,-0.8200000000000001,-0.6802520352038777,-0.35477820101385465,-0.6413749085509277,0.005274786028289689,368048387,368054400
-0.75,0.12,-0.8200000000000001,-0.6792129782132384,-0.3584101494285192,-0.6404324655909492,0.007625747860181259,368054408,368060377
1.8800000000000001,0.12,-2.0300000000000002,-0.6792129782132384,-0.3584101494285192,-0.6404324655909492,0.007625747860181259,368060385,368066020
1.8800000000000001,0.12,-2.0300000000000002,-0.6787051212573886,-0.3616629365869821,-0.6391074656822987,0.010046192682971727,368066028,368071952
-0.45,0.38,-2.27,-0.6787051212573886,-0.3616629365869821,-0.6391074656822987,0.010046192682971727,368071959,368079727
1.57,1.98,-0.31,-0.678468973146155,-0.3641138589281001,-0.6379175552131653,0.012733537032098192,368079734,368087335
-1.16,0.5,0.8,-0.6781906908424474,-0.3663262740567081,-0.6368702901278589,0.016083573695868318,368087343,368094283
-1.16,0.5,0.8,-0.6773193113826115,-0.3692028609846831,-0.6363331452225811,0.002815343681919023,368094290,368102558
1.34,-0.49,-0.98,-0.6773193113826115,-0.3692028609846831,-0.6363331452225811,0.002815343681919023,368102565,368108204
-0.14,-0.66,-1.17,-0.6764650701448985,-0.37182962281828325,-0.6356896777977596,0.00603108697095946,368108212,368114021
-0.14,-0.66,-1.17,-0.6764650701448985,-0.37182962281828325,-0.6356896777977596,0.00603108697095946,368114029,368119912
-0.48,-0.33,-0.18,-0.6759475180898129,-0.37456379121648337,-0.6345991409273134,0.008991631224226077,368119919,368126940
-1.24,-0.11,0.61,-0.6753789227425748,-0.377539380297581,-0.6333936000815664,0.011826851453805182,368126948,368134336
-1.24,-0.11,0.61,-0.6745080593986503,-0.38096057338244593,-0.6322156476781889,0.014535961104544293,368134344,368142322
0.33,-0.96,-0.85,-0.6738291556067828,-0.3843868096963453,-0.6310317204744388,0.0001316844157918278,368142329,368151025
1.41,-0.08,-1.2,-0.6738291556067828,-0.3843868096963453,-0.6310317204744388,0.0001316844157918278,368151032,368156665
1.41,-0.08,-1.2,-0.6734016187793924,-0.3876162200295201,-0.6295056142666122,0.0025704867507483904,368156673,368162609
-1.1,0.36,-0.09,-0.6734016187793924,-0.3876162200295201,-0.6295056142666122,0.0025704867507483904,368162616,368168268
0.19,1.53,-0.71,-0.6727509135735442,-0.3909041054156369,-0.6281515590991188,0.0050801039859922435,368168275,368174161
0.19,1.53,-0.71,-0.6719364413938567,-0.39406004220542107,-0.6270217869017872,0.007860064536112155,368174168,368181995
1.69,1.36,-0.63,-0.6711724015354289,-0.3968964901078152,-0.6259998798317732,0.011177388239996795,368182003,368190465
-1.53,0.52,1.35,-0.6711724015354289,-0.3968964901078152,-0.6259998798317732,0.011177388239996795,368190472,368198572
-0.85,-0.67,-0.35000000000000003,-0.6699757486743373,-0.40005174436509555,-0.6252091571843845,0.014304117990872478,368198580,368204855
-0.85,-0.67,-0.35000000000000003,-0.6691374272128463,-0.4031004281069163,-0.6243116516905112,0.0003315515941001121,368204863,368210688
-0.81,0.02,-0.91,-0.6691374272128463,-0.4031004281069163,-0.6243116516905112,0.0003315515941001121,368210695,368216326
-0.81,0.02,-0.91,-0.6686484921605621,-0.4059698988152608,-0.6229652585352923,0.003452802541444809,368216333,368222134
-0.36,0.3,1.51,-0.6686484921605621,-0.4059698988152608,-0.6229652585352923,0.003452802541444809,368222142,368230274
-0.5700000000000001,-0.4,0.8300000000000001,-0.6677697311355887,-0.4092117378673385,-0.6217624975687002,0.006382506390782209,368230529,368238527
0.32,-0.73,-0.52,-0.6665994080633685,-0.41280574426450434,-0.620606378510519,0.009185293890438826,368238534,368245771
0.32,-0.73,-0.52,-0.6657362653374435,-0.41639334622096724,-0.6190927475978567,0.011660879434896666,368245778,368253247
-0.55,-0.12,-1.6,-0.6657362653374435,-0.41639334622096724,-0.6190927475978567,0.011660879434896666,368253255,368258942
0.87,1.77,-1.6,-0.6651550058644157,-0.41984866759415385,-0.6173342759732309,0.013939375937597802,368258950,368264672
0.87,1.77,-1.6,-0.6646201847929969,-0.4228247774650112,-0.6158070274450936,0.01676074212629782,368264680,368270596
0.77,2.17,-0.46,-0.6646201847929969,-0.4228247774650112,-0.6158070274450936,0.01676074212629782,368270603,368277353
-0.56,-0.23,0.7000000000000001,-0.6639337193469906,-0.4260118737176086,-0.6145701202256851,0.003076863901869995,368277360,368284439
-0.56,-0.23,0.7000000000000001,-0.6625261210813529,-0.42931585484547835,-0.6137676277385279,0.006027835715459134,368284447,368292509
0.78,-1.27,-1.6400000000000001,-0.6613065594259734,-0.4325784440130759,-0.6127579943251414,0.008784339817968213,368292517,368301150
0.93,-0.04,-2.46,-0.6613065594259734,-0.4325784440130759,-0.6127579943251414,0.008784339817968213,368301157,368306799
0.93,-0.04,-2.46,-0.6608105323838244,-0.43566088142528736,-0.6110533324553198,0.011952471777697465,368306807,368312640
-0.25,-0.41000000000000003,-0.01,-0.6608105323838244,-0.43566088142528736,-0.6110533324553198,0.011952471777697465,368312647,368318306
-1.42,-0.53,1.06,-0.6600216254192802,-0.438893874985949,-0.6095300046909642,0.014723921357524945,368318313,368324128
-1.42,-0.53,1.06,-0.6583726503202568,-0.44288565999771135,-0.6083705160886356,0.016824405865283065,368324135,368332196
2.09,-1.02,-5.4,-0.6579053887807745,-0.44608208695519797,-0.6067686565652488,0.0017517194171326304,368332204,368340843
2.07,2.3000000000000003,-1.35,-0.6579053887807745,-0.44608208695519797,-0.6067686565652488,0.0017517194171326304,368340850,368348660
-2.45,1.68,0.18,-0.657499870610603,-0.44894860328814284,-0.6050753042212301,0.004790404393366117,368348668,368355108
-2.45,1.68,0.18,-0.6561919839346585,-0.4524832904046961,-0.6038290527619484,0.007837548407786284,368355115,368361083
1.11,1.48,1.02,-0.6561919839346585,-0.4524832904046961,-0.6038290527619484,0.007837548407786284,368361090,368366721
1.11,1.48,1.02,-0.6538689930270308,-0.45634818265282995,-0.6033891970218394,0.011097435046717691,368366728,368372573
0.89,-1.55,-4.67,-0.6538689930270308,-0.45634818265282995,-0.6033891970218394,0.011097435046717691,368372581,368380489
0.48,0.37,1.02,-0.6528245604747752,-0.4588679641829859,-0.6025395169917188,0.014367155280873286,368380496,368388204
-2.42,-1.17,0.64,-0.651851835776639,-0.46176798447747325,-0.6015475022721097,0.00033943544874851016,368388212,368395537
-2.42,-1.17,0.64,-0.6504604268452842,-0.46534297886245507,-0.6002890435873599,0.0031951964947458567,368395545,368403384
1.62,-0.77,-1.95,-0.6504604268452842,-0.46534297886245507,-0.6002890435873599,0.0031951964947458567,368403392,368409022
-2.22,0.5700000000000001,1.12,-0.6497134728361537,-0.4689727697368255,-0.5982483234790569,0.005990652306117092,368409029,368414887
-2.22,0.5700000000000001,1.12,-0.6497134728361537,-0.4689727697368255,-0.5982483234790569,0.005990652306117092,368414895,368420832
0.52,0.63,-0.27,-0.6487142464917862,-0.4727836517460365,-0.5962963358527,0.008724957817689255,368420840,368427923
0.3,0.8,-1.55,-0.6475235704835817,-0.4766161160205387,-0.5944903867304729,0.011466634324996493,368427931,368434788
0.3,0.8,-1.55,-0.6464800759666451,-0.4796817905316642,-0.5930909526368418,0.014560669999037264,368434795,368443089
-0.27,-4.46,-2.59,0.6535772668230673,0.46059185339105924,0.6005570637643788,0.0048077067907623065,141235999,141241803
