ACC_X,ACC_Y,ACC_Z,QUAT_W,QUAT_X,QUAT_Y,QUAT_Z,TIME1,TIME2
3.63,-0.43,-3.87,-0.718989485289399,-0.0497771347698658,-0.6932153124392353,0.005374709030365877,1698941853,1698950360
3.63,-0.43,-3.87,-0.7184358434897757,-0.04922717757823338,-0.6938222547006591,0.00610759027025228,1698950381,1698956251
-0.8300000000000001,-1.79,1.04,-0.7184358434897757,-0.04922717757823338,-0.6938222547006591,0.00610759027025228,1698956258,1698961962
-1.77,0.88,0.0,-0.7187459833362952,-0.04892212208126891,-0.6935214684554412,0.006229783336191546,1698961969,1698967789
-1.77,0.88,0.0,-0.71846600294177,-0.04831306710251977,-0.6938513808908022,0.006535395929165127,1698967796,1698975764
0.31,0.53,-0.66,-0.71846600294177,-0.04831306710251977,-0.6938513808908022,0.006535395929165127,1698975771,1698984260
-2.47,1.85,2.47,-0.7189105398967954,-0.04758124983683973,-0.6934402174552522,0.006657710182561657,1698984268,1698991539
1.94,-0.16,-1.6300000000000001,-0.7186585267693791,-0.04696994790801059,-0.6937381902980289,0.007146272958696019,1698991547,1698998458
1.94,-0.16,-1.6300000000000001,-0.7186585267693791,-0.04696994790801059,-0.6937381902980289,0.007146272958696019,1698998465,1699004347
0.61,-0.71,-1.09,-0.718491983102852,-0.046421313198858075,-0.6939375516476666,0.008062649134538507,1699004355,1699010110
0.61,-0.71,-1.09,-0.7187180682992926,-0.04580934403199367,-0.6937367060205122,0.008673235803390801,1699010117,1699016137
2.64,-0.02,-1.1500000000000001,-0.7187180682992926,-0.04580934403199367,-0.6937367060205122,0.008673235803390801,1699016144,1699024664
-1.4000000000000001,0.4,-0.14,-0.7186209852266131,-0.04593310504805891,-0.6938219950011983,0.00922326976363949,1699024672,1699032742
1.34,1.43,0.91,-0.7187862605884413,-0.04624128488701029,-0.6936192733051544,0.010017926976842388,1699032767,1699040893
-2.23,-0.15,0.4,-0.7187304468583386,-0.04764658750208262,-0.6935632749982642,0.011239707821004105,1699040901,1699048282
-2.23,-0.15,0.4,-0.7187304468583386,-0.04764658750208262,-0.6935632749982642,0.011239707821004105,1699048289,1699054180
-0.75,-0.16,0.32,-0.7185141098055134,-0.04844258536607483,-0.6937124835020754,0.01240081315171903,1699054188,1699059846
-0.75,-0.16,0.32,-0.7189828870562052,-0.048628632687291985,-0.6932023807822891,0.013012435631147226,1699059853,1699065565
-1.24,-0.07,1.62,-0.7189828870562052,-0.048628632687291985,-0.6932023807822891,0.013012435631147226,1699065572,1699072958
0.99,-1.41,-1.43,-0.7189383592635523,-0.04887412367529248,-0.6932183516794297,0.013684754629081895,1699072965,1699080151
0.99,-1.41,-1.43,-0.7189941734715783,-0.049729055757147145,-0.6930910780894771,0.014112299606757974,1699080158,1699087589
-1.47,0.5,1.23,-0.7193457967800655,-0.050705478668998244,-0.6926490568061471,0.014417461404679019,1699087597,1699096225
-0.2,3.19,1.57,-0.7193457967800655,-0.050705478668998244,-0.6926490568061471,0.014417461404679019,1699096232,1699101862
-0.2,3.19,1.57,-0.719315761506013,-0.05382344028255456,-0.6924345881526373,0.014906832495962898,1699101870,1699107515
-1.18,1.55,0.66,-0.719315761506013,-0.05382344028255456,-0.6924345881526373,0.014906832495962898,1699107522,1699113292
0.93,-0.9400000000000001,-2.25,-0.7185295282537589,-0.057560576206738746,-0.6931099956613987,0.0007943603935112566,1699113299,1699119577
0.93,-0.9400000000000001,-2.25,-0.7179511867178918,-0.06129075157698915,-0.6933860001436649,0.0023220823129866276,1699119585,1699127665
2.34,1.05,-1.31,-0.7186871699839184,-0.06361848162867849,-0.6924086425100165,0.003422319857066278,1699127673,1699136205
-0.84,4.55,2.94,-0.7186871699839184,-0.06361848162867849,-0.6924086425100165,0.003422319857066278,1699136213,1699144773
-1.96,3.5100000000000002,5.14,-0.7199707413933346,-0.0655796778875253,-0.6908785450518043,0.005317271180069619,1699144781,1699150413
-1.96,3.5100000000000002,5.14,-0.7198982453223126,-0.06864615177863267,-0.6906181859260837,0.008985738478592166,1699150421,1699156221
-1.17,1.67,2.84,-0.7198982453223126,-0.06864615177863267,-0.6906181859260837,0.008985738478592166,1699156228,1699161884
-1.17,1.67,2.84,-0.7182470500184284,-0.06976418524483075,-0.6921389806936757,0.014062894484058782,1699161892,1699167651
4.26,1.23,-4.87,-0.7190089240843889,-0.06978472119600951,-0.6914864661192668,0.0016513474779073238,1699167659,1699175615
-0.93,-0.64,0.59,-0.7190089240843889,-0.06978472119600951,-0.6914864661192668,0.0016513474779073238,1699175623,1699183850
-7.46,-5.55,7.8100000000000005,-0.7206551845660567,-0.07145375683982634,-0.6895776944336665,0.0057505591977257495,1699183857,1699191074
0.7000000000000001,-1.47,3.18,-0.7202956547798078,-0.07581093410399098,-0.6894573087036081,0.008688581632580081,1699191081,1699198399
0.7000000000000001,-1.47,3.18,-0.7202956547798078,-0.07581093410399098,-0.6894573087036081,0.008688581632580081,1699198406,1699204231
1.93,-2.46,-4.17,-0.7181021277998212,-0.08151628040134326,-0.6910524311501262,0.01144410242871711,1699204239,1699209970
1.93,-2.46,-4.17,-0.7199091718740197,-0.08568889989998534,-0.6886327234105251,0.013159366770354891,1699209978,1699215900
-1.6400000000000001,4.62,2.91,-0.7199091718740197,-0.08568889989998534,-0.6886327234105251,0.013159366770354891,1699215908,1699224278
-0.4,6.640000000000001,2.93,-0.7231456697543805,-0.0874017787904575,-0.6850145015565828,0.013281642855412659,1699224303,1699231319
2.15,1.3800000000000001,0.99,-0.7251530134334552,-0.08920533101760758,-0.6827850731011391,0.00024490138920413887,1699231327,1699238493
2.15,1.3800000000000001,0.99,-0.7262755290165761,-0.09021029211918513,-0.6814459744807692,0.004164494137206103,1699238500,1699247216
-2.13,-2.07,2.5500000000000003,-0.7262755290165761,-0.09021029211918513,-0.6814459744807692,0.004164494137206103,1699247223,1699252854
-0.25,-3.45,1.44,-0.7260869619650135,-0.09115138778401587,-0.6814913905222961,0.007657206635081979,1699252861,1699258731
-0.25,-3.45,1.44,-0.7260869619650135,-0.09115138778401587,-0.6814913905222961,0.007657206635081979,1699258738,1699264556
-1.09,-0.67,1.87,-0.7248003903198401,-0.09154212385982256,-0.6827669920816619,0.01066153249773034,1699264563,1699270501
-1.09,-0.67,1.87,-0.7228950221093855,-0.09272127572494915,-0.6845931071536067,0.012563028105495424,1699270508,1699278061
3.63,0.89,-1.57,-0.7216253958519405,-0.0944555113401716,-0.6856452627197661,0.015017261699118782,1699278069,1699286579
-0.23,-0.72,-1.6500000000000001,-0.7216253958519405,-0.0944555113401716,-0.6856452627197661,0.015017261699118782,1699286586,1699295239
1.21,-0.77,-1.16,-0.7211611522474511,-0.09639191661703879,-0.6860259307324618,0.0019008584065701034,1699295246,1699300876
1.21,-0.77,-1.16,-0.7212356159924683,-0.0978819764561207,-0.6857258012254922,0.0042930691428123115,1699300884,1699306772
-0.8300000000000001,-0.4,-0.49,-0.7212356159924683,-0.0978819764561207,-0.6857258012254922,0.0042930691428123115,1699306780,1699312504
-0.8300000000000001,-0.4,-0.49,-0.7215062256033788,-0.09949694762189087,-0.6851916799855247,0.006440924476139668,1699312511,1699318371
2.46,0.25,-1.2,-0.7220901517155134,-0.10123619256781351,-0.6842953064901964,0.00877380335587717,1699318379,1699326852
0.32,-2.05,0.97,-0.7220901517155134,-0.10123619256781351,-0.6842953064901964,0.00877380335587717,1699326877,1699335344
0.45,-0.87,0.52,-0.7220454409410584,-0.10377178655714174,-0.683936464328412,0.010616510392895046,1699335352,1699343192
-0.9,-0.79,-0.11,-0.7217099507302649,-0.10654719571968192,-0.6838415061686037,0.011968146984641692,1699343199,1699349710
-0.9,-0.79,-0.11,-0.7212966278347311,-0.1098732843012653,-0.6837310133138516,0.013074307014619839,1699349717,1699355531
2.58,0.41000000000000003,-1.95,-0.7212966278347311,-0.1098732843012653,-0.6837310133138516,0.013074307014619839,1699355539,1699361195
2.58,0.41000000000000003,-1.95,-0.7214447701715309,-0.11277178716857574,-0.6830765791098216,0.014365050733503932,1699361202,1699366927
-0.58,-0.25,-0.32,-0.7214447701715309,-0.11277178716857574,-0.6830765791098216,0.014365050733503932,1699366934,1699374780
1.46,-0.48,-0.63,-0.7217195086501332,-0.11585578160976617,-0.682241359431755,0.015656186704022457,1699374788,1699382069
-1.7,-0.7000000000000001,0.3,-0.7219537180545849,-0.11913833047175015,-0.6816063556216262,0.001289641721601419,1699382076,1699388943
-1.7,-0.7000000000000001,0.3,-0.7219606720661461,-0.12252756620773811,-0.6809953153440602,0.0022724410775369977,1699388951,1699397579
-3.54,3.08,1.77,-0.7219606720661461,-0.12252756620773811,-0.6809953153440602,0.0022724410775369977,1699397586,1699403223
1.73,3.5500000000000003,-0.42,-0.7219862627572292,-0.1256242582607448,-0.680398183127633,0.0035629373981042535,1699403230,1699409130
1.73,3.5500000000000003,-0.42,-0.7219862627572292,-0.1256242582607448,-0.680398183127633,0.0035629373981042535,1699409137,1699415065
-0.8300000000000001,0.96,-0.39,-0.721435951949509,-0.12804228614058735,-0.6805164881445036,0.005713979179978227,1699415072,1699421827
-0.71,-1.8900000000000001,-0.02,-0.7210406179851494,-0.12932140995999952,-0.6806584096468796,0.008973824075171069,1699421835,1699429228
-0.71,-1.8900000000000001,-0.02,-0.7201025541227836,-0.12960862227551467,-0.6815519819374194,0.011866444069817045,1699429248,1699437628
1.99,-2.49,-2.71,-0.71948079829663,-0.13155833711373668,-0.6817784791518332,0.014761103743476767,1699437635,1699446264
-0.63,-2.24,-0.49,-0.71948079829663,-0.13155833711373668,-0.6817784791518332,0.014761103743476767,1699446272,1699451902
-0.63,-2.24,-0.49,-0.7194688588377162,-0.13321218501527884,-0.6816279841105123,0.0015382469401302406,1699451910,1699457724
-0.45,-1.24,0.71,-0.7194688588377162,-0.13321218501527884,-0.6816279841105123,0.0015382469401302406,1699457731,1699463389
1.58,-0.77,-0.13,-0.7194224141360085,-0.13620342223312404,-0.6810786581255086,0.0034466297537528,1699463397,1699469205
1.58,-0.77,-0.13,-0.7192927385080217,-0.1399189041188475,-0.6804503150592787,0.00529389606432947,1699469213,1699477177
2.61,5.4,-3.91,-0.7192927385080217,-0.1399189041188475,-0.6804503150592787,0.00529389606432947,1699477185,1699485609
3.0,3.68,-4.5,-0.7191189509300805,-0.14339281136268472,-0.6798998780069245,0.0065262507533038125,1699485616,1699493430
-3.39,0.75,4.89,-0.7193383372800112,-0.14665164663615948,-0.6789336836918882,0.00973160863860277,1699493437,1699500028
-3.39,0.75,4.89,-0.7191900363642011,-0.14924841642310813,-0.6784579128069449,0.013618455833817877,1699500036,1699505869
-2.44,1.34,1.59,-0.7191900363642011,-0.14924841642310813,-0.6784579128069449,0.013618455833817877,1699505877,1699511602
-2.44,1.34,1.59,-0.7175359581354226,-0.1528062997816756,-0.67955021129704,0.0019732855500458513,1699511610,1699517345
1.74,-0.56,-2.39,-0.7175359581354226,-0.1528062997816756,-0.67955021129704,0.0019732855500458513,1699517352,1699525543
-2.86,-3.08,-0.53,-0.7171329636040799,-0.15509912857025607,-0.6794378293334249,0.005367392277490962,1699525551,1699533169
3.21,0.9500000000000001,-1.23,-0.7170437719672913,-0.1582458453541173,-0.6787783959456248,0.008146821991709626,1699533189,1699540462
3.21,0.9500000000000001,-1.23,-0.7169274288633584,-0.16231503707214684,-0.6779076101377605,0.010495837315429808,1699540469,1699548485
-0.23,2.5300000000000002,-1.33,-0.7169274288633584,-0.16231503707214684,-0.6779076101377605,0.010495837315429808,1699548493,1699554128
-0.31,-0.86,0.88,-0.7173309571049747,-0.16713428361684707,-0.6762576760239684,0.013341095809770498,1699554135,1699559986
-0.31,-0.86,0.88,-0.7173309571049747,-0.16713428361684707,-0.6762576760239684,0.013341095809770498,1699559993,1699565742
0.63,-2.85,-0.97,-0.7171241354125257,-0.17047305339318616,-0.6757729850426775,0.0016688805082001547,1699565749,1699572214
0.6900000000000001,-1.6,-0.61,-0.7165086600093384,-0.1735304073870364,-0.6756306844987073,0.005071095297839267,1699572222,1699579191
0.6900000000000001,-1.6,-0.61,-0.7161878048854022,-0.17700529628344297,-0.6750453644699916,0.007609804768564657,1699579199,1699587781
-0.11,-1.05,-0.68,-0.7161605143173277,-0.18066481214175784,-0.674073473462105,0.009964725849545397,1699587788,1699596482
-0.8200000000000001,2.2,0.71,-0.7161605143173277,-0.18066481214175784,-0.674073473462105,0.009964725849545397,1699596490,1699602122
-0.8200000000000001,2.2,0.71,-0.7159552612989467,-0.18395771696957283,-0.6733558303749931,0.012631226611172285,1699602129,1699607961
2.31,0.4,-1.85,-0.7159552612989467,-0.18395771696957283,-0.6733558303749931,0.012631226611172285,1699607972,1699613694
-1.61,-0.26,-1.26,-0.7155671374516769,-0.18714642214886293,-0.6728226716182721,0.015796867807997366,1699613701,1699619609
-1.61,-0.26,-1.26,-0.7155935104332234,-0.1901182689274685,-0.6721396772026543,0.0030374291416517627,1699619617,1699627642
-0.6,0.36,0.37,-0.7151257891890703,-0.193511922139627,-0.671647629759622,0.006140282144815087,1699627650,1699636393
-2.0300000000000002,-0.6,1.05,-0.7151257891890703,-0.193511922139627,-0.671647629759622,0.006140282144815087,1699636401,1699644264
0.1,0.41000000000000003,0.72,-0.7150154272662491,-0.19702950716632017,-0.6707070593554609,0.009184367578146578,1699644272,1699650724
0.1,0.41000000000000003,0.72,-0.7147085272823853,-0.20054804475042173,-0.6699422299867029,0.012231568054437487,1699650732,1699656535
1.55,0.02,-1.56,-0.7147085272823853,-0.20054804475042173,-0.6699422299867029,0.012231568054437487,1699656543,1699662199
1.55,0.02,-1.56,-0.7144143333974267,-0.20407400740961273,-0.6691266769585811,0.015344377421666467,1699662206,1699668093
-1.46,-0.44,0.56,-0.7144143333974267,-0.20407400740961273,-0.6691266769585811,0.015344377421666467,1699668100,1699675880
1.23,0.89,-0.64,-0.7143231693381568,-0.20756462121835395,-0.6683220253724239,0.0022378934902248407,1699675887,1699683408
-1.62,-0.34,0.8200000000000001,-0.713992949481327,-0.21096377043908196,-0.6675958466665995,0.004913366115768713,1699683415,1699690269
-1.62,-0.34,0.8200000000000001,-0.7136466282818517,-0.21438024367204211,-0.6668501280666482,0.007778673573005882,1699690277,1699698589
1.1300000000000001,-0.06,-0.5700000000000001,-0.7136466282818517,-0.21438024367204211,-0.6668501280666482,0.007778673573005882,1699698597,1699704231
-1.1500000000000001,-0.08,0.51,-0.7133748749809903,-0.21761763010024973,-0.6660531585643409,0.010585120777408428,1699704239,1699710194
-1.1500000000000001,-0.08,0.51,-0.7133748749809903,-0.21761763010024973,-0.6660531585643409,0.010585120777408428,1699710202,1699716071
1.08,0.15,-0.89,-0.7130896581066191,-0.22083540123944828,-0.6652471790792859,0.01345569722643747,1699716079,1699723224
0.49,-0.23,-1.08,-0.7126530987747394,-0.22423138526003653,-0.6647148348701055,0.0001870153338282206,1699723231,1699730491
0.49,-0.23,-1.08,-0.7122909708884851,-0.22759630059300195,-0.6639524855611142,0.0029314952392083013,1699730499,1699738903
-1.49,-0.15,0.67,-0.7117734754854742,-0.23091292058713322,-0.6633441710596322,0.005679209668494358,1699738911,1699747722
1.29,0.85,-1.1300000000000001,-0.7117734754854742,-0.23091292058713322,-0.6633441710596322,0.005679209668494358,1699747730,1699753360
-1.1,0.31,-0.32,-0.7114113713663819,-0.23411878785573786,-0.6625767775805225,0.008617869491622254,1699753367,1699759277
-1.1,0.31,-0.32,-0.7114113713663819,-0.23411878785573786,-0.6625767775805225,0.008617869491622254,1699759285,1699764925
0.4,0.6,-0.21,-0.7108440187838805,-0.23719795141557756,-0.6620422274099168,0.011747422251351048,1699764932,1699770650
0.4,0.6,-0.21,-0.7103192534233806,-0.24029550096003977,-0.661422276647229,0.015006744790634803,1699770658,1699778507
0.42,-0.12,-0.99,-0.7099562193400959,-0.24343144056703156,-0.6608318797912219,0.0021276784008429496,1699778515,1699786992
0.29,0.01,-0.18,-0.7099562193400959,-0.24343144056703156,-0.6608318797912219,0.0021276784008429496,1699787000,1699795312
-0.29,0.09,0.47000000000000003,-0.7096100711669473,-0.24643152678862745,-0.660073263621889,0.005323171480821686,1699795319,1699801270
-0.29,0.09,0.47000000000000003,-0.7091018057984839,-0.2497366943090551,-0.6593424744857136,0.008585678072858356,1699801278,1699807136
0.8,-0.42,-0.5,-0.7091018057984839,-0.2497366943090551,-0.6593424744857136,0.008585678072858356,1699807144,1699812862
0.8,-0.42,-0.5,-0.7086297547579751,-0.2529342243507313,-0.6585822687594917,0.011727919651273682,1699812870,1699818782
-0.7000000000000001,-0.72,0.3,-0.7079489469910824,-0.25635772081008523,-0.6579325201892126,0.014622117245715998,1699818790,1699827024
1.04,0.05,-0.06,-0.7079489469910824,-0.25635772081008523,-0.6579325201892126,0.014622117245715998,1699827031,1699835382
0.37,-0.11,-1.06,-0.7074783716047812,-0.2595259793564414,-0.6573569457755363,0.0015702201074324867,1699835389,1699843003
-0.33,0.54,-0.47000000000000003,-0.7070334974485372,-0.2625370182987412,-0.656625384287036,0.00458826965185734,1699843011,1699850167
-0.33,0.54,-0.47000000000000003,-0.7070334974485372,-0.2625370182987412,-0.656625384287036,0.00458826965185734,1699850174,1699855990
-0.19,-0.09,-0.91,-0.7063389728258556,-0.26582852428195436,-0.6560164883427596,0.007925791306087612,1699855998,1699861653
-0.19,-0.09,-0.91,-0.7058003243723202,-0.26917607804281496,-0.65518817125108,0.010890425982555423,1699861660,1699867377
0.37,-0.4,-1.16,-0.7058003243723202,-0.26917607804281496,-0.65518817125108,0.010890425982555423,1699867385,1699874452
2.0300000000000002,-0.04,-2.45,-0.7059966651500772,-0.27148872473205143,-0.6539665754450483,0.013794902718403541,1699874459,1699881719
2.0300000000000002,-0.04,-2.45,-0.706663689173611,-0.27405362269941,-0.6523194925398655,0.0005673988047606833,1699881726,1699889331
0.0,-1.11,3.68,-0.7052996577518554,-0.27799441836261757,-0.6521230535585978,0.002649368180447002,1699889338,1699898092
-5.74,-1.18,5.93,-0.7052996577518554,-0.27799441836261757,-0.6521230535585978,0.002649368180447002,1699898100,1699903731
5.99,-0.28,-1.56,-0.7037941999196188,-0.28093686667046136,-0.6524679813571277,0.005808132973861224,1699903738,1699909653
5.99,-0.28,-1.56,-0.7037941999196188,-0.28093686667046136,-0.6524679813571277,0.005808132973861224,1699909660,1699915295
-3.46,-1.11,-5.51,-0.7036878115156208,-0.28350967139001443,-0.6514340789015041,0.008909040264317368,1699915302,1699921464
-3.46,-1.11,-5.51,-0.7037989868568139,-0.28642614414350615,-0.6499913381446453,0.011760543666819457,1699921472,1699929199
0.9,2.77,-1.55,-0.7035879889374642,-0.28935902540452335,-0.6488426790129426,0.01544260765500956,1699929206,1699937646
0.93,0.31,-0.07,-0.7035879889374642,-0.28935902540452335,-0.6488426790129426,0.01544260765500956,1699937653,1699946445
-1.3900000000000001,0.05,2.84,-0.7026761181958115,-0.2931195815806004,-0.6483219792297092,0.002407292867962571,1699946453,1699952083
-1.3900000000000001,0.05,2.84,-0.7012483138958747,-0.2970746315762884,-0.6480475420938457,0.005643466853850516,1699952091,1699957920
2.44,-2.32,-3.7800000000000002,-0.7012483138958747,-0.2970746315762884,-0.6480475420938457,0.005643466853850516,1699957928,1699963585
2.44,-2.32,-3.7800000000000002,-0.7009191466070953,-0.3002307363149088,-0.6469144210514015,0.008694062751034138,1699963593,1699969442
1.0,-0.61,1.01,-0.7005169572656285,-0.30338798774777037,-0.6458347178997439,0.011368316894881913,1699969450,1699977386
-1.9000000000000001,-0.24,1.1,-0.7005169572656285,-0.30338798774777037,-0.6458347178997439,0.011368316894881913,1699977394,1699985652
1.9100000000000001,0.31,-2.2600000000000002,-0.6997628124297839,-0.30628128910982094,-0.6452308875374356,0.014173215910249028,1699985659,1699992880
-0.99,0.42,-0.97,-0.6993930060596234,-0.30913768911522876,-0.6444238841424474,0.0010815683710555441,1699992887,1700000316
-0.99,0.42,-0.97,-0.6993930060596234,-0.30913768911522876,-0.6444238841424474,0.0010815683710555441,1700000324,1700006126
-0.99,0.42,-0.97,-0.6993930060596234,-0.30913768911522876,-0.6444238841424474,0.0010815683710555441,1700006134,1700011850
0.17,0.44,0.34,-0.6980554917588049,-0.3151480550867986,-0.6429173308263453,0.0075854810993788505,1700011857,1700017690
0.74,-0.46,-0.79,-0.6980554917588049,-0.3151480550867986,-0.6429173308263453,0.0075854810993788505,1700017697,1700025788
0.17,-0.74,-0.53,-0.69727672390423,-0.318457918100843,-0.6420841574531723,0.010847093984600943,1700025796,1700033172
-0.66,0.1,0.86,-0.6965753381287956,-0.3217517698260633,-0.6411405353878225,0.014050295625592284,1700033180,1700040271
-0.66,0.1,0.86,-0.696040901076505,-0.32500660737260756,-0.6402323313998161,0.0005753460791411227,1700040279,1700049152
1.08,-1.46,-2.3000000000000003,-0.696040901076505,-0.32500660737260756,-0.6402323313998161,0.0005753460791411227,1700049159,1700054789
0.41000000000000003,0.37,-0.15,-0.695558892038878,-0.32794289988033576,-0.6392486965472302,0.0035193872182279935,1700054797,1700060627
0.41000000000000003,0.37,-0.15,-0.695558892038878,-0.32794289988033576,-0.6392486965472302,0.0035193872182279935,1700060635,1700066441
-0.01,-0.05,-0.19,-0.6949254475431451,-0.33081013240187507,-0.6384347337428636,0.006661036547878994,1700066449,1700072199
-0.01,-0.05,-0.19,-0.6943621872002186,-0.33371700686769507,-0.63749244943045,0.00987366360377042,1700072207,1700079690
1.0,0.07,-0.41000000000000003,-0.6937643877068328,-0.3369346008751963,-0.6363892385292279,0.013220671958150559,1700079698,1700088248
-1.42,0.14,0.8200000000000001,-0.6937643877068328,-0.3369346008751963,-0.6363892385292279,0.013220671958150559,1700088255,1700097065
1.62,-1.04,-1.8,-0.6928865677519103,-0.3401151126266679,-0.6355796768446591,0.016382575315413733,1700097072,1700102705
1.62,-1.04,-1.8,-0.6925911727013909,-0.3430796169380776,-0.6345107651095117,0.003151650024365542,1700102713,1700108658
-1.4000000000000001,0.49,1.1300000000000001,-0.6925911727013909,-0.3430796169380776,-0.6345107651095117,0.003151650024365542,1700108666,1700114300
-1.4000000000000001,0.49,1.1300000000000001,-0.6919387221007824,-0.3461303219515964,-0.633542107143547,0.006245282966760575,1700114308,1700120133
-0.41000000000000003,-0.76,0.04,-0.6912217060192125,-0.3492522540716189,-0.6325725915690975,0.009345188566227116,1700120141,1700128134
0.9500000000000001,0.43,-0.77,-0.6912217060192125,-0.3492522540716189,-0.6325725915690975,0.009345188566227116,1700128141,1700136656
1.04,-0.43,-0.36,-0.6904661478183335,-0.35223387542662205,-0.631685224478225,0.012711132709112392,1700136663,1700144075
1.24,-0.65,-1.86,-0.6895533036934511,-0.3550463198204291,-0.631035572975367,0.015888920261201665,1700144083,1700151333
1.24,-0.65,-1.86,-0.6895533036934511,-0.3550463198204291,-0.631035572975367,0.015888920261201665,1700151341,1700157033
-3.73,-0.37,0.41000000000000003,-0.6892344845807908,-0.35761556574702325,-0.6301276804048814,0.0024573944843375916,1700157041,1700162699
-3.73,-0.37,0.41000000000000003,-0.6882789673423421,-0.360517830053565,-0.6294981826972286,0.005567343039074625,1700162707,1700168586
1.37,1.17,1.45,-0.6882789673423421,-0.360517830053565,-0.6294981826972286,0.005567343039074625,1700168593,1700176583
-0.34,-1.86,-1.44,-0.6872069333906005,-0.36379256032457236,-0.6287460587401882,0.008944124946515407,1700176590,1700183684
0.3,-1.1500000000000001,-0.05,-0.6864834216210566,-0.3670846989445174,-0.6275733992383027,0.011872834907537412,1700183692,1700190672
0.3,-1.1500000000000001,-0.05,-0.6857591813357461,-0.3705437394603946,-0.6262747675001832,0.014546406876818855,1700190680,1700199343
-0.77,-0.81,0.52,-0.6857591813357461,-0.3705437394603946,-0.6262747675001832,0.014546406876818855,1700199351,1700204981
0.45,-1.1400000000000001,-0.53,-0.6848836960320096,-0.37455389678591866,-0.6250148763617855,0.00032502073653758995,1700204989,1700210931
0.45,-1.1400000000000001,-0.53,-0.6848836960320096,-0.37455389678591866,-0.6250148763617855,0.00032502073653758995,1700210939,1700216771
0.2,0.3,0.41000000000000003,-0.6842318513678828,-0.37819147589631097,-0.6235312411818759,0.0026023841451664267,1700216778,1700223398
-0.32,0.78,0.29,-0.6835158178087826,-0.3816698155834524,-0.622183001998545,0.004752967679561929,1700223406,1700230506
-0.32,0.78,0.29,-0.6825450125591034,-0.38512898837352505,-0.621093805107964,0.007103055792337433,1700230514,1700239051
-0.21,0.17,-0.81,-0.6825450125591034,-0.38512898837352505,-0.621093805107964,0.007103055792337433,1700239059,1700247502
1.6600000000000001,0.04,-0.9500000000000001,-0.6817329449980064,-0.3883222870130258,-0.6199588469295813,0.009849935383666537,1700247509,1700253437
1.6600000000000001,0.04,-0.9500000000000001,-0.6810285948839052,-0.3913139375972429,-0.6188023004520392,0.01253667212058579,1700253445,1700259296
-0.08,0.28,-0.44,-0.6810285948839052,-0.3913139375972429,-0.6188023004520392,0.01253667212058579,1700259303,1700264938
1.0,0.41000000000000003,-0.64,-0.6803205097756362,-0.3943754400985867,-0.617575991629358,0.015228617425086294,1700264945,1700270696
1.0,0.41000000000000003,-0.64,-0.679750203225705,-0.397169922343006,-0.6165982877435826,0.0015051751876568032,1700270703,1700278642
-0.63,-0.2,-0.89,-0.679750203225705,-0.397169922343006,-0.6165982877435826,0.0015051751876568032,1700278650,1700287148
-0.3,-0.04,0.12,-0.679115084448886,-0.3999342475133623,-0.6154951378015278,0.004586401921024798,1700287156,1700294566
-1.75,-0.71,0.21,-0.6782510858760487,-0.40279153373430104,-0.6145522944662756,0.007740944785121747,1700294574,1700301474
-1.75,-0.71,0.21,-0.6782510858760487,-0.40279153373430104,-0.6145522944662756,0.007740944785121747,1700301482,1700307370
1.6300000000000001,-0.76,-1.2,-0.677112631348511,-0.40607055282520305,-0.6136045892036021,0.010705078458759194,1700307377,1700313106
1.6300000000000001,-0.76,-1.2,-0.676379170867594,-0.40929914830861985,-0.6122063244821783,0.01374193124441792,1700313113,1700318920
0.28,-1.06,-0.91,-0.676379170867594,-0.40929914830861985,-0.6122063244821783,0.01374193124441792,1700318927,1700327104
-0.43,-0.8200000000000001,0.77,-0.675695447871288,-0.41261784168177523,-0.6106665074371527,0.016388872639777,1700327112,1700334464
0.62,-0.17,-0.41000000000000003,-0.6747814963913938,-0.416360148002853,-0.6093525318452896,0.0019108156816082826,1700334472,1700341591
0.62,-0.17,-0.41000000000000003,-0.6738334828239579,-0.4199175673035275,-0.6079472491603449,0.004220939894365597,1700341598,1700349975
0.0,-0.49,-0.8200000000000001,-0.6738334828239579,-0.4199175673035275,-0.6079472491603449,0.004220939894365597,1700349982,1700355908
-0.35000000000000003,0.28,-0.05,-0.6730437249980749,-0.42323524482223224,-0.6064985484607468,0.006601704021560322,1700355915,1700361746
-0.35000000000000003,0.28,-0.05,-0.6730437249980749,-0.42323524482223224,-0.6064985484607468,0.006601704021560322,1700361754,1700367505
-0.03,0.63,-1.23,-0.672131270811598,-0.4265003659244964,-0.6051890844649114,0.009119468623734197,1700367513,1700373893
0.99,0.7000000000000001,-2.36,-0.6711599818481772,-0.42962177645362865,-0.604010905300528,0.011842053893624811,1700373900,1700381090
0.99,0.7000000000000001,-2.36,-0.670515537813866,-0.43210559703219203,-0.6028810422489621,0.015103491663857087,1700381098,1700389561
2.13,1.05,-0.84,-0.669912608730812,-0.4347531113712639,-0.6018331379941031,0.0019242735393416746,1700389568,1700398381
-2.44,0.34,1.62,-0.669912608730812,-0.4347531113712639,-0.6018331379941031,0.0019242735393416746,1700398389,1700404020
-2.44,0.34,1.62,-0.6683312438069895,-0.43808986780865794,-0.6011525912429742,0.005116475022185145,1700404028,1700409993
1.8900000000000001,-1.77,-0.42,-0.6683312438069895,-0.43808986780865794,-0.6011525912429742,0.005116475022185145,1700410000,1700415635
0.66,-2.09,-2.74,-0.666657786034534,-0.4417996564270372,-0.6002647643338589,0.007916602787956247,1700415642,1700421395
0.66,-2.09,-2.74,-0.6659137712557214,-0.4450525924715673,-0.5986430262098843,0.010656751690429627,1700421402,1700429584
0.18,-1.35,-0.29,-0.6652482189384263,-0.4485658465642145,-0.5967099177689833,0.013067613841644775,1700429591,1700438174
-0.71,-0.05,-0.6900000000000001,-0.6652482189384263,-0.4485658465642145,-0.5967099177689833,0.013067613841644775,1700438181,1700446055
0.25,1.04,-0.13,-0.6644665737854493,-0.4517438243475561,-0.5951164210819755,0.015752296475476248,1700446062,1700452515
0.25,1.04,-0.13,-0.6637840133256956,-0.45466764776191515,-0.5938557146109531,0.0018718856252512312,1700452523,1700458694
-1.02,0.27,1.6600000000000001,-0.6637840133256956,-0.45466764776191515,-0.5938557146109531,0.0018718856252512312,1700458701,1700464337
-1.02,0.27,1.6600000000000001,-0.6625195636894242,-0.45781259938081964,-0.5928335107642256,0.004886726093697885,1700464345,1700470152
0.24,-0.17,1.1,-0.6625195636894242,-0.45781259938081964,-0.5928335107642256,0.004886726093697885,1700470159,1700477775
-0.13,-1.17,-0.24,-0.6609614803047349,-0.46101744869039313,-0.5920568659904395,0.007842256687521953,1700477783,1700485575
-0.79,-3.02,-2.87,-0.6595470430157433,-0.4646427372339464,-0.5907533400452399,0.010738529244176141,1700485582,1700492712
-0.79,-3.02,-2.87,-0.6586369614986191,-0.4683819762921636,-0.588769311564045,0.012898643064844437,1700492719,1700500618
1.75,0.23,-2.19,-0.6586369614986191,-0.4683819762921636,-0.588769311564045,0.012898643064844437,1700500625,1700506255
0.12,0.9,-1.33,-0.6580228131867103,-0.4715437880495874,-0.5868743066612592,0.015198074172733422,1700506263,1700512154
0.12,0.9,-1.33,-0.6580228131867103,-0.4715437880495874,-0.5868743066612592,0.015198074172733422,1700512161,1700517844
-1.54,1.46,0.1,-0.6573202236140269,-0.47475746096495125,-0.5852648359214739,0.0007407563220729736,1700517852,1700524852
-0.9,-0.26,-0.7000000000000001,-0.6556003408080403,-0.47851676798743614,-0.5841195383747424,0.0037763442794949867,1700524859,1700532131
-0.9,-0.26,-0.7000000000000001,-0.6536511018568045,-0.4823200918959911,-0.5831467367014678,0.0068883575151765745,1700532139,1700540227
1.0,0.75,0.39,-0.6519597208945532,-0.4855709966077391,-0.5822928973110497,0.010213291612727205,1700540235,1700548779
-0.05,-1.7,-0.85,-0.6519597208945532,-0.4855709966077391,-0.5822928973110497,0.010213291612727205,1700548786,1700554416
-0.05,-1.7,-0.85,-0.650663960107537,-0.4885737189522865,-0.5811676845432716,0.013276091628261218,1700554424,1700560585
0.81,-0.71,0.0,-0.650663960107537,-0.4885737189522865,-0.5811676845432716,0.013276091628261218,1700560593,1700566234
0.18,-2.25,-0.23,-0.6492271823085378,-0.4921265497490797,-0.5796986208346844,0.016279858296316903,1700566241,1700572094
0.18,-2.25,-0.23,-0.6479311310660537,-0.49612003158679696,-0.5779689688899309,0.0014264130152413384,1700572102,1700579972
1.1400000000000001,-0.8300000000000001,-0.68,-0.6470266102640759,-0.4999256476824913,-0.5756863838433259,0.004012462687153719,1700579980,1700588545
-1.51,0.09,0.18,-0.6470266102640759,-0.4999256476824913,-0.5756863838433259,0.004012462687153719,1700588553,1700596502
0.03,0.71,-1.1500000000000001,-0.6456727699248325,-0.5037636734764723,-0.5738329922122509,0.0066732684510265325,1700596510,1700602799
0.03,0.71,-1.1500000000000001,-0.6443374739176757,-0.5072052207640673,-0.572259506944347,0.009546750592493873,1700602807,1700608739
0.23,0.55,-0.31,-0.6443374739176757,-0.5072052207640673,-0.572259506944347,0.009546750592493873,1700608746,1700614492
1.75,0.43,-0.9500000000000001,0.6450149354917222,0.4981518783220233,0.5792969455411905,0.014679509647688545,1687205842,1687213027
