ACC_X,ACC_Y,ACC_Z,QUAT_W,QUAT_X,QUAT_Y,QUAT_Z,TIME1,TIME2
0.53,-1.31,-2.02,-0.711821255859473,-0.030704578655116617,-0.7016881344742854,0.0012208579982153724,1099186062,1099193698
-2.8000000000000003,0.84,2.38,-0.7119504607390852,-0.030338624623795364,-0.7015730639864791,0.0011598266958795008,1099193719,1099201684
2.22,1.02,-0.58,-0.7115401665510582,-0.029667855262852975,-0.7020171512815004,0.0015261242419163054,1099201696,1099209371
2.22,1.02,-0.58,-0.7116998860896093,-0.029239578474733928,-0.7018719693162645,0.00201441772372906,1099209379,1099217589
0.05,-0.55,-0.17,-0.7114030692595588,-0.028873661554811334,-0.7021854732875153,0.0027469656870327906,1099217596,1099226235
1.84,-0.7000000000000001,-1.6,-0.7114030692595588,-0.028873661554811334,-0.7021854732875153,0.0027469656870327906,1099226243,1099231878
1.84,-0.7000000000000001,-1.6,-0.7114687657568828,-0.02856862997633815,-0.7021290213415414,0.0032963803818851713,1099231886,1099237711
-1.22,-0.64,-0.13,-0.7114687657568828,-0.02856862997633815,-0.7021290213415414,0.0032963803818851713,1099237718,1099243349
-0.04,0.52,1.12,-0.7114170585948864,-0.028080645868684376,-0.7021992813640792,0.0036626929393936145,1099243356,1099249118
-0.04,0.52,1.12,-0.7112402690840272,-0.027714623823203874,-0.7023886821801405,0.004395270738481671,1099249126,1099257058
0.25,0.24,-0.45,-0.711271659332397,-0.02753270263144031,-0.7023586336468309,0.005189090296391189,1099257066,1099265908
-0.25,-0.02,-0.02,-0.711271659332397,-0.02753270263144031,-0.7023586336468309,0.005189090296391189,1099265915,1099273936
0.55,-0.22,-0.46,-0.7113303586377634,-0.02747156379908973,-0.7022952665438406,0.005982696116246208,1099273943,1099280612
0.55,-0.22,-0.46,-0.7114501424015053,-0.027349379079790147,-0.7021708887851479,0.006837344769947537,1099280637,1099286368
-0.3,-0.19,-0.07,-0.7114501424015053,-0.027349379079790147,-0.7021708887851479,0.006837344769947537,1099286375,1099292005
-0.3,-0.19,-0.07,-0.7115635784646351,-0.027595601670185765,-0.702039432755456,0.007509422578391259,1099292013,1099297935
-0.2,0.28,0.54,-0.7116257367718362,-0.028816690782112787,-0.7019184193261667,0.008303114293151143,1099297943,1099306012
-1.45,-0.28,-0.54,-0.7116257367718362,-0.028816690782112787,-0.7019184193261667,0.008303114293151143,1099306020,1099314057
1.49,0.04,-1.12,-0.7116696782622691,-0.029365455541232863,-0.7018404925197775,0.009157626468159936,1099314065,1099321126
1.49,0.04,-1.12,-0.7119062981978358,-0.029365142735027785,-0.7015888156152584,0.010012231618595753,1099321133,1099328641
-0.28,0.87,0.99,-0.7119062981978358,-0.029365142735027785,-0.7015888156152584,0.010012231618595753,1099328648,1099334278
1.04,-0.9500000000000001,-0.76,-0.7119575614298361,-0.029550421038679414,-0.7015172267240216,0.01080666223935177,1099334286,1099339979
1.04,-0.9500000000000001,-0.76,-0.7122705461670411,-0.03028340398584368,-0.7011584906722356,0.01141733174466284,1099339987,1099345808
-1.78,-0.34,1.1300000000000001,-0.7122705461670411,-0.03028340398584368,-0.7011584906722356,0.01141733174466284,1099345816,1099352425
0.2,1.71,1.44,-0.7122982972019068,-0.03156408842490665,-0.7010646564472012,0.011966269499577761,1099352432,1099359671
0.2,1.71,1.44,-0.712150745273195,-0.03486266079826769,-0.7010386537402971,0.013065865868352514,1099359679,1099368491
-0.44,2.87,2.32,-0.7115002122193501,-0.03816078543182819,-0.7014868221220384,0.015081142402658499,1099368503,1099377339
2.16,-0.67,-2.14,-0.7115002122193501,-0.03816078543182819,-0.7014868221220384,0.015081142402658499,1099377347,1099382977
2.16,-0.67,-2.14,-0.711789195207576,-0.04048697978917492,-0.7012247193349858,0.0009159950178546361,1099382984,1099388836
0.84,0.32,-1.27,-0.711789195207576,-0.04048697978917492,-0.7012247193349858,0.0009159950178546361,1099388843,1099394473
-1.35,1.57,0.43,-0.7126746580914821,-0.0422597140873441,-0.7002165920888547,0.0023816890887376012,1099394481,1099400356
-1.35,1.57,0.43,-0.7132126024808931,-0.04525522678869171,-0.6994711368567965,0.0044583421802624765,1099400363,1099408346
2.27,1.6,1.86,-0.7127502227939136,-0.0469710276226343,-0.6998011228511328,0.00769616317353956,1099408353,1099416788
-0.8300000000000001,0.68,-1.1300000000000001,-0.7127502227939136,-0.0469710276226343,-0.6998011228511328,0.00769616317353956,1099416795,1099425552
1.18,-1.78,-3.4,-0.7124630247831922,-0.0485034417969523,-0.6999400958557676,0.01130117976377352,1099425559,1099431189
1.18,-1.78,-3.4,-0.7132620227143672,-0.049057764817099524,-0.6990273288135153,0.01454015943520509,1099431197,1099437002
2.64,0.11,-3.22,-0.7132620227143672,-0.049057764817099524,-0.6990273288135153,0.01454015943520509,1099437009,1099442640
2.64,0.11,-3.22,-0.7145471399186046,-0.050720441814114586,-0.6977421742573017,0.0023832496756029747,1099442647,1099448700
-2.93,-2.79,0.66,-0.7142591386736824,-0.05500412636316541,-0.6976967850687736,0.00525594985248025,1099448725,1099456559
0.48,0.26,1.73,-0.7142591386736824,-0.05500412636316541,-0.6976967850687736,0.00525594985248025,1099456567,1099464856
0.23,-4.17,-4.45,-0.7133978894008812,-0.06161469218713806,-0.6979942163540968,0.00843534476371533,1099464863,1099472971
3.49,0.2,-0.5700000000000001,-0.7142752990700725,-0.06663472064244941,-0.6966079281841386,0.010392571109372844,1099472978,1099479860
3.49,0.2,-0.5700000000000001,-0.7142752990700725,-0.06663472064244941,-0.6966079281841386,0.010392571109372844,1099479867,1099485680
-2.09,4.93,3.5500000000000003,-0.7164516077995982,-0.06883902298680328,-0.6941370044335385,0.011493549131011558,1099485687,1099491320
-2.09,4.93,3.5500000000000003,-0.7179299147678908,-0.07068020622310354,-0.692372539161267,0.014184954882145348,1099491328,1099497232
2.84,1.37,0.68,-0.7179299147678908,-0.07068020622310354,-0.692372539161267,0.014184954882145348,1099497240,1099505603
-5.47,0.34,4.44,-0.7189987907784805,-0.07058482386715155,-0.6914132140331726,0.0025077797041189024,1099505611,1099512963
-1.8,-2.73,2.47,-0.7187957874945369,-0.07206923463005911,-0.691448633097562,0.006117931632432861,1099512970,1099520007
-1.8,-2.73,2.47,-0.7171530720343853,-0.07220483148469067,-0.6931051917178739,0.00911738973832111,1099520014,1099528500
-0.35000000000000003,1.1400000000000001,0.63,-0.7171530720343853,-0.07220483148469067,-0.6931051917178739,0.00911738973832111,1099528507,1099534142
2.49,0.67,-3.11,-0.7153703007770045,-0.07319555819396846,-0.6948070001472608,0.011444456005244233,1099534149,1099539818
2.49,0.67,-3.11,-0.7153703007770045,-0.07319555819396846,-0.6948070001472608,0.011444456005244233,1099539826,1099545636
1.51,-1.51,-3.17,-0.7149371881902493,-0.07516634136109814,-0.6949826057116516,0.014629279792591574,1099545643,1099551558
1.51,-1.51,-3.17,-0.7155146835629554,-0.07653545733815628,-0.6943908973376243,0.0015307091467631256,1099551566,1099559002
-1.35,-0.33,0.75,-0.7158392738680952,-0.07826525725069942,-0.6938539629502539,0.003919386904573367,1099559009,1099567564
2.36,0.65,-1.18,-0.7158392738680952,-0.07826525725069942,-0.6938539629502539,0.003919386904573367,1099567571,1099576329
-1.05,-1.03,0.75,-0.716602748476376,-0.08011936020233351,-0.6928364550830232,0.006247840015778301,1099576337,1099581971
-1.05,-1.03,0.75,-0.7170887529167266,-0.08246061182622076,-0.6920319993974664,0.008699410757298178,1099581979,1099587770
-1.3900000000000001,-2.23,1.36,-0.7170887529167266,-0.08246061182622076,-0.6920319993974664,0.008699410757298178,1099587778,1099593408
1.43,-0.74,0.54,-0.7170010289257288,-0.08529015828615745,-0.6917571027663201,0.010354911458592391,1099593415,1099599383
1.43,-0.74,0.54,-0.7170691863724513,-0.08842341787176955,-0.6912713631402857,0.011704000563761596,1099599391,1099607612
2.17,-0.23,-1.3800000000000001,-0.7170691863724513,-0.08842341787176955,-0.6912713631402857,0.011704000563761596,1099607620,1099616222
-0.88,-0.44,0.03,-0.7175238647757411,-0.0914983882909277,-0.6903746444054256,0.013053688349609913,1099616230,1099624064
-0.43,-1.09,0.67,-0.7180525054960977,-0.09469834579526,-0.6893671813328732,0.014342662081612194,1099624071,1099630652
-0.43,-1.09,0.67,-0.7180525054960977,-0.09469834579526,-0.6893671813328732,0.014342662081612194,1099630659,1099636511
0.81,-0.39,0.04,-0.718335391871749,-0.09831981982782535,-0.6885452220236672,0.01526286479870855,1099636518,1099642148
0.81,-0.39,0.04,-0.7187527116950255,-0.10207465583181657,-0.6877318252980891,0.000490448796789509,1099642156,1099647931
-1.78,1.62,1.35,-0.7187527116950255,-0.10207465583181657,-0.6877318252980891,0.000490448796789509,1099647938,1099655899
-0.36,4.64,1.02,-0.7187138415042873,-0.10545877899568112,-0.6872601475363893,0.0015328310900535047,1099655906,1099663012
2.54,1.97,-1.06,-0.7182116146297853,-0.10812117467272749,-0.687363656115672,0.0036183490106017706,1099663020,1099669797
2.54,1.97,-1.06,-0.7179638065337558,-0.10968209894756967,-0.6873534220959273,0.0065637497692337555,1099669805,1099678593
-0.47000000000000003,2.7800000000000002,0.24,-0.7179638065337558,-0.10968209894756967,-0.6873534220959273,0.0065637497692337555,1099678600,1099684235
-1.0,-2.16,1.17,-0.7174388908981698,-0.1108189049745206,-0.6876785537372383,0.009940566226950352,1099684242,1099690046
-1.0,-2.16,1.17,-0.7174388908981698,-0.1108189049745206,-0.6876785537372383,0.009940566226950352,1099690054,1099695891
0.7000000000000001,0.68,1.19,-0.7163650268348953,-0.11085213250482573,-0.6887440635861847,0.012828402931067871,1099695899,1099702591
0.9400000000000001,-1.48,-0.21,-0.7150190693271543,-0.11272325358789759,-0.6897852690958766,0.015410423012288831,1099702598,1099709792
0.9400000000000001,-1.48,-0.21,-0.7139481575245957,-0.11473289386234901,-0.6907313299657264,0.002149706255450865,1099709799,1099718255
0.1,0.0,-1.61,-0.7139481575245957,-0.11473289386234901,-0.6907313299657264,0.002149706255450865,1099718262,1099726823
-1.3,-3.0300000000000002,-1.11,-0.713818901676389,-0.11771038950098642,-0.6903505463583426,0.004791967839810512,1099726831,1099732465
-1.3,-3.0300000000000002,-1.11,-0.7138680205273389,-0.11994064176875241,-0.6899044701739508,0.006205945091518439,1099732473,1099738117
0.29,0.6,0.07,-0.7138680205273389,-0.11994064176875241,-0.6899044701739508,0.006205945091518439,1099738124,1099743754
-0.08,-0.65,1.9000000000000001,-0.7138707545625074,-0.12401783597685433,-0.6891655166721726,0.007681976955949846,1099743762,1099749604
-0.08,-0.65,1.9000000000000001,-0.7134858330987991,-0.1282160103242673,-0.6887768991820419,0.009219751461476557,1099749612,1099757293
-0.74,2.45,-4.22,-0.7134858330987991,-0.1282160103242673,-0.6887768991820419,0.009219751461476557,1099757301,1099765583
-0.65,4.45,-0.3,-0.7136799163448189,-0.13150941945740588,-0.6879190716731718,0.011558565151001546,1099765590,1099772821
-1.17,-1.04,-0.37,-0.7136274092662519,-0.1345816903529184,-0.6873015575884415,0.015500267810299558,1099772828,1099780503
-1.17,-1.04,-0.37,-0.7136274092662519,-0.1345816903529184,-0.6873015575884415,0.015500267810299558,1099780510,1099786375
0.8300000000000001,-1.3800000000000001,0.09,-0.713294687350449,-0.13736615549320122,-0.6872615853013342,0.003569550635576017,1099786383,1099792013
0.8300000000000001,-1.3800000000000001,0.09,-0.7129893989931922,-0.1400734786450356,-0.6870065383390361,0.00689592510252483,1099792020,1099797923
-0.49,-1.24,1.0,-0.7129893989931922,-0.1400734786450356,-0.6870065383390361,0.00689592510252483,1099797931,1099806170
-1.51,-1.92,-0.62,-0.7126060866178996,-0.14284151740573162,-0.6867972915368294,0.00991698331277395,1099806178,1099813668
3.88,1.24,-2.99,-0.7123311989952144,-0.1459533480729686,-0.6863935208446361,0.01207549861642121,1099813676,1099820750
3.88,1.24,-2.99,-0.7126255901601367,-0.1495755692569966,-0.6852619507905008,0.014421377505618957,1099820757,1099829124
-2.59,4.72,1.18,-0.7126255901601367,-0.1495755692569966,-0.6852619507905008,0.014421377505618957,1099829132,1099834767
-0.35000000000000003,-2.98,-1.86,-0.7124024654727888,-0.15349461015943314,-0.6847746690278608,0.0024050983512325804,1099834775,1099840484
-0.35000000000000003,-2.98,-1.86,-0.7124024654727888,-0.15349461015943314,-0.6847746690278608,0.0024050983512325804,1099840492,1099846328
-0.77,-0.8,1.0,-0.7120365173312201,-0.15647526931992845,-0.6844559000654441,0.006293563671385134,1099846336,1099852781
0.45,-0.15,0.77,-0.7118897370599004,-0.1595625570363169,-0.6838659842960754,0.008950317512675415,1099852789,1099859995
0.45,-0.15,0.77,-0.7114957497449647,-0.16283755355645477,-0.6834607670697161,0.011794453063816025,1099860003,1099868602
0.6900000000000001,0.02,-0.58,-0.7114957497449647,-0.16283755355645477,-0.6834607670697161,0.011794453063816025,1099868610,1099877166
-0.98,1.1400000000000001,1.26,-0.7113274931805852,-0.16612468552740955,-0.6827854311821979,0.014827045193967383,1099877173,1099883111
-0.98,1.1400000000000001,1.26,-0.7110903872457873,-0.16930429160867624,-0.6824094119604913,0.001977998295537656,1099883119,1099888951
2.36,-0.67,-1.75,-0.7110903872457873,-0.16930429160867624,-0.6824094119604913,0.001977998295537656,1099888958,1099894588
-1.71,0.23,0.11,-0.7108510494106697,-0.17248682589232275,-0.6818455559207094,0.0050713229556007405,1099894596,1099900345
-1.71,0.23,0.11,-0.7107489534855475,-0.17566085826982408,-0.6811112109313926,0.008167394607825566,1099900353,1099908754
0.79,0.21,0.74,-0.7102967441272635,-0.179090855914256,-0.6806443003032301,0.011328595448430297,1099908761,1099917164
-0.06,-0.37,-1.0,-0.7102967441272635,-0.179090855914256,-0.6806443003032301,0.011328595448430297,1099917172,1099925129
-0.14,0.24,0.47000000000000003,-0.7100733205864446,-0.18251950072117332,-0.679911462136763,0.014244820212375251,1099925137,1099931591
-0.14,0.24,0.47000000000000003,-0.7098998618463692,-0.18604272241491057,-0.6792852366388523,0.0013634043614683651,1099931599,1099937419
0.03,0.26,0.35000000000000003,-0.7098998618463692,-0.18604272241491057,-0.6792852366388523,0.0013634043614683651,1099937427,1099943057
0.03,0.26,0.35000000000000003,-0.7094539624125668,-0.1897953661025054,-0.6786997965887044,0.004402310027206103,1099943064,1099948891
0.87,-0.7000000000000001,-1.02,-0.7094539624125668,-0.1897953661025054,-0.6786997965887044,0.004402310027206103,1099948898,1099956667
0.74,0.75,-0.4,-0.7092948412980301,-0.19311132070673148,-0.6779057220312116,0.007257958407545,1099956674,1099963906
-0.65,-0.03,-0.45,-0.7089414100174259,-0.19663162203950318,-0.677224630073554,0.010241230314557459,1099963914,1099970560
-0.65,-0.03,-0.45,-0.70865194704665,-0.20021855028291996,-0.6764207350128921,0.01341414604873161,1099970567,1099979249
0.8300000000000001,0.32,0.23,-0.70865194704665,-0.20021855028291996,-0.6764207350128921,0.01341414604873161,1099979256,1099984891
-0.17,-0.64,-0.59,-0.7082812849508894,-0.20390198262032713,-0.6758409207546655,0.0008079017903274162,1099984898,1099990739
-0.17,-0.64,-0.59,-0.7082812849508894,-0.20390198262032713,-0.6758409207546655,0.0008079017903274162,1099990746,1099996652
-0.13,0.0,0.86,-0.7080136140298748,-0.2075662606386547,-0.6749945354201907,0.0039175178011489654,1099996660,1100003220
0.28,0.54,0.01,-0.7076264144925116,-0.21111196908230825,-0.6742765720439065,0.006906403939916362,1100003228,1100010393
0.28,0.54,0.01,-0.7072208530506842,-0.2144697041161626,-0.6736029603880637,0.010023112442003535,1100010401,1100018920
0.46,0.25,0.49,-0.7072208530506842,-0.2144697041161626,-0.6736029603880637,0.010023112442003535,1100018927,1100027362
-0.04,0.05,0.25,-0.7067581676655462,-0.21752155133862924,-0.6730585229707585,0.013018901554917958,1100027370,1100033005
-0.04,0.05,0.25,-0.7064331118147673,-0.22060061613980955,-0.6725233251009904,6.233416675326634e-05,1100033013,1100038819
-0.9,0.12,-0.48,-0.7064331118147673,-0.22060061613980955,-0.6725233251009904,6.233416675326634e-05,1100038826,1100044456
-0.9,0.12,-0.48,-0.7059842818515402,-0.22362198713887363,-0.671988749636565,0.0032436104131719464,1100044464,1100050444
1.9100000000000001,0.58,-1.33,-0.7057034045466293,-0.22645426779543348,-0.6713108186714133,0.006553941047001245,1100050452,1100058306
-0.61,0.29,0.58,-0.7057034045466293,-0.22645426779543348,-0.6713108186714133,0.006553941047001245,1100058313,1100066944
-0.85,-0.52,-0.32,-0.7053237165491805,-0.22961122759783806,-0.670594706063762,0.009993959851918957,1100066952,1100074217
-1.1,-0.59,0.86,-0.7049197211401935,-0.23282727090328256,-0.669854996582679,0.013188336687407416,1100074224,1100081250
-1.1,-0.59,0.86,-0.7049197211401935,-0.23282727090328256,-0.669854996582679,0.013188336687407416,1100081258,1100087294
0.0,0.05,-0.48,-0.7046034416094825,-0.236202290084997,-0.6691355659531814,0.00025021429034427647,1100087301,1100092931
0.0,0.05,-0.48,-0.7040196701808508,-0.2396183246601135,-0.6685276142554891,0.0031924071467256503,1100092939,1100098826
1.6400000000000001,0.35000000000000003,-1.2,-0.7040196701808508,-0.2396183246601135,-0.6685276142554891,0.0031924071467256503,1100098833,1100106954
0.32,0.9,-0.13,-0.7037911563325048,-0.24265636700179097,-0.6676495136479323,0.00632635339885929,1100106962,1100114398
0.74,-1.23,-0.11,-0.7032580180512678,-0.2457861385844568,-0.6670263454927837,0.009653421408315824,1100114405,1100121554
0.74,-1.23,-0.11,-0.7027878559027625,-0.24898375435848116,-0.6662777664503473,0.013048279391928467,1100121561,1100129883
-0.87,-0.96,0.13,-0.7027878559027625,-0.24898375435848116,-0.6662777664503473,0.013048279391928467,1100129891,1100135521
1.34,-0.15,-2.5500000000000003,-0.7026158441498659,-0.25165611714435915,-0.6653915793789491,0.0159442887888918,1100135528,1100141193
1.34,-0.15,-2.5500000000000003,-0.7026158441498659,-0.25165611714435915,-0.6653915793789491,0.0159442887888918,1100141200,1100147055
-2.86,-0.59,3.11,-0.7032705247945337,-0.2533130923683723,-0.6642557851217263,0.0027015037132539707,1100147063,1100153195
-2.86,-0.59,3.11,-0.7030331364447947,-0.25640845525378375,-0.6633052267315337,0.005028849330792523,1100153202,1100160473
0.09,-0.25,3.35,-0.7016691641578919,-0.2608697403358372,-0.6629915146143673,0.007043734551015856,1100160481,1100168906
1.17,2.32,-4.47,-0.7016691641578919,-0.2608697403358372,-0.6629915146143673,0.007043734551015856,1100168913,1100177642
1.26,0.9,0.6,-0.700811235858378,-0.26339425433922875,-0.6628598056632633,0.010195906619583047,1100177650,1100183284
1.26,0.9,0.6,-0.7005383550658055,-0.2661579689389638,-0.6619939449875647,0.013037079879404995,1100183292,1100189536
2.43,1.8,-4.34,-0.7005383550658055,-0.2661579689389638,-0.6619939449875647,0.013037079879404995,1100189543,1100195177
2.89,0.34,-1.3,-0.6999590065213898,-0.2685508127847687,-0.6615765974657868,0.0159454014631651,1100195185,1100201070
2.89,0.34,-1.3,-0.7001768539423266,-0.270783840072127,-0.6606191960380341,0.00328069890115345,1100201077,1100209135
-4.17,-0.41000000000000003,2.42,-0.7001768539423266,-0.270783840072127,-0.6606191960380341,0.00328069890115345,1100209142,1100217629
-0.92,-1.43,2.45,-0.699700886671337,-0.2737932537322369,-0.6598568961028312,0.006693285261904315,1100217636,1100225341
2.35,-0.5,-3.37,-0.6982890998287525,-0.2778621875065181,-0.6596146266074677,0.009668618305321189,1100225348,1100231950
2.35,-0.5,-3.37,-0.6982890998287525,-0.2778621875065181,-0.6596146266074677,0.009668618305321189,1100231958,1100237647
-0.45,0.34,1.48,-0.6975858451756631,-0.2818170921217366,-0.658627288455064,0.012775370872664003,1100237654,1100243284
-0.45,0.34,1.48,-0.6973545382927852,-0.2851950943499083,-0.6573538060182308,0.01569648987988843,1100243292,1100249113
-2.31,0.45,0.55,-0.6973545382927852,-0.2851950943499083,-0.6573538060182308,0.01569648987988843,1100249121,1100257110
2.14,1.59,0.27,-0.6967273383646814,-0.2883708714526304,-0.6568166070344623,0.0022806132188696606,1100257117,1100264331
-0.29,0.47000000000000003,1.93,-0.6961990419381126,-0.2911608379398737,-0.6561263830578861,0.00551633120661346,1100264338,1100271168
-0.29,0.47000000000000003,1.93,-0.6955331754138154,-0.2939516120909483,-0.6555527100387512,0.008757625748823588,1100271176,1100279860
0.55,-1.09,-2.63,-0.6955331754138154,-0.2939516120909483,-0.6555527100387512,0.008757625748823588,1100279867,1100285503
-0.13,0.63,0.39,-0.6950396848024875,-0.2967399622952775,-0.6547714621793698,0.011813705690693838,1100285511,1100291510
-0.13,0.63,0.39,-0.6950396848024875,-0.2967399622952775,-0.6547714621793698,0.011813705690693838,1100291518,1100297478
-0.75,0.1,0.43,-0.6946479625604408,-0.2994227055605085,-0.6538985030563461,0.015066492827566988,1100297485,1100304341
0.56,0.39,0.3,-0.6940860701890532,-0.3024018525294197,-0.6532949112093903,0.001845465850873984,1100304349,1100311367
0.56,0.39,0.3,-0.693690475291653,-0.30515756745223666,-0.6524168155736297,0.004968125706799094,1100311375,1100319892
-1.37,-0.75,0.99,-0.693038010599103,-0.30817272957741365,-0.6516635584899302,0.007905134147207135,1100319899,1100328660
1.25,-0.63,-1.54,-0.693038010599103,-0.30817272957741365,-0.6516635584899302,0.007905134147207135,1100328668,1100334304
1.25,-0.63,-1.54,-0.692667736206382,-0.310702024069732,-0.6508154717731697,0.010718262842651946,1100334311,1100340124
0.46,0.34,-0.32,-0.692667736206382,-0.310702024069732,-0.6508154717731697,0.010718262842651946,1100340132,1100345764
-0.77,0.51,1.03,-0.6924175844376974,-0.3136090341394016,-0.6496323975361704,0.013601857925410821,1100345772,1100351613
-0.77,0.51,1.03,-0.6917195468709205,-0.31670782210707393,-0.6490144953635476,0.0006392971782540855,1100351621,1100359547
0.59,-0.38,-0.8200000000000001,-0.6917195468709205,-0.31670782210707393,-0.6490144953635476,0.0006392971782540855,1100359554,1100368005
1.1300000000000001,-1.3900000000000001,-2.59,-0.6909726981005875,-0.31991965525653765,-0.648222882195133,0.003903800554240607,1100368012,1100375750
-0.97,0.49,0.29,-0.6908302114005721,-0.32273763028895425,-0.646948655872995,0.007174794480421372,1100375757,1100382320
-0.97,0.49,0.29,-0.6908302114005721,-0.32273763028895425,-0.646948655872995,0.007174794480421372,1100382328,1100388012
-0.41000000000000003,0.35000000000000003,0.06,-0.6904871971283288,-0.3254292835648467,-0.6459210193790543,0.010452211472132022,1100388020,1100393948
-0.41000000000000003,0.35000000000000003,0.06,-0.6896376271892934,-0.3287381819637319,-0.6450868952457609,0.0139301279996348,1100393956,1100399690
-0.53,-0.41000000000000003,-0.96,-0.6896376271892934,-0.3287381819637319,-0.6450868952457609,0.0139301279996348,1100399698,1100407774
2.16,-0.55,-1.12,-0.6889529680166144,-0.3316538217152468,-0.6444753624687558,0.001028383943303091,1100407781,1100415219
-4.21,0.23,1.71,-0.6886281236449064,-0.33401874321068115,-0.6435861047184035,0.004439856151326719,1100415227,1100422353
-4.21,0.23,1.71,-0.6881659247895276,-0.33638514080791104,-0.6428164151899931,0.007730030045375206,1100422361,1100430715
2.58,0.6,0.15,-0.6881659247895276,-0.33638514080791104,-0.6428164151899931,0.007730030045375206,1100430723,1100436353
-0.7000000000000001,-1.29,-0.9500000000000001,-0.6871432010310424,-0.33918667768611893,-0.6423911945074366,0.010962307073505744,1100436360,1100442187
-0.7000000000000001,-1.29,-0.9500000000000001,-0.6871432010310424,-0.33918667768611893,-0.6423911945074366,0.010962307073505744,1100442194,1100448049
0.55,-1.52,-1.24,-0.6862477501191924,-0.34228462569444573,-0.6416384184792713,0.014331796851031111,1100448057,1100454459
-1.34,-0.8300000000000001,1.22,-0.6858275710096546,-0.3454988875440646,-0.640523657772021,0.0007109030607902563,1100454466,1100461607
-1.34,-0.8300000000000001,1.22,-0.6850634800052401,-0.3491947747939836,-0.6393278916800555,0.0032991725665974738,1100461615,1100470037
1.6600000000000001,-0.72,-1.02,-0.6850634800052401,-0.3491947747939836,-0.6393278916800555,0.0032991725665974738,1100470045,1100478437
-1.3800000000000001,-0.62,-0.32,-0.684073658819297,-0.3534315827649577,-0.6380414449805198,0.005697376677654566,1100478444,1100484079
-1.3800000000000001,-0.62,-0.32,-0.6833731261709902,-0.35733410361553153,-0.6365924874021028,0.007969554804117929,1100484086,1100489889
0.65,0.39,-0.1,-0.6833731261709902,-0.35733410361553153,-0.6365924874021028,0.007969554804117929,1100489897,1100495826
0.65,0.39,-0.1,-0.6826796240967247,-0.36114783039403137,-0.6351533476732373,0.010049894741665146,1100495833,1100501775
-0.23,0.92,-0.73,-0.6818816734554538,-0.3644965131137499,-0.6340565123080738,0.012329417392133253,1100501783,1100509979
1.5,0.88,-0.66,-0.6818816734554538,-0.3644965131137499,-0.6340565123080738,0.012329417392133253,1100509986,1100518446
-0.67,0.53,0.08,-0.6812140077902453,-0.3674320787632931,-0.6330198054847188,0.015068807189868128,1100518454,1100526057
-0.46,-0.07,0.06,-0.6805846201068764,-0.3703056690767849,-0.6321990532306685,0.0016258591020231162,1100526065,1100532667
-0.46,-0.07,0.06,-0.6805846201068764,-0.3703056690767849,-0.6321990532306685,0.0016258591020231162,1100532674,1100538373
0.81,0.05,-1.57,-0.6797404819803191,-0.37323553138522836,-0.6313689487831754,0.004622313401072949,1100538380,1100544010
0.81,0.05,-1.57,-0.6791897061423049,-0.37586479563599196,-0.6303735570298793,0.00749513637907735,1100544018,1100549918
-0.17,0.18,0.66,-0.6791897061423049,-0.37586479563599196,-0.6303735570298793,0.00749513637907735,1100549925,1100557802
-1.26,-0.8200000000000001,0.64,-0.6787592521373854,-0.37846603176281823,-0.6292324041877339,0.010766706076011209,1100557810,1100564874
0.8300000000000001,-0.97,-0.12,-0.6779060009492517,-0.38160790687468954,-0.6281963780236031,0.0137175043553038,1100564881,1100571992
0.8300000000000001,-0.97,-0.12,-0.6769364727802334,-0.38499004653047564,-0.6271126929812826,0.016411769986268577,1100571999,1100580623
-0.46,-0.98,-0.5700000000000001,-0.6769364727802334,-0.38499004653047564,-0.6271126929812826,0.016411769986268577,1100580630,1100586264
1.48,-0.24,-1.03,-0.6761226928209805,-0.38869363442453114,-0.6259158862188223,0.002160136398789075,1100586272,1100591907
1.48,-0.24,-1.03,-0.6761226928209805,-0.38869363442453114,-0.6259158862188223,0.002160136398789075,1100591914,1100598119
-1.0,0.13,-0.39,-0.675415362141171,-0.3921576389614773,-0.6245036686619616,0.004652162467212179,1100598127,1100604749
0.86,1.09,-0.33,-0.674835113905612,-0.395457311647312,-0.6230256153647535,0.007082817522041409,1100604757,1100611874
0.86,1.09,-0.33,-0.6741358956870631,-0.39838884057548685,-0.6218752633373453,0.009913763171868576,1100611881,1100620337
-1.21,-0.22,1.31,-0.6741358956870631,-0.39838884057548685,-0.6218752633373453,0.009913763171868576,1100620344,1100628960
-0.29,-0.6900000000000001,0.16,-0.6733319388505093,-0.40140942508395744,-0.6207484215642532,0.012882961735132743,1100628967,1100634602
-0.29,-0.6900000000000001,0.16,-0.6719662696885853,-0.4049693909657537,-0.6198564796569237,0.015461869516970286,1100634609,1100640248
0.68,-0.9500000000000001,-1.82,-0.6719662696885853,-0.4049693909657537,-0.6198564796569237,0.015461869516970286,1100640256,1100645886
1.45,-0.07,-1.8900000000000001,-0.6710365523365647,-0.4084054799731718,-0.6188001740109638,0.0011198214773457935,1100645893,1100651818
1.45,-0.07,-1.8900000000000001,-0.6706379054322127,-0.41141690186741153,-0.6172242669464613,0.0038906230501967107,1100651826,1100659679
-0.03,1.61,0.72,-0.6706379054322127,-0.41141690186741153,-0.6172242669464613,0.0038906230501967107,1100659686,1100668226
-1.29,0.71,1.51,-0.6702705371187138,-0.41409937045001705,-0.6158011524533337,0.006932467139230195,1100668234,1100675372
0.61,-0.19,0.27,-0.669214692256191,-0.4170113878052013,-0.6149397478382977,0.010114575512713348,1100675380,1100682520
0.61,-0.19,0.27,-0.669214692256191,-0.4170113878052013,-0.6149397478382977,0.010114575512713348,1100682528,1100688415
-0.6,-2.47,-0.9500000000000001,-0.6678777635383667,-0.4200547361163999,-0.6142622047211143,0.013238409584506772,1100688423,1100694076
-0.6,-2.47,-0.9500000000000001,-0.6666778420734776,-0.42340007286356346,-0.6131978203484978,0.01616991982762709,1100694084,1100700282
0.88,-1.21,-1.5,-0.6666778420734776,-0.42340007286356346,-0.6131978203484978,0.01616991982762709,1100700290,1100708367
0.53,0.45,-2.34,-0.6659287251801729,-0.42681274176387884,-0.6118556046240464,0.0015923372924503485,1100708374,1100715495
0.66,0.98,0.52,-0.6655822961634587,-0.4299949890591988,-0.6099898022118755,0.004117962514932087,1100715502,1100722302
0.66,0.98,0.52,-0.6651200801345044,-0.4331060869742079,-0.6082636845621188,0.007048863076810385,1100722310,1100730916
-0.45,0.45,1.29,-0.6651200801345044,-0.4331060869742079,-0.6082636845621188,0.007048863076810385,1100730923,1100736554
0.68,-0.66,-2.5100000000000002,-0.6638400000949982,-0.43661244816196954,-0.6071163334536444,0.009786829807839207,1100736561,1100742250
0.68,-0.66,-2.5100000000000002,-0.6638400000949982,-0.43661244816196954,-0.6071163334536444,0.009786829807839207,1100742258,1100747915
1.41,-0.62,-3.0700000000000003,-0.6621328498913733,-0.4402886815194323,-0.6062718483602175,0.012665382208734616,1100747923,1100753684
1.41,-0.62,-3.0700000000000003,-0.6614816525516605,-0.44334622969204124,-0.6046783340530264,0.01581949058070066,1100753691,1100761600
0.3,0.3,-0.25,-0.6611433932977658,-0.4461548035257118,-0.6031847156446655,0.0018717912044830581,1100761608,1100769968
-0.23,0.58,1.1300000000000001,-0.6611433932977658,-0.4461548035257118,-0.6031847156446655,0.0018717912044830581,1100769976,1100778689
1.72,0.27,-2.18,-0.6599090502860651,-0.44926559950502776,-0.6022113526142334,0.0046854278851835435,1100778697,1100784331
1.72,0.27,-2.18,-0.6586193445586901,-0.4523944821177529,-0.6012490220856832,0.007707461547191346,1100784339,1100790177
0.0,0.19,-0.12,-0.6586193445586901,-0.4523944821177529,-0.6012490220856832,0.007707461547191346,1100790185,1100795820
0.0,0.19,-0.12,-0.6576520997514176,-0.45512720591146383,-0.6001906118074333,0.011143232475118435,1100795828,1100802094
-1.7,-0.29,0.99,-0.6562705864865801,-0.45823994551664615,-0.5992678765264633,0.014250677490029189,1100802102,1100810240
0.8,-0.44,-1.28,-0.6562705864865801,-0.45823994551664615,-0.5992678765264633,0.014250677490029189,1100810248,1100818904
-0.41000000000000003,-1.57,1.37,-0.6548277344059471,-0.46128093308826457,-0.5986823318671829,6.732062654528088e-05,1100818912,1100826284
-1.62,-2.14,1.77,-0.6538375788429993,-0.46413771835591816,-0.5975478192457311,0.003033579858535413,1100826291,1100833053
-1.62,-2.14,1.77,-0.6538375788429993,-0.46413771835591816,-0.5975478192457311,0.003033579858535413,1100833060,1100838940
1.29,-1.6,-4.29,-0.6522298721440959,-0.4677294613378922,-0.5964883434952575,0.005196244196078156,1100838948,1100844582
1.29,-1.6,-4.29,-0.6511911032582646,-0.471302938530385,-0.5947860647498983,0.007295501986710848,1100844590,1100850504
-0.61,3.93,0.97,-0.6511911032582646,-0.471302938530385,-0.5947860647498983,0.007295501986710848,1100850512,1100858081
-2.62,2.14,1.73,-0.6511116708469523,-0.4748576961687392,-0.5919996317568685,0.010009818976352856,1100858089,1100865368
0.91,-0.8300000000000001,-1.58,-0.6497009977562088,-0.4793153867700915,-0.5898797275769876,0.013685047085167277,1100865376,1100872529
0.91,-0.8300000000000001,-1.58,-0.6474818245047125,-0.48369383388411585,-0.5889036910999985,6.78773272360533e-05,1100872536,1100881182
-1.32,-0.93,2.04,-0.6517888400360301,-0.4728173608269667,-0.5928979604020693,0.00933058712914649,1073948995,1073957251
