ACC_X,ACC_Y,ACC_Z,QUAT_W,QUAT_X,QUAT_Y,QUAT_Z,TIME1,TIME2
0.19,-1.59,0.89,0.7120240010066333,0.06810664357454753,0.6988440474796056,0.0005517189848523202,407669597,407678647
0.74,0.03,0.12,0.7104346106524565,0.06830276657174734,0.7003179531261204,0.013120998246278217,407678667,407685559
0.74,0.03,0.12,0.7095285360673362,0.06930906342981413,0.7011869142740135,0.010120349969840117,407685571,407691697
1.1,1.07,-0.3,0.7095285360673362,0.06930906342981413,0.7011869142740135,0.010120349969840117,407691705,407697349
1.1,1.07,-0.3,0.7088335779906354,0.07080359638199543,0.7017777603269184,0.00705581766371705,407697356,407703174
1.11,1.37,-1.41,0.7084397048004138,0.07217578557093361,0.7020568121989027,0.00448029961452224,407703181,407711299
1.43,0.06,-2.2,0.7084397048004138,0.07217578557093361,0.7020568121989027,0.00448029961452224,407711306,407719247
-0.49,0.78,0.4,0.708789147838737,0.0732425685033879,0.701606096275538,0.00153484007760662,407719255,407726512
-0.49,0.78,0.4,0.7089590246301694,0.07504096388896206,0.701098760000229,0.014369546276609756,407726520,407734068
-1.19,-1.95,1.27,0.7089590246301694,0.07504096388896206,0.701098760000229,0.014369546276609756,407734076,407739706
1.34,0.07,-0.25,0.7085621283231738,0.07714580731396553,0.701314353432212,0.012100098758639497,407739714,407745409
1.34,0.07,-0.25,0.7082853269456301,0.07968824332481629,0.7013425578664441,0.010014790795639982,407745416,407751310
-0.37,-0.53,-0.1,0.7082853269456301,0.07968824332481629,0.7013425578664441,0.010014790795639982,407751317,407758971
0.75,0.14,-0.86,0.708267338700554,0.0823495213760297,0.701077119296826,0.008173497270904441,407758996,407766623
-0.15,-1.12,0.72,0.7084864055578654,0.08501099244200311,0.7005569637465723,0.006331259740799943,407766644,407774104
-0.15,-1.12,0.72,0.7084096412372076,0.088343717300865,0.7002330828509759,0.004979708490862954,407774111,407782961
1.22,-0.31,-0.37,0.7084096412372076,0.088343717300865,0.7002330828509759,0.004979708490862954,407782969,407788678
-0.52,-1.3800000000000001,0.98,0.7084133357452113,0.0921718245188848,0.69974340428613,0.0037508214113755652,407788686,407794531
-0.52,-1.3800000000000001,0.98,0.7084133357452113,0.0921718245188848,0.69974340428613,0.0037508214113755652,407794539,407800363
-0.76,-0.19,0.43,0.7082477148095018,0.09605651910501362,0.6993923122799742,0.0029518008431758344,407800371,407806824
-0.76,-0.19,0.43,0.708327904296957,0.10017938497132688,0.6987342983696845,0.0024598989557109117,407806832,407814078
1.92,1.8800000000000001,-2.0100000000000002,0.7088900152654874,0.10381800674719267,0.697634864060075,0.0015375889624880431,407814086,407822519
1.48,2.11,-0.02,0.7088900152654874,0.10381800674719267,0.697634864060075,0.0015375889624880431,407822526,407831334
-3.46,3.98,2.36,0.7094410679365585,0.10746497404709683,0.6965231260076001,0.0004305980642986135,407831341,407836972
-3.46,3.98,2.36,0.7092007385930008,0.11079723544465601,0.6960970122466867,0.01439564302834509,407836979,407842786
1.53,3.94,1.02,0.7092007385930008,0.11079723544465601,0.6960970122466867,0.01439564302834509,407842794,407848428
1.3800000000000001,2.35,0.16,0.7084906085421988,0.11245003403758119,0.6966116503762145,0.0113250171116119,407848436,407854240
1.3800000000000001,2.35,0.16,0.7079664087733091,0.1136120748183661,0.697005460633651,0.007697295041894723,407854247,407862465
2.13,-2.27,0.12,0.7079664087733091,0.1136120748183661,0.697005460633651,0.007697295041894723,407862472,407871009
-1.57,-2.81,-0.99,0.7075480181595133,0.11447441812437964,0.6973204867232125,0.003943144650140095,407871017,407878634
1.86,-1.55,-1.41,0.7069555708371111,0.11618232354210588,0.697648657916762,0.0013559740678654266,407878641,407885391
1.86,-1.55,-1.41,0.7069555708371111,0.11618232354210588,0.697648657916762,0.0013559740678654266,407885398,407891312
0.66,-1.69,-0.68,0.7068542077811795,0.12045989202899221,0.6968672566508332,0.014918778849035884,407891320,407896954
0.66,-1.69,-0.68,0.707399636925407,0.1253104404352216,0.6954976118250144,0.0128887214817723,407896962,407902769
-3.0500000000000003,5.48,-0.74,0.707399636925407,0.1253104404352216,0.6954976118250144,0.0128887214817723,407902776,407910941
-0.43,2.31,1.77,0.7081282947342711,0.12900298521426737,0.6941236664972368,0.010241269988315822,407910949,407918389
2.37,0.35000000000000003,-0.04,0.7081621447696446,0.1328421317594382,0.6934087667536103,0.006605068818894,407918396,407925504
2.37,0.35000000000000003,-0.04,0.7078818068224476,0.13625226994593137,0.6930583504366709,0.0029646912771553514,407925511,407933846
-3.11,1.12,2.17,0.7078818068224476,0.13625226994593137,0.6930583504366709,0.0029646912771553514,407933854,407939488
2.22,-2.06,-5.59,0.7064683776004744,0.13958821525404283,0.693677425605084,0.015139049463143204,407939495,407945415
2.22,-2.06,-5.59,0.7064683776004744,0.13958821525404283,0.693677425605084,0.015139049463143204,407945422,407951229
-0.85,1.55,-1.72,0.7058715163092443,0.14250975257009793,0.6937535503640212,0.011932486874632928,407951236,407957587
-0.12,0.25,2.44,0.706361702292752,0.14542922866190208,0.6926909836478008,0.00909319294483182,407957595,407965182
-0.12,0.25,2.44,0.7058364752883469,0.1491639692603399,0.6924674224417771,0.005818013738785041,407965190,407973571
2.88,-1.04,-2.04,0.7056877423309548,0.1526430576382769,0.6918786543579991,0.0029723597430577247,407973579,407982359
-2.5100000000000002,-1.1300000000000001,1.0,0.7056877423309548,0.1526430576382769,0.6918786543579991,0.0029723597430577247,407982367,407988079
-2.5100000000000002,-1.1300000000000001,1.0,0.7058481504873952,0.15623565346052404,0.6909184151646409,0.0007433893106765616,407988086,407994035
0.4,3.43,0.06,0.7058481504873952,0.15623565346052404,0.6909184151646409,0.0007433893106765616,407994042,407999677
-0.03,2.07,-1.78,0.7056185714633346,0.1595791165921383,0.690249398292519,0.013881833831704458,407999684,408005490
-0.03,2.07,-1.78,0.705502997159339,0.16246970665003677,0.6897521172016636,0.010541927530727576,408005497,408013562
-0.78,-0.22,0.16,0.7053433207827123,0.16561637399217555,0.6892098411131861,0.007198014006404033,408013570,408022218
-1.19,-0.12,0.18,0.7053433207827123,0.16561637399217555,0.6892098411131861,0.007198014006404033,408022226,408030487
2.22,0.31,-1.1300000000000001,0.7049696212021418,0.1691331027087048,0.6887641366915059,0.003973758653949011,408030495,408036578
2.22,0.31,-1.1300000000000001,0.7050315931865262,0.17246807390604482,0.6878841910258388,0.0007455392243777154,408036586,408042551
-2.07,0.2,1.35,0.7050315931865262,0.17246807390604482,0.6878841910258388,0.0007455392243777154,408042559,408048198
-2.07,0.2,1.35,0.704707096142883,0.1760369141992277,0.6871779966357564,0.013613024085321633,408048206,408054057
-0.33,0.11,-0.12,0.704707096142883,0.1760369141992277,0.6871779966357564,0.013613024085321633,408054064,408061748
0.58,0.41000000000000003,-0.1,0.7044121843366404,0.17932188321788384,0.6866852551943939,0.010511757982595342,408061756,408070147
-0.78,0.56,0.5,0.7043723365269903,0.18240990619902886,0.6859508652765937,0.0075926334207715865,408070155,408077408
-0.78,0.56,0.5,0.7041171825627938,0.18563485639158822,0.6853731061542503,0.004732723611459479,408077416,408084795
0.39,0.9500000000000001,-0.78,0.7041171825627938,0.18563485639158822,0.6853731061542503,0.004732723611459479,408084802,408090515
-1.36,-0.02,0.53,0.7039483547592688,0.18880795918567622,0.6846936816937987,0.0016824471610604813,408090523,408096449
-1.36,-0.02,0.53,0.7036421035931967,0.19208943125736655,0.683940623464236,0.014651417184511894,408096457,408102239
2.2600000000000002,0.93,-1.74,0.7036421035931967,0.19208943125736655,0.683940623464236,0.014651417184511894,408102246,408109816
-0.33,0.47000000000000003,-0.3,0.7035270087247392,0.1951434320555985,0.6832515562253564,0.011666183438106431,408109824,408117066
-0.33,0.47000000000000003,-0.3,0.7035203985854193,0.1982143282907717,0.6824191567075356,0.008615299938307557,408117074,408124570
-1.07,0.66,1.6500000000000001,0.703037138645985,0.20171556075065628,0.681922285894755,0.005622298069854155,408124577,408133328
0.16,0.67,-0.65,0.703037138645985,0.20171556075065628,0.681922285894755,0.005622298069854155,408133336,408138972
-0.36,1.42,0.66,0.7029615381533384,0.20485593246140416,0.6810818993490994,0.002563043402782292,408138979,408144826
-0.36,1.42,0.66,0.7029615381533384,0.20485593246140416,0.6810818993490994,0.002563043402782292,408144833,408150468
0.13,1.04,-0.88,0.7025593322672428,0.20785297908867945,0.6804167037395892,0.01551234992897758,408150475,408156204
0.13,1.04,-0.88,0.7022326704618607,0.2108951566042083,0.6798849201182268,0.01220675438937982,408156212,408164120
1.73,0.74,-0.28,0.7020630089206227,0.21382661515670937,0.6791955273700223,0.008896390082699305,408164128,408172813
0.0,0.14,0.49,0.7020630089206227,0.21382661515670937,0.6791955273700223,0.008896390082699305,408172820,408181546
1.95,0.47000000000000003,-0.9500000000000001,0.7016153408405771,0.2170487275480366,0.6786691148779597,0.005830598400337205,408181554,408187186
1.95,0.47000000000000003,-0.9500000000000001,0.7014982041967738,0.22004957085134932,0.6778430321947895,0.0026980700161414375,408187193,408193288
-0.68,0.3,0.31,0.7014982041967738,0.22004957085134932,0.6778430321947895,0.0026980700161414375,408193295,408198947
-0.68,0.3,0.31,0.701222577412048,0.22300497761371604,0.6769883653177646,0.015570167355912606,408198954,408204657
-0.23,0.96,0.75,0.700866248153011,0.22620750343830373,0.6763604352805281,0.012378577271484954,408204665,408212778
-0.02,1.02,-0.42,0.700866248153011,0.22620750343830373,0.6763604352805281,0.012378577271484954,408212785,408221420
-0.04,-0.39,-0.02,0.7006176751875693,0.22924160018480166,0.6756495228491973,0.008993566207524454,408221427,408228714
-0.1,0.25,-0.16,0.7002494304373775,0.2327031140968076,0.6748830915190617,0.0057278829815551775,408228721,408235606
-0.1,0.25,-0.16,0.7002494304373775,0.2327031140968076,0.6748830915190617,0.0057278829815551775,408235613,408241448
0.67,0.6900000000000001,-0.17,0.6999042059691278,0.23611529828733493,0.6740751578640565,0.00251990713220208,408241455,408247090
0.67,0.6900000000000001,-0.17,0.6994940478750904,0.23930059532568881,0.673206284900693,0.015381808550966299,408247097,408252898
0.11,0.53,0.31,0.6994940478750904,0.23930059532568881,0.673206284900693,0.015381808550966299,408252905,408260298
0.45,-0.42,-1.2,0.6990557852675601,0.24294681109226451,0.6724262906491353,0.011863376749440449,408260305,408267763
1.05,1.61,-3.59,0.6988012564029513,0.2461341735540764,0.6715793347191416,0.008716067731707093,408267771,408275282
1.05,1.61,-3.59,0.699554917190158,0.24812516265781404,0.6700959806809755,0.005310194563886976,408275290,408284012
-4.36,-0.74,5.5200000000000005,0.699554917190158,0.24812516265781404,0.6700959806809755,0.005310194563886976,408284020,408289738
-2.34,0.44,3.79,0.6994075873116962,0.25175889179602307,0.6689105313062468,0.0022777884153447675,408289746,408295521
-2.34,0.44,3.79,0.6994075873116962,0.25175889179602307,0.6689105313062468,0.0022777884153447675,408295528,408301359
4.65,0.86,-4.5,0.6973350528489768,0.2561432250410313,0.6692264043274202,0.015826941735110685,408301367,408307831
4.65,0.86,-4.5,0.6966510013642548,0.25889913942621734,0.6689548143558688,0.012168576443043753,408307839,408314998
3.3000000000000003,-0.52,-1.35,0.6972101126118379,0.2618343654350133,0.6672716871066716,0.00945090127175799,408315006,408323574
0.3,2.21,-1.37,0.6972101126118379,0.2618343654350133,0.6672716871066716,0.00945090127175799,408323582,408332336
4.28,1.61,-3.84,0.6967302631499721,0.2649314128075051,0.6665811445386725,0.006918429323435088,408332344,408337978
4.28,1.61,-3.84,0.6965565949051017,0.26787217040225386,0.665614055297441,0.0033674632427228308,408337985,408343755
-1.9100000000000001,0.21,0.71,0.6965565949051017,0.26787217040225386,0.665614055297441,0.0033674632427228308,408343762,408349397
-1.9100000000000001,0.21,0.71,0.6964161017921966,0.27087088379296487,0.6643618812165558,0.016027110287820414,408349404,408355213
-2.5,-0.43,2.66,0.6956612456323111,0.27455956738764253,0.6637046254541065,0.012986355610266422,408355221,408363148
1.47,-0.18,-1.4000000000000001,0.6956612456323111,0.27455956738764253,0.6637046254541065,0.012986355610266422,408363156,408372016
-1.4000000000000001,0.42,3.19,0.6953616263861306,0.27759672037423233,0.6628043796312001,0.010130337052904047,408372037,408379563
-2.04,0.5700000000000001,2.7800000000000002,0.6947822299031359,0.28101186556379587,0.6620070769873676,0.007524256895059658,408379570,408386236
-2.04,0.5700000000000001,2.7800000000000002,0.6947822299031359,0.28101186556379587,0.6620070769873676,0.007524256895059658,408386244,408392213
2.82,-0.71,-6.92,0.6932687881791112,0.2849530644591486,0.661933523979908,0.004914084202319024,408392221,408397857
2.82,-0.71,-6.92,0.6932403100332284,0.28769504804106333,0.6607915790374779,0.0019801390961973722,408397864,408403653
0.27,2.25,-1.26,0.6932403100332284,0.28769504804106333,0.6607915790374779,0.0019801390961973722,408403660,408411802
-2.3000000000000003,1.41,1.6500000000000001,0.6933126337658835,0.29039339566254546,0.6593630756203944,0.015152627646856731,408411809,408419168
1.11,0.61,2.0100000000000002,0.6929119421039466,0.2932313724506401,0.658602399289377,0.011457851051880501,408419175,408426212
1.11,0.61,2.0100000000000002,0.691963336292558,0.2962169621509867,0.6583168834303191,0.007818794760367887,408426219,408434657
-0.36,-0.66,-0.48,0.691963336292558,0.2962169621509867,0.6583168834303191,0.007818794760367887,408434664,408440294
-0.22,-0.97,0.42,0.6912946190117846,0.29897289323386694,0.6578045223877335,0.004491009125830619,408440302,408446141
-0.22,-0.97,0.42,0.6912946190117846,0.29897289323386694,0.6578045223877335,0.004491009125830619,408446149,408452028
0.29,-0.6900000000000001,-0.25,0.6907921564268712,0.3018884379811027,0.6570135309475987,0.0016696658982149903,408452035,408458272
0.01,0.16,0.37,0.6902488490746592,0.3049279200129651,0.6559966717581344,0.015615908232486937,408458279,408465587
0.01,0.16,0.37,0.6897255502584523,0.30794535011539254,0.6551878198883676,0.013313426790703062,408465594,408474417
-0.86,0.8,0.1,0.6891631979525001,0.31107926923549395,0.6543413720355952,0.011006529079095688,408474438,408483265
0.38,2.33,-1.04,0.6891631979525001,0.31107926923549395,0.6543413720355952,0.011006529079095688,408483273,408488905
0.38,2.33,-1.04,0.6892739647778304,0.3141027899305328,0.6528133045849097,0.008696447219159542,408488913,408494887
-0.18,2.66,1.33,0.6892739647778304,0.3141027899305328,0.6528133045849097,0.008696447219159542,408494895,408500529
0.91,1.07,-1.54,0.6887799838826779,0.31688651257368033,0.6520226960994061,0.005610322872183595,408500537,408506213
0.91,1.07,-1.54,0.6883717487324604,0.3191353924202356,0.6513770936936591,0.0021951453251644773,408506221,408514361
0.48,1.54,0.33,0.6877704767577736,0.3210026492085624,0.6509256297886072,0.014996499117274763,408514368,408522897
1.59,-0.37,-1.3900000000000001,0.6877704767577736,0.3210026492085624,0.6509256297886072,0.014996499117274763,408522905,408530634
0.19,-0.02,-2.02,0.6873418447384007,0.32328366426255284,0.6503211728749011,0.011455697412306677,408530641,408537089
0.19,-0.02,-2.02,0.6873359673485426,0.32519817878134893,0.6494242625683335,0.007971178953787548,408537096,408542881
-1.85,1.3800000000000001,1.34,0.6873359673485426,0.32519817878134893,0.6494242625683335,0.007971178953787548,408542889,408548523
-1.85,1.3800000000000001,1.34,0.6869051620721214,0.32739126524835643,0.648812263618051,0.00434791174859066,408548531,408554173
0.3,-0.28,0.65,0.6869051620721214,0.32739126524835643,0.648812263618051,0.00434791174859066,408554180,408562009
0.8200000000000001,0.0,-0.22,0.6862291015912252,0.3303801345949044,0.6480258529891005,0.00103954417964965,408562017,408569037
1.05,-0.08,-1.02,0.6853275112765305,0.33336390423263385,0.6472826646171292,0.01482773510827946,408569045,408576262
1.05,-0.08,-1.02,0.6848203232565714,0.336453220894568,0.6462792422253051,0.01197898464485304,408576283,408584865
-0.38,0.27,0.15,0.6848203232565714,0.336453220894568,0.6462792422253051,0.01197898464485304,408584873,408590510
-0.13,-0.42,-0.63,0.6843259130633619,0.3396863484653564,0.6451564012775447,0.009189519403993717,408590518,408596525
-0.13,-0.42,-0.63,0.6843259130633619,0.3396863484653564,0.6451564012775447,0.009189519403993717,408596533,408602411
-0.74,0.4,0.24,0.683851042110906,0.34290412872876563,0.6439890895513025,0.006524051155417916,408602418,408609290
0.9500000000000001,0.25,-1.08,0.6832459907905791,0.34632512800252735,0.6428207118477988,0.00391844383936482,408609297,408616229
0.9500000000000001,0.25,-1.08,0.6826545945156298,0.3497607815225646,0.641598562591112,0.0011767652462441427,408616236,408624666
-0.72,0.75,-0.15,0.6819884120414508,0.3529692472223744,0.6403702360619495,0.015181472998811802,408624674,408633470
-0.3,0.66,-0.23,0.6819884120414508,0.3529692472223744,0.6403702360619495,0.015181472998811802,408633478,408639110
-0.3,0.66,-0.23,0.6811916631969129,0.3562531510352772,0.6394606486309932,0.012316217799674902,408639118,408645031
0.58,0.03,-1.77,0.6811916631969129,0.3562531510352772,0.6394606486309932,0.012316217799674902,408645038,408650673
1.79,0.74,-0.89,0.6805097284631124,0.35940567771567616,0.6384697577668079,0.009509821764374643,408650680,408656499
1.79,0.74,-0.89,0.6802113481927601,0.3621708423714107,0.6372630742288612,0.006370003936541584,408656507,408664441
-2.84,0.5,1.19,0.6802113481927601,0.3621708423714107,0.6372630742288612,0.006370003936541584,408664448,408672924
-0.6,-0.28,-0.77,0.6794379741746183,0.36555788043457305,0.6361759084685124,0.0034188866515463667,408672932,408680856
0.13,-0.18,-0.9400000000000001,0.6786004099518893,0.3688889996479181,0.6351552386871452,0.0004607821194745587,408680876,408687342
0.13,-0.18,-0.9400000000000001,0.6779444940936689,0.37225004346181334,0.6337278576690137,0.014497257844149217,408687350,408693238
0.9500000000000001,0.27,-0.22,0.6779444940936689,0.37225004346181334,0.6337278576690137,0.014497257844149217,408693245,408698897
0.9500000000000001,0.27,-0.22,0.6774732257576922,0.37564831507101953,0.6322819549772833,0.01174313313709896,408698904,408704730
-2.23,0.35000000000000003,0.6900000000000001,0.6774732257576922,0.37564831507101953,0.6322819549772833,0.01174313313709896,408704737,408712753
0.15,0.58,-1.2,0.6766255109558599,0.3792933440136167,0.6310548323263291,0.009180180187688094,408712761,408720390
-0.44,-0.25,-0.5,0.6758125929303734,0.3827687213065191,0.6298591879713078,0.006545880706399273,408720397,408727693
-0.44,-0.25,-0.5,0.6751824634025659,0.38611169696344777,0.6285154401968004,0.00383927283111263,408727700,408735723
0.54,0.76,-0.54,0.6751824634025659,0.38611169696344777,0.6285154401968004,0.00383927283111263,408735730,408741387
-0.46,0.6,-0.64,0.6745542583948781,0.389397860529355,0.6271717753658638,0.0011928457266045592,408741395,408747251
-0.46,0.6,-0.64,0.6745542583948781,0.389397860529355,0.6271717753658638,0.0011928457266045592,408747259,408752923
-0.01,0.32,-0.22,0.6737315999921903,0.3926562958205765,0.625835359819449,0.015390481606753463,408752930,408759546
-0.18,0.35000000000000003,-0.26,0.6729852918820839,0.3959401228690389,0.6246302491965177,0.01262013476683734,408759554,408766513
-0.18,0.35000000000000003,-0.26,0.6721715963797128,0.3994988403535109,0.6232900169457474,0.009776315886793093,408766520,408775030
-0.98,0.12,-0.85,0.6712840446820411,0.402930240489141,0.6220747490744597,0.006925259463042582,408775038,408784065
2.11,0.91,-1.6600000000000001,0.6712840446820411,0.402930240489141,0.6220747490744597,0.006925259463042582,408784073,408789704
2.11,0.91,-1.6600000000000001,0.6707831456026139,0.40600383435132364,0.620641105295142,0.003934016460293659,408789712,408795709
-2.34,-0.49,1.35,0.6707831456026139,0.40600383435132364,0.620641105295142,0.003934016460293659,408795716,408801351
0.6,-0.08,-0.13,0.6700555957786338,0.4092447181392373,0.6193089836419361,0.0008012622968952272,408801358,408807166
0.6,-0.08,-0.13,0.6686616172824151,0.41280029471573326,0.6182646901101899,0.015373067970307425,408807174,408815376
0.87,-0.35000000000000003,-1.94,0.6677359361684253,0.4163396126706025,0.6169481242081252,0.012847509744898051,408815383,408823794
-0.04,0.53,-2.1,0.6677359361684253,0.4163396126706025,0.6169481242081252,0.012847509744898051,408823801,408832125
-0.47000000000000003,1.1,0.42,0.6672786430307408,0.4193021134738805,0.6154856526639607,0.010117388803860011,408832133,408838212
-0.47000000000000003,1.1,0.42,0.6667445043681903,0.42228494021628643,0.6140679307038356,0.0069117032960873195,408838220,408844077
-0.67,0.67,1.06,0.6667445043681903,0.42228494021628643,0.6140679307038356,0.0069117032960873195,408844085,408849722
-0.67,0.67,1.06,0.6657863969556334,0.4253317963391747,0.6130315446683443,0.0036961998417845802,408849729,408855556
-0.12,-0.47000000000000003,0.43,0.6657863969556334,0.4253317963391747,0.6130315446683443,0.0036961998417845802,408855563,408863165
0.07,-1.19,0.01,0.6645229337903081,0.4284574703233308,0.612235914088529,0.0008075215397958175,408863173,408870849
1.41,0.35000000000000003,-3.39,0.6631090076974627,0.43205822586057757,0.6110383796041938,0.015627924602378235,408870857,408878162
1.41,0.35000000000000003,-3.39,0.6624393869209271,0.4355119170045146,0.6093660083698968,0.01328520403373945,408878169,408886352
1.46,2.13,-2.49,0.6624393869209271,0.4355119170045146,0.6093660083698968,0.01328520403373945,408886359,408892010
-1.77,2.17,0.9500000000000001,0.6622914655812955,0.43828608255558354,0.6075901209171933,0.010467541262883736,408892018,408897760
-1.77,2.17,0.9500000000000001,0.6617980705903886,0.4414016570175085,0.6059210179166014,0.006900071879813926,408897767,408903602
-1.0,0.04,1.6400000000000001,0.6617980705903886,0.4414016570175085,0.6059210179166014,0.006900071879813926,408903609,408910914
-0.23,-0.63,0.18,0.6605947475912078,0.444619354778084,0.6049072404104087,0.003929288827842279,408910921,408918331
-0.23,-0.63,0.18,0.6592353379780984,0.44756111062936943,0.6042312372476212,0.001559919009618957,408918338,408926029
-0.75,-0.37,0.32,0.657801695966329,0.45061792134411677,0.6032903686328963,0.016767494210906425,408926036,408934618
1.18,-0.32,-2.62,0.657801695966329,0.45061792134411677,0.6032903686328963,0.016767494210906425,408934626,408940256
1.18,-0.32,-2.62,0.6569428752322822,0.4536406362442061,0.6020220430349016,0.014341949992137771,408940263,408946141
-1.1500000000000001,1.5,-0.64,0.6569428752322822,0.4536406362442061,0.6020220430349016,0.014341949992137771,408946148,408951783
0.9500000000000001,0.75,-3.0500000000000003,0.6560907502034018,0.45688145291653903,0.6005544377380516,0.011774242716305863,408951790,408957576
0.9500000000000001,0.75,-3.0500000000000003,0.6547822852905416,0.4603512007845138,0.5993765819244705,0.009200209046026551,408957583,408965456
1.48,0.33,-1.6600000000000001,0.6541074296802104,0.4630559118178595,0.5980683813897532,0.00607487856011048,408965463,408974027
-1.3800000000000001,1.1500000000000001,1.9100000000000001,0.6541074296802104,0.4630559118178595,0.5980683813897532,0.00607487856011048,408974034,408982165
3.31,0.97,-1.03,0.6528995428045032,0.46619078349569715,0.5969757913894159,0.0028713906594543597,408982173,408988513
3.31,0.97,-1.03,0.6514680999887693,0.469706035521537,0.5955360447459336,0.017388913135471563,408988520,408994387
-0.74,1.53,-0.74,0.6514680999887693,0.469706035521537,0.5955360447459336,0.017388913135471563,408994395,409000108
-0.74,1.53,-0.74,0.6505643019035084,0.4744969784468605,0.5928125736797073,0.013854927673643512,409000115,409005951
-1.51,-0.78,-1.03,0.6490263551041289,0.4779731363563338,0.5917795366160159,0.010171103404850813,409005959,409013923
1.57,-0.4,-1.95,0.6490263551041289,0.4779731363563338,0.5917795366160159,0.010171103404850813,409013931,409021921
-1.8800000000000001,1.12,1.34,-0.6782418649122086,-0.3692584565763209,-0.6352819556657627,0.007280228895199223,395213582,395219338
