ACC_X,ACC_Y,ACC_Z,QUAT_W,QUAT_X,QUAT_Y,QUAT_Z,TIME1,TIME2
1.84,-0.88,-2.2600000000000002,0.7217228489157147,0.06026568966834268,0.6895445120816553,0.0035414488356270263,916094368,916101773
1.84,-0.88,-2.2600000000000002,0.7217709327426096,0.05983719770643409,0.6895321160191431,0.0034192684403676625,916101789,916107692
-2.68,-0.38,1.86,0.7217709327426096,0.05983719770643409,0.6895321160191431,0.0034192684403676625,916107700,916113512
2.25,0.67,-1.09,0.7216262190909095,0.05971321112369147,0.6896936941239457,0.003541274279319126,916113520,916119645
2.25,0.67,-1.09,0.7215937675593064,0.059104989591928295,0.6897820944421632,0.003114002550814404,916119653,916127493
-0.59,0.1,0.39,0.7214256905626681,0.058861986094152524,0.6899797125144435,0.0028698271228476853,916127500,916135990
1.28,-0.51,-2.48,0.7214256905626681,0.058861986094152524,0.6899797125144435,0.0028698271228476853,916135997,916144793
-1.04,-0.96,-0.14,0.7213598713983567,0.05831206002923909,0.6900972800528379,0.0023202704514252203,916144801,916150431
-1.04,-0.96,-0.14,0.7213032300676001,0.05825135710526458,0.6901625674641567,0.002014984050811039,916150438,916156292
-0.02,0.38,-0.1,0.7213032300676001,0.05825135710526458,0.6901625674641567,0.002014984050811039,916156300,916161959
-0.02,0.38,-0.1,0.7210306703509947,0.05837612812123568,0.6904381596933178,0.0014655094925833225,916161966,916167952
-0.18,0.98,0.19,0.7209943165503797,0.05856132375470603,0.6904618224134109,0.0004885199061914997,916167959,916176778
-0.12,0.05,-0.01,0.7208469225334302,0.05873748428571573,0.6904401998990368,0.014898072937333303,916176785,916185543
0.67,-1.1,-1.3800000000000001,0.7208469225334302,0.05873748428571573,0.6904401998990368,0.014898072937333303,916185568,916193382
-0.17,-0.72,-0.38,0.720955374868769,0.058619222484459915,0.6903634681346915,0.013616756889619335,916193389,916199831
-0.17,-0.72,-0.38,0.7211292908535836,0.05898982936443067,0.6901687903486494,0.012640677720949428,916199839,916205669
0.0,0.0,0.92,0.7211292908535836,0.05898982936443067,0.6901687903486494,0.012640677720949428,916205677,916211444
0.0,0.0,0.92,0.7210748126992208,0.06039490089426909,0.6901140293287512,0.012091193505627179,916211452,916217331
-0.33,-0.44,-0.2,0.7210748126992208,0.06039490089426909,0.6901140293287512,0.012091193505627179,916217338,916225180
0.85,-0.17,-0.27,0.7209813206931525,0.06064157643980183,0.6902025145243105,0.011358845133739316,916225187,916232791
-0.9,-1.29,-0.16,0.7210866358675274,0.061133880113779536,0.6900616497558392,0.01056559566401984,916232798,916240065
-0.9,-1.29,-0.16,0.7209746257472984,0.06174547620758312,0.6901324244764483,0.010016081204790932,916240073,916247910
2.08,-0.98,-1.6400000000000001,0.7209746257472984,0.06174547620758312,0.6901324244764483,0.010016081204790932,916247918,916253548
-2.62,-0.29,0.41000000000000003,0.7212968726996241,0.06260197244006051,0.6897210485518082,0.00983309030521926,916253555,916259445
-2.62,-0.29,0.41000000000000003,0.7212968726996241,0.06260197244006051,0.6897210485518082,0.00983309030521926,916259452,916265200
0.76,1.6500000000000001,0.21,0.7213572966254098,0.06327374136854835,0.6895982758612735,0.009710931349033964,916265207,916272173
0.89,3.43,0.15,0.721483381321764,0.06516742299757236,0.689296659747518,0.009222381323930108,916272181,916280214
0.89,3.43,0.15,0.7214723175917543,0.06816484138438858,0.689039046287892,0.007512791657956806,916280222,916287980
-0.6,-0.76,-1.34,0.7206818682946439,0.07110304243896978,0.6895895584995961,0.005314402656520938,916287987,916296602
1.81,-1.77,-3.44,0.7206818682946439,0.07110304243896978,0.6895895584995961,0.005314402656520938,916296609,916302241
1.81,-1.77,-3.44,0.720754557431564,0.07330949897591768,0.689292564121066,0.00378765744708908,916302249,916308192
2.12,0.24,-1.52,0.720754557431564,0.07330949897591768,0.689292564121066,0.00378765744708908,916308199,916313834
0.21,2.72,2.87,0.721991571852648,0.07484468778196612,0.6878379551423467,0.002321712763848745,916313841,916319657
0.21,2.72,2.87,0.722148196618066,0.07649150102925707,0.6873237911973977,0.01539605292282171,916319665,916327620
-0.01,0.79,1.47,0.7205088608791284,0.07834540794292134,0.6889140278787459,0.011244582731277321,916327627,916336191
3.91,-4.7700000000000005,-5.92,0.7205088608791284,0.07834540794292134,0.6889140278787459,0.011244582731277321,916336199,916344524
-1.86,-3.56,-0.17,0.7210498804991253,0.07824210300431336,0.6884082531520134,0.007701957014487096,916344531,916350482
-1.86,-3.56,-0.17,0.7220923167265603,0.07849361113079101,0.6873081541615914,0.005379624438870412,916350489,916356343
3.77,0.74,3.66,0.7220923167265603,0.07849361113079101,0.6873081541615914,0.005379624438870412,916356351,916362011
3.77,0.74,3.66,0.7222177229102547,0.08223694863818934,0.6867549495198086,0.0025068512224280764,916362019,916367826
-5.64,-5.86,1.8,0.721377788919516,0.0887962486869394,0.6868255296164025,6.115444124444863e-05,916367833,916376121
1.53,-1.82,-7.74,0.721377788919516,0.0887962486869394,0.6868255296164025,6.115444124444863e-05,916376128,916385031
4.54,-1.5,-3.74,0.7209627135690668,0.09460762727045097,0.6863486754080615,0.013698841957712357,916385039,916392443
-4.32,6.05,3.23,0.7229269732351407,0.09993762049629609,0.6835390738473716,0.012782718900689036,916392450,916399470
-4.32,6.05,3.23,0.7229269732351407,0.09993762049629609,0.6835390738473716,0.012782718900689036,916399478,916405280
5.95,0.98,-0.24,0.724715353704368,0.10166077969755735,0.6814085955660584,0.011621870121862754,916405288,916411013
5.95,0.98,-0.24,0.7259552402198233,0.10327089545685669,0.6798871215711187,0.008809839422859813,916411021,916416829
2.85,1.59,0.1,0.7259552402198233,0.10327089545685669,0.6798871215711187,0.008809839422859813,916416836,916424536
-7.7,3.66,4.62,0.7273819040469057,0.10268777006484164,0.6784858800410604,0.0052629012071372955,916424544,916431759
1.62,-5.74,-1.31,0.7270125162963794,0.10272204465689834,0.6788959923986905,0.0011019051274279918,916431766,916438877
1.62,-5.74,-1.31,0.7253468004813685,0.10263243880175378,0.6805828907175964,0.012063598116912587,916438884,916447449
0.23,0.32,1.28,0.7253468004813685,0.10263243880175378,0.6805828907175964,0.012063598116912587,916447457,916453088
-0.27,0.11,0.5,0.7240262065850541,0.10162093711714085,0.6821894976935489,0.00875936950437079,916453095,916458919
-0.27,0.11,0.5,0.7240262065850541,0.10162093711714085,0.6821894976935489,0.00875936950437079,916458926,916464567
1.98,-2.93,-0.39,0.7231944071908051,0.10319093219024875,0.6828739598148053,0.004963459327440706,916464574,916471346
1.98,-2.93,-0.39,0.7225365594940348,0.1034033912340038,0.6835534197045705,0.001838827348559641,916471354,916478629
2.12,-0.41000000000000003,-1.44,0.7221902341775146,0.10434361447963751,0.6836284636089529,0.014345714329162854,916478637,916487405
-0.64,-0.2,-0.67,0.7221902341775146,0.10434361447963751,0.6836284636089529,0.014345714329162854,916487413,916496001
-0.31,-2.48,0.93,0.7223889046735682,0.1053624363892682,0.6833226229622971,0.01110046623193105,916496008,916501641
-0.31,-2.48,0.93,0.722019882050186,0.10705452410379596,0.6834925232323156,0.008036757969969782,916501649,916507341
-0.29,-1.71,0.68,0.722019882050186,0.10705452410379596,0.6834925232323156,0.008036757969969782,916507348,916513065
0.49,-1.36,-1.09,0.7214002549960865,0.10910595894717946,0.6838452230075185,0.005768256547263706,916513073,916518907
0.49,-1.36,-1.09,0.7213857013911356,0.11134124583710711,0.6835149468809398,0.0036213525382521056,916518914,916526831
-0.72,-1.33,0.08,0.7213857013911356,0.11134124583710711,0.6835149468809398,0.0036213525382521056,916526838,916535414
0.77,-1.36,0.41000000000000003,0.721408337946899,0.11412629565511745,0.6830388195044845,0.001780345655728029,916535422,916542830
-0.51,-2.32,-0.13,0.7212376257177583,0.11734080561439095,0.6826766493044472,0.0001228056573672328,916542838,916549797
-0.51,-2.32,-0.13,0.7212376257177583,0.11734080561439095,0.6826766493044472,0.0001228056573672328,916549804,916555681
0.16,-2.09,-0.54,0.7209370577060864,0.12102605746858838,0.6821915263703789,0.014736810650665252,916555689,916561344
0.16,-2.09,-0.54,0.72096220604591,0.12527793018174246,0.6814136829885364,0.013940240270223303,916561351,916567239
-0.93,-2.08,-0.32,0.72096220604591,0.12527793018174246,0.6814136829885364,0.013940240270223303,916567247,916575420
2.46,0.27,-1.59,0.7209727775580111,0.1297628176303303,0.6805639114904497,0.013879033026244507,916575428,916582986
-2.97,-0.9,0.5,0.7213864905866989,0.1342428593191899,0.6792590425112349,0.013694491138233919,916583006,916590150
-2.97,-0.9,0.5,0.7218890014206436,0.13915784578640394,0.6777343274928305,0.013694704152854405,916590157,916598411
-3.75,2.4,2.21,0.7218890014206436,0.13915784578640394,0.6777343274928305,0.013694704152854405,916598418,916604049
-0.9400000000000001,5.15,2.84,0.7224671690497597,0.14346168878784757,0.6762228832375811,0.013510946718033589,916604056,916609779
-0.9400000000000001,5.15,2.84,0.7224671690497597,0.14346168878784757,0.6762228832375811,0.013510946718033589,916609787,916615621
3.86,0.0,-1.21,0.7215180209660368,0.14728868768847844,0.6764346611814901,0.012407137161414781,916615628,916621874
-1.5,6.19,-2.56,0.7206499961574124,0.1495491594037976,0.6769034877369097,0.010015001225480283,916621882,916629030
-1.5,6.19,-2.56,0.7207939952729462,0.15183022073376917,0.6762899143777038,0.005962563324362595,916629038,916637660
-2.6,-2.56,2.44,0.7207939952729462,0.15183022073376917,0.6762899143777038,0.005962563324362595,916637667,916646205
-5.96,-0.99,3.59,0.7215719827379793,0.1528519629276173,0.6752550700279206,0.0008611378193105199,916646213,916651843
-5.96,-0.99,3.59,0.7196316792759349,0.15512539234327763,0.6766814516457851,0.012983521532896303,916651850,916657653
5.84,-3.56,-4.8,0.7196316792759349,0.15512539234327763,0.6766814516457851,0.012983521532896303,916657661,916663315
-1.74,-3.21,0.53,0.7187381968692704,0.15704506554291298,0.6772453022491515,0.009542134519463548,916663323,916669218
-1.74,-3.21,0.53,0.718193597935517,0.1601802047873675,0.6771170133168418,0.007266922016497256,916669225,916677466
-1.6400000000000001,-0.9,-1.93,0.718193597935517,0.1601802047873675,0.6771170133168418,0.007266922016497256,916677474,916686161
3.5,-0.32,-2.18,0.7183866311892875,0.16404249690079512,0.676005392786078,0.005236054163187226,916686169,916693958
-3.21,0.37,0.86,0.7189082287029013,0.16803486240445803,0.6744809695193243,0.003265804073133948,916693965,916700560
-3.21,0.37,0.86,0.7189082287029013,0.16803486240445803,0.6744809695193243,0.003265804073133948,916700567,916706391
0.7000000000000001,2.82,2.14,0.7193451502653667,0.17257873539054294,0.6728721622351991,0.001479246303347511,916706399,916712144
0.7000000000000001,2.82,2.14,0.7183192455007034,0.1767127002236065,0.6727537585972682,0.013873118475335473,916712151,916718043
-1.1500000000000001,1.1500000000000001,-3.39,0.7183192455007034,0.1767127002236065,0.6727537585972682,0.013873118475335473,916718050,916725894
2.2600000000000002,-4.17,-1.49,0.7167980936729834,0.18060325558929347,0.6734212270247861,0.009317079464975508,916725902,916733344
-3.5500000000000003,-4.09,3.0700000000000003,0.716535338889666,0.18288476292901257,0.6731295359392623,0.005186468631342692,916733351,916740404
-3.5500000000000003,-4.09,3.0700000000000003,0.7157477817539439,0.1855459385906841,0.6732525734482213,0.0029647819748178554,916740411,916748775
1.56,-1.62,-1.76,0.7157477817539439,0.1855459385906841,0.6732525734482213,0.0029647819748178554,916748782,916754416
-0.44,0.2,0.05,0.7153603258326955,0.18782996981615083,0.6730367964497799,0.000988578788506057,916754423,916760295
-0.44,0.2,0.05,0.7153603258326955,0.18782996981615083,0.6730367964497799,0.000988578788506057,916760303,916766133
-1.59,1.6500000000000001,0.21,0.7154978628207356,0.19192817703784476,0.6715632414833538,0.015139215510068244,916766140,916773127
1.02,3.67,0.71,0.7157089149202253,0.19682304241717027,0.6699648661172397,0.012981419254901306,916773134,916780417
1.02,3.67,0.71,0.7153438502575701,0.20090244925521727,0.6692006152993213,0.009587401365319789,916780425,916788962
-0.6,0.2,-1.49,0.7147708531887745,0.20427330176868072,0.6688403107910894,0.005261585045556927,916788969,916797574
0.66,-2.62,-2.5500000000000003,0.7147708531887745,0.20427330176868072,0.6688403107910894,0.005261585045556927,916797582,916803212
0.66,-2.62,-2.5500000000000003,0.714289030191621,0.20706453589408508,0.6685155656311278,0.0015484933883793382,916803219,916809130
-1.68,-2.73,-0.18,0.714289030191621,0.20706453589408508,0.6685155656311278,0.0015484933883793382,916809137,916814772
0.92,-0.9400000000000001,1.86,0.7139160887500999,0.20986233228576537,0.6678789724559389,0.014808709009831096,916814779,916820592
0.92,-0.9400000000000001,1.86,0.7132953069224329,0.21356703740203212,0.6674202393817932,0.01221268689933246,916820600,916828403
0.76,-0.32,-0.3,0.7130398958235223,0.2173357511278377,0.6665211134759543,0.009427806555773782,916828410,916837064
-1.03,0.31,1.67,0.7130398958235223,0.2173357511278377,0.6665211134759543,0.009427806555773782,916837071,916845209
-0.2,0.35000000000000003,0.1,0.7128869578845352,0.22093475842856664,0.6655349296033564,0.0065783944925359725,916845217,916851250
-0.2,0.35000000000000003,0.1,0.7123794071745484,0.22439982371906372,0.664941259603612,0.0036634171553471943,916851257,916857029
1.1300000000000001,0.09,-0.77,0.7123794071745484,0.22439982371906372,0.664941259603612,0.0036634171553471943,916857036,916862724
1.1300000000000001,0.09,-0.77,0.7119968505563206,0.2273916643137987,0.6643440072424726,0.0007455464403731105,916862731,916868585
0.61,-0.13,-0.54,0.7114653320602289,0.2304212813163785,0.6637276616930914,0.013737011915543473,916868592,916876790
0.51,-0.97,-0.97,0.7114653320602289,0.2304212813163785,0.6637276616930914,0.013737011915543473,916876797,916884792
0.0,-0.26,-0.91,0.7110072005642081,0.2337268246781223,0.6631174573491591,0.010759643605459062,916884799,916892628
-0.97,-0.51,1.25,0.7109057051986365,0.2368026094967007,0.6621760223508266,0.007779323570850877,916892635,916899932
-0.97,-0.51,1.25,0.7109057051986365,0.2368026094967007,0.6621760223508266,0.007779323570850877,916899940,916906630
1.1,0.22,-1.0,0.7104361612312117,0.24017462300541534,0.6614920975334527,0.004981584091374961,916906638,916914641
-0.8300000000000001,-0.1,0.17,0.7098948838398453,0.2433604894048127,0.6609237254496295,0.0021806495466381065,916914648,916921906
-0.8300000000000001,-0.1,0.17,0.7093873221045572,0.24647780945530928,0.6601416292695309,0.015210062090818276,916921913,916929572
0.28,0.39,-0.54,0.7088423979389702,0.24958887918277037,0.6596232962955796,0.012039653507191873,916929579,916938019
0.56,-0.16,-1.16,0.7088423979389702,0.24958887918277037,0.6596232962955796,0.012039653507191873,916938027,916946876
1.83,-0.16,-0.26,0.7084370575436616,0.2525227262745956,0.6589937944510832,0.008739970748688106,916946884,916952514
1.83,-0.16,-0.26,0.7078309959892874,0.255643816027199,0.6584764958276337,0.005497716473703204,916952522,916959656
-0.33,-0.48,-0.44,0.7074610897960713,0.2583895973954721,0.6578212784406382,0.002188152893501458,916959663,916968102
-0.48,-0.58,0.8300000000000001,0.7074610897960713,0.2583895973954721,0.6578212784406382,0.002188152893501458,916968110,916976771
-0.41000000000000003,-0.78,0.08,0.7068841455262749,0.2615471338447217,0.657026918624997,0.01495091245847608,916976779,916984501
-0.34,-0.34,0.66,0.7064772184906021,0.2646863694974094,0.6562694445225504,0.011894609792929943,916984508,916992012
-0.34,-0.34,0.66,0.706018836332582,0.267998986852776,0.6554636277327246,0.009021003765030329,916992033,916999825
0.44,0.19,-0.96,0.706018836332582,0.267998986852776,0.6554636277327246,0.009021003765030329,916999833,917006576
0.87,0.22,-1.36,0.7053325176193034,0.27132513876600706,0.6548665433340364,0.006206374477318553,917006583,917014348
-0.41000000000000003,-0.8200000000000001,0.66,0.704934619380925,0.27435734162983133,0.6540533470137188,0.003074207578289901,917014355,917021670
-0.41000000000000003,-0.8200000000000001,0.66,0.704339595960353,0.2776801883352029,0.6531103321842903,0.015695240127470207,917021677,917029423
0.24,-1.53,-1.16,0.7035429922697515,0.2813669303727737,0.6524596259470483,0.012503800612814196,917029430,917037921
1.29,0.76,-3.0100000000000002,0.7035429922697515,0.2813669303727737,0.6524596259470483,0.012503800612814196,917037929,917046531
1.48,-0.87,1.46,0.7036345166485312,0.28403191346750806,0.6512549319864912,0.00955785938611052,917046538,917052168
1.48,-0.87,1.46,0.7040402911083046,0.28660047248656645,0.649728431697697,0.0063563126309054046,917052176,917059291
-2.81,-0.78,4.84,0.7029257616055654,0.29025128428955843,0.649334127209728,0.0038414685054595494,917059298,917067851
3.2,1.05,-5.22,0.7029257616055654,0.29025128428955843,0.649334127209728,0.0038414685054595494,917067858,917076388
3.31,-0.74,-1.69,0.700963521951573,0.2941110093453197,0.6497288421577558,0.0011343471541066543,917076396,917083554
-2.77,-1.45,-2.22,0.7004003613101145,0.29687388569893824,0.6489346526357288,0.013749417268402068,917083562,917090339
-2.77,-1.45,-2.22,0.700180523334665,0.30010441576134234,0.6477332531984556,0.011234192640487684,917090347,917099278
1.34,-1.07,-0.64,0.700180523334665,0.30010441576134234,0.6477332531984556,0.011234192640487684,917099286,917105836
-0.62,-0.4,-0.1,0.6993866711656792,0.30370765127931587,0.6469579376877607,0.008085395042377794,917105844,917113285
-0.92,-0.15,2.06,0.698782192816214,0.30734529852330944,0.6459246183324685,0.004868460807713398,917113292,917120442
-0.92,-0.15,2.06,0.6981618315861841,0.31082850691120606,0.6449438400730887,0.0017718237364645296,917120449,917128905
-0.4,-0.81,0.31,0.6972780646780279,0.3140664003635142,0.6441527199391189,0.015260081146694944,917128913,917137589
0.02,-0.24,-1.48,0.6972780646780279,0.3140664003635142,0.6441527199391189,0.015260081146694944,917137597,917145579
-0.27,0.43,0.54,0.6967034458098391,0.3172364425799577,0.6432814879403017,0.01242076363277501,917145587,917151865
-0.27,0.43,0.54,0.6961255694013118,0.32037633266934173,0.6424018010839623,0.009387388088509717,917151873,917157659
0.4,-0.31,-0.52,0.6961255694013118,0.32037633266934173,0.6424018010839623,0.009387388088509717,917157666,917163321
0.4,-0.31,-0.52,0.6953349806282767,0.3235754949568453,0.6416914073030787,0.006348351872804498,917163329,917169244
-1.05,-0.34,-0.53,0.6944777280430322,0.326745766089969,0.6410368121967343,0.00311367999580095,917169252,917177865
-1.6,-0.76,0.37,0.6944777280430322,0.326745766089969,0.6410368121967343,0.00311367999580095,917177872,917186313
0.11,-0.86,-0.18,0.6936808064303094,0.32970031177543996,0.6401935452028509,0.016027098489083888,917186321,917193554
1.26,-0.45,-0.71,0.6928122452744544,0.33294202359509295,0.639528789490689,0.012795668593233974,917193561,917201209
1.26,-0.45,-0.71,0.6928122452744544,0.33294202359509295,0.639528789490689,0.012795668593233974,917201217,917207050
-0.63,-0.85,-0.07,0.6923661998215961,0.3360190493933986,0.6384553111838537,0.009749841562144887,917207058,917212817
-0.63,-0.85,-0.07,0.6919104232910713,0.33906672291808027,0.6373765541987164,0.0066971418183593735,917212825,917218731
-0.58,-0.8300000000000001,0.27,0.6919104232910713,0.33906672291808027,0.6373765541987164,0.0066971418183593735,917218738,917226643
1.01,-0.51,-0.87,0.6911253380727432,0.34227463625015947,0.6365376092919399,0.0037030272155398713,917226651,917233725
-0.47000000000000003,-0.24,0.43,0.6906363752022138,0.3447430832916306,0.6357458638866419,0.0008946067036298106,917233733,917240715
-0.47000000000000003,-0.24,0.43,0.6899309292292135,0.3475875602855743,0.6348029665859449,0.014261642307945367,917240723,917249500
0.35000000000000003,0.62,0.81,0.6899309292292135,0.3475875602855743,0.6348029665859449,0.014261642307945367,917249507,917255138
1.73,-0.64,-1.05,0.6892098125469915,0.350302442342294,0.6341549696350082,0.011203020359996612,917255145,917260985
1.73,-0.64,-1.05,0.6892098125469915,0.350302442342294,0.6341549696350082,0.011203020359996612,917260992,917266804
-0.85,-0.13,0.75,0.688724472829254,0.3528847852503444,0.6332958657398136,0.008202152262946084,917266811,917273264
-0.89,-0.96,0.03,0.6879852223734843,0.35579470711408884,0.6325025431498161,0.0051954878810602486,917273271,917280665
-0.89,-0.96,0.03,0.6873828171917282,0.3587154679292159,0.6315241350549073,0.002311393743592585,917280673,917289118
0.05,0.11,-0.8300000000000001,0.6873828171917282,0.3587154679292159,0.6315241350549073,0.002311393743592585,917289126,917297665
-1.02,0.55,0.46,0.6867553347673275,0.3616598693806044,0.6303343387978587,0.015743899786469097,917297673,917303611
-1.02,0.55,0.46,0.6858960266199553,0.3641128785095617,0.6299281460009944,0.012608855863581996,917303619,917309589
1.49,-0.35000000000000003,-0.52,0.6858960266199553,0.3641128785095617,0.6299281460009944,0.012608855863581996,917309596,917315232
0.9,-1.1400000000000001,-2.09,0.6854608720051231,0.36633481536833035,0.6291710287154042,0.00927429912324887,917315239,917321074
0.9,-1.1400000000000001,-2.09,0.6849733891787267,0.3684697777820429,0.6284940321643664,0.006060570273230452,917321081,917329019
1.36,0.91,1.1400000000000001,0.6849733891787267,0.3684697777820429,0.6284940321643664,0.006060570273230452,917329027,917337528
0.04,-1.27,-0.67,0.6838483726403718,0.37120061764204076,0.6281360016794881,0.002582265166205501,917337535,917345300
0.2,-2.5,-1.6600000000000001,0.6828769091204192,0.37417027574592854,0.6272360442815169,0.015832766417573835,917345307,917351923
0.2,-2.5,-1.6600000000000001,0.6823383364979309,0.37733025377250956,0.6259943195193854,0.012937776573718826,917351931,917357740
0.43,-1.54,0.1,0.6823383364979309,0.37733025377250956,0.6259943195193854,0.012937776573718826,917357747,917363434
0.43,-1.54,0.1,0.6814295242979125,0.3810540431863564,0.6247732307060583,0.010489508070720431,917363442,917369137
1.31,-1.31,-0.44,0.6814295242979125,0.3810540431863564,0.6247732307060583,0.010489508070720431,917369144,917377236
-1.29,-0.85,-0.26,0.6805493071029756,0.38492314646654685,0.6233940520215792,0.008165036440199478,917377243,917384673
0.7000000000000001,-0.6900000000000001,-0.04,0.6797929399625815,0.3887310515298334,0.6218788877410031,0.006031362661373792,917384680,917391680
0.7000000000000001,-0.6900000000000001,-0.04,0.6788611476748503,0.39255686214145663,0.6205098548400009,0.003764599537732223,917391688,917400079
0.21,0.36,0.35000000000000003,0.6788611476748503,0.39255686214145663,0.6205098548400009,0.003764599537732223,917400087,917406023
0.91,-0.39,-1.6400000000000001,0.677822808443058,0.3963655751911394,0.6192318958205723,0.001558959981086094,917406031,917411913
0.91,-0.39,-1.6400000000000001,0.677822808443058,0.3963655751911394,0.6192318958205723,0.001558959981086094,917411920,917417596
1.5,0.77,-1.28,0.6769946996202152,0.3997350113275114,0.6177722902334266,0.015731968245447675,917417604,917424221
-0.26,0.8300000000000001,0.32,0.6764894390140669,0.40248322983095913,0.6166115975773783,0.012626414389910426,917424228,917431040
-0.26,0.8300000000000001,0.32,0.6755872683139363,0.40527416047500436,0.6158290426899488,0.009449228697359003,917431047,917439587
-1.03,0.54,1.11,0.6744826354920321,0.4082652462294326,0.6151057177888544,0.00613343985065793,917439594,917448302
1.44,-0.74,-1.25,0.6744826354920321,0.4082652462294326,0.6151057177888544,0.00613343985065793,917448309,917453940
1.44,-0.74,-1.25,0.6737650602314923,0.4107797647086299,0.6142421771951376,0.0026788564264440635,917453948,917459839
-0.71,-0.64,-0.6900000000000001,0.6737650602314923,0.4107797647086299,0.6142421771951376,0.0026788564264440635,917459847,917465481
-0.97,-0.63,0.93,0.67295297006657,0.41359658142796674,0.61303608431803,0.016091216041638434,917465489,917471124
-0.97,-0.63,0.93,0.6719127190344708,0.41694086844462824,0.6119848373777265,0.012968000620803706,917471131,917479152
0.38,-1.09,0.58,0.6719127190344708,0.41694086844462824,0.6119848373777265,0.012968000620803706,917479159,917487780
0.26,-1.62,-0.26,0.6707494376527179,0.42067726216811707,0.6107557196221961,0.010162870267465422,917487787,917495435
-0.01,-1.56,-0.44,0.6697353263122058,0.42445887448657726,0.6092858716342813,0.007744881272524528,917495442,917502164
-0.01,-1.56,-0.44,0.6688195807623221,0.4282521213033668,0.6076594756950672,0.0055182049684741235,917502172,917508355
0.05,-0.56,0.05,0.6688195807623221,0.4282521213033668,0.6076594756950672,0.0055182049684741235,917508362,917513997
0.05,-0.56,0.05,0.6678429944414841,0.4319905950064537,0.6061018728720685,0.0032218476644316945,917514004,917519816
0.08,0.16,0.09,0.6678429944414841,0.4319905950064537,0.6061018728720685,0.0032218476644316945,917519823,917527521
0.62,0.8200000000000001,-1.47,0.6667381290651535,0.4358707559765582,0.6045460915598164,0.0009871751984974141,917527529,917534885
1.51,0.85,-2.14,0.6656858909962945,0.4392011712293217,0.6031028532480035,0.01521755970511074,917534893,917541971
1.51,0.85,-2.14,0.665130809443278,0.441749246184506,0.6019295284031411,0.011809007626497397,917541979,917550381
1.51,0.77,-0.74,0.665130809443278,0.441749246184506,0.6019295284031411,0.011809007626497397,917550388,917556022
-3.11,0.28,2.7800000000000002,0.6642094250256445,0.44459019407117895,0.600913629822763,0.008258845929394763,917556030,917561708
-3.11,0.28,2.7800000000000002,0.6642094250256445,0.44459019407117895,0.600913629822763,0.008258845929394763,917561715,917567602
2.04,-2.0100000000000002,-1.47,0.6621539962265629,0.4483382588098129,0.6004305794537201,0.005292468747939358,917567609,917574163
0.87,-1.8800000000000001,-3.2,0.6608250484992225,0.4519203473900165,0.5992266426553539,0.002384454419762655,917574171,917581360
0.87,-1.8800000000000001,-3.2,0.6602646492766867,0.455030232332693,0.5972686246896773,0.01637896639262244,917581368,917589979
0.25,-1.18,0.02,0.6594890370643525,0.4584690245587294,0.5955582999299683,0.013808508124560631,917589987,917598670
-0.89,0.05,0.9400000000000001,0.6594890370643525,0.4584690245587294,0.5955582999299683,0.013808508124560631,917598677,917604307
-0.89,0.05,0.9400000000000001,0.6582733901257893,0.46202085897571804,0.5942072065739205,0.011430895820457927,917604315,917610546
1.01,-0.15,0.59,0.6582733901257893,0.46202085897571804,0.5942072065739205,0.011430895820457927,917610554,917616188
-0.47000000000000003,-0.58,0.5,0.6568652542179355,0.4654542001933229,0.5931281010182209,0.00891521767094129,917616196,917622060
-0.47000000000000003,-0.58,0.5,0.6555991679977222,0.4687893685022315,0.591930658793555,0.006659885900017495,917622067,917629804
-0.72,-1.02,-2.42,0.6555991679977222,0.4687893685022315,0.591930658793555,0.006659885900017495,917629812,917638206
1.41,2.16,-1.57,0.6549154863362201,0.4714831402854217,0.5905708066055693,0.003934027050889532,917638213,917646021
-2.7600000000000002,-0.62,2.31,0.6542148549938323,0.4738131884968092,0.5894946717892356,0.00013358138948317146,917646029,917652515
-2.7600000000000002,-0.62,2.31,0.6542148549938323,0.4738131884968092,0.5894946717892356,0.00013358138948317146,917652522,917658382
-1.23,-1.47,2.18,0.6527390596819553,0.4771636901087273,0.5882610953891585,0.01397914371078273,917658390,917664024
-1.23,-1.47,2.18,0.6508731659201205,0.4805881390749696,0.5875938303445531,0.011517508697351925,917664032,917669752
0.96,-2.15,-0.23,0.6508731659201205,0.4805881390749696,0.5875938303445531,0.011517508697351925,917669759,917677774
-2.12,-0.84,4.29,0.6500659965775327,0.48320879687850427,0.586380042493934,0.009050109264511387,917677782,917685061
-2.11,-1.55,-2.1,0.6486558337305913,0.48674350034981995,0.5850450206162228,0.006978401438707095,917685068,917692173
-2.11,-1.55,-2.1,0.6473322322818836,0.4900999480142047,0.583727374015548,0.00503734357969924,917692181,917700577
4.11,0.75,-2.4,0.6473322322818836,0.4900999480142047,0.583727374015548,0.00503734357969924,917700585,917706215
-0.21,0.92,-2.15,0.6463171778655261,0.49299253261181686,0.5824319090098139,0.002353667799947291,917706222,917712387
-0.21,0.92,-2.15,0.6463171778655261,0.49299253261181686,0.5824319090098139,0.002353667799947291,917712395,917718216
1.47,-0.53,0.27,0.6450116951748711,0.4958106600488258,0.5812511445140567,0.016697588768618793,917718223,917724800
-0.77,-0.27,0.67,0.6437281248435328,0.4986246447279695,0.5803464931945415,0.01362030807776198,917724807,917731791
-0.77,-0.27,0.67,0.6423370289300054,0.5017413924463773,0.5792648269724124,0.010534543367649375,917731798,917740193
-0.27,-1.31,0.7000000000000001,0.6409365858983359,0.5056074618735844,0.5774989455509011,0.007507012876935241,917740200,917748973
1.1500000000000001,0.75,0.15,0.6409365858983359,0.5056074618735844,0.5774989455509011,0.007507012876935241,917748980,917754611
1.1500000000000001,0.75,0.15,0.6393432853107295,0.5098894796073172,0.5755308912905231,0.004132225090480451,917754618,917760457
-0.05,-2.3000000000000003,-2.48,0.6393432853107295,0.5098894796073172,0.5755308912905231,0.004132225090480451,917760465,917766099
1.23,0.54,-0.58,0.6382049639481298,0.5127076017772071,0.5743030638589356,0.0011532190037328025,917766107,917771992
1.23,0.54,-0.58,0.6369053741144846,0.5155706543098478,0.5729770586967,0.015353665551986508,917772000,917780018
-0.12,-1.02,0.79,-0.6403028476713739,-0.5043398062829271,-0.5793119751558412,0.00715950441489089,904347698,904354960
