ACC_X,ACC_Y,ACC_Z,QUAT_W,QUAT_X,QUAT_Y,QUAT_Z,TIME1,TIME2
-1.86,0.03,1.98,-0.7116513142585452,-0.06621716949839167,-0.699311952414749,0.01142307259796978,683240169,683248167
0.1,-0.32,0.99,-0.7119767774108923,-0.06566924373373738,-0.6990261916699134,0.011789920037777967,683248183,683255801
0.1,-0.32,0.99,-0.7115970870327384,-0.06530150966074319,-0.6994408658704485,0.012156221162289892,683255813,683261700
2.11,-1.4000000000000001,-1.87,-0.7115970870327384,-0.06530150966074319,-0.6994408658704485,0.012156221162289892,683261707,683267338
2.11,-1.4000000000000001,-1.87,-0.7117600850081477,-0.06499980520544753,-0.6992977163409378,0.012462368667209863,683267345,683273315
3.25,0.7000000000000001,-0.89,-0.7114415837948804,-0.06463207931092078,-0.6996514218789941,0.012706495743545864,683273323,683281613
-1.42,-1.17,-0.34,-0.7114415837948804,-0.06463207931092078,-0.6996514218789941,0.012706495743545864,683281621,683289584
0.26,0.67,-0.05,-0.7115772490716696,-0.06420567383021332,-0.6995425033584898,0.013256547308426538,683289591,683296576
0.26,0.67,-0.05,-0.7114714756439943,-0.06377951404536579,-0.6996808183539985,0.013684493435021013,683296584,683304376
0.93,0.0,-1.37,-0.7114714756439943,-0.06377951404536579,-0.6996808183539985,0.013684493435021013,683304384,683310134
0.29,0.2,0.14,-0.7114115895759402,-0.06365743892985226,-0.6997430954918693,0.014173249358661925,683310141,683316814
0.29,0.2,0.14,-0.7112943202220225,-0.06347460265487258,-0.6998701135844276,0.014600991371043837,683316821,683322650
0.39,0.09,-0.67,-0.7112943202220225,-0.06347460265487258,-0.6998701135844276,0.014600991371043837,683322657,683330700
-0.61,0.9,0.48,-0.7112576574012304,-0.0634767828586049,-0.6998941524814032,0.01521243400557519,683330708,683338760
0.34,0.3,0.08,-0.7113097371746889,-0.06348688402409602,-0.7000055277960001,0.0003666230068763967,683338785,683346186
0.34,0.3,0.08,-0.7112126862574925,-0.06361134172987797,-0.7000913950040459,0.0014665439015533826,683346193,683354095
-1.6600000000000001,-1.31,0.63,-0.7112126862574925,-0.06361134172987797,-0.7000913950040459,0.0014665439015533826,683354102,683359732
1.4000000000000001,-0.16,0.27,-0.7111094648101973,-0.06452965496601945,-0.7001100918046259,0.00226098222892303,683359740,683365554
1.4000000000000001,-0.16,0.27,-0.7111094648101973,-0.06452965496601945,-0.7001100918046259,0.00226098222892303,683365561,683371344
-1.56,-0.35000000000000003,0.7000000000000001,-0.71103275672528,-0.06551156985040826,-0.7000937912371987,0.0030555769519779973,683371352,683378455
-0.99,0.13,1.6500000000000001,-0.710882509272576,-0.06673690681960566,-0.700126377770515,0.003911320546203995,683378462,683385691
-0.99,0.13,1.6500000000000001,-0.7108603029157783,-0.06716838387966988,-0.7001035826584335,0.004583829655118508,683385699,683393700
-0.29,-0.48,1.23,-0.710616869880499,-0.0677796601614753,-0.7002879586385788,0.005133896711960257,683393707,683402380
1.04,-1.92,-1.6400000000000001,-0.710616869880499,-0.0677796601614753,-0.7002879586385788,0.005133896711960257,683402387,683408018
1.04,-1.92,-1.6400000000000001,-0.7109323631294779,-0.06875850313967181,-0.6998698839576729,0.005439561581716259,683408025,683413927
0.28,-0.96,-0.65,-0.7109323631294779,-0.06875850313967181,-0.6998698839576729,0.005439561581716259,683413934,683419958
0.35000000000000003,2.23,0.32,-0.7108717808622695,-0.06998092933430476,-0.6998092933430476,0.005561803117398893,683419965,683425824
0.35000000000000003,2.23,0.32,-0.7106921002797089,-0.0734650760695055,-0.6996295555471127,0.00617302219885196,683425831,683433713
-1.44,2.69,1.61,-0.7097267232155032,-0.07720134798218763,-0.7001911647949005,0.007762922560362494,683433720,683442128
0.32,-0.99,-1.6400000000000001,-0.7097267232155032,-0.07720134798218763,-0.7001911647949005,0.007762922560362494,683442136,683450301
3.8200000000000003,-0.33,-4.23,-0.7099307256517721,-0.07995431282525554,-0.6996613643714641,0.008924563969791521,683450309,683456420
3.8200000000000003,-0.33,-4.23,-0.7109739739853908,-0.08118430244648314,-0.6984417586227936,0.01020917056367672,683456427,683462111
-2.0100000000000002,3.45,2.27,-0.7109739739853908,-0.08118430244648314,-0.6984417586227936,0.01020917056367672,683462118,683467748
-2.0100000000000002,3.45,2.27,-0.7113032311725388,-0.08400641564647311,-0.6977301421816239,0.012778268464419856,683467756,683473569
1.26,4.22,2.84,-0.7113032311725388,-0.08400641564647311,-0.6977301421816239,0.012778268464419856,683473577,683481646
-0.38,1.3800000000000001,3.24,-0.7108754474110065,-0.08605366553448215,-0.6980316167342181,0.0016513496584442205,683481654,683489387
-0.88,-3.4,-2.82,-0.7104479719549148,-0.08595362099342593,-0.6984572888839458,0.005750633717709635,683489394,683496681
-0.88,-3.4,-2.82,-0.7115750232242452,-0.08609390813281563,-0.6972566333855253,0.00905607562448949,683496689,683504605
-1.84,-2.08,0.17,-0.7115750232242452,-0.08609390813281563,-0.6972566333855253,0.00905607562448949,683504613,683510243
-0.54,-1.98,4.55,-0.711762125700847,-0.08703463262074163,-0.6968891188605937,0.012853215787873237,683510250,683516172
-0.54,-1.98,4.55,-0.7105481341609389,-0.09183372404285786,-0.6976301903122436,0.00018366744808571574,683516180,683522090
-1.35,-2.06,4.15,-0.7105481341609389,-0.09183372404285786,-0.6976301903122436,0.00018366744808571574,683522098,683529128
2.2,-3.0500000000000003,-2.16,-0.7094414209667008,-0.09785821240438393,-0.6979286900955968,0.0034905620194304655,683529135,683536146
2.2,-3.0500000000000003,-2.16,-0.7119465548529348,-0.10264278932761452,-0.6946761093932765,0.004654446294092305,683536153,683544124
2.29,0.47000000000000003,1.57,-0.7149554175046728,-0.10319512407875396,-0.6914991964232706,0.004287037795556544,683544132,683552987
-4.64,6.5,3.73,-0.7149554175046728,-0.10319512407875396,-0.6914991964232706,0.004287037795556544,683552994,683558625
-4.64,6.5,3.73,-0.7160386967001079,-0.10474133202371125,-0.690128998778453,0.00630898081780249,683558632,683564435
1.62,5.3100000000000005,2.89,-0.7160386967001079,-0.10474133202371125,-0.690128998778453,0.00630898081780249,683564443,683570077
3.02,1.21,0.61,-0.716805973521917,-0.10587577760884458,-0.6891116150270109,0.010232207674002918,683570085,683575920
3.02,1.21,0.61,-0.7165092232110712,-0.10706882327856825,-0.6891751103420148,0.013728343683113502,683575927,683583953
-0.07,-1.49,2.13,-0.7150724303388073,-0.10790769762465068,-0.6906705759895966,0.0012262238366437578,683583961,683592453
-0.29,-4.04,1.62,-0.7150724303388073,-0.10790769762465068,-0.6906705759895966,0.0012262238366437578,683592460,683600641
0.56,0.7000000000000001,0.47000000000000003,-0.7130571463112542,-0.1086020129099786,-0.69263677911813,0.003066121200168792,683600648,683606750
0.56,0.7000000000000001,0.47000000000000003,-0.7122699282167105,-0.1104717654769459,-0.6931321209825034,0.00594989519781441,683606758,683612492
2.4,1.92,-0.74,-0.7122699282167105,-0.1104717654769459,-0.6931321209825034,0.00594989519781441,683612499,683618148
2.4,1.92,-0.74,-0.7121107370912142,-0.11196709702692047,-0.6930303167211471,0.008405201256267454,683618155,683624301
1.45,0.31,-0.9400000000000001,-0.7123082320545373,-0.11347100207364862,-0.692547462629056,0.010923655148247405,683624308,683632242
-0.99,-1.56,-0.08,-0.7123082320545373,-0.11347100207364862,-0.692547462629056,0.010923655148247405,683632250,683640249
1.52,0.34,-0.44,-0.7126888866659618,-0.1152725630142689,-0.691819519560077,0.013135425178409767,683640256,683647693
1.52,0.34,-0.44,-0.7129715650182002,-0.11744722327390142,-0.6911152077335642,0.015409959770909176,683647700,683655111
-0.63,-1.75,1.3,-0.7129715650182002,-0.11744722327390142,-0.6911152077335642,0.015409959770909176,683655119,683660751
0.74,-1.22,1.17,-0.7129177083190457,-0.12018089027309609,-0.6908712394339964,0.0013510370904487041,683660758,683666401
0.74,-1.22,1.17,-0.7123774825421636,-0.12327484113313696,-0.6908796278353385,0.00264116500683851,683666408,683672221
-1.32,-0.24,0.47000000000000003,-0.7123774825421636,-0.12327484113313696,-0.6908796278353385,0.00264116500683851,683672229,683679496
2.7800000000000002,-0.26,-1.6300000000000001,-0.7121561047266548,-0.12642260532454547,-0.6905328019694925,0.0039315095922113266,683679504,683686767
2.7800000000000002,-0.26,-1.6300000000000001,-0.7124600141427504,-0.12902432129180544,-0.6897271575341941,0.005468173616652706,683686774,683694559
0.34,-0.6900000000000001,-0.24,-0.7125603306644004,-0.13211492850366166,-0.689025438749562,0.006882266042981445,683694566,683703287
0.52,-0.23,0.09,-0.7125603306644004,-0.13211492850366166,-0.689025438749562,0.006882266042981445,683703295,683708925
0.52,-0.23,0.09,-0.7125193319322082,-0.13533749408390602,-0.688426553693838,0.008297257811683612,683708933,683714812
-0.68,-0.84,0.27,-0.7125193319322082,-0.13533749408390602,-0.688426553693838,0.008297257811683612,683714820,683720473
1.21,1.72,0.26,-0.7123661425356399,-0.13867443416691722,-0.6879014152313699,0.009773597088891773,683720481,683726640
1.21,1.72,0.26,-0.711983111588718,-0.1414743644011779,-0.6876969864524879,0.011743417470936539,683726647,683734496
2.61,3.47,-0.65,-0.7117137461360875,-0.14299468197082643,-0.687604535240361,0.01469923827571076,683734503,683743045
-2.34,-0.34,0.59,-0.7117137461360875,-0.14299468197082643,-0.687604535240361,0.01469923827571076,683743053,683751789
0.9500000000000001,-0.89,0.06,-0.7112351874881366,-0.14373608426094706,-0.6880995848844911,0.0018459257396525736,683751797,683757437
0.9500000000000001,-0.89,0.06,-0.7106984259220355,-0.14538971782676666,-0.688292897857284,0.004739630936774358,683757445,683763110
-0.62,-0.56,0.05,-0.7106984259220355,-0.14538971782676666,-0.688292897857284,0.004739630936774358,683763117,683768748
-0.62,-0.56,0.05,-0.7103825747666151,-0.14747042268926439,-0.688154256357085,0.007265766128322838,683768755,683774622
-0.27,-2.33,-0.71,-0.7102557120657077,-0.14972525459865899,-0.6877753673810058,0.009176907830193414,683774630,683782704
0.05,-0.78,0.92,-0.7102557120657077,-0.14972525459865899,-0.6877753673810058,0.009176907830193414,683782711,683790491
1.6400000000000001,0.14,-1.18,-0.7102211541020658,-0.15357631513370196,-0.6869352146233095,0.01096533657994342,683790498,683797670
1.6400000000000001,0.14,-1.18,-0.709796145371916,-0.15645215844251192,-0.6866887962518129,0.013063354702564998,683797677,683805291
-4.84,1.2,2.02,-0.709796145371916,-0.15645215844251192,-0.6866887962518129,0.013063354702564998,683805298,683810933
2.1,2.44,-2.08,-0.709869176234206,-0.15960497588105593,-0.6860116537676286,0.00012329468974975352,683810941,683816794
2.1,2.44,-2.08,-0.709869176234206,-0.15960497588105593,-0.6860116537676286,0.00012329468974975352,683816802,683822637
-6.93,-2.14,4.19,-0.7098706276511275,-0.16223146947536196,-0.6853816948063676,0.004071207979229616,683822645,683830001
4.14,-0.9,-4.37,-0.7087351196560723,-0.1653818128583608,-0.6857791366772251,0.007096607641310258,683830008,683837293
4.14,-0.9,-4.37,-0.7087912695736456,-0.1683541322295385,-0.6849611650483056,0.010001235577992386,683837300,683844986
-2.31,-1.02,-2.5100000000000002,-0.7087379051989107,-0.17212029816916732,-0.6840345972449577,0.012722203596285779,683844994,683853638
-1.02,0.58,0.02,-0.7087379051989107,-0.17212029816916732,-0.6840345972449577,0.012722203596285779,683853646,683859276
-1.02,0.58,0.02,-0.708726350123387,-0.1758995657572385,-0.6830241304693613,0.0156313980107416,683859284,683865173
-0.6,1.52,0.65,-0.708726350123387,-0.1758995657572385,-0.6830241304693613,0.0156313980107416,683865181,683870811
2.81,0.91,-0.76,-0.708363871473229,-0.178992180144453,-0.6827670622919497,0.0034005422825371034,683870818,683876645
2.81,0.91,-0.76,-0.7081560825426352,-0.1824207099421935,-0.6820517964810531,0.006557000764283659,683876652,683884762
-4.03,-1.6600000000000001,1.44,-0.7076099974911719,-0.18553566315187456,-0.6817414493932789,0.009654290677682599,683884770,683893308
-1.43,-0.97,0.27,-0.7076099974911719,-0.18553566315187456,-0.6817414493932789,0.009654290677682599,683893315,683901959
1.1,0.13,1.28,-0.7073269381939778,-0.1890910774898817,-0.6810126919814044,0.01244509056171127,683901967,683907597
1.1,0.13,1.28,-0.7068773639782798,-0.1926383282485498,-0.6804283073345079,0.015237629822875643,683907604,683913427
-0.56,-1.94,-0.97,-0.7068773639782798,-0.1926383282485498,-0.6804283073345079,0.015237629822875643,683913434,683919154
-0.56,-1.94,-0.97,-0.7070429305657813,-0.1957879223051633,-0.6795247800423585,0.0018593344948258622,683919161,683925031
0.91,0.46,-1.05,-0.7068488129421965,-0.1992817618242298,-0.6786988689881828,0.00440230401042947,683925038,683933301
-3.61,2.74,6.1000000000000005,-0.7068488129421965,-0.1992817618242298,-0.6786988689881828,0.00440230401042947,683933308,683941518
4.14,-0.25,-4.05,-0.7048491492749865,-0.20275037583229083,-0.6797224962113153,0.007569016478439254,683941526,683948821
0.74,-1.51,-6.0600000000000005,-0.7051215419162354,-0.20472672288403418,-0.6788013082889369,0.01092537999623712,683948828,683956168
0.74,-1.51,-6.0600000000000005,-0.7051215419162354,-0.20472672288403418,-0.6788013082889369,0.01092537999623712,683956176,683961987
1.3900000000000001,-2.31,-2.25,-0.7050995110873319,-0.20780965067367327,-0.6778345868058786,0.013787729363286151,683961995,683967635
1.3900000000000001,-2.31,-2.25,-0.7046154238878792,-0.21111118318461156,-0.6774574647911247,0.0007457563138696905,683967642,683973476
0.33,-1.57,-0.7000000000000001,-0.7046154238878792,-0.21111118318461156,-0.6774574647911247,0.0007457563138696905,683973484,683981365
0.77,0.9500000000000001,0.92,-0.7044525422964728,-0.2147554352243616,-0.676473403370311,0.0032331449425786925,683981373,683988196
0.77,0.9500000000000001,0.92,-0.7043552219298744,-0.2190456400295962,-0.6751781684865684,0.00609669773442216,683988203,683995508
-1.04,2.21,1.6500000000000001,-0.7038558853625877,-0.2228534597681139,-0.6744118388624989,0.009586433744214955,683995515,684004373
-0.25,-0.02,0.49,-0.7038558853625877,-0.2228534597681139,-0.6744118388624989,0.009586433744214955,684004380,684010011
0.48,-2.59,-2.2800000000000002,-0.7029990500847472,-0.22575707199885897,-0.6742810561025523,0.013081949536357723,684010018,684015929
0.48,-2.59,-2.2800000000000002,-0.7029990500847472,-0.22575707199885897,-0.6742810561025523,0.013081949536357723,684015937,684021584
0.38,-0.36,-1.33,-0.7026495030573875,-0.22866959612538182,-0.6736061583328228,0.01576816784402333,684021592,684027461
0.38,-0.36,-1.33,-0.7023831121399459,-0.23175773794282,-0.6730080059582806,0.002557068690972987,684027468,684035469
-1.23,-1.03,1.56,-0.7018613748838262,-0.23536816376794029,-0.672284357485628,0.005116699212346528,684035476,684043860
1.69,0.06,-0.39,-0.7018613748838262,-0.23536816376794029,-0.672284357485628,0.005116699212346528,684043867,684052600
-1.1500000000000001,0.59,0.58,-0.701684608487563,-0.2384941012921515,-0.6713421652341637,0.00767926032956404,684052608,684058246
-1.1500000000000001,0.59,0.58,-0.7013300743758716,-0.2416893255331119,-0.6705332696491142,0.010369715181829045,684058253,684064107
-0.38,0.28,-0.07,-0.7013300743758716,-0.2416893255331119,-0.6705332696491142,0.010369715181829045,684064115,684069745
-0.38,0.28,-0.07,-0.7006955233529555,-0.2448371422813137,-0.6700049344175139,0.013188827424395505,684069753,684075660
0.65,1.08,-1.21,-0.7002919144290944,-0.24783890709853257,-0.6694527975185501,0.00025021595870624186,684075668,684083869
0.06,0.4,0.68,-0.7002919144290944,-0.24783890709853257,-0.6694527975185501,0.00025021595870624186,684083877,684092410
0.58,-0.42,-0.17,-0.6997114992374907,-0.2508895767528952,-0.6689136769414766,0.003568040387952851,684092417,684099570
-0.04,-0.65,-0.2,-0.6991421268460927,-0.2539715217055609,-0.6683197320066413,0.006891185838088727,684099577,684106536
-0.04,-0.65,-0.2,-0.6991421268460927,-0.2539715217055609,-0.6683197320066413,0.006891185838088727,684106544,684112400
-0.89,-0.26,1.05,-0.6987022619888916,-0.257099863294432,-0.6675443414677181,0.00996802688705552,684112407,684118117
-0.89,-0.26,1.05,-0.6981469118041046,-0.2602759939864525,-0.6668435324357653,0.01292283797570721,684118124,684123892
2.04,1.1300000000000001,-1.52,-0.6981469118041046,-0.2602759939864525,-0.6668435324357653,0.01292283797570721,684123899,684131268
-1.6500000000000001,-0.11,1.44,-0.6980090609625573,-0.26314257214123216,-0.6659874165359221,0.00031393769045720847,684131276,684139328
-0.16,-0.32,0.2,-0.6974565359776328,-0.2665026731310155,-0.6652198297017048,0.003644695836264772,684139335,684146546
-0.16,-0.32,0.2,-0.6968816633830272,-0.2697342707562317,-0.6644934261623557,0.006917875911211352,684146554,684155234
0.67,-0.3,0.4,-0.6968816633830272,-0.2697342707562317,-0.6644934261623557,0.006917875911211352,684155241,684160872
0.0,0.09,0.47000000000000003,-0.6964040634360472,-0.27270843261350136,-0.6637394715767333,0.0100700090510409,684160880,684166683
0.0,0.09,0.47000000000000003,-0.6964040634360472,-0.27270843261350136,-0.6637394715767333,0.0100700090510409,684166690,684172526
0.9,-0.56,-1.29,-0.6956471720811159,-0.27592849804322034,-0.6631479470205586,0.01316344580941179,684172533,684179132
-0.06,0.11,-0.78,-0.6952374365131919,-0.27906574770549464,-0.6623950478629631,0.0001260744285997265,684179139,684186329
-0.06,0.11,-0.78,-0.6946412678633934,-0.2825883958910208,-0.6615180466437492,0.0033438680469354996,684186336,684194818
-1.09,-0.42,-0.04,-0.6946412678633934,-0.2825883958910208,-0.6615180466437492,0.0033438680469354996,684194826,684203359
1.09,1.7,-3.11,-0.6941559657168385,-0.2860851992598686,-0.6605025975408265,0.006250813225938422,684203367,684209000
1.09,1.7,-3.11,-0.6946819389238083,-0.2882238081898926,-0.6589778276264416,0.00960535383575174,684209008,684214725
1.07,-0.01,2.14,-0.6946819389238083,-0.2882238081898926,-0.6589778276264416,0.00960535383575174,684214733,684220500
1.07,-0.01,2.14,-0.6945105597649018,-0.291123951060727,-0.6578275505067612,0.012839053240349247,684220508,684226339
-3.81,-1.1,5.33,-0.6923889536411993,-0.2951560259375335,-0.6582156573276771,0.015251415576960886,684226347,684234250
-2.43,0.51,4.04,-0.6923889536411993,-0.2951560259375335,-0.6582156573276771,0.015251415576960886,684234258,684242867
1.59,-1.56,-3.79,-0.6912869686874415,-0.29796742862588554,-0.6582780317718373,0.0027877029256940175,684242875,684250179
-1.27,-0.16,-2.5300000000000002,-0.691301013877394,-0.30084689568244716,-0.6569293828782611,0.0061513804555643715,684250187,684257223
-1.27,-0.16,-2.5300000000000002,-0.691301013877394,-0.30084689568244716,-0.6569293828782611,0.0061513804555643715,684257230,684263097
0.76,1.01,-0.06,-0.6914221025535512,-0.3040124721159822,-0.6553087212103375,0.0090759464535669,684263105,684268735
0.76,1.01,-0.06,-0.6910091845628362,-0.30741872245100343,-0.6540986084636353,0.012451760611778606,684268742,684274577
-2.05,-0.14,2.48,-0.6910091845628362,-0.30741872245100343,-0.6540986084636353,0.012451760611778606,684274584,684282588
0.44,0.17,-0.7000000000000001,-0.6898407394931532,-0.31147739933428176,-0.6533459390812573,0.01551346916463865,684282596,684289650
1.96,-0.01,-0.55,-0.6888993427758621,-0.3153000133140817,-0.6526850295793113,0.0024185305825464485,684289658,684296663
1.96,-0.01,-0.55,-0.6885436838649523,-0.3182794452802833,-0.6515937082319331,0.00560620319949258,684296670,684305549
-2.43,-0.24,1.17,-0.6885436838649523,-0.3182794452802833,-0.6515937082319331,0.00560620319949258,684305556,684311186
1.1300000000000001,-0.21,-1.82,-0.6877167552612014,-0.3213510519670364,-0.6509271606213244,0.008543857334044221,684311194,684317002
1.1300000000000001,-0.21,-1.82,-0.6877167552612014,-0.3213510519670364,-0.6509271606213244,0.008543857334044221,684317009,684322934
0.08,-0.4,-0.47000000000000003,-0.6869733676639002,-0.32427644751953516,-0.6502122509996112,0.011679313106883474,684322942,684329115
0.08,-0.4,-0.47000000000000003,-0.6864496125988395,-0.32738267863103043,-0.6491439571216646,0.01482005491559006,684329123,684336368
-1.9100000000000001,-0.23,1.3900000000000001,-0.6855058128372431,-0.3309867618699226,-0.6484808253715002,0.0014707680685873688,684336376,684345211
1.1400000000000001,-0.54,-1.73,-0.6848602931519667,-0.33423742531210937,-0.6474810023855416,0.00448039444118109,684345223,684353986
-1.62,0.42,1.55,-0.6848602931519667,-0.33423742531210937,-0.6474810023855416,0.00448039444118109,684353993,684359623
-1.62,0.42,1.55,-0.6841171083009178,-0.3374456648642942,-0.6465733149440777,0.007560012996769835,684359631,684365425
0.34,-0.24,-0.18,-0.6841171083009178,-0.3374456648642942,-0.6465733149440777,0.007560012996769835,684365432,684371063
0.43,-0.09,-0.34,-0.6833683432345156,-0.34036963178087726,-0.645791741082369,0.010452194796586848,684371070,684376889
0.43,-0.09,-0.34,-0.6827105413412746,-0.34324865799503024,-0.6449069774745819,0.013478350444831031,684376896,684384881
-0.35000000000000003,0.17,-0.08,-0.6827105413412746,-0.34324865799503024,-0.6449069774745819,0.013478350444831031,684384888,684393393
-0.84,-0.49,-0.34,-0.6820933612367192,-0.34609089435901735,-0.6441814363069345,0.00012851499976198192,684393400,684400784
0.25,0.01,0.35000000000000003,-0.6815522681362876,-0.3486876977696126,-0.6433452044072432,0.003216082805475121,684400792,684407706
0.25,0.01,0.35000000000000003,-0.6815522681362876,-0.3486876977696126,-0.6433452044072432,0.003216082805475121,684407713,684413529
0.42,0.44,0.0,-0.6809563527588447,-0.351681505178594,-0.6423241844858392,0.00618114692368089,684413537,684419233
0.42,0.44,0.0,-0.6802969232997321,-0.3546180646134653,-0.6413675683330776,0.00947452844387121,684419240,684425313
-0.87,-0.23,0.99,-0.6802969232997321,-0.3546180646134653,-0.6413675683330776,0.00947452844387121,684425338,684433175
-0.8,-0.86,-0.71,-0.679510419767566,-0.3576268758803284,-0.6404766366343171,0.01258113671236948,684433183,684440193
-1.33,0.7000000000000001,2.6,-0.6792891888671555,-0.3601175620006901,-0.6392474226475665,0.015629205524420195,684440201,684448912
-1.33,0.7000000000000001,2.6,-0.6784379079495361,-0.3631740902461207,-0.638609665187989,0.0020689996239764753,684448936,684456798
0.92,-0.24,-0.19,-0.6784379079495361,-0.3631740902461207,-0.638609665187989,0.0020689996239764753,684456806,684462442
1.1300000000000001,-0.91,-2.34,-0.6775845240072766,-0.36630214189503046,-0.6377113804470472,0.0051136012033411215,684462450,684468101
1.1300000000000001,-0.91,-2.34,-0.6769923929390269,-0.3688856903715429,-0.6368186483350647,0.008164341645321342,684468109,684473953
0.14,0.02,0.0,-0.6769923929390269,-0.3688856903715429,-0.6368186483350647,0.008164341645321342,684473961,684480958
0.74,-0.43,-1.1500000000000001,-0.676210216040409,-0.3715426491587015,-0.6360592209584893,0.011156657761050393,684480966,684487891
0.74,-0.43,-1.1500000000000001,-0.6756227504501388,-0.37368658614517525,-0.635364595209477,0.014285151859589671,684487899,684496089
-0.87,1.22,0.74,-0.6748752624664526,-0.3762239395539931,-0.634821002742073,0.0011053935313546288,684496097,684504511
2.2600000000000002,0.48,0.28,-0.6748752624664526,-0.3762239395539931,-0.634821002742073,0.0011053935313546288,684504519,684510240
2.2600000000000002,0.48,0.28,-0.6738059830900608,-0.37921930932363324,-0.6341588484328775,0.0045571419146187685,684510248,684516067
0.13,-1.7,-0.99,-0.6738059830900608,-0.37921930932363324,-0.6341588484328775,0.0045571419146187685,684516074,684521794
1.44,-1.01,-0.34,-0.672908372225571,-0.3824335426847119,-0.633153010767208,0.007494863225756965,684521801,684527925
1.44,-1.01,-0.34,-0.672334238111756,-0.38578479863705123,-0.6316875393884542,0.010373716046556933,684527946,684535893
-1.99,-0.92,1.26,-0.6713403557723011,-0.3896399088506294,-0.6303325021175006,0.0127986294846193,684535900,684544841
-0.72,-0.66,-0.54,-0.6713403557723011,-0.3896399088506294,-0.6303325021175006,0.0127986294846193,684544857,684553689
0.5,0.8,0.12,-0.6705022060625555,-0.39334822400492414,-0.6288735603255333,0.014900049023612345,684553696,684559326
0.5,0.8,0.12,-0.6699073157597771,-0.39699907229236275,-0.6273880544333582,0.00039248548916694293,684559334,684565165
-0.32,0.96,0.48,-0.6699073157597771,-0.39699907229236275,-0.6273880544333582,0.00039248548916694293,684565173,684570803
-0.32,0.96,0.48,-0.668960441845218,-0.4006429425125662,-0.6260741651095209,0.0028809101929323276,684570810,684576719
0.0,-0.38,-0.54,-0.6680863780311692,-0.40410247272318905,-0.6247662783766075,0.005374051696935047,684576727,684584885
-0.78,-0.06,-0.43,-0.6680863780311692,-0.40410247272318905,-0.6247662783766075,0.005374051696935047,684584893,684593363
0.45,0.24,-0.32,-0.6673391982003651,-0.40731901901758594,-0.6234448000491465,0.008135882467490441,684593370,684600540
0.3,0.42,-0.25,-0.6666302594240416,-0.4104613746320659,-0.6220962840678982,0.011034967344885111,684600547,684607710
0.3,0.42,-0.25,-0.6666302594240416,-0.4104613746320659,-0.6220962840678982,0.011034967344885111,684607717,684613562
0.26,0.67,-0.2,-0.6658489975033114,-0.41338536279563604,-0.6209329614248164,0.01413901574945303,684613570,684619200
0.26,0.67,-0.2,-0.6650599927982969,-0.41626341365264224,-0.6200158265368814,0.0005926863981765196,684619207,684624996
-0.22,0.22,-0.29,-0.6650599927982969,-0.41626341365264224,-0.6200158265368814,0.0005926863981765196,684625004,684632251
0.62,-0.25,-0.03,-0.6642350701331564,-0.41916978810229766,-0.6189283293486569,0.004022869269074915,684632259,684639478
0.62,-0.25,-0.03,-0.6633937259789346,-0.4218774635692817,-0.6179567042294566,0.007594851019171477,684639486,684647175
-1.11,-0.38,0.32,-0.6624259263493111,-0.42482022071158776,-0.616928368464882,0.01091147827170174,684647196,684655986
0.08,-0.66,0.52,-0.6624259263493111,-0.42482022071158776,-0.616928368464882,0.01091147827170174,684655994,684661624
0.08,-0.66,0.52,-0.6613232030135126,-0.4279266981454076,-0.6159019257540743,0.01397068440487096,684661631,684667486
-0.84,-1.34,0.13,-0.6613232030135126,-0.4279266981454076,-0.6159019257540743,0.01397068440487096,684667493,684673144
0.52,-1.32,-0.6,-0.6600989295955952,-0.43153685797020735,-0.6146251531643261,0.016770940870424342,684673151,684679541
0.52,-1.32,-0.6,-0.6592297127663866,-0.4352389465742438,-0.6131705744738394,0.002256499570528254,684679548,684687012
0.51,-0.48,-0.39,-0.6585125410029679,-0.4386761812189867,-0.6114759309313272,0.004650512295218699,684687020,684695444
-0.7000000000000001,0.11,0.4,-0.6585125410029679,-0.4386761812189867,-0.6114759309313272,0.004650512295218699,684695451,684704210
0.46,0.06,-0.45,-0.657529139421368,-0.44218784747776635,-0.6099784835412954,0.0071824766923746074,684704218,684709848
0.46,0.06,-0.45,-0.6563383092147387,-0.4458812798550522,-0.608534403146958,0.009787150685186303,684709855,684715700
-0.37,-0.21,-1.56,-0.6563383092147387,-0.4458812798550522,-0.608534403146958,0.009787150685186303,684715707,684721454
1.42,1.16,-1.96,-0.6553476619673113,-0.4493184081897524,-0.6070231038991359,0.012464403253446625,684721462,684727297
1.42,1.16,-1.96,-0.6545775690518691,-0.45200359922700706,-0.6057862768139864,0.015618553192427592,684727304,684735007
1.25,1.81,-0.97,-0.6545775690518691,-0.45200359922700706,-0.6057862768139864,0.015618553192427592,684735014,684743286
-0.78,-0.56,2.2600000000000002,-0.6539357640717386,-0.45461239876520965,-0.6047234202724748,0.002273396316813815,684743293,684750688
0.9,-2.2600000000000002,-0.24,-0.6523517661245896,-0.45789174468896976,-0.6039376492175809,0.00562487665309644,684750704,684757893
0.9,-2.2600000000000002,-0.24,-0.6523517661245896,-0.45789174468896976,-0.6039376492175809,0.00562487665309644,684757901,684763714
0.24,-2.71,-0.56,-0.6506541540527749,-0.4615058267049928,-0.6029815341505158,0.008649462682688373,684763722,684769352
0.24,-2.71,-0.56,-0.6495879871621271,-0.4651901158451525,-0.6012565465548385,0.011143082140013754,684769359,684775199
-0.42,-1.87,-0.31,-0.6495879871621271,-0.4651901158451525,-0.6012565465548385,0.011143082140013754,684775207,684783019
0.2,1.0,-0.8,-0.6487048220138248,-0.46911000179187207,-0.5991197201343631,0.013168943046577904,684783027,684789829
0.2,1.0,-0.8,-0.6477540774404323,-0.4729035166695515,-0.597114665032558,0.01519854874393041,684789836,684797305
0.35000000000000003,1.47,-1.22,-0.6468375340565421,-0.47647536862212075,-0.5954595371290862,0.0006060314185414198,684797313,684806013
0.72,2.19,-0.71,-0.6468375340565421,-0.47647536862212075,-0.5954595371290862,0.0006060314185414198,684806020,684811650
0.72,2.19,-0.71,-0.6455566561899205,-0.479716307509288,-0.5942331485258452,0.003979089293272599,684811658,684817488
0.42,0.41000000000000003,-1.74,-0.6455566561899205,-0.479716307509288,-0.5942331485258452,0.003979089293272599,684817495,684823221
-0.48,-1.1300000000000001,0.12,-0.6442064771402344,-0.4830873026457441,-0.5929320731816105,0.007498628246913382,684823228,684828892
-0.48,-1.1300000000000001,0.12,-0.6425256508189517,-0.48640930150953593,-0.5919975256308523,0.010281492675490122,684828899,684836730
1.48,-0.4,-1.53,-0.6414636445914661,-0.4891922324434602,-0.5907968223998699,0.013208596694333252,684836737,684845143
0.27,0.33,1.41,-0.6414636445914661,-0.4891922324434602,-0.5907968223998699,0.013208596694333252,684845151,684853700
1.1500000000000001,-0.8200000000000001,-0.79,-0.6400478426215596,-0.4925688802623364,-0.5894409861726265,0.016552376640133603,684853707,684859642
1.1500000000000001,-0.8200000000000001,-0.79,-0.6385159614560707,-0.4963291429298918,-0.5881765288101564,0.001766295882312782,684859650,684865476
1.17,0.54,-1.28,-0.6385159614560707,-0.4963291429298918,-0.5881765288101564,0.001766295882312782,684865483,684871172
1.17,0.54,-1.28,-0.6370868176193791,-0.49966926592785266,-0.5868817913083165,0.004557908892738751,684871179,684877133
-0.92,-0.66,-0.77,-0.6360456064198596,-0.502732845172814,-0.5853635960121939,0.007425187008649963,684877140,684885250
0.26,0.91,0.7000000000000001,-0.6360456064198596,-0.502732845172814,-0.5853635960121939,0.007425187008649963,684885257,684893468
-0.05,-0.64,1.32,-0.6344983908277457,-0.5061115537631486,-0.5840850685159831,0.010369181314462676,684893475,684900654
-0.05,0.55,0.2,-0.6332368621330782,-0.5093085345994279,-0.5826134383720888,0.013321953621313005,684900662,684907999
-0.05,0.55,0.2,-0.6332368621330782,-0.5093085345994279,-0.5826134383720888,0.013321953621313005,684908006,684913636
0.79,0.0,0.02,-0.6319290571960589,-0.5129591935537565,-0.5807562808852813,0.016145421402865637,684913644,684919470
0.79,0.0,0.02,-0.6305206099704423,-0.5166965981064162,-0.5791935871611976,0.0017817124072635041,684919478,684925260
-0.77,-0.88,-1.17,-0.6305206099704423,-0.5166965981064162,-0.5791935871611976,0.0017817124072635041,684925268,684932292
0.3,0.65,-0.71,-0.6292371893201455,-0.5199836605386348,-0.5776299948203364,0.00459798142485001,684932300,684939549
0.3,0.65,-0.71,-0.6277083436683712,-0.5234225526986068,-0.5761497785877362,0.007905646645697371,684939557,684947380
2.64,0.3,-2.04,-0.6333478911057224,-0.5171549511876201,-0.5755955945469026,0.01053170604707918,604464025,604471829
