ACC_X,ACC_Y,ACC_Z,QUAT_W,QUAT_X,QUAT_Y,QUAT_Z,TIME1,TIME2
-0.24,-0.02,0.41000000000000003,0.713427984183959,0.030275520204931867,0.6999382866732938,0.0137948942869246,1166568259,1166577172
-1.32,2.65,2.62,0.7136138275089905,0.03174058594685442,0.699696801363062,0.013123511497257118,1166577193,1166585354
-1.32,2.65,2.62,0.7136138275089905,0.03174058594685442,0.699696801363062,0.013123511497257118,1166585365,1166591218
1.12,-0.15,-0.32,0.7135203273109403,0.03497708508419615,0.6996637857505345,0.011659028361398715,1166591226,1166597023
1.12,-0.15,-0.32,0.7130384633730059,0.03791069227351341,0.7000352790666317,0.009462411114967116,1166597031,1166602884
1.1500000000000001,-1.41,-2.46,0.7130384633730059,0.03791069227351341,0.7000352790666317,0.009462411114967116,1166602891,1166610260
1.25,1.47,-0.25,0.7136032842846275,0.0396819347065624,0.6993788369205828,0.008058485201948056,1166610268,1166617613
1.25,1.47,-0.25,0.7147998707894885,0.04145448516109179,0.6980715512988565,0.006227330613300976,1166617621,1166624981
-2.45,1.78,4.82,0.7150673834789775,0.04298586269056444,0.6977264956890339,0.0029308542743566664,1166624989,1166633632
-1.85,0.44,3.19,0.7150673834789775,0.04298586269056444,0.6977264956890339,0.0029308542743566664,1166633640,1166639398
0.8300000000000001,-4.5,-5.94,0.7136143545590667,0.045551151578768184,0.6988987680570786,0.014837707551797143,1166639406,1166646176
0.8300000000000001,-4.5,-5.94,0.7136143545590667,0.045551151578768184,0.6988987680570786,0.014837707551797143,1166646183,1166652031
5.19,-1.4000000000000001,-6.34,0.7132215961457259,0.046412228193402835,0.699297927687705,0.011969469376193363,1166652038,1166659380
-3.52,-0.1,5.93,0.7150521497877943,0.048187234897725466,0.6973407453260194,0.009710735549731748,1166659405,1166667198
-3.52,-0.1,5.93,0.7163713463001489,0.05301929814022247,0.6956645005979191,0.007207692604315958,1166667205,1166674854
-2.74,0.84,5.72,0.7151439111637198,0.059259319479652156,0.6964497340907573,0.003909893244018287,1166674861,1166683555
1.02,-0.31,-0.89,0.7151439111637198,0.059259319479652156,0.6964497340907573,0.003909893244018287,1166683562,1166689195
1.02,-0.31,-0.89,0.7142565161899438,0.06384927796565366,0.6969652763198194,0.0005498980877424718,1166689203,1166695074
2.91,-3.9,-6.21,0.7142565161899438,0.06384927796565366,0.6969652763198194,0.0005498980877424718,1166695081,1166700716
-2.35,7.95,2.73,0.716299229702692,0.0654958012829483,0.6945487583811158,0.015090916900082301,1166700723,1166706608
-2.35,7.95,2.73,0.7187683190951871,0.06513704226434323,0.69206579801684,0.013198500121105195,1166706616,1166714527
-2.32,2.17,4.49,0.7200801106952943,0.0660730497972679,0.6906803540324952,0.008923834662720734,1166714534,1166722942
-0.43,-2.48,2.33,0.7200801106952943,0.0660730497972679,0.6906803540324952,0.008923834662720734,1166722949,1166731030
-2.85,-3.94,2.87,0.7199287445240631,0.06657629099751228,0.690828363886032,0.005135361289064309,1166731038,1166737134
-2.85,-3.94,2.87,0.7185175909751547,0.06683173576170913,0.6922862875517574,0.00238466394758157,1166737141,1166743111
1.62,-0.54,0.75,0.7185175909751547,0.06683173576170913,0.6922862875517574,0.00238466394758157,1166743119,1166749138
1.62,-0.54,0.75,0.716839351919801,0.06940311050319663,0.6936030682271007,0.015470473090139865,1166749146,1166754956
0.61,-2.19,-3.33,0.7159350593301683,0.07118985213226686,0.6944068566235034,0.012965849357423174,1166754964,1166763271
2.7,-0.14,-4.43,0.7159350593301683,0.07118985213226686,0.6944068566235034,0.012965849357423174,1166763278,1166771854
-0.55,-0.8200000000000001,0.79,0.7166631062350711,0.07322001862097816,0.6934798254854047,0.010888189903537269,1166771862,1166779173
0.9400000000000001,0.2,0.38,0.7171959903179911,0.07592256452995197,0.6926633969444933,0.009115602026561517,1166779181,1166786009
0.9400000000000001,0.2,0.38,0.7171959903179911,0.07592256452995197,0.6926633969444933,0.009115602026561517,1166786017,1166791854
2.29,0.31,-1.03,0.7171940814111286,0.07886565184601133,0.6923535425054028,0.007709132763845949,1166791862,1166797579
2.29,0.31,-1.03,0.7174981374058633,0.08163262390613404,0.6917355177173458,0.005874611615433934,1166797586,1166803336
-3.19,-1.23,0.98,0.7174981374058633,0.08163262390613404,0.6917355177173458,0.005874611615433934,1166803343,1166810686
0.92,-0.79,0.37,0.7175793398092851,0.08494670564224202,0.6912629972832303,0.004406457353199875,1166810693,1166818161
2.0300000000000002,0.8,-1.36,0.7173542355431834,0.08820029466021564,0.6910961325527376,0.00312159266319986,1166818169,1166825525
2.0300000000000002,0.8,-1.36,0.7174843768791302,0.091391875665945,0.690550401465188,0.0019588345755594374,1166825532,1166834301
-1.48,0.65,-0.41000000000000003,0.7174843768791302,0.091391875665945,0.690550401465188,0.0019588345755594374,1166834309,1166839939
0.96,2.42,0.13,0.7179772356937432,0.09397127019013436,0.6896940260339112,0.0004897525482221986,1166839947,1166845846
0.96,2.42,0.13,0.7179772356937432,0.09397127019013436,0.6896940260339112,0.0004897525482221986,1166845853,1166851983
-1.43,-0.03,0.97,0.7181817179676241,0.09661472727646299,0.6889768859581991,0.013837090218302052,1166851990,1166858540
-1.03,-0.47000000000000003,0.47000000000000003,0.7181279376658063,0.09902045495059339,0.6887341105932739,0.011512582270075174,1166858548,1166865717
-1.03,-0.47000000000000003,0.47000000000000003,0.7180039486715705,0.1010669267452731,0.6886026608911273,0.009065397065636617,1166865725,1166874296
-0.14,-1.03,1.52,0.7174185987260837,0.10274218531713428,0.6889914228243841,0.006739201183592588,1166874304,1166883003
-1.3,-1.55,0.74,0.7174185987260837,0.10274218531713428,0.6889914228243841,0.006739201183592588,1166883011,1166888642
-1.3,-1.55,0.74,0.7166769671638672,0.10478091773685132,0.6894706937865795,0.005024582020129712,1166888650,1166894542
2.4,1.36,-1.02,0.7166769671638672,0.10478091773685132,0.6894706937865795,0.005024582020129712,1166894549,1166900184
2.88,1.33,-1.3,0.7162660180232628,0.1067626767687622,0.689605992538526,0.0028805085006497265,1166900191,1166905999
2.88,1.33,-1.3,0.7160753006695303,0.1089346639234445,0.6894699860140576,0.0007356308199669859,1166906006,1166913973
-3.16,-1.18,0.29,0.7160753006695303,0.1089346639234445,0.6894699860140576,0.0007356308199669859,1166913981,1166922578
2.12,1.2,-0.72,0.715685416222084,0.11108634351502623,0.6893851726415398,0.014222975549385257,1166922585,1166930069
1.27,0.42,0.18,0.7154011967104795,0.11308073090469092,0.6893999874352144,0.011896779715569435,1166930077,1166936750
1.27,0.42,0.18,0.7154011967104795,0.11308073090469092,0.6893999874352144,0.011896779715569435,1166936757,1166942637
-0.6900000000000001,-0.77,-0.17,0.7151112826436473,0.11507537881621911,0.689409478952818,0.009385145500469896,1166942645,1166948293
-0.6900000000000001,-0.77,-0.17,0.7149931343865918,0.11780544220563428,0.6891004799018118,0.006871984128662,1166948301,1166954340
-1.1400000000000001,-3.11,-0.91,0.7149931343865918,0.11780544220563428,0.6891004799018118,0.006871984128662,1166954347,1166962455
2.39,1.6300000000000001,-1.2,0.7146111666538056,0.11961329129236235,0.6892033151427549,0.00472561489456742,1166962463,1166969816
0.66,0.4,-2.84,0.7146644704759999,0.12258932722389382,0.6886364911355237,0.0025168564928290667,1166969824,1166977062
0.66,0.4,-2.84,0.7145296082730301,0.1258731371452876,0.688188351767992,0.0004298107122034211,1166977069,1166985369
1.9000000000000001,2.88,-1.43,0.7145296082730301,0.1258731371452876,0.688188351767992,0.0004298107122034211,1166985377,1166991015
-4.72,0.5,5.48,0.7149566845886254,0.12810510599998903,0.6871985312271703,0.013572017462127314,1166991023,1166996921
-4.72,0.5,5.48,0.7149566845886254,0.12810510599998903,0.6871985312271703,0.013572017462127314,1166996928,1167002810
1.5,-3.12,-0.19,0.7142951224436654,0.13134626058179727,0.6873255207619962,0.010689545996834762,1167002818,1167009373
-0.86,1.29,-3.12,0.7134185518709253,0.13476844553819786,0.6876079056666192,0.00817337129803024,1167009380,1167016288
-0.86,1.29,-3.12,0.7140246929550054,0.13770256669988912,0.6864227052548937,0.005532692412049116,1167016295,1167024842
-0.64,2.71,0.49,0.7141148191525843,0.14027694647666594,0.6858257374431296,0.0023369241412158287,1167024850,1167033473
0.68,-0.48,0.85,0.7141148191525843,0.14027694647666594,0.6858257374431296,0.0023369241412158287,1167033481,1167039113
0.68,-0.48,0.85,0.7139280284964993,0.14321623871950456,0.6852601731514438,0.014641522686959658,1167039121,1167045127
-1.61,-1.01,0.53,0.7139280284964993,0.14321623871950456,0.6852601731514438,0.014641522686959658,1167045134,1167050774
-1.49,-2.15,1.5,0.713614740812428,0.1459848352916843,0.6850578421718962,0.011755102673149958,1167050782,1167056932
-1.49,-2.15,1.5,0.7135511795419142,0.14825118553381617,0.6846766753827116,0.00917334993543962,1167056939,1167065251
-1.47,-2.34,4.0600000000000005,0.7125071969348438,0.1513692904119141,0.6851030739758114,0.007389875854121111,1167065258,1167073719
1.76,1.18,-4.48,0.7125071969348438,0.1513692904119141,0.6851030739758114,0.007389875854121111,1167073727,1167081996
4.0,1.76,-5.0200000000000005,0.7122339268770949,0.15535841234942338,0.6845133536981731,0.005297709540860591,1167082003,1167088087
4.0,1.76,-5.0200000000000005,0.7133952572246075,0.1585665166585103,0.682581709486848,0.002465083819020758,1167088095,1167094066
0.3,0.59,0.37,0.7133952572246075,0.1585665166585103,0.682581709486848,0.002465083819020758,1167094074,1167099709
0.3,0.59,0.37,0.712810256521831,0.16186219060292445,0.6822876720081368,0.01362725490409383,1167099716,1167105553
-0.81,-3.64,-0.08,0.7115452666724468,0.1655459547764633,0.682792223464906,0.009625482275485752,1167105560,1167113520
2.0300000000000002,-2.34,-3.21,0.7115452666724468,0.1655459547764633,0.682792223464906,0.009625482275485752,1167113528,1167121513
-0.77,-1.07,2.29,0.7116260755276077,0.1680768326534544,0.6821215856236962,0.0069749107931841164,1167121520,1167128530
-0.77,-1.07,2.29,0.7116345313316337,0.17085403455051024,0.6814402332126603,0.004939762473451688,1167128537,1167136207
0.37,0.36,-0.2,0.7116345313316337,0.17085403455051024,0.6814402332126603,0.004939762473451688,1167136215,1167141858
0.23,-0.33,-0.54,0.7113099355098922,0.17382771676290373,0.6810414276158542,0.0021620362781455686,1167141866,1167147682
0.23,-0.33,-0.54,0.7110575732288601,0.17691473295856666,0.6803462137177153,0.015077609096014763,1167147689,1167153517
-0.54,-0.55,-1.87,0.7110575732288601,0.17691473295856666,0.6803462137177153,0.015077609096014763,1167153525,1167161446
1.58,0.43,-1.31,0.7108508407576274,0.18021657686627968,0.6797534348695523,0.01217930210725801,1167161453,1167168907
1.58,0.43,-1.31,0.7107943742197141,0.18365229284294937,0.6789382169903039,0.009278492396915597,1167168915,1167176179
-1.4000000000000001,0.45,1.79,0.710464662473391,0.18720867630505297,0.6783452234643589,0.006374378069229902,1167176186,1167184844
1.1500000000000001,0.5700000000000001,-0.63,0.710464662473391,0.18720867630505297,0.6783452234643589,0.006374378069229902,1167184851,1167190482
-0.42,-0.32,-0.22,0.7100535584483166,0.19059430129100188,0.6778543912386608,0.003343759671771963,1167190489,1167196436
-0.42,-0.32,-0.22,0.7100535584483166,0.19059430129100188,0.6778543912386608,0.003343759671771963,1167196444,1167202078
0.34,0.34,-0.24,0.7097438869668645,0.1937918015391369,0.6772800429750142,0.00030976950373902954,1167202086,1167207727
0.34,0.34,-0.24,0.7092536591783631,0.19710099066566414,0.6767134012854469,0.0130161031571665,1167207735,1167215651
-0.06,0.22,-0.12,0.7089512687922791,0.2005108434962329,0.6760806387109295,0.009923209081162161,1167215659,1167223922
0.44,-0.65,-0.39,0.7089512687922791,0.2005108434962329,0.6760806387109295,0.009923209081162161,1167223930,1167232050
-0.51,-0.43,0.53,0.7086664834048443,0.2040984294149328,0.6753430244216218,0.0068880892870348265,1167232057,1167238088
-0.51,-0.43,0.53,0.7083742282030362,0.20762585845481227,0.6745977727606265,0.003911611567779059,1167238096,1167243961
0.19,0.36,0.2,0.7083742282030362,0.20762585845481227,0.6745977727606265,0.003911611567779059,1167243969,1167249677
0.19,0.36,0.2,0.7079324627026314,0.21104401718304863,0.6740113460167485,0.0008697722227149487,1167249685,1167255590
-0.03,0.23,0.62,0.7075080599346874,0.2140177693160366,0.6733820781297196,0.013613096567009009,1167255597,1167263807
-0.76,-0.32,-0.27,0.7075080599346874,0.2140177693160366,0.6733820781297196,0.013613096567009009,1167263815,1167271804
0.62,0.45,-1.18,0.7070584743634011,0.21713064162584741,0.6729121775279413,0.010573534539213423,1167271811,1167278952
0.62,0.45,-1.18,0.7065531888576282,0.22033106840697708,0.6724454415449097,0.007344368946899236,1167278960,1167286556
-1.3800000000000001,-0.51,-0.88,0.7065531888576282,0.22033106840697708,0.6724454415449097,0.007344368946899236,1167286563,1167292293
0.3,0.43,1.26,0.7062952259202624,0.22359787134512718,0.6716655834500979,0.004048429425468876,1167292301,1167298196
0.3,0.43,1.26,0.7059187748916491,0.2271206088385281,0.6708908434516785,0.000623272801422964,1167298204,1167304088
0.2,-1.0,-0.26,0.7059187748916491,0.2271206088385281,0.6708908434516785,0.000623272801422964,1167304095,1167311259
-0.47000000000000003,0.08,0.46,0.7054737025127251,0.230563673814493,0.6700503412125812,0.013408490632977006,1167311266,1167318552
-0.47000000000000003,0.08,0.46,0.705091692934929,0.23376170295904453,0.6693971670159292,0.010421303895931777,1167318560,1167326194
-0.47000000000000003,-0.64,-0.6900000000000001,0.7046193833096844,0.23724621441048402,0.6687108354586635,0.007181709570204175,1167326202,1167334811
0.9500000000000001,0.31,0.07,0.7046193833096844,0.23724621441048402,0.6687108354586635,0.007181709570204175,1167334818,1167340449
0.9500000000000001,0.31,0.07,0.7040606020268192,0.2406029928815244,0.6681263888042539,0.003999634167381185,1167340456,1167346352
-1.01,0.25,-1.3900000000000001,0.7040606020268192,0.2406029928815244,0.6681263888042539,0.003999634167381185,1167346360,1167352003
0.6,-0.63,-0.72,0.7035335992723508,0.2440384126909692,0.6674469349661772,0.0005628769129212514,1167352010,1167357850
0.6,-0.63,-0.72,0.7029649241803809,0.24777761171920656,0.6665399254381283,0.013080454874795195,1167357857,1167366141
0.16,0.58,-0.97,0.7028718645519143,0.25084671337822284,0.6655423661315845,0.010021341857806655,1167366149,1167374659
0.66,0.3,1.52,0.7028718645519143,0.25084671337822284,0.6655423661315845,0.010021341857806655,1167374666,1167383354
-2.0300000000000002,-0.25,3.36,0.7030247337707933,0.2536680721799573,0.6643508517507702,0.006832176888464379,1167383362,1167388992
-2.0300000000000002,-0.25,3.36,0.7020647887878946,0.257315025340238,0.6639881870371573,0.0037010205985065926,1167388999,1167394771
-1.57,0.02,-2.2,0.7020647887878946,0.257315025340238,0.6639881870371573,0.0037010205985065926,1167394778,1167400413
-1.57,0.02,-2.2,0.7011109064369649,0.2605076785489663,0.663761010355848,0.0007532752150813483,1167400420,1167406235
-2.33,-1.0,-1.24,0.7009061429431777,0.26317741185876103,0.6627799641846411,0.013818384393538765,1167406243,1167414231
-1.4000000000000001,0.22,0.59,0.7009061429431777,0.26317741185876103,0.6627799641846411,0.013818384393538765,1167414239,1167422302
1.61,0.43,-1.19,0.7005535739216792,0.2661412141753602,0.662021555903376,0.01100016827602457,1167422310,1167429359
1.61,0.43,-1.19,0.6999848114543685,0.2693749404734076,0.6613588858470186,0.007926492877078316,1167429367,1167436828
0.8300000000000001,-0.62,-0.75,0.6999848114543685,0.2693749404734076,0.6613588858470186,0.007926492877078316,1167436835,1167442496
-0.7000000000000001,0.12,-0.49,0.6997454576607435,0.2724065312908715,0.6603985470860277,0.0049734494966440605,1167442503,1167448344
-0.7000000000000001,0.12,-0.49,0.699102353534228,0.27570943574853835,0.6597242919842197,0.002016156751360427,1167448352,1167454193
1.6600000000000001,0.12,0.0,0.699102353534228,0.27570943574853835,0.6597242919842197,0.002016156751360427,1167454200,1167461775
-0.77,0.47000000000000003,0.63,0.6985243379296046,0.27880446090122857,0.6588662633237989,0.015068807362142386,1167461795,1167469175
-0.77,0.47000000000000003,0.63,0.6980691264181281,0.2816759089153506,0.6581902790985713,0.01198889397265157,1167469182,1167476774
-0.52,-0.36,-0.13,0.6973997591675698,0.2846310526639715,0.6576764549462168,0.008967741175567773,1167476781,1167485500
-0.25,-0.51,-0.9400000000000001,0.6973997591675698,0.2846310526639715,0.6576764549462168,0.008967741175567773,1167485507,1167491137
-0.25,-0.51,-0.9400000000000001,0.6968038391439167,0.2874695083841195,0.6571092808182292,0.005751918483499313,1167491145,1167497114
-0.21,-0.5700000000000001,0.75,0.6968038391439167,0.2874695083841195,0.6571092808182292,0.005751918483499313,1167497122,1167502757
0.12,-0.8300000000000001,-0.67,0.6961059964568376,0.2905766465260615,0.6565020381016635,0.002593869476936321,1167502764,1167508404
0.12,-0.8300000000000001,-0.67,0.695388331426759,0.2936914120073502,0.6556934585385054,0.015700683375258213,1167508411,1167516232
-0.91,-0.32,0.29,0.6948620039530826,0.29673889882475707,0.6549419727210526,0.012799756045825525,1167516240,1167524677
0.59,-0.23,-0.05,0.6948620039530826,0.29673889882475707,0.6549419727210526,0.012799756045825525,1167524684,1167532941
-0.15,-0.12,-0.36,0.694351392030076,0.2996447463094446,0.6542085085562392,0.010019866649077724,1167532948,1167539049
-0.15,-0.12,-0.36,0.6939034695848547,0.30249189939096477,0.6534104289194256,0.00717196488274843,1167539057,1167544904
0.5700000000000001,0.02,-1.02,0.6939034695848547,0.30249189939096477,0.6534104289194256,0.00717196488274843,1167544912,1167550630
0.5700000000000001,0.02,-1.02,0.6937146513237824,0.3050921591711498,0.6524258935762814,0.004382960437811646,1167550637,1167556470
-0.2,0.59,-0.1,0.6932621534054352,0.30759375441814885,0.6517452617900876,0.0013351527165731969,1167556477,1167564951
0.25,-0.23,-0.27,0.6932621534054352,0.30759375441814885,0.6517452617900876,0.0013351527165731969,1167564971,1167573527
0.7000000000000001,0.19,0.07,0.6926280364435085,0.3098213972846525,0.6512039802446362,0.014507964383015153,1167573535,1167580565
-1.58,-0.78,0.9,0.6922476048908563,0.31261973176337166,0.6503356685623521,0.011210487528596864,1167580572,1167587771
-1.58,-0.78,0.9,0.6922476048908563,0.31261973176337166,0.6503356685623521,0.011210487528596864,1167587779,1167593741
0.02,-0.58,-0.77,0.6915159250607197,0.31566433200955407,0.6496908792521422,0.007969711472671028,1167593748,1167599383
0.02,-0.58,-0.77,0.6910588594370014,0.31878823447430943,0.6486814044438199,0.004914253063968333,1167599390,1167605113
-1.59,0.36,1.61,0.6910588594370014,0.31878823447430943,0.6486814044438199,0.004914253063968333,1167605121,1167612301
0.93,0.09,-0.4,0.6906391719459793,0.32181281430483205,0.6476498857158977,0.0019163129077302424,1167612308,1167619503
0.93,0.09,-0.4,0.6898098566092521,0.32508648015366515,0.6467207145003887,0.015279384219611792,1167619511,1167627141
0.39,0.33,-1.1500000000000001,0.6893231955913964,0.32831009129921673,0.6456765128884596,0.012159633011082102,1167627148,1167635815
0.99,-0.54,-0.65,0.6893231955913964,0.32831009129921673,0.6456765128884596,0.012159633011082102,1167635822,1167641452
0.99,-0.54,-0.65,0.6886389936060493,0.3310259261291708,0.6450745210363114,0.008776959914785446,1167641460,1167647334
1.6,-0.41000000000000003,-1.1500000000000001,0.6886389936060493,0.3310259261291708,0.6450745210363114,0.008776959914785446,1167647341,1167653054
-2.85,0.91,1.19,0.6881551295816808,0.333623763661128,0.644287645086446,0.005579636185797411,1167653062,1167658930
-2.85,0.91,1.19,0.6878159727427962,0.33572199397667146,0.6435795118803126,0.002311339029099287,1167658937,1167667183
1.55,1.09,0.8200000000000001,0.6869064329927763,0.33821480774847845,0.643070914390636,0.015168889135051485,1167667203,1167675631
-1.61,-1.73,-0.7000000000000001,0.6869064329927763,0.33821480774847845,0.643070914390636,0.015168889135051485,1167675638,1167684414
1.72,-0.5700000000000001,0.15,0.6863352074171849,0.34081868340191385,0.6423814383908429,0.011519362599875866,1167684421,1167690051
1.72,-0.5700000000000001,0.15,0.6858234491422934,0.3437170597627182,0.6414333733828721,0.00824663236169221,1167690059,1167696000
-1.6600000000000001,-1.55,1.1400000000000001,0.6858234491422934,0.3437170597627182,0.6414333733828721,0.00824663236169221,1167696007,1167701642
1.0,-1.93,-0.78,0.6850472027849605,0.34732880020685547,0.640349178914329,0.005095445722626106,1167701649,1167707456
1.0,-1.93,-0.78,0.6842028205030211,0.3514625547101761,0.6390110886336009,0.002324146210427322,1167707464,1167715398
0.0,0.05,0.68,0.6842028205030211,0.3514625547101761,0.6390110886336009,0.002324146210427322,1167715406,1167724006
-0.26,0.39,0.01,0.6834591909494537,0.35532900559807123,0.6374602360429398,0.01640973953125638,1167724014,1167731093
0.11,0.0,-0.8200000000000001,0.6826416318779048,0.35932931214791297,0.636149320300732,0.014031754676281647,1167731101,1167738081
0.11,0.0,-0.8200000000000001,0.6826416318779048,0.35932931214791297,0.636149320300732,0.014031754676281647,1167738088,1167743975
1.57,-0.37,-0.52,0.6819960559951762,0.36300625303919404,0.6348078323030271,0.011263032815410086,1167743983,1167749687
1.57,-0.37,-0.52,0.6813840355592439,0.3666100107639979,0.6334357485381484,0.008488142702383126,1167749695,1167755446
-0.32,0.7000000000000001,0.66,0.6813840355592439,0.3666100107639979,0.6334357485381484,0.008488142702383126,1167755453,1167763326
0.36,0.16,-0.3,0.6806178717381893,0.37014352906516546,0.6322339445115179,0.005772345205326743,1167763334,1167771069
0.14,-0.28,-0.62,0.679628788955469,0.3736400153265881,0.6312600988740948,0.0029215987297474305,1167771089,1167778074
0.14,-0.28,-0.62,0.6789401319049841,0.37658234005911145,0.6302587075514676,0.0,1167778082,1167786831
-0.29,-0.31,-0.42,0.6789401319049841,0.37658234005911145,0.6302587075514676,0.0,1167786838,1167792555
-1.17,-0.34,0.27,0.6780960153671247,0.37954640253783034,0.6292377108923372,0.013792224432296886,1167792562,1167798354
-1.17,-0.34,0.27,0.6780960153671247,0.37954640253783034,0.6292377108923372,0.013792224432296886,1167798361,1167804199
0.23,-0.32,-0.45,0.6771643570636223,0.38280170136756797,0.6283209960521088,0.011136286310625063,1167804207,1167810350
0.23,-0.32,-0.45,0.6763777543597057,0.3859427764635622,0.6272873978264182,0.008475094753422818,1167810357,1167817667
0.43,-0.66,-0.68,0.6756090906786278,0.38939046113004655,0.6260135233149886,0.005873159293062542,1167817674,1167826124
-0.33,-0.37,0.07,0.6756090906786278,0.38939046113004655,0.6260135233149886,0.005873159293062542,1167826132,1167834995
-0.34,-0.45,-0.48,0.6746736893904065,0.39302077539568936,0.6247704365397655,0.0034618748705287582,1167835002,1167840633
-0.34,-0.45,-0.48,0.6738564096469727,0.39661300323323473,0.6233890883191242,0.001307443557716284,1167840640,1167846328
0.18,0.08,-2.14,0.6738564096469727,0.39661300323323473,0.6233890883191242,0.001307443557716284,1167846335,1167852044
0.18,0.08,-2.14,0.6732902554325889,0.3994593789519879,0.6219919502567727,0.01544183676210797,1167852051,1167857889
1.75,1.3800000000000001,-2.24,0.6732199004079368,0.40163873377135306,0.6207382322593473,0.012055714031636047,1167857897,1167865811
-1.44,1.05,2.13,0.6732199004079368,0.40163873377135306,0.6207382322593473,0.012055714031636047,1167865818,1167874557
-0.52,-0.09,1.98,0.6724358714638502,0.4043538175267547,0.6198823410664901,0.008594896981341046,1167874564,1167881896
0.48,-1.23,-0.03,0.6710565224342793,0.4074952137699299,0.6193559367117362,0.0053868462887529025,1167881903,1167888757
0.48,-1.23,-0.03,0.6710565224342793,0.4074952137699299,0.6193559367117362,0.0053868462887529025,1167888764,1167894683
0.22,-1.33,-0.19,0.6699212605053662,0.4105035431334305,0.618616539524101,0.002433685482444629,1167894691,1167900325
0.22,-1.33,-0.19,0.668812369262997,0.41390130579352913,0.617329814605682,0.016721955093296707,1167900333,1167906137
0.45,-1.53,-0.18,0.668812369262997,0.41390130579352913,0.617329814605682,0.016721955093296707,1167906144,1167913939
0.08,-1.48,-2.2,0.6679516765850312,0.4176015957497378,0.6158256134261165,0.014431868308220387,1167913946,1167921191
1.53,0.78,-1.59,0.6675400615439379,0.42103836095207064,0.6139785467244044,0.012137092028071597,1167921198,1167928309
1.53,0.78,-1.59,0.6672874906141529,0.42379095677662504,0.6124066607744497,0.009311909756195128,1167928316,1167936813
0.5,1.56,-0.58,0.6672874906141529,0.42379095677662504,0.6124066607744497,0.009311909756195128,1167936820,1167942476
0.14,0.67,2.04,0.6663386170851232,0.42670269882408457,0.6114551148343886,0.006347971344663275,1167942483,1167948309
0.14,0.67,2.04,0.6663386170851232,0.42670269882408457,0.6114551148343886,0.006347971344663275,1167948317,1167954240
0.03,-0.6900000000000001,0.53,0.6647318198712484,0.4299336294874007,0.6109652855814333,0.003178317297920104,1167954247,1167960610
0.03,-0.6900000000000001,0.53,0.6630738276507495,0.43343098232159577,0.6103037049942812,0.00026517649576114757,1167960617,1167967903
0.48,-2.0100000000000002,-1.06,0.6621042113857123,0.436579942110587,0.608942074926214,0.014335857022786072,1167967910,1167976533
0.66,-0.8,-3.31,0.6621042113857123,0.436579942110587,0.608942074926214,0.014335857022786072,1167976540,1167985335
-0.93,0.16,-0.04,0.6616421875078285,0.43994287678804994,0.6070812959907608,0.011496996629053268,1167985343,1167990973
-0.93,0.16,-0.04,0.660668335622401,0.4433283444353721,0.6057179736020503,0.009114043095385051,1167990980,1167996922
-0.26,0.31,0.5700000000000001,0.660668335622401,0.4433283444353721,0.6057179736020503,0.009114043095385051,1167996930,1168002564
0.32,0.46,-0.85,0.6594189781163959,0.4468277875146854,0.6045395479610671,0.006593523768662074,1168002572,1168008444
0.32,0.46,-0.85,0.658657094396236,0.44973002375298327,0.6032410727861042,0.0037344130086250094,1168008451,1168016354
1.1300000000000001,0.75,-0.8,0.658657094396236,0.44973002375298327,0.6032410727861042,0.0037344130086250094,1168016362,1168024844
-0.77,1.01,0.75,0.6574635595045693,0.4527323718709099,0.6023076687722135,0.0007345215472831872,1168024851,1168032185
1.54,-0.47000000000000003,-2.75,0.6555579436281168,0.4559153103110789,0.6018028608461683,0.014775961809465969,1168032193,1168039171
1.54,-0.47000000000000003,-2.75,0.6555579436281168,0.4559153103110789,0.6018028608461683,0.014775961809465969,1168039179,1168045133
1.25,-0.28,-1.76,0.6546425392872092,0.45863817016960884,0.6008032797140794,0.011383923044069719,1168045141,1168050775
1.25,-0.28,-1.76,0.6536556148203282,0.4617708709252985,0.5995308373567528,0.008048294046628296,1168050783,1168056679
-1.69,-1.1400000000000001,1.36,0.6536556148203282,0.4617708709252985,0.5995308373567528,0.008048294046628296,1168056687,1168064752
1.08,-0.86,-1.51,0.6523618269616385,0.4653971032369935,0.5981662335543869,0.005171078924855483,1168064759,1168072069
0.31,2.04,1.37,0.6514681709558386,0.4698023099449239,0.5957106741849951,0.0019505035058558044,1168072081,1168080004
0.31,2.04,1.37,0.6496823176790553,0.4744621073634992,0.5937681406079628,0.015426923553349613,1168080011,1168088056
-2.67,-0.56,1.16,0.6496823176790553,0.4744621073634992,0.5937681406079628,0.015426923553349613,1168088063,1168093790
2.84,0.91,-1.06,0.6482077807471904,0.47799251942067483,0.5926162724899375,0.012481103188824961,1168093798,1168099687
2.84,0.91,-1.06,0.6482077807471904,0.47799251942067483,0.5926162724899375,0.012481103188824961,1168099694,1168105624
-0.87,-0.34,1.31,-0.6621902123190853,-0.4340133466866605,-0.6106150811563815,0.016904445303971043,1154483823,1154491374
