ACC_X,ACC_Y,ACC_Z,QUAT_W,QUAT_X,QUAT_Y,QUAT_Z,TIME1,TIME2
-0.08,-0.71,-0.81,-0.7135222453870815,-0.03174737465570997,-0.6998464532276988,0.009646317683850337,1645483441,1645492507
-0.03,-1.37,-1.6600000000000001,-0.7135053561914937,-0.03229608397581074,-0.6998298877404888,0.010256601338253696,1645492523,1645499949
-0.03,-1.37,-1.6600000000000001,-0.7135835999213685,-0.032785283466613184,-0.6997246439680702,0.010440006467022075,1645499956,1645507778
1.7,-0.07,-1.76,-0.7139598823300362,-0.03345732987146056,-0.6993070371308563,0.01056225924774211,1645507785,1645516282
-0.04,2.59,1.53,-0.7139598823300362,-0.03345732987146056,-0.6993070371308563,0.01056225924774211,1645516290,1645521920
-0.04,2.59,1.53,-0.7139193692492337,-0.03498467447017967,-0.6992661024554412,0.011051005373651869,1645521928,1645527816
-0.87,2.91,2.49,-0.7139193692492337,-0.03498467447017967,-0.6992661024554412,0.011051005373651869,1645527823,1645533453
0.14,-0.03,-0.26,-0.7135418700616319,-0.03858633198245498,-0.6994383215047536,0.012455081842438001,1645533461,1645539309
0.14,-0.03,-0.26,-0.7124787990233381,-0.041091630109067315,-0.700328376450226,0.015020120366761605,1645539316,1645547233
2.95,-1.83,-3.54,-0.7133216524940509,-0.042929982167906666,-0.6995205486961179,0.0004885346477144428,1645547240,1645555834
-1.9100000000000001,2.1,1.49,-0.7133216524940509,-0.042929982167906666,-0.6995205486961179,0.0004885346477144428,1645555842,1645563961
1.79,4.04,3.68,-0.7147458298761066,-0.04470214862177973,-0.6979519898884161,0.001770986762338268,1645563969,1645570840
1.79,4.04,3.68,-0.7152419488515503,-0.04690511627683295,-0.6972860840268252,0.004580577761409467,1645570848,1645576986
-2.17,2.56,3.88,-0.7152419488515503,-0.04690511627683295,-0.6972860840268252,0.004580577761409467,1645577011,1645582745
-1.76,-2.7800000000000002,-1.19,-0.7141800194305574,-0.04825540671828091,-0.6982374103755304,0.009101336203827665,1645582753,1645588581
-1.76,-2.7800000000000002,-1.19,-0.7139250409996926,-0.0488696870710836,-0.6984089153546236,0.012156334658932046,1645588588,1645596808
-0.39,-1.76,-2.52,-0.7139250409996926,-0.0488696870710836,-0.6984089153546236,0.012156334658932046,1645596816,1645605441
1.06,-0.23,-0.6,-0.7148961889592719,-0.04881234446918973,-0.6973628436993752,0.015028581651340018,1645605449,1645613356
0.02,-1.82,4.9,-0.7158300325826046,-0.05194259242745551,-0.6963362831892419,0.0022610304939010045,1645613364,1645619859
0.02,-1.82,4.9,-0.7158300325826046,-0.05194259242745551,-0.6963362831892419,0.0022610304939010045,1645619866,1645625727
-4.49,-1.35,5.16,-0.7161610733833406,-0.058732786441490895,-0.6954426398727627,0.0048281895201641835,1645625735,1645631365
-4.49,-1.35,5.16,-0.7146605652183632,-0.0645468317542415,-0.6964456448937761,0.007579362819626842,1645631373,1645637038
5.99,0.8,-3.1,-0.7146605652183632,-0.0645468317542415,-0.6964456448937761,0.007579362819626842,1645637045,1645644957
1.4000000000000001,3.93,1.1400000000000001,-0.7160897513711624,-0.0686443696790282,-0.694573439592874,0.008435372231260813,1645644964,1645652248
-1.08,4.44,3.24,-0.7187410639561499,-0.06956347429682758,-0.6917225616369954,0.00959706982829695,1645652256,1645659011
-1.08,4.44,3.24,-0.7203160964412342,-0.07067436831489278,-0.6899310090255752,0.012043988372001624,1645659018,1645667649
-0.13,4.59,2.7800000000000002,-0.7203160964412342,-0.07067436831489278,-0.6899310090255752,0.012043988372001624,1645667656,1645673668
-7.07,-1.67,5.39,-0.7211180283803834,-0.07131062853799737,-0.6891322147222594,0.0006115834351457751,1645673675,1645679518
-7.07,-1.67,5.39,-0.7211180283803834,-0.07131062853799737,-0.6891322147222594,0.0006115834351457751,1645679525,1645685480
0.31,-3.06,1.45,-0.7206668016519567,-0.07187704710474911,-0.6895302765657293,0.00458789662370739,1645685487,1645692604
2.2,-1.44,-0.04,-0.7186942550528973,-0.07213864521601956,-0.6915275387883403,0.008015405024002175,1645692611,1645699844
2.2,-1.44,-0.04,-0.7170371750740719,-0.07251762844267093,-0.6931706138144587,0.010648158100442819,1645699852,1645707923
0.87,1.93,-1.05,-0.7166817012988814,-0.07424501696776352,-0.693300335691556,0.013771746758241379,1645707930,1645716812
2.62,0.11,-0.78,-0.7166817012988814,-0.07424501696776352,-0.693300335691556,0.013771746758241379,1645716820,1645722450
2.62,0.11,-0.78,-0.7171307913111495,-0.07561312450006571,-0.6928243861074848,0.0006734772222677919,1645722457,1645728278
-2.87,-2.68,0.53,-0.7171307913111495,-0.07561312450006571,-0.6928243861074848,0.0006734772222677919,1645728285,1645733916
2.1,0.45,-0.03,-0.7174910501012719,-0.07782974521453585,-0.692200975535101,0.0026331070371558157,1645733923,1645739773
2.1,0.45,-0.03,-0.7178302587778234,-0.08028969108930352,-0.6915569731353282,0.004715717935832472,1645739780,1645747664
-0.43,-1.1400000000000001,0.37,-0.7178377265815057,-0.08318317541579355,-0.6911921586095835,0.006554197179300376,1645747671,1645756280
0.39,-0.9400000000000001,0.32,-0.7178377265815057,-0.08318317541579355,-0.6911921586095835,0.006554197179300376,1645756287,1645764600
0.34,-0.18,-0.98,-0.7174147757820689,-0.08662150909024383,-0.6911955354068041,0.007841268149611887,1645764608,1645770713
0.34,-0.18,-0.98,-0.7172797729621794,-0.09011945217179414,-0.6908749572680642,0.008944554736289561,1645770721,1645776928
0.88,0.33,-1.23,-0.7172797729621794,-0.09011945217179414,-0.6908749572680642,0.008944554736289561,1645776935,1645782566
0.88,0.33,-1.23,-0.7176128713534632,-0.09319408959431502,-0.6901019270879488,0.01029362725302099,1645782574,1645788552
0.26,-0.15,-0.13,-0.7180527228465711,-0.09632862948581752,-0.6891909006533014,0.01170405103803508,1645788560,1645796729
-1.1300000000000001,-1.1500000000000001,0.84,-0.7180527228465711,-0.09632862948581752,-0.6891909006533014,0.01170405103803508,1645796737,1645805324
0.5700000000000001,2.0,0.02,-0.7183730458029085,-0.09977062946315775,-0.6883438022912701,0.012992244131565996,1645805331,1645812651
-0.33,2.5300000000000002,1.1300000000000001,-0.7185066447985061,-0.10315164063771098,-0.6876776042514066,0.014403229679062437,1645812658,1645819713
-0.33,2.5300000000000002,1.1300000000000001,-0.7185066447985061,-0.10315164063771098,-0.6876776042514066,0.014403229679062437,1645819720,1645825602
0.79,0.87,-0.25,-0.718492693216426,-0.10600510850509434,-0.6874084884668119,0.0008583409595554197,1645825610,1645831240
0.79,0.87,-0.25,-0.7181241932825834,-0.10768796613187159,-0.6875226584877064,0.003679543261909052,1645831247,1645837086
-2.1,-0.77,0.31,-0.7181241932825834,-0.10768796613187159,-0.6875226584877064,0.003679543261909052,1645837093,1645844691
1.56,-0.2,0.11,-0.7175578443753761,-0.10833608217208807,-0.6879893327066634,0.0066866551284018114,1645844699,1645851989
0.05,-0.33,0.1,-0.7167229366373086,-0.10964676720921757,-0.6886209672014822,0.009326417804029699,1645851997,1645859146
0.05,-0.33,0.1,-0.7160414216175995,-0.11157652391367069,-0.6889758291830953,0.012151898644063144,1645859154,1645867737
1.01,-0.68,-1.53,-0.7160414216175995,-0.11157652391367069,-0.6889758291830953,0.012151898644063144,1645867744,1645873374
-0.15,-1.44,-1.07,-0.7158383582060147,-0.11350528465165262,-0.6888279064771196,0.014426036718841734,1645873382,1645879510
-0.15,-1.44,-1.07,-0.7158383582060147,-0.11350528465165262,-0.6888279064771196,0.014426036718841734,1645879518,1645885419
1.23,-0.54,0.25,-0.7158279090385238,-0.11642873085159483,-0.68850154552114,0.0006140755846603104,1645885426,1645892210
-1.99,-2.0100000000000002,0.28,-0.7160811897546072,-0.12056500347270725,-0.6875214716624988,0.0024567499434071777,1645892217,1645899405
-1.99,-2.0100000000000002,0.28,-0.7158748980827034,-0.12396048947407717,-0.6871268757467925,0.003685643889219341,1645899412,1645907942
4.58,3.9,-3.89,-0.7158287188906706,-0.12743594532010735,-0.6865196803575504,0.006328786098346702,1645907950,1645916667
-1.36,0.58,1.3900000000000001,-0.7158287188906706,-0.12743594532010735,-0.6865196803575504,0.006328786098346702,1645916675,1645922317
-1.36,0.58,1.3900000000000001,-0.7161952861282217,-0.1295187939122962,-0.6857058120985592,0.009835314203116941,1645922325,1645928171
-2.42,0.99,0.52,-0.7161952861282217,-0.1295187939122962,-0.6857058120985592,0.009835314203116941,1645928179,1645933809
0.03,-2.69,-2.05,-0.7155773217315082,-0.1320223863330367,-0.6858154051105535,0.013282177665550038,1645933816,1645939509
0.03,-2.69,-2.05,-0.7150927930873197,-0.13406067247158818,-0.6860534918451949,0.0007998112630246198,1645939517,1645947459
-0.12,-1.95,0.55,-0.7150927930873197,-0.13406067247158818,-0.6860534918451949,0.0007998112630246198,1645947467,1645955937
1.92,-2.56,-5.16,-0.7141225485914084,-0.13723658077894182,-0.6864290681651646,0.003200135515921513,1645955944,1645963362
2.45,2.61,-1.68,-0.7137255960356217,-0.14120625418764263,-0.6860260256849507,0.004985922663120773,1645963369,1645970179
2.45,2.61,-1.68,-0.7137255960356217,-0.14120625418764263,-0.6860260256849507,0.004985922663120773,1645970187,1645976333
-2.45,5.08,2.65,-0.7148116433525316,-0.14499409303145666,-0.6840889034702824,0.006587842018839008,1645976353,1645982007
-2.45,5.08,2.65,-0.714333385272121,-0.1491248707203419,-0.6836583808860284,0.010040212278982125,1645982015,1645987900
3.2600000000000002,-1.76,-4.3,-0.714333385272121,-0.1491248707203419,-0.6836583808860284,0.010040212278982125,1645987908,1645996076
-3.86,-1.18,2.35,-0.7138832032269322,-0.1521693541195973,-0.6833753740292,0.014606778828005087,1645996083,1646003429
0.85,-1.78,-0.42,-0.713795695360768,-0.1550925420157522,-0.6829621880017716,0.002158345515129752,1646003437,1646010453
0.85,-1.78,-0.42,-0.7130957560987848,-0.1583629038762506,-0.6829284557499393,0.0049353456603428315,1646010460,1646018823
1.19,-2.14,-2.37,-0.7130957560987848,-0.1583629038762506,-0.6829284557499393,0.0049353456603428315,1646018831,1646024473
1.98,-0.65,-1.18,-0.7131547028974893,-0.16070048860722239,-0.6822982342709104,0.007405552470378912,1646024480,1646030317
1.98,-0.65,-1.18,-0.7131547028974893,-0.16070048860722239,-0.6822982342709104,0.007405552470378912,1646030324,1646036175
0.79,3.7800000000000002,-0.59,-0.7128608459683032,-0.16369442925863192,-0.681874947217235,0.008950110197021731,1646036182,1646042935
-1.51,3.8000000000000003,1.62,-0.7132203523866009,-0.16770032699177628,-0.6804953253963058,0.010928924108079677,1646042943,1646049918
-1.51,3.8000000000000003,1.62,-0.7130612275116817,-0.1713002498388541,-0.6797030829343353,0.014269872958087019,1646049925,1646058351
1.25,-0.9,-2.44,-0.7125308809629154,-0.17477872455376675,-0.6795164349382562,0.0030912402644811946,1646058359,1646067065
-1.75,-2.99,-0.11,-0.7125308809629154,-0.17477872455376675,-0.6795164349382562,0.0030912402644811946,1646067072,1646072704
-1.75,-2.99,-0.11,-0.7122819988444946,-0.1776683950565736,-0.6790001058986601,0.006866710254623841,1646072711,1646078825
0.7000000000000001,-1.95,0.5700000000000001,-0.7122819988444946,-0.1776683950565736,-0.6790001058986601,0.006866710254623841,1646078846,1646084493
-1.1500000000000001,-2.43,0.36,-0.7117241807599464,-0.18028282943945426,-0.6788610903265958,0.009716582293853181,1646084501,1646090268
-1.1500000000000001,-2.43,0.36,-0.7111334736875324,-0.18239589182339114,-0.6788767664098724,0.012134960895242589,1646090276,1646098472
2.5500000000000003,0.06,-0.92,-0.7108968525028279,-0.18523325079152872,-0.6783215633298609,0.013934296699463044,1646098479,1646106985
-1.05,1.1400000000000001,0.3,-0.7108968525028279,-0.18523325079152872,-0.6783215633298609,0.013934296699463044,1646106993,1646115074
-0.73,2.84,1.02,-0.7114275059689454,-0.18925557564743367,-0.6766119139840493,0.015797110242257148,1646115081,1646121140
-0.73,2.84,1.02,-0.7113946704822569,-0.1932672808716282,-0.675691670552155,0.002479374995145968,1646121148,1646126986
0.71,3.54,-0.87,-0.7113946704822569,-0.1932672808716282,-0.675691670552155,0.002479374995145968,1646126994,1646132625
0.71,3.54,-0.87,-0.7108826813435214,-0.19711937538693927,-0.6750935436474031,0.0062026235175248355,1646132633,1646138471
0.62,-0.99,-1.19,-0.7108826813435214,-0.19711937538693927,-0.6750935436474031,0.0062026235175248355,1646138478,1646146332
-0.26,-1.46,0.48,-0.7104070927828771,-0.20034895120593457,-0.6745950280846663,0.010178819082333727,1646146339,1646153662
-0.1,-1.62,0.01,-0.7099889966420624,-0.2030846762613317,-0.6741541776198029,0.013725294634175628,1646153670,1646160884
-0.1,-1.62,0.01,-0.7096608001816631,-0.20645355794758605,-0.6736153264882254,0.0009322105265544222,1646160892,1646169160
-0.72,-1.77,0.58,-0.7096608001816631,-0.20645355794758605,-0.6736153264882254,0.0009322105265544222,1646169168,1646174805
0.03,0.53,0.01,-0.7092359801317564,-0.2101094491377525,-0.6729223020327781,0.0037308573389361202,1646174812,1646180954
0.03,0.53,0.01,-0.7092359801317564,-0.2101094491377525,-0.6729223020327781,0.0037308573389361202,1646180974,1646186667
-0.29,1.35,0.4,-0.7090383887708009,-0.21376291162731173,-0.6719596066608248,0.006345697609425435,1646186675,1646193804
-0.19,1.3800000000000001,-0.9,-0.7087306183765819,-0.21686434871104965,-0.6712586499712857,0.009087886025204722,1646193811,1646201014
-0.19,1.3800000000000001,-0.9,-0.708153176176015,-0.21985758240117265,-0.6708458980291871,0.012145107243124268,1646201022,1646209054
0.24,0.67,-0.4,-0.7076676156802008,-0.22292620530938603,-0.670274346687852,0.015580528746811994,1646209062,1646217698
-1.24,-0.5700000000000001,0.05,-0.7076676156802008,-0.22292620530938603,-0.670274346687852,0.015580528746811994,1646217705,1646223337
-1.24,-0.5700000000000001,0.05,-0.7074203704775421,-0.22580563805032208,-0.6697445126371017,0.0032436169001703722,1646223345,1646229162
0.64,0.04,0.56,-0.7074203704775421,-0.22580563805032208,-0.6697445126371017,0.0032436169001703722,1646229169,1646234799
0.5,-1.36,-1.32,-0.7068589432856139,-0.22902379573604004,-0.6692188918195926,0.0066790804425609935,1646234807,1646240582
0.5,-1.36,-1.32,-0.7064733323139272,-0.23236788649052245,-0.6684324605739465,0.009931853212901362,1646240590,1646248451
-0.6,-0.29,-0.13,-0.7064733323139272,-0.23236788649052245,-0.6684324605739465,0.009931853212901362,1646248459,1646256920
0.37,-0.88,-1.62,-0.7061043227494992,-0.23570146066109246,-0.6676020422490396,0.013000770039116212,1646256928,1646264678
1.29,1.25,-0.92,-0.7055210984614974,-0.23951062026855868,-0.6669892253652758,0.00012510348407864126,1646264685,1646271294
1.29,1.25,-0.92,-0.7052762817745958,-0.24285338776051044,-0.6660316750411319,0.0030669628866662403,1646271301,1646277119
-1.35,0.75,-0.21,-0.7052762817745958,-0.24285338776051044,-0.6660316750411319,0.0030669628866662403,1646277126,1646282757
-1.35,0.75,-0.21,-0.7049526235474909,-0.2460506402429842,-0.665176107113098,0.006451938886208598,1646282764,1646288968
-0.08,-0.1,0.8300000000000001,-0.7049526235474909,-0.2460506402429842,-0.665176107113098,0.006451938886208598,1646288976,1646297101
-0.17,0.61,-2.11,-0.7043747193137808,-0.24987874966044235,-0.6643163848850245,0.01003025588200471,1646297108,1646304875
2.87,0.86,-0.21,-0.7040114766143301,-0.25294727087052027,-0.6634847065294203,0.013174337024506265,1646304882,1646312221
2.87,0.86,-0.21,-0.70443171806249,-0.2553863253129031,-0.6622336333292048,0.0006279476894834106,1646312229,1646320125
-1.95,-0.77,3.16,-0.70443171806249,-0.2553863253129031,-0.6622336333292048,0.0006279476894834106,1646320132,1646325767
-2.85,-0.92,3.24,-0.7042322576107594,-0.25860393896736344,-0.6611839712941994,0.004084873884053129,1646325774,1646331437
-2.85,-0.92,3.24,-0.7042322576107594,-0.25860393896736344,-0.6611839712941994,0.004084873884053129,1646331445,1646337280
1.9100000000000001,-0.81,-4.0600000000000005,-0.702791338994131,-0.2625012124350338,-0.6611584202993557,0.006854966975423739,1646337287,1646344058
-1.18,-0.24,0.06,-0.7014403810781679,-0.2658248851313638,-0.6612268153587215,0.009880328353604195,1646344066,1646351304
-1.18,-0.24,0.06,-0.7011970270247032,-0.26872711642845415,-0.6602613284827544,0.012784533544639369,1646351312,1646359436
0.12,0.22,-2.35,-0.7007232721194276,-0.27180676973208845,-0.6594449428417746,0.015503006110385754,1646359443,1646367968
1.16,0.33,-0.9400000000000001,-0.7007232721194276,-0.27180676973208845,-0.6594449428417746,0.015503006110385754,1646367976,1646373606
1.16,0.33,-0.9400000000000001,-0.7006201058107342,-0.2748111092021398,-0.6584870277875464,0.0022706449234053323,1646373614,1646379505
-2.98,-0.02,1.86,-0.7006201058107342,-0.2748111092021398,-0.6584870277875464,0.0022706449234053323,1646379513,1646385144
1.17,-0.42,0.17,-0.7003111312695262,-0.2783190713689689,-0.6573228600964103,0.005428768459453692,1646385151,1646391265
1.17,-0.42,0.17,-0.6995812178259603,-0.2820056489412215,-0.6564970214599403,0.008402050024458435,1646391272,1646399372
0.67,-0.11,-0.14,-0.6990605169783916,-0.28520050575106487,-0.655626079503113,0.011380201958588269,1646399380,1646407776
1.09,0.91,-0.62,-0.6990605169783916,-0.28520050575106487,-0.655626079503113,0.011380201958588269,1646407784,1646416203
0.53,0.92,-0.09,-0.6984318111807105,-0.2882557597372332,-0.6549024076031827,0.014298902919362314,1646416211,1646422282
0.53,0.92,-0.09,-0.6978981341466882,-0.2911919801094803,-0.6543269983669313,0.00126660278429526,1646422290,1646428164
-0.9,-1.09,-0.8200000000000001,-0.6978981341466882,-0.2911919801094803,-0.6543269983669313,0.00126660278429526,1646428172,1646433802
-0.9,-1.09,-0.8200000000000001,-0.697321702549587,-0.2940528477527074,-0.653647977155835,0.004437098370918198,1646433809,1646439681
-0.08,0.03,0.18,-0.697321702549587,-0.2940528477527074,-0.653647977155835,0.004437098370918198,1646439689,1646447436
-0.4,-0.85,-0.27,-0.6966300482020209,-0.2970875617639617,-0.6529836158950371,0.007612749820985567,1646447444,1646455206
-0.07,-0.52,0.02,-0.6959197010440132,-0.3001471192367747,-0.6522977270825865,0.010730878601864804,1646455214,1646462514
-0.07,-0.52,0.02,-0.6953519878929223,-0.3031917688025162,-0.6514397027865423,0.013663012008497375,1646462521,1646470336
-0.16,-0.33,0.24,-0.6953519878929223,-0.3031917688025162,-0.6514397027865423,0.013663012008497375,1646470343,1646476036
0.51,-0.23,-0.78,-0.6947771535557088,-0.30639398962536385,-0.6506976362606336,0.0001272136141272011,1646476044,1646481791
0.51,-0.23,-0.78,-0.6942315110876932,-0.30924048054869,-0.6499269877320143,0.002800860671910737,1646481798,1646487678
0.22,0.96,0.37,-0.6942315110876932,-0.30924048054869,-0.6499269877320143,0.002800860671910737,1646487686,1646496010
-0.67,-1.1400000000000001,-2.09,-0.6937761635863153,-0.3119125892487236,-0.6491171102645517,0.005669979665673284,1646496017,1646502835
-0.67,-1.1400000000000001,-2.09,-0.6933027268238373,-0.31448257598594365,-0.6483493172394719,0.00867186340918255,1646502842,1646510325
1.81,1.47,0.44,-0.6930782082562736,-0.31686310349837926,-0.6473835492220663,0.011615122827130921,1646510332,1646519033
-1.47,0.71,1.33,-0.6930782082562736,-0.31686310349837926,-0.6473835492220663,0.011615122827130921,1646519040,1646524670
2.62,-0.99,-1.97,-0.6924439941077464,-0.3197418756812686,-0.6465749298241997,0.015076739792363516,1646524678,1646530526
2.62,-0.99,-1.97,-0.6924439941077464,-0.3197418756812686,-0.6465749298241997,0.015076739792363516,1646530533,1646536163
-2.58,-0.12,1.37,-0.6917303243631185,-0.3227776393362296,-0.646002959170845,0.0019825850642803877,1646536171,1646541966
-2.58,-0.12,1.37,-0.6914285436429041,-0.3254835848037522,-0.6449491804313533,0.005249735238770197,1646541973,1646549776
0.63,0.11,0.41000000000000003,-0.6906347391270099,-0.3286234520036473,-0.6441737401600356,0.008395021882308463,1646549784,1646558290
0.86,-0.5700000000000001,-1.56,-0.6906347391270099,-0.3286234520036473,-0.6441737401600356,0.008395021882308463,1646558298,1646566660
0.56,0.25,0.24,-0.6900386578684063,-0.33190108913369293,-0.6430824156484869,0.011546616939324454,1646566668,1646572615
0.56,0.25,0.24,-0.6894935971731964,-0.3345373106046147,-0.6422345836213736,0.014768441734944604,1646572623,1646578427
0.54,0.04,-1.1,-0.6894935971731964,-0.3345373106046147,-0.6422345836213736,0.014768441734944604,1646578435,1646584069
0.54,0.04,-1.1,-0.6889685126237922,-0.3372847346274527,-0.6415288072387989,0.0014784732030553483,1646584077,1646589938
-1.9000000000000001,0.5700000000000001,0.29,-0.688601365369337,-0.3394096823325125,-0.6407854014002327,0.004826645084364512,1646589945,1646598371
0.43,1.1,1.22,-0.688601365369337,-0.3394096823325125,-0.6407854014002327,0.004826645084364512,1646598379,1646606614
-1.06,-1.99,-1.32,-0.687790297579975,-0.34212332366741616,-0.6401765242861482,0.008375900579428268,1646606621,1646614003
0.99,-1.07,-0.25,-0.6872172825977685,-0.3450598274892596,-0.6391668954053389,0.01148049519496976,1646614010,1646621369
0.99,-1.07,-0.25,-0.6872172825977685,-0.3450598274892596,-0.6391668954053389,0.01148049519496976,1646621376,1646627190
-0.55,-0.9,0.88,-0.6865143525525467,-0.34855096759744214,-0.6379664126315843,0.01446108848709521,1646627198,1646632828
-0.55,-0.9,0.88,-0.6859205790809663,-0.3521386463280347,-0.6367969793729439,0.0009695447310793907,1646632836,1646638697
-0.61,-2.13,-0.01,-0.6859205790809663,-0.3521386463280347,-0.6367969793729439,0.0009695447310793907,1646638704,1646645774
-0.71,0.41000000000000003,0.09,-0.6853957374413269,-0.35589348314478864,-0.6352653395065375,0.0032342192215993153,1646645781,1646653062
-0.71,0.41000000000000003,0.09,-0.6847200914636264,-0.3598065867783715,-0.6337723074055879,0.005502619625074052,1646653069,1646660728
-0.42,0.88,0.68,-0.683612294293605,-0.3638675618190585,-0.6326215943022234,0.008034112832187188,1646660736,1646669356
0.3,0.44,-0.12,-0.683612294293605,-0.3638675618190585,-0.6326215943022234,0.008034112832187188,1646669363,1646675002
0.3,0.44,-0.12,-0.6826511277671614,-0.3677859154063816,-0.6313517697903588,0.01076573125682584,1646675009,1646680885
-0.61,-0.51,-1.11,-0.6826511277671614,-0.3677859154063816,-0.6313517697903588,0.01076573125682584,1646680892,1646686544
0.61,0.28,-0.73,-0.6820570862600578,-0.37144100576568484,-0.6298008804506596,0.013437310065273815,1646686551,1646692332
0.61,0.28,-0.73,-0.6815617000309789,-0.3747972052415565,-0.6282791569834622,0.016309656469422795,1646692340,1646700493
0.5,0.5,-0.22,-0.6810928578921616,-0.3778572278763659,-0.6271597239545742,0.002667380568686467,1646700500,1646708909
-0.71,0.74,-0.06,-0.6810928578921616,-0.3778572278763659,-0.6271597239545742,0.002667380568686467,1646708917,1646717645
0.15,0.28,-0.14,-0.6803453797663116,-0.38071984152552335,-0.6262173749232475,0.005862238791667597,1646717652,1646723292
0.15,0.28,-0.14,-0.6795129714034375,-0.3832899254187544,-0.6255119405634292,0.009261046351788859,1646723299,1646729143
-0.68,0.04,-0.28,-0.6795129714034375,-0.3832899254187544,-0.6255119405634292,0.009261046351788859,1646729150,1646734783
-0.68,0.04,-0.28,-0.6786487263026592,-0.3859149400989816,-0.6247773514157454,0.012602636791726471,1646734790,1646740647
0.38,-0.19,-0.81,-0.6779642370673729,-0.3884074766072577,-0.6238970794921832,0.016017477153472164,1646740654,1646748435
0.62,-0.37,-0.77,-0.6779642370673729,-0.3884074766072577,-0.6238970794921832,0.016017477153472164,1646748443,1646756432
-0.19,-1.2,0.3,-0.6772367310882951,-0.3914814549935239,-0.6229661414244771,0.0024222096713646126,1646756440,1646763460
-0.19,-1.2,0.3,-0.6761807757736372,-0.3951433456566113,-0.6217822060448285,0.005308776081968073,1646763468,1646771100
0.38,-1.5,-0.41000000000000003,-0.6761807757736372,-0.3951433456566113,-0.6217822060448285,0.005308776081968073,1646771108,1646776738
-0.63,-1.6300000000000001,-0.47000000000000003,-0.6752351715169314,-0.3989876919426772,-0.6203268028625379,0.00780656615277517,1646776746,1646782487
-0.63,-1.6300000000000001,-0.47000000000000003,-0.6752351715169314,-0.3989876919426772,-0.6203268028625379,0.00780656615277517,1646782495,1646788324
1.07,-0.35000000000000003,-0.39,-0.674418163871731,-0.40286505583303556,-0.6186762420330336,0.009979708032369852,1646788332,1646796008
-1.18,0.0,-0.72,-0.673502513724155,-0.40670378158247594,-0.6171199245178594,0.012222799058707469,1646796028,1646803293
-1.18,0.0,-0.72,-0.6724623518219855,-0.41058019192417167,-0.6156401051741425,0.014337094640312258,1646803301,1646810986
1.58,1.4000000000000001,-1.9000000000000001,-0.6717246933046749,-0.41392622508706856,-0.6143702959055599,0.00039509343788138903,1646810994,1646819668
1.18,1.24,-2.46,-0.6717246933046749,-0.41392622508706856,-0.6143702959055599,0.00039509343788138903,1646819676,1646825313
1.18,1.24,-2.46,-0.6711878352305582,-0.41637649750891575,-0.6132881575598538,0.003890752827530255,1646825321,1646830966
0.85,1.44,-1.1500000000000001,-0.6711878352305582,-0.41637649750891575,-0.6132881575598538,0.003890752827530255,1646830974,1646836632
-1.16,-0.18,2.0,-0.6702062215245131,-0.4191760827765161,-0.6124184363615304,0.0076610092330354285,1646836639,1646842521
-1.16,-0.18,2.0,-0.6684274412298273,-0.42280168514715405,-0.6118157968553609,0.011176831658043021,1646842528,1646850454
0.68,-1.92,-0.47000000000000003,-0.6671167086497664,-0.4266659672255752,-0.6104972143182644,0.014303872252168903,1646850462,1646858895
0.8300000000000001,-2.58,-1.68,-0.6671167086497664,-0.4266659672255752,-0.6104972143182644,0.014303872252168903,1646858903,1646867221
0.55,-1.21,-0.36,-0.6665281457759854,-0.43027269577600175,-0.6087738665309712,0.00013261602582092827,1646867228,1646873304
0.55,-1.21,-0.36,-0.6659598036595415,-0.43370690293147063,-0.6069507071327468,0.0025887005225478043,1646873311,1646879121
0.41000000000000003,0.8,0.37,-0.6659598036595415,-0.43370690293147063,-0.6069507071327468,0.0025887005225478043,1646879129,1646884765
0.41000000000000003,0.8,0.37,-0.6649511780015495,-0.4373647100635753,-0.6054132290168999,0.005182991094645833,1646884773,1646890619
0.36,0.8200000000000001,-0.46,-0.663772362349389,-0.4408294750854015,-0.6041612531316829,0.008050160954623239,1646890627,1646898975
-0.07,0.74,-1.68,-0.663772362349389,-0.4408294750854015,-0.6041612531316829,0.008050160954623239,1646898983,1646907086
1.27,0.86,-0.6900000000000001,-0.6625510927210018,-0.4442770199380169,-0.6029188292470178,0.011526683330725393,1646907094,1646914208
1.27,0.86,-0.6900000000000001,-0.661373004460089,-0.4476309118344964,-0.6016666458770973,0.014476290293306365,1646914215,1646921505
0.19,0.03,0.42,-0.661373004460089,-0.4476309118344964,-0.6016666458770973,0.014476290293306365,1646921512,1646927142
0.74,0.14,-0.22,-0.6603215399768887,-0.45056841549257604,-0.6008024208955121,0.00013360071623204627,1646927150,1646932847
0.74,0.14,-0.22,-0.6603215399768887,-0.45056841549257604,-0.6008024208955121,0.00013360071623204627,1646932855,1646938698
0.03,-0.07,0.91,-0.6592931804861552,-0.45353163186851986,-0.5996918996609558,0.003344628553602654,1646938706,1646945274
-1.45,-0.97,0.4,-0.6579244101971654,-0.45703708519397873,-0.5985089192742489,0.006296568372890811,1646945282,1646952287
-1.45,-0.97,0.4,-0.6564647736109861,-0.46037702225349064,-0.5975177375496871,0.008919176104838202,1646952295,1646960620
0.71,0.39,-0.87,-0.6554309674599508,-0.4633878810000124,-0.5962736390784104,0.011818036089842367,1646960627,1646969335
-0.68,-0.76,-0.9,-0.6554309674599508,-0.4633878810000124,-0.5962736390784104,0.011818036089842367,1646969342,1646974972
-0.68,-0.76,-0.9,-0.6543116557530343,-0.4663281590940244,-0.5951466067330312,0.014656796234500767,1646974980,1646980832
0.63,0.93,0.17,-0.6543116557530343,-0.4663281590940244,-0.5951466067330312,0.014656796234500767,1646980840,1646986490
-0.21,-0.43,0.52,-0.6533249368630945,-0.46964252649902954,-0.5938032173756189,0.0004039935711819609,1646986498,1646992314
-0.21,-0.43,0.52,-0.6522683048275061,-0.47312039435338127,-0.5921927353008049,0.0033038191995604506,1646992322,1647000766
-0.12,1.98,0.38,-0.650796713710632,-0.47805229182915465,-0.5898161769792113,0.006820635891332762,1647000786,1647009220
0.38,-0.02,-0.16,-0.650796713710632,-0.47805229182915465,-0.5898161769792113,0.006820635891332762,1647009228,1647017619
0.3,-1.86,-1.95,-0.6494105559925324,-0.4815283562244389,-0.5884670177205532,0.01014598306414747,1647017627,1647023700
0.3,-1.86,-1.95,-0.6484987929099207,-0.4843081647488963,-0.5871305135725081,0.013140669085494529,1647023707,1647029586
0.44,1.28,0.6,-0.6484987929099207,-0.4843081647488963,-0.5871305135725081,0.013140669085494529,1647029593,1647035282
-1.81,-0.75,1.32,0.6636780200824406,0.44440760239774474,0.6016769594418911,0.004266739656984048,1633539510,1633545142
