ACC_X,ACC_Y,ACC_Z,QUAT_W,QUAT_X,QUAT_Y,QUAT_Z,X_pos,Y_pos,Z_pos,t
-171,51.0,-38.0,-9066.0,7263.0,7.0,-6625.0,-218.249770015696,299.978497217856,65.8091251465734,681228947
-21,117.0,-195.0,-8903.0,7494.0,185.0,-6838.0,-218.68232653901,300.014177966672,66.6039259152588,681243421
-21,117.0,-195.0,-8818.0,7608.0,18.0,-6942.0,-219.010719807376,300.027897670121,67.2750692381474,681251576
-81,-184.0,-212.0,-8731.0,7719.0,110.0,-7049.0,-219.169830954239,300.030004325803,68.51632401477,681259917
-164,-154.0,-367.0,-8645.0,7831.0,202.0,-7151.0,-219.392521599753,300.051025892471,70.1089985118074,681274108
-164,-154.0,-367.0,-8560.0,7941.0,43.0,-7253.0,-219.539910335966,300.04676985931,71.9527392822015,681280425
205,282.0,328.0,-8473.0,8049.0,141.0,-7355.0,-219.639101047613,300.024365690947,73.3806920942315,681291575
-64,-173.0,-246.0,-8288.0,8264.0,80.0,-7555.0,-219.729526230168,300.078243642028,77.7369702834229,681309076
-81,73.0,75.0,-8195.0,8369.0,178.0,-7652.0,-219.894142437969,300.128148450086,80.8408640114402,681323140
-69,25.0,-185.0,-8102.0,8473.0,24.0,-7748.0,-219.913618222451,300.12164911249,84.2294203977835,681336305
4,21.0,-16.0,-8008.0,8574.0,125.0,-7843.0,-219.995250093682,300.159526099421,88.0721421436346,681344248
-294,148.0,134.0,-7731.0,8854.0,155.0,-8105.0,-220.066468712797,300.21345629107,92.2709781943477,681370295
-269,-17.0,47.0,-7731.0,8854.0,155.0,-8105.0,-220.139941648967,300.271649560457,98.3815537821603,681376730
-243,-20.0,-121.0,-7566.0,9018.0,81.0,-8257.0,-220.176398161842,300.30376538318,103.246910975445,681390863
1,283.0,-16.0,-7487.0,9094.0,167.0,-8326.0,-220.226450643151,300.363914784914,106.597137964305,681399443
-145,200.0,27.0,-7487.0,9094.0,167.0,-8326.0,-220.257637158224,300.393429950501,111.715782897014,681407987
-292,-139.0,-25.0,-7337.0,9226.0,61.0,-8452.0,-220.294956944126,300.430233582856,116.937510260649,681422219
-365,81.0,-2.0,-7272.0,9285.0,129.0,-8506.0,-220.287425971022,300.431449987519,120.47848507833,681432012
-371,11.0,-216.0,-7212.0,9339.0,196.0,-8555.0,-220.326581044874,300.482143832573,125.886402408862,681439564
-370,269.0,15.0,-7158.0,9388.0,0.0,-8600.0,-220.339578532505,300.490320481621,131.301246171882,681456315
-200,-83.0,-106.0,-7105.0,9432.0,53.0,-8641.0,-220.364403796571,300.519820209897,136.796633237813,681464042
-380,102.0,54.0,-7060.0,9469.0,99.0,-8676.0,-220.363577361105,300.51297703086,142.286391526126,681477220
-292,17.0,-80.0,-7019.0,9501.0,137.0,-8706.0,-220.373394370484,300.508252797434,147.841205096386,681483424
-292,17.0,-80.0,-7019.0,9501.0,137.0,-8706.0,-220.380605494878,300.516575687714,151.52548008836,681483424
-292,17.0,-80.0,-7019.0,9501.0,137.0,-8706.0,-220.38244290141,300.516282721419,157.09716471212,681483424
-119,135.0,93.0,-6907.0,9590.0,249.0,-8791.0,-220.384020644512,300.520980930813,162.666811262089,681540344
-119,135.0,93.0,-6907.0,9590.0,249.0,-8791.0,-220.388459068877,300.517851347578,168.276254070731,681540344
-135,378.0,105.0,-6908.0,9590.0,250.0,-8791.0,-220.393433200243,300.51928875765,173.88128191137,681549224
-26,343.0,123.0,-6908.0,9590.0,250.0,-8791.0,-220.395166085935,300.535172110351,177.648478529314,681557826
43,193.0,82.0,-6914.0,9586.0,247.0,-8788.0,-220.385186303334,300.520808259626,183.241722156314,681566303
-83,341.0,-10.0,-6930.0,9573.0,228.0,-8774.0,-220.378263109409,300.517533948539,188.856261211491,681578854
-106,220.0,148.0,-6947.0,9559.0,209.0,-8760.0,-220.383510632277,300.518019810381,194.485434041927,681585219
-12,156.0,14.0,-6970.0,9540.0,185.0,-8743.0,-220.388186840103,300.524105123411,198.250108702254,681592869
-21,306.0,-62.0,-7005.0,9512.0,150.0,-8717.0,-220.38005026807,300.513049475462,201.980402431146,681603722
48,383.0,200.0,-7047.0,9476.0,106.0,-8684.0,-220.380403115382,300.500778456609,207.58914555846,681619015
3,389.0,113.0,-7094.0,9438.0,59.0,-8649.0,-220.37444854457,300.506166077922,213.215262267614,681625199
8,231.0,-61.0,-7144.0,9394.0,3.0,-8607.0,-220.355670629818,300.480560209337,218.828344819748,681638492
-149,378.0,-155.0,-7199.0,9346.0,201.0,-8563.0,-220.344257414099,300.464241882926,224.445133002991,681646966
3,153.0,238.0,-7332.0,9232.0,64.0,-8453.0,-220.360503645699,300.483876929523,228.210530036789,681662636
-27,225.0,-180.0,-7405.0,9165.0,243.0,-8392.0,-220.357180288637,300.481863679594,233.861552782624,681673354
-27,225.0,-180.0,-7405.0,9165.0,243.0,-8392.0,-220.372314449602,300.499433592617,237.618501271439,681679726
-188,334.0,-92.0,-7560.0,9020.0,75.0,-8254.0,-220.377521554036,300.513641175895,243.277938087661,681694524
-188,334.0,-92.0,-7641.0,8944.0,246.0,-8180.0,-220.374692242293,300.506498388082,248.892731645668,681702682
31,35.0,60.0,-7724.0,8865.0,157.0,-8101.0,-220.385720166214,300.521536243692,254.531706202145,681718541
20,-41.0,-104.0,-7809.0,8781.0,68.0,-8021.0,-220.390248273585,300.527459097853,260.199452267037,681724816
100,216.0,58.0,-7982.0,8603.0,138.0,-7853.0,-220.396321640929,300.536496093686,265.808904511829,681742325
-103,177.0,-129.0,-8066.0,8511.0,45.0,-7767.0,-220.402778369583,300.544797085993,271.467093541222,681751043
43,129.0,227.0,-8151.0,8419.0,209.0,-7678.0,-220.400772459452,300.54231355312,277.072145138331,681759670
143,87.0,75.0,-8236.0,8325.0,118.0,-7587.0,-220.415362888351,300.562964642488,280.882658855702,681773872
-130,-190.0,-347.0,-8321.0,8228.0,25.0,-7494.0,-220.416699556671,300.563123324015,286.495813543006,681786938
-127,-53.0,-224.0,-8405.0,8127.0,188.0,-7402.0,-220.423374198993,300.573133676917,292.148869333336,681798586
51,219.0,180.0,-8489.0,8027.0,96.0,-7306.0,-220.427905986917,300.581066885389,297.770104554767,681807263
-104,114.0,-59.0,-8653.0,7823.0,172.0,-7111.0,-220.439888602707,300.596408415736,303.417320287134,681821485
133,-183.0,-65.0,-8733.0,7720.0,84.0,-7012.0,-220.444380006904,300.604516806804,309.058886897051,681833949
-68,149.0,-67.0,-8891.0,7505.0,164.0,-6812.0,-220.460283066654,300.623966902701,316.598929840222,681850409
-10,-50.0,-162.0,-8969.0,7395.0,75.0,-6709.0,-220.468308046658,300.636169108745,320.336510811216,681862757
9,134.0,53.0,-8969.0,7395.0,75.0,-6709.0,-220.47995757033,300.656047631084,325.996475346409,681869653
247,140.0,157.0,-9046.0,7287.0,248.0,-6606.0,-220.490135505196,300.66719290148,331.679811294714,681876258
-234,117.0,-238.0,-9195.0,7066.0,82.0,-6396.0,-220.500113615756,300.684717170613,335.435571674173,681889958
85,-149.0,-59.0,-9195.0,7066.0,82.0,-6396.0,-220.515883733419,300.700540736396,339.184846413692,681898478
137,116.0,82.0,-9266.0,6951.0,255.0,-6292.0,-220.526181840606,300.729308531376,344.827084072807,681907138
137,24.0,70.0,-9338.0,6838.0,175.0,-6185.0,-220.546543618956,300.74335697177,348.592139406011,681915221
39,3.0,-55.0,-9478.0,6605.0,16.0,-5968.0,-220.560318309488,300.772471423061,354.28701082638,681931336
-179,-16.0,-259.0,-9478.0,6605.0,16.0,-5968.0,-220.58042773163,300.789562283477,359.98239400524,681938455
33,295.0,-131.0,-9611.0,6372.0,120.0,-5749.0,-220.608697983828,300.827608383016,365.58922655241,681954917
33,295.0,-131.0,-9676.0,6253.0,47.0,-5640.0,-220.642111582789,300.874936274386,371.096733802993,681962845
-8,121.0,35.0,-9740.0,6133.0,230.0,-5528.0,-220.66789097924,300.910846123017,376.430390984022,681975879
-77,30.0,-34.0,-9804.0,6013.0,160.0,-5416.0,-220.693022762915,300.944108359891,379.833744341811,681985593
-5,172.0,-238.0,-9866.0,5890.0,89.0,-5301.0,-220.703949391567,300.964449030314,384.740213031221,681993488
-96,-201.0,-143.0,-9982.0,5645.0,209.0,-5076.0,-220.717852111375,300.977966458529,389.32322650476,682010631
65,310.0,-59.0,-9982.0,5645.0,209.0,-5076.0,-220.72612258045,300.989244336326,393.594670504732,682018196
-160,-201.0,93.0,-10039.0,5522.0,143.0,-4961.0,-220.725072193368,300.985384302118,396.313614605517,682030791
-29,-164.0,3.0,-10096.0,5398.0,80.0,-4844.0,-220.716636303517,300.975804298012,398.865046016406,682037690
142,272.0,-217.0,-10151.0,5271.0,16.0,-4726.0,-220.709029845754,300.96316289051,402.381936494928,682049616
35,-24.0,-170.0,-10204.0,5145.0,211.0,-4613.0,-220.693788507928,300.943387881655,405.496825589838,682058146
24,41.0,-93.0,-10302.0,4889.0,90.0,-4382.0,-220.678124506761,300.912174149667,407.393281742184,682072288
-119,-56.0,98.0,-10302.0,4889.0,90.0,-4382.0,-220.647113388022,300.867260690877,409.940999862082,682079081
1,119.0,-155.0,-10400.0,4633.0,234.0,-4142.0,-220.606332430944,300.826398628171,412.111501880233,682093287
-58,-209.0,75.0,-10447.0,4503.0,181.0,-4022.0,-220.561245912686,300.76290153689,413.869860591428,682101897
-32,-129.0,10.0,-10491.0,4371.0,127.0,-3902.0,-220.505801000206,300.688051093167,415.251631034266,682113536
-171,-22.0,74.0,-10534.0,4240.0,76.0,-3786.0,-220.439676892729,300.602163100047,416.298057366997,682126703
-56,130.0,-123.0,-10616.0,3979.0,235.0,-3542.0,-220.341312458265,300.50503122886,417.114289379287,682140456
30,-73.0,-117.0,-10616.0,3979.0,235.0,-3542.0,-220.123007258252,300.390963234127,417.735232817615,682149095
63,36.0,-122.0,-10694.0,3711.0,143.0,-3297.0,-219.870922057877,300.297124017741,418.101763746429,682165192
-47,-30.0,-137.0,-10730.0,3577.0,99.0,-3175.0,-219.027417595108,300.193307888365,418.786833413281,682175126
-87,-65.0,-118.0,-10763.0,3442.0,57.0,-3054.0,-217.715141915322,300.149644654597,419.064355562823,682189293
-125,-65.0,-85.0,-10828.0,3172.0,234.0,-2811.0,-216.394658846182,300.133569383228,419.328339977071,682206017
-48,6.0,-12.0,-10858.0,3037.0,196.0,-2685.0,-214.759398951085,300.139869255389,419.527569725324,682214040
88,-34.0,-51.0,-10888.0,2901.0,160.0,-2560.0,-212.789337878958,300.175094425353,419.692220081255,682227088
-131,-128.0,-30.0,-10942.0,2625.0,94.0,-2313.0,-210.482911138469,300.200447340412,419.862679977852,682244929
-131,-128.0,-30.0,-10966.0,2488.0,62.0,-2188.0,-207.814812922402,300.245473823909,419.980033292043,682253162
-37,88.0,-257.0,-10988.0,2351.0,32.0,-2064.0,-204.772861103344,300.30402081079,420.093234908223,682261495
-47,-135.0,90.0,-11010.0,2215.0,5.0,-1939.0,-201.35482461093,300.378399678079,420.193271052545,682275102
150,263.0,-190.0,-11030.0,2075.0,234.0,-1810.0,-198.865074439306,300.455883603018,420.218584853585,682288799
89,55.0,-254.0,-11067.0,1795.0,187.0,-1560.0,-194.828762622096,300.530881499121,420.295928854112,682301961
71,111.0,-256.0,-11082.0,1658.0,165.0,-1435.0,-190.416310986219,300.607611152663,420.408664553005,682310733
-89,-170.0,-100.0,-11096.0,1519.0,145.0,-1309.0,-184.060746601382,300.71553975891,420.463276800718,682324633
190,131.0,21.0,-11109.0,1379.0,127.0,-1182.0,-179.038379658833,300.792602469107,420.489852730245,682337669
-80,106.0,-17.0,-11123.0,1237.0,112.0,-1056.0,-173.86262152772,300.837413992156,420.495142660005,682345614
-128,-15.0,-55.0,-11141.0,958.0,84.0,-803.0,-168.577952251069,300.912946201416,420.483302577564,682364669
-42,-55.0,9.0,-11146.0,817.0,70.0,-674.0,-161.395994794089,300.942130818108,420.503359299157,682377565
-372,-56.0,380.0,-11155.0,535.0,51.0,-421.0,-155.922918252999,300.97123430228,420.496675007557,682392059
346,34.0,-588.0,-11160.0,396.0,47.0,-295.0,-150.399416125873,300.981204241574,420.466584969323,682400866
-396,69.0,430.0,-11160.0,396.0,47.0,-295.0,-144.841296139873,300.99464095009,420.422821402167,682409514
328,-50.0,-602.0,-11160.0,254.0,41.0,-167.0,-141.126782504509,300.992581073666,420.418235483648,682417475
28,-144.0,-259.0,-11158.0,-28.0,35.0,87.0,-135.538784085713,300.992392991749,420.413144243563,682433131
121,-6.0,-227.0,-11155.0,-168.0,35.0,213.0,-131.805206835304,300.989824611861,420.375058944949,682440773
-178,-71.0,85.0,-11155.0,-168.0,35.0,213.0,-126.181938080723,300.982449329427,420.363042437359,682449520
-127,-121.0,135.0,-11143.0,-438.0,37.0,458.0,-120.550470459348,300.978364667737,420.326808089124,682465825
-127,-121.0,135.0,-11136.0,-567.0,42.0,574.0,-114.918018977247,300.970101858365,420.297138892288,682472230
47,-208.0,67.0,-11128.0,-693.0,47.0,687.0,-111.16332078791,300.959960045158,420.290081350837,682488921
-26,-162.0,-84.0,-11120.0,-812.0,53.0,793.0,-107.406934882605,300.949265699519,420.288961059965,682497263
105,127.0,153.0,-11110.0,-925.0,60.0,894.0,-101.769760427955,300.941483782345,420.260831357539,682505169
105,127.0,153.0,-11101.0,-1033.0,67.0,991.0,-98.0061841883933,300.931540553728,420.251748762225,682513514
56,-241.0,-11.0,-11092.0,-1134.0,76.0,1080.0,-92.3586771525784,300.924073216561,420.211926171642,682526639
56,-241.0,-11.0,-11082.0,-1229.0,84.0,1164.0,-86.7135405422958,300.914087291975,420.216700577306,682532841
-133,-33.0,255.0,-11082.0,-1229.0,84.0,1164.0,-82.9528470551775,300.903580958315,420.173204357722,682540184
-128,-174.0,137.0,-11063.0,-1397.0,100.0,1315.0,-77.3161254614018,300.89816725055,420.168338326784,682553001
-328,116.0,507.0,-11055.0,-1469.0,109.0,1379.0,-71.6717426307136,300.886437541905,420.14130197632,682568910
105,-138.0,77.0,-11047.0,-1535.0,116.0,1437.0,-66.0296896616402,300.879700360961,420.118548750041,682581498
-111,-146.0,136.0,-11040.0,-1593.0,123.0,1486.0,-60.3831832434929,300.868613959128,420.120258198265,682588330
-34,-215.0,108.0,-11029.0,-1687.0,137.0,1569.0,-54.7445338853909,300.863135331975,420.108712365566,682605318
304,-294.0,-24.0,-11022.0,-1723.0,140.0,1601.0,-49.1090781934814,300.855946761085,420.080522593179,682616073
-234,204.0,415.0,-11021.0,-1752.0,146.0,1625.0,-43.4685917584379,300.858879514876,420.070270699927,682628989
182,-267.0,-340.0,-11017.0,-1782.0,151.0,1650.0,-39.7104399170077,300.844343173899,420.077464854209,682635261
-261,9.0,-80.0,-11012.0,-1824.0,158.0,1690.0,-34.0647534405002,300.84224199349,420.076903786084,682651708
229,-305.0,-359.0,-11012.0,-1824.0,158.0,1690.0,-28.4307617406311,300.842492927829,420.040402548111,682660113
-82,-298.0,-188.0,-11011.0,-1839.0,162.0,1706.0,-24.674954986388,300.83805870219,420.019471624877,682667974
-82,-298.0,-188.0,-11011.0,-1839.0,162.0,1706.0,-19.0375676849215,300.833757800319,420.024224026638,682667974
135,-354.0,-328.0,-11000.0,-1886.0,165.0,1747.0,-15.284843789673,300.830213901731,420.030943599638,682707532
135,-354.0,-328.0,-11000.0,-1886.0,165.0,1747.0,-9.64136369494213,300.829804640211,420.01413449243,682707532
135,-354.0,-328.0,-11000.0,-1886.0,165.0,1747.0,-4.00457699345059,300.832168982872,419.997595433237,682707532
42,-287.0,-336.0,-10998.0,-1902.0,168.0,1763.0,1.62586157765297,300.832634328048,419.972546074833,682722218
-43,-373.0,-359.0,-10997.0,-1908.0,169.0,1768.0,7.26083808910419,300.808787927733,419.953625258691,682734811
-166,-410.0,-397.0,-10995.0,-1911.0,168.0,1771.0,11.0123100589562,300.811484888312,419.956747825333,682742610
45,-405.0,-348.0,-10991.0,-1917.0,166.0,1775.0,16.6500116315778,300.813196908478,419.967562083858,682763941
6,-299.0,-243.0,-10991.0,-1917.0,166.0,1775.0,22.2923829036906,300.815794988205,419.967411531452,682770950
-27,-334.0,-205.0,-10989.0,-1918.0,164.0,1771.0,27.9262213978664,300.821804215994,419.970578125117,682783332
-72,-140.0,-120.0,-10988.0,-1918.0,162.0,1768.0,33.5543463160649,300.826497260473,419.982765441753,682791115
-3,-147.0,-106.0,-10987.0,-1919.0,161.0,1768.0,39.1898905089753,300.824214434287,420.009025995364,682800895
-28,-250.0,-125.0,-10986.0,-1919.0,160.0,1766.0,44.8287705351577,300.826085271727,420.005660006492,682818189
-21,-218.0,-99.0,-10985.0,-1919.0,158.0,1763.0,54.2236643119153,300.827913502339,420.016545527536,682836888
-10,-160.0,-40.0,-10983.0,-1919.0,157.0,1761.0,57.9807827436509,300.838437036793,420.01318205727,682844893
32,-109.0,-59.0,-10982.0,-1920.0,155.0,1756.0,65.493263342644,300.840067968151,420.004861737584,682861870
-23,-67.0,-60.0,-10982.0,-1920.0,155.0,1754.0,73.0074761066753,300.840107446172,420.045625389426,682875922
-23,-67.0,-60.0,-10982.0,-1920.0,155.0,1754.0,76.7702963405207,300.844925673598,420.055598217417,682882245
52,-99.0,-75.0,-10980.0,-1922.0,153.0,1752.0,82.4160838204097,300.849354070567,420.046725837341,682893615
64,-69.0,-81.0,-10979.0,-1923.0,152.0,1748.0,88.0530179778849,300.857212759939,420.052193142425,682911791
-86,-119.0,0.0,-10979.0,-1923.0,152.0,1748.0,93.68637538666,300.860698081931,420.083698491835,682919369
-86,-119.0,0.0,-10978.0,-1923.0,151.0,1745.0,97.4482941020563,300.86676756731,420.094582275785,682925628
51,-141.0,-57.0,-10977.0,-1924.0,150.0,1744.0,103.096269522428,300.871122877506,420.110092580816,682938835
-65,-91.0,32.0,-10976.0,-1924.0,149.0,1742.0,106.865638191805,300.881699488281,420.112891675512,682947153
68,-114.0,-75.0,-10975.0,-1927.0,148.0,1741.0,112.507261318214,300.887834602918,420.109986405848,682958074
29,-82.0,-73.0,-10975.0,-1927.0,147.0,1739.0,118.146405541593,300.90049098167,420.140881363749,682972558
-100,-135.0,36.0,-10975.0,-1929.0,147.0,1738.0,121.909207473166,300.911880937554,420.167905752507,682978877
47,4.0,-58.0,-10974.0,-1931.0,146.0,1734.0,127.563435581307,300.924703698022,420.176301854945,682993344
-74,-114.0,52.0,-10974.0,-1931.0,146.0,1733.0,135.101982286292,300.939302813763,420.203290785059,683003011
31,-86.0,-65.0,-10973.0,-1933.0,145.0,1729.0,140.752610025103,300.956710211675,420.214208617123,683023002
-92,-64.0,34.0,-10973.0,-1933.0,145.0,1729.0,146.497800268619,300.975759956252,420.251946240653,683029291
43,-135.0,-56.0,-10973.0,-1936.0,145.0,1726.0,150.182532684931,300.998918973686,420.284485531359,683043651
10,-69.0,-41.0,-10972.0,-1937.0,144.0,1724.0,155.841523583531,301.031134800583,420.331225690825,683052744
-41,-28.0,23.0,-10972.0,-1939.0,144.0,1723.0,161.510671601607,301.052028897508,420.341362195897,683061508
0,-68.0,-33.0,-10972.0,-1941.0,144.0,1722.0,167.13009132868,301.079470908248,420.385422464278,683075421
-25,-60.0,5.0,-10971.0,-1943.0,144.0,1722.0,172.623179085026,301.093968412854,420.393385206814,683085156
-35,-78.0,-12.0,-10971.0,-1946.0,144.0,1718.0,176.175109363238,301.094512800657,420.428106421312,683102090
24,-113.0,-26.0,-10971.0,-1946.0,143.0,1716.0,181.308719824267,301.08010510295,420.461817847919,683111602
31,-64.0,-33.0,-10971.0,-1946.0,143.0,1716.0,186.175379668288,301.066382035965,420.476060840493,683119556
-68,-52.0,23.0,-10970.0,-1948.0,143.0,1715.0,189.259253592754,301.03353190331,420.495856518528,683132251
49,-44.0,-61.0,-10970.0,-1949.0,143.0,1712.0,193.624779765012,301.006608681766,420.495954595002,683139507
-91,-91.0,39.0,-10970.0,-1952.0,142.0,1710.0,197.652077298352,300.947755110212,420.5152271025,683152720
-102,-127.0,56.0,-10970.0,-1952.0,142.0,1710.0,201.331663239167,300.909058727224,420.525744336785,683161474
91,-70.0,-70.0,-10969.0,-1955.0,142.0,1708.0,204.653361690086,300.851958305548,420.521940417365,683175519
101,-123.0,-90.0,-10969.0,-1957.0,142.0,1706.0,207.608483959137,300.784182279457,420.482203456311,683188434
96,-110.0,-94.0,-10969.0,-1958.0,142.0,1704.0,210.186946608283,300.711941462007,420.460889084316,683196688
114,-179.0,-91.0,-10968.0,-1961.0,141.0,1701.0,212.386937154938,300.595298957696,420.416571599893,683216467
-138,32.0,90.0,-10968.0,-1965.0,141.0,1699.0,214.708570243442,300.469383480437,420.380941682273,683232813
-145,-24.0,93.0,-10968.0,-1964.0,140.0,1696.0,216.352286885998,300.338335494463,420.294587906008,683241710
-138,-8.0,84.0,-10967.0,-1966.0,140.0,1696.0,217.234710616844,300.233606416388,420.270971388179,683259211
101,-96.0,-86.0,-10967.0,-1967.0,140.0,1693.0,218.000552410612,300.036417290222,420.254069662259,683267080
101,-96.0,-86.0,-10967.0,-1969.0,140.0,1693.0,218.823979487348,299.688791639828,420.19062100963,683274437
63,-98.0,-72.0,-10966.0,-1972.0,139.0,1690.0,219.827601493975,299.115602264522,420.14973922,683300611
-92,30.0,57.0,-10966.0,-1973.0,139.0,1688.0,221.104035323343,298.248962433226,420.150544783729,683310146
-66,63.0,35.0,-10966.0,-1974.0,139.0,1687.0,222.730331046741,297.500413928894,420.114943401966,683318176
18,-87.0,-41.0,-10966.0,-1976.0,139.0,1685.0,224.742738934753,296.096171299328,420.077935638189,683330690
-47,44.0,16.0,-10965.0,-1977.0,139.0,1684.0,226.309447728402,293.656683002178,420.071324207648,683337293
2,-83.0,-29.0,-10965.0,-1980.0,138.0,1681.0,230.006394225498,291.365639428963,420.054799926794,683353797
-15,-3.0,-20.0,-10965.0,-1982.0,139.0,1680.0,233.303449688864,288.647617523896,420.038759183509,683365479
-48,37.0,-9.0,-10965.0,-1982.0,138.0,1678.0,237.055201574546,285.471050123444,420.019252118508,683378566
30,-57.0,-26.0,-10967.0,-1982.0,140.0,1677.0,242.712521983819,281.848521654987,420.01552721507,683392053
46,-98.0,-40.0,-10967.0,-1982.0,140.0,1677.0,245.751804468842,277.844788917499,420.015353528489,683400787
59,-93.0,-41.0,-10967.0,-1986.0,141.0,1674.0,250.481759514748,273.524924677382,420.019114351234,683417932
77,-38.0,-50.0,-10967.0,-1987.0,141.0,1674.0,255.352145094734,268.941920825924,420.013691366075,683428322
-112,46.0,21.0,-10968.0,-1988.0,141.0,1671.0,261.937703150281,264.13549234718,420.01793229218,683436328
91,-71.0,-66.0,-10969.0,-1991.0,142.0,1669.0,265.242389189892,260.823258730391,420.014362798041,683453430
-109,60.0,23.0,-10969.0,-1991.0,142.0,1669.0,270.196671863063,253.952375187749,420.003637292939,683462037
94,-184.0,-50.0,-10970.0,-1993.0,143.0,1666.0,275.111933116526,248.606990849644,420.00351372711,683477163
94,-184.0,-50.0,-10971.0,-1995.0,144.0,1664.0,279.973144641177,243.115658960255,420.007278694558,683485498
93,-187.0,-55.0,-10971.0,-1997.0,144.0,1663.0,284.760463073106,239.381862814164,420.009345693693,683496500
93,-187.0,-55.0,-10972.0,-1997.0,145.0,1661.0,287.905991289578,233.678119259315,420.002215972752,683504959
85,-155.0,-41.0,-10972.0,-2000.0,145.0,1661.0,292.546269878018,229.808896464475,419.999716984237,683514263
75,-111.0,-32.0,-10973.0,-2000.0,146.0,1658.0,295.583690103551,223.914185932546,420.001806958109,683527978
75,-111.0,-32.0,-10973.0,-2002.0,147.0,1658.0,300.049902341213,219.924300694412,420.003540684008,683534232
-92,63.0,-4.0,-10974.0,-2002.0,147.0,1655.0,302.966815126229,213.851304632654,420.004561676599,683550287
-92,63.0,-4.0,-10974.0,-2002.0,147.0,1655.0,307.250465879303,209.750569875165,419.999871899455,683550287
37,-65.0,-25.0,-10975.0,-2004.0,148.0,1653.0,310.038969496618,205.607859133403,419.996241890839,683563123
32,-107.0,-19.0,-10976.0,-2007.0,149.0,1652.0,314.118700859645,199.319809814887,419.997691106273,683577025
15,-75.0,-12.0,-10977.0,-2007.0,149.0,1650.0,318.075272280543,192.94322197744,419.999083389268,683590360
-52,119.0,-31.0,-10977.0,-2008.0,150.0,1649.0,320.642556311134,186.483583677798,419.998631131709,683598748
8,-82.0,-17.0,-10978.0,-2010.0,151.0,1647.0,324.387538883648,179.942105098993,419.997571291131,683607066
8,-82.0,-17.0,-10979.0,-2010.0,152.0,1645.0,328.002516586883,175.540229884224,419.998609494374,683615597
-7,-5.0,-32.0,-10980.0,-2012.0,153.0,1645.0,331.482582826047,168.876962219445,420.000790734227,683627127
-38,69.0,-23.0,-10982.0,-2015.0,154.0,1643.0,334.827825218363,162.143171221819,420.000919721864,683644250
2,-25.0,-35.0,-10983.0,-2015.0,155.0,1641.0,338.036374780733,155.343023074933,420.000685887088,683653089
-52,85.0,-48.0,-10984.0,-2017.0,156.0,1640.0,340.099538723575,148.476133633445,420.001859518624,683669600
-52,85.0,-48.0,-10985.0,-2016.0,157.0,1639.0,343.080469471968,143.86063870849,420.001433357933,683675908
-63,66.0,-52.0,-10987.0,-2019.0,159.0,1636.0,345.920758481439,136.889804267627,420.001046553527,683693268
37,-27.0,-28.0,-10987.0,-2019.0,159.0,1636.0,348.617556831315,129.867469727221,420.001096825514,683702329
54,-44.0,-26.0,-10987.0,-2019.0,159.0,1636.0,350.337080979691,122.79132165343,420.002089046509,683711412
-77,96.0,-80.0,-10988.0,-2021.0,160.0,1635.0,352.796226607544,115.66712228729,420.000224824619,683720118
46,-84.0,-32.0,-10990.0,-2022.0,162.0,1634.0,355.110737182663,108.489227945262,419.999778985149,683735712
37,-77.0,-33.0,-10991.0,-2022.0,163.0,1631.0,357.282243427179,103.678478513412,420.001905482791,683744242
-83,223.0,-150.0,-10993.0,-2021.0,164.0,1627.0,359.307269351768,96.4276403010394,420.002604834854,683753114
-1,13.0,-150.0,-10996.0,-2017.0,164.0,1620.0,360.575101994998,89.1383406876505,419.999971310888,683765490
23,281.0,-276.0,-10998.0,-2011.0,165.0,1612.0,362.353199948974,84.2604753351722,420.001217046415,683778631
23,281.0,-276.0,-11001.0,-2002.0,165.0,1603.0,363.456920985431,76.9169955727004,420.001297912194,683784842
21,214.0,-244.0,-11005.0,-1989.0,164.0,1591.0,364.9879231879,69.5395658038588,419.99997131085,683800875
-148,193.0,-225.0,-11009.0,-1972.0,163.0,1580.0,366.796885422332,62.1297248308514,420.000498016296,683809214
114,119.0,-313.0,-11013.0,-1951.0,161.0,1560.0,367.978212372447,52.2122957404936,420.000063092981,683817142
114,119.0,-313.0,-11013.0,-1951.0,161.0,1560.0,369.009797855083,47.2393520896869,420.002969808117,683817142
-4,252.0,-478.0,-11033.0,-1827.0,146.0,1443.0,369.890431765344,39.7661689325319,420.002969807447,683857777
-4,252.0,-478.0,-11039.0,-1784.0,139.0,1403.0,371.019924665195,24.7716261871592,420.001420288974,683865850
474,-92.0,-244.0,-11050.0,-1690.0,126.0,1315.0,371.820437942519,12.2441081268693,419.999982227203,683892586
256,0.0,-229.0,-11056.0,-1635.0,119.0,1268.0,371.950638460593,4.71803760322838,420.001370016464,683901147
-250,-107.0,205.0,-11071.0,-1506.0,104.0,1152.0,372.021146276441,-0.297225735676586,420.00381121319,683914159
96,-30.0,-140.0,-11071.0,-1506.0,104.0,1152.0,371.939700630585,-7.82360923489789,420.003203644228,683922171
-121,-90.0,53.0,-11079.0,-1433.0,96.0,1087.0,371.70491710377,-15.3476664928705,420.000408388639,683934576
159,-314.0,253.0,-11086.0,-1356.0,88.0,1015.0,371.463805666241,-20.3572191659021,420.003061590914,683941623
303,-343.0,90.0,-11101.0,-1187.0,72.0,859.0,370.976350413917,-27.8686852756216,420.000712174098,683958256
303,-343.0,90.0,-11109.0,-1091.0,64.0,775.0,370.566158088603,-35.3677060766087,419.999962549305,683966169
-339,229.0,112.0,-11116.0,-993.0,56.0,685.0,369.825366408632,-40.3577973888239,420.002495529852,683976495
-191,85.0,-82.0,-11123.0,-892.0,50.0,593.0,368.933819910893,-50.3190754317552,420.003426562927,683989249
196,-207.0,1.0,-11130.0,-787.0,45.0,498.0,367.890876161606,-55.2867451308581,420.00126947301,683997106
-195,238.0,-185.0,-11139.0,-571.0,35.0,299.0,366.696625287838,-65.1889381921851,419.999942871356,684014222
-164,-29.0,37.0,-11139.0,-571.0,35.0,299.0,365.352076904691,-70.1233686023592,420.001411526574,684021732
126,-156.0,-145.0,-11146.0,-352.0,29.0,103.0,364.374379116235,-77.4982547375274,420.002637583175,684034879
-232,-2.0,34.0,-11148.0,-239.0,28.0,-1.0,362.781569539309,-84.8435815024286,420.000307844842,684045940
181,-213.0,-99.0,-11149.0,-126.0,27.0,-104.0,361.039782531379,-89.7219797387832,420.000318760599,684054687
191,-126.0,-149.0,-11149.0,-12.0,28.0,-207.0,359.797521538747,-97.0067076742015,420.002526123897,684063308
211,-192.0,-192.0,-11148.0,101.0,30.0,-311.0,357.810156513582,-101.842913343801,420.000379948365,684077243
211,-192.0,-192.0,-11148.0,101.0,30.0,-311.0,356.402824240707,-109.061087550692,420.002698770897,684083516
-258,48.0,-8.0,-11143.0,332.0,36.0,-518.0,354.173557182515,-113.846942852597,420.000845465753,684097994
168,-35.0,-108.0,-11140.0,445.0,42.0,-620.0,352.60604327432,-120.988927096438,420.000045569033,684108633
168,-35.0,-108.0,-11133.0,563.0,47.0,-728.0,350.133890775663,-128.079083911919,420.001433358488,684116806
82,163.0,-366.0,-11129.0,678.0,56.0,-833.0,347.519880446218,-132.777011695478,420.002648498689,684129904
-130,-264.0,182.0,-11114.0,910.0,74.0,-1040.0,344.7624812849,-139.782004741086,420.001625684118,684143669
-65,389.0,-434.0,-11114.0,910.0,74.0,-1040.0,341.863640403046,-146.728211424896,420.000187622661,684152474
132,-506.0,152.0,-11105.0,1025.0,84.0,-1146.0,338.82482508645,-153.614324534334,420.00240590128,684160915
62,-403.0,131.0,-11084.0,1255.0,109.0,-1356.0,335.648311804764,-160.43776954541,420.001990656556,684177748
143,195.0,-324.0,-11084.0,1255.0,109.0,-1356.0,333.45462017088,-167.193626515295,420.000410542538,684184037
-22,57.0,-158.0,-11060.0,1489.0,138.0,-1565.0,330.049818615948,-171.659534906388,419.999590967136,684199154
-218,-6.0,125.0,-11044.0,1607.0,153.0,-1671.0,326.508371721668,-178.303176222383,420.001413680431,684207080
-218,-6.0,125.0,-11030.0,1722.0,171.0,-1772.0,324.074498989101,-184.870609056536,420.000563511606,684215529
29,-253.0,-6.0,-11013.0,1835.0,189.0,-1877.0,320.312847919988,-191.365985976821,419.999844480612,684232149
34,128.0,-196.0,-10978.0,2068.0,230.0,-2085.0,315.092093663007,-197.780156841266,420.000371185763,684246474
-50,140.0,-243.0,-10958.0,2184.0,251.0,-2191.0,311.026922016949,-204.112832636158,420.001586327304,684255096
-40,-138.0,-107.0,-10939.0,2296.0,18.0,-2293.0,308.246408101282,-210.363154066499,420.001302221181,684263660
21,-51.0,-2.0,-10917.0,2410.0,41.0,-2396.0,302.51634219433,-216.527290706013,420.001474868073,684277671
48,25.0,-294.0,-10871.0,2642.0,93.0,-2604.0,299.568737556569,-222.602395677566,420.000259725897,684295050
-75,-210.0,-93.0,-10847.0,2755.0,120.0,-2706.0,295.043615176167,-228.587945352854,420.001171082497,684303770
23,127.0,-286.0,-10847.0,2755.0,120.0,-2706.0,290.400003591076,-232.525013676532,420.001505461155,684312623
-35,0.0,40.0,-10796.0,2980.0,177.0,-2911.0,285.637268003039,-238.351616676659,420.000371186059,684326900
-8,8.0,-116.0,-10796.0,2980.0,177.0,-2911.0,280.756010747291,-245.970294887346,419.999490422837,684333611
-150,52.0,-165.0,-10740.0,3210.0,240.0,-3115.0,274.071531787192,-251.56492938039,420.000128587895,684347830
-5,-44.0,-104.0,-10679.0,3430.0,47.0,-3318.0,268.926512890617,-258.857593562673,420.000482646139,684366396
58,71.0,-54.0,-10647.0,3543.0,82.0,-3419.0,263.723101046247,-262.39293378249,420.001131725803,684379573
58,71.0,-54.0,-10616.0,3657.0,119.0,-3521.0,258.558616244102,-269.096973556727,420.008752046418,684385793
-249,140.0,-178.0,-10583.0,3772.0,157.0,-3619.0,253.485044421022,-273.743259240752,420.02271436952,684401483
-29,54.0,-178.0,-10550.0,3881.0,195.0,-3717.0,248.538624763916,-276.622211302607,420.025429143582,684409836
0,9.0,-14.0,-10514.0,3990.0,233.0,-3817.0,245.326611451147,-280.597633803894,420.032763187139,684420178
142,1.0,-19.0,-10477.0,4099.0,16.0,-3918.0,240.648207523463,-283.018499152274,420.031326466579,684432559
-2,-121.0,-36.0,-10401.0,4320.0,99.0,-4117.0,236.154831504717,-286.300956661502,420.070639847755,684447092
-132,131.0,-211.0,-10361.0,4431.0,142.0,-4213.0,231.86690163687,-289.172526731741,420.069738997556,684455744
-178,-14.0,-56.0,-10322.0,4537.0,186.0,-4311.0,227.805483575143,-292.3612889013,420.083591003323,684464261
69,-48.0,19.0,-10279.0,4645.0,230.0,-4410.0,223.985615367966,-294.260632477923,420.084285167669,684481311
24,133.0,-136.0,-10194.0,4863.0,69.0,-4604.0,220.420304520199,-295.288802735461,420.145321547971,684495495
-96,-10.0,-75.0,-10152.0,4969.0,118.0,-4698.0,217.097834047067,-296.861991659295,420.156402901794,684504147
-46,-36.0,-136.0,-10152.0,4969.0,118.0,-4698.0,213.901824099493,-297.707531018827,420.184872561033,684512986
49,-59.0,-70.0,-10060.0,5180.0,215.0,-4890.0,210.731503915946,-298.163523682194,420.236978409593,684527285
25,131.0,-82.0,-10060.0,5180.0,215.0,-4890.0,208.597824422211,-298.711149763902,420.220731822583,684533508
36,84.0,-44.0,-9964.0,5390.0,62.0,-5082.0,205.314506857888,-299.001013924478,420.280740501105,684544782
0,-68.0,-49.0,-9915.0,5495.0,114.0,-5174.0,201.900859830938,-299.365845692511,420.31836968144,684561834
-51,107.0,-70.0,-9867.0,5598.0,169.0,-5267.0,198.317189727404,-299.658226520459,420.335902515988,684569616
-19,120.0,-114.0,-9816.0,5702.0,225.0,-5360.0,195.830699631416,-299.882276192768,420.327951805839,684582196
-71,-54.0,-26.0,-9711.0,5909.0,81.0,-5546.0,191.924177352043,-300.007545894907,420.346312699672,684596165
131,35.0,-113.0,-9657.0,6009.0,139.0,-5639.0,187.816259066673,-300.169881992517,420.381757089785,684607683
131,35.0,-113.0,-9603.0,6111.0,198.0,-5729.0,183.565955791246,-300.298599549297,420.402862651785,684616259
35,66.0,26.0,-9547.0,6215.0,3.0,-5819.0,179.199488649349,-300.408413883494,420.407058210619,684629824
35,66.0,26.0,-9492.0,6315.0,64.0,-5908.0,176.237680783097,-300.47324990154,420.403438483125,684636044
-135,-77.0,-204.0,-9436.0,6413.0,126.0,-5998.0,171.742050704435,-300.545994977441,420.38272800102,684644145
16,142.0,-46.0,-9377.0,6511.0,188.0,-6088.0,167.190965005242,-300.598845527407,420.401977413472,684661676
16,142.0,-46.0,-9377.0,6511.0,188.0,-6088.0,162.607364296275,-300.643979019978,420.39176471007,684661676
77,-150.0,-160.0,-9199.0,6807.0,127.0,-6349.0,157.98609323832,-300.675803464158,420.378283583507,684686870
-224,84.0,29.0,-9137.0,6902.0,192.0,-6437.0,153.337832518896,-300.728143370415,420.336541010322,684694770
4,90.0,-172.0,-9074.0,6996.0,3.0,-6525.0,148.670424738683,-300.70259915479,420.310395600685,684712163
-97,241.0,80.0,-9009.0,7093.0,70.0,-6610.0,143.997074498497,-300.706926869913,420.326208702068,684720182
-10,16.0,-15.0,-8946.0,7184.0,138.0,-6695.0,139.31750900278,-300.702570580328,420.277016356123,684732800
139,-265.0,-71.0,-8815.0,7374.0,24.0,-6863.0,136.190203973448,-300.699738215225,420.289766988247,684744442
-216,272.0,-41.0,-8815.0,7374.0,24.0,-6863.0,131.494081431898,-300.700363763753,420.271993959852,684753505
-88,258.0,-90.0,-8680.0,7557.0,167.0,-7028.0,126.792534659622,-300.695363227767,420.251532151216,684769659
-88,258.0,-90.0,-8612.0,7645.0,238.0,-7109.0,122.09446776867,-300.686154047869,420.240679619683,684776155
82,-90.0,-96.0,-8542.0,7737.0,57.0,-7192.0,117.385598259901,-300.67806416312,420.212046108594,684788684
82,-90.0,-96.0,-8472.0,7828.0,133.0,-7272.0,112.688779699171,-300.671937858895,420.20177272115,684796589
243,-79.0,-210.0,-8402.0,7916.0,209.0,-7352.0,107.980374142585,-300.662131736832,420.1766301314,684808033
-485,413.0,124.0,-8331.0,8004.0,29.0,-7430.0,103.271815372669,-300.659445507305,420.186650498002,684823814
-315,172.0,185.0,-8184.0,8177.0,184.0,-7588.0,98.5651842334015,-300.646233657968,420.164520143288,684836346
-226,26.0,159.0,-8111.0,8263.0,6.0,-7663.0,93.8659040540291,-300.6437676006,420.153207509756,684852190
243,34.0,-277.0,-8037.0,8347.0,87.0,-7740.0,89.158547974372,-300.635636354432,420.124526256837,684860179
96,248.0,-210.0,-7960.0,8434.0,168.0,-7816.0,86.0250295267343,-300.627715159151,420.110690046826,684870213
-203,-46.0,171.0,-7887.0,8513.0,248.0,-7890.0,79.7504155068407,-301.009637285284,420.115716758415,684882908
237,209.0,-173.0,-7738.0,8672.0,152.0,-8034.0,75.0413489913137,-300.613005533184,420.101342323231,684897011
-259,317.0,226.0,-7665.0,8749.0,230.0,-8099.0,70.3416203473047,-300.609355286515,420.068947208984,684905621
12,84.0,-56.0,-7596.0,8820.0,48.0,-8162.0,67.2080705195828,-300.610432948778,420.073073916568,684922250
12,84.0,-56.0,-7596.0,8820.0,48.0,-8162.0,62.5049340500282,-300.601830005739,420.079443442559,684922250
12,84.0,-56.0,-7596.0,8820.0,48.0,-8162.0,59.3693540241638,-300.599064158841,420.081585128396,684922250
293,-91.0,-112.0,-7341.0,9068.0,65.0,-8389.0,54.6652279565564,-300.59503734987,420.065995117386,684963731
293,-91.0,-112.0,-7341.0,9068.0,65.0,-8389.0,49.9681711355781,-300.598467944709,420.042055930192,684963731
-199,373.0,110.0,-7285.0,9122.0,127.0,-8437.0,46.8343238409846,-300.591970684893,420.049647314429,684971727
-199,373.0,110.0,-7230.0,9174.0,185.0,-8481.0,42.1311110819953,-300.586342456563,420.063620628492,684978043
-229,266.0,144.0,-7180.0,9219.0,239.0,-8523.0,37.4325328193573,-300.588721585744,420.0347224789,684990617
215,222.0,-88.0,-7091.0,9300.0,78.0,-8595.0,32.7339166939638,-300.58841653146,420.02463146932,685006600
-288,360.0,221.0,-7053.0,9335.0,121.0,-8626.0,29.6022100107164,-300.581658436842,420.00959022626,685015750
342,71.0,-122.0,-7017.0,9367.0,160.0,-8655.0,24.9001302777116,-300.57982278597,420.01805933473,685026839
352,75.0,-181.0,-7017.0,9367.0,160.0,-8655.0,21.7664561730861,-300.58014847263,420.024907685081,685033224
-371,297.0,278.0,-6957.0,9420.0,224.0,-8701.0,17.0687108064132,-300.580343098493,420.013388618757,685047240
96,248.0,-127.0,-6931.0,9444.0,251.0,-8720.0,12.3718251840559,-300.582708910921,419.99917487003,685056811
110,-55.0,200.0,-6913.0,9459.0,17.0,-8735.0,9.23790356781177,-300.578365249556,419.982709347098,685065360
107,446.0,-69.0,-6895.0,9476.0,36.0,-8748.0,4.53811729542843,-300.574097850621,419.993617198799,685079098
107,446.0,-69.0,-6895.0,9476.0,36.0,-8748.0,-0.159573950142163,-300.569609835249,420.002486555264,685079098
-244,133.0,-89.0,-6866.0,9506.0,71.0,-8767.0,-11.1210279024312,-300.555038628483,419.944188159704,685113928
-171,78.0,21.0,-6854.0,9518.0,85.0,-8776.0,-15.82076065563,-300.568773398791,419.955816972843,685128215
-276,53.0,-40.0,-6852.0,9524.0,92.0,-8777.0,-20.5193485278302,-300.570365884935,419.968279296276,685140926
-465,-15.0,-2.0,-6849.0,9529.0,97.0,-8777.0,-23.6500027374845,-300.572288289267,419.972194975301,685148668
-465,-15.0,-2.0,-6845.0,9533.0,101.0,-8780.0,-28.3497083411959,-300.57191297952,419.975851392652,685157491
-164,3.0,-86.0,-6843.0,9533.0,104.0,-8784.0,-33.0472063494082,-300.572055047834,419.977473447441,685168857
-344,65.0,132.0,-6840.0,9535.0,105.0,-8785.0,-36.1807978869933,-300.576395182669,419.978220795416,685181966
-237,-94.0,-133.0,-6840.0,9537.0,108.0,-8785.0,-42.44237102545,-300.578427220514,419.997569641546,685196313
-464,109.0,21.0,-6838.0,9538.0,110.0,-8788.0,-45.575908049503,-300.574339802577,420.015315758377,685205291
-294,97.0,-23.0,-6836.0,9537.0,111.0,-8790.0,-50.2757105796805,-300.578900818808,420.003751964461,685222113
-391,173.0,70.0,-6834.0,9538.0,111.0,-8791.0,-54.9757242708914,-300.581136745788,420.00944162586,685232126
-356,-49.0,30.0,-6834.0,9536.0,110.0,-8791.0,-59.67306998206,-300.581825976097,420.012691387419,685240473
-383,115.0,-38.0,-6831.0,9535.0,111.0,-8796.0,-64.3739422469682,-300.585095992364,420.011229742529,685257601
-102,188.0,-25.0,-6830.0,9534.0,110.0,-8797.0,-69.0751355286376,-300.583871850742,420.004210718244,685266037
-146,29.0,-60.0,-6830.0,9534.0,110.0,-8797.0,-73.7724034121673,-300.586481194407,420.043787430945,685273484
-161,1.0,-107.0,-6826.0,9530.0,107.0,-8802.0,-81.6110398931623,-300.592270877417,420.03256793466,685297347
8,163.0,53.0,-6826.0,9529.0,106.0,-8803.0,-86.3152756566382,-300.601825300984,420.036350780243,685306360
-12,93.0,-83.0,-6826.0,9529.0,106.0,-8803.0,-91.005632718551,-300.601387813293,420.061783888545,685323604
-227,-19.0,8.0,-6826.0,9530.0,107.0,-8802.0,-95.7123756427212,-300.600389390832,420.072412568643,685331135
-58,137.0,-57.0,-6824.0,9527.0,106.0,-8806.0,-101.986550672932,-300.605617522384,420.068927373146,685347671
71,100.0,-15.0,-6824.0,9527.0,106.0,-8807.0,-108.256820090081,-300.615455318195,420.085913084793,685368370
75,87.0,-44.0,-6824.0,9527.0,106.0,-8807.0,-112.953348348201,-300.621541328166,420.086736246329,685375287
-27,86.0,-79.0,-6825.0,9530.0,107.0,-8803.0,-116.095152147231,-300.621862337213,420.110484760556,685387605
-344,13.0,73.0,-6824.0,9528.0,107.0,-8806.0,-122.373183841718,-300.631872431004,420.110264286514,685395257
-78,150.0,31.0,-6821.0,9527.0,106.0,-8809.0,-125.512917170654,-300.640227163246,420.128155049629,685412816
42,2.0,47.0,-6822.0,9526.0,105.0,-8809.0,-130.215556217699,-300.651950883568,420.129712512512,685420881
-191,-27.0,-33.0,-6823.0,9528.0,105.0,-8806.0,-134.922904531736,-300.656122518901,420.152899277828,685436846
13,-203.0,-175.0,-6823.0,9528.0,105.0,-8806.0,-138.061718591486,-300.662113908228,420.165680505568,685444534
-9,287.0,-138.0,-6820.0,9530.0,106.0,-8806.0,-142.774168779706,-300.670830906839,420.188727916168,685453255
379,-306.0,-151.0,-6822.0,9525.0,106.0,-8810.0,-145.915890497216,-300.682849044693,420.180033433561,685461368
-248,482.0,122.0,-6820.0,9529.0,104.0,-8806.0,-150.630486913438,-300.695834777743,420.222142876597,685476070
-115,-148.0,148.0,-6824.0,9525.0,104.0,-8807.0,-155.337955128981,-300.710080118743,420.194515771371,685482380
-115,-148.0,148.0,-6820.0,9528.0,104.0,-8806.0,-158.488489456133,-300.717951010867,420.231468450273,685488687
196,-261.0,-16.0,-6820.0,9527.0,104.0,-8808.0,-163.204881332138,-300.746027119424,420.275718203237,685507616
-6,225.0,-134.0,-6822.0,9526.0,104.0,-8808.0,-167.903528082018,-300.759245732964,420.285326186587,685516617
136,301.0,-268.0,-6820.0,9526.0,102.0,-8808.0,-172.529028393926,-300.770452102293,420.282473575737,685530468
136,301.0,-268.0,-6821.0,9526.0,103.0,-8808.0,-177.024122165507,-300.773265005432,420.307392139351,685536761
157,203.0,-295.0,-6821.0,9527.0,104.0,-8807.0,-181.360508476073,-300.760586784121,420.324749518083,685557338
-211,48.0,113.0,-6821.0,9527.0,103.0,-8807.0,-185.502852145031,-300.748828649278,420.349060892172,685565723
-182,286.0,168.0,-6821.0,9527.0,103.0,-8807.0,-188.151561841,-300.729488728362,420.370059824641,685573484
248,-300.0,-247.0,-6819.0,9526.0,102.0,-8808.0,-191.949149151921,-300.713540229274,420.358087227702,685589000
-146,399.0,203.0,-6819.0,9525.0,102.0,-8809.0,-195.508030776966,-300.686099653673,420.358424632349,685597505
-24,-147.0,-74.0,-6819.0,9524.0,102.0,-8810.0,-198.825135497705,-300.652719512473,420.35999459784,685606414
-222,357.0,271.0,-6819.0,9524.0,102.0,-8810.0,-201.903235917524,-300.615596994739,420.392683875662,685615313
133,-226.0,-249.0,-6819.0,9524.0,101.0,-8809.0,-204.718197462321,-300.577910281745,420.383108606805,685627236
-168,197.0,270.0,-6819.0,9525.0,101.0,-8808.0,-206.454064979713,-300.540614489557,420.340896741976,685644654
1,148.0,-78.0,-6819.0,9525.0,101.0,-8808.0,-208.837560909773,-300.494654753613,420.332256729872,685653470
-128,337.0,237.0,-6819.0,9525.0,101.0,-8808.0,-210.958200830787,-300.438788862805,420.329509152121,685661803
34,-206.0,-177.0,-6820.0,9525.0,101.0,-8808.0,-212.811015697241,-300.406629848169,420.321042376482,685677900
104,-53.0,-242.0,-6820.0,9525.0,101.0,-8808.0,-214.387730656832,-300.357090885159,420.268091929564,685686167
-113,65.0,103.0,-6819.0,9525.0,101.0,-8808.0,-215.699819449976,-300.278573947406,420.22516503146,685698590
79,30.0,-189.0,-6819.0,9525.0,100.0,-8807.0,-216.73916571454,-300.219419533789,420.205239585715,685716270
-57,-213.0,-34.0,-6819.0,9525.0,100.0,-8807.0,-217.751449652349,-300.159270459623,420.115726764241,685731612
4,-161.0,-232.0,-6818.0,9526.0,99.0,-8806.0,-218.127809532188,-300.129177775582,420.017015334334,685739561
4,-161.0,-232.0,-6817.0,9524.0,99.0,-8809.0,-218.561489894524,-300.103974335008,419.669633002375,685748067
357,-76.0,-478.0,-6816.0,9525.0,98.0,-8808.0,-218.918233904598,-300.097761450447,418.972034747479,685757066
27,533.0,422.0,-6817.0,9523.0,99.0,-8810.0,-219.20391078747,-300.122369579375,417.940345719891,685769316
223,-255.0,-388.0,-6817.0,9523.0,97.0,-8808.0,-219.42662873579,-300.142463317996,416.558360611111,685785218
356,-64.0,-183.0,-6817.0,9523.0,98.0,-8809.0,-219.617452157244,-300.182941299187,414.738424882519,685793931
513,-397.0,-342.0,-6816.0,9524.0,98.0,-8810.0,-219.796342442865,-300.251737712115,412.472402887402,685810571
513,-397.0,-342.0,-6815.0,9524.0,96.0,-8808.0,-219.944263919325,-300.329188082237,409.787363115263,685819028
390,-272.0,-162.0,-6817.0,9523.0,98.0,-8810.0,-220.07496933377,-300.425077012996,406.618728663882,685835324
196,191.0,53.0,-6816.0,9524.0,97.0,-8809.0,-220.207079079828,-300.522813932416,402.96162112276,685842204
451,-112.0,-187.0,-6815.0,9524.0,97.0,-8809.0,-220.372959573997,-300.701417931706,397.281849679077,685858793
48,306.0,327.0,-6816.0,9525.0,97.0,-8807.0,-220.482417266222,-300.81210384823,392.458224847286,685874518
318,167.0,-138.0,-6816.0,9522.0,97.0,-8810.0,-220.5718064201,-300.941661844212,385.373041568811,685887022
310,-67.0,-182.0,-6818.0,9525.0,97.0,-8806.0,-220.700590443313,-301.010401936627,377.79165450167,685907257
256,198.0,-150.0,-6821.0,9525.0,95.0,-8801.0,-220.73371248495,-301.063819566346,371.87514947116,685916111
44,120.0,-73.0,-6829.0,9521.0,90.0,-8795.0,-220.774630994851,-301.103571537024,367.830624620165,685930359
-99,398.0,264.0,-6840.0,9516.0,80.0,-8784.0,-220.805772447661,-301.122576827383,361.658646229644,685943730
38,354.0,157.0,-6854.0,9503.0,65.0,-8774.0,-220.813504113289,-301.12832793627,355.394885241163,685951905
30,282.0,66.0,-6873.0,9486.0,45.0,-8761.0,-220.815900080234,-301.129309913899,351.199578823285,685962352
41,296.0,124.0,-6897.0,9466.0,19.0,-8742.0,-220.8147034846,-301.117805295215,344.844119271736,685970132
41,296.0,124.0,-6897.0,9466.0,19.0,-8742.0,-220.810258970811,-301.108515612576,340.546047100909,685977053
68,255.0,61.0,-6958.0,9414.0,209.0,-8694.0,-220.803861708293,-301.089216549446,334.052039752089,685989773
-96,377.0,211.0,-6996.0,9378.0,167.0,-8666.0,-220.791438544604,-301.079320123766,327.559821803855,685997414
225,238.0,-204.0,-7040.0,9340.0,120.0,-8630.0,-220.774933066154,-301.055551695864,321.073365729734,686006098
-170,303.0,245.0,-7090.0,9298.0,69.0,-8590.0,-220.76263821379,-301.034159106968,316.714247772361,686022544
-170,303.0,245.0,-7090.0,9298.0,69.0,-8590.0,-220.746976843953,-301.017177566079,310.169419360833,686022544
-131,145.0,123.0,-7335.0,9073.0,65.0,-8388.0,-220.731070454135,-300.987670956923,305.79453331925,686063733
-131,145.0,123.0,-7335.0,9073.0,65.0,-8388.0,-220.709266420642,-300.949400038497,299.185293362059,686063733
-131,145.0,123.0,-7335.0,9073.0,65.0,-8388.0,-220.698531188128,-300.938119515796,292.678878104714,686063733
-92,161.0,140.0,-7482.0,8928.0,160.0,-8260.0,-220.678917731291,-300.917255388285,286.128336999133,686078820
113,89.0,-225.0,-7564.0,8845.0,73.0,-8190.0,-220.672734686927,-300.901823113114,279.528963765227,686091544
113,89.0,-225.0,-7645.0,8762.0,241.0,-8115.0,-220.647411044618,-300.861950183837,275.12282594738,686099264
75,184.0,-89.0,-7731.0,8674.0,151.0,-8036.0,-220.642651077679,-300.864330473611,268.595850552318,686107898
39,-191.0,-65.0,-7816.0,8582.0,60.0,-7958.0,-220.623752762199,-300.831949609509,261.987434623625,686116706
-66,506.0,180.0,-7898.0,8492.0,224.0,-7876.0,-220.61673552776,-300.829496492714,255.437286326093,686134209
-40,-38.0,56.0,-7984.0,8396.0,133.0,-7793.0,-220.591815156987,-300.7944183672,251.026756464678,686140493
-39,146.0,28.0,-8156.0,8200.0,205.0,-7617.0,-220.590144466538,-300.788337407594,244.483322292565,686156899
-88,127.0,242.0,-8156.0,8200.0,205.0,-7617.0,-220.577591965245,-300.781915936349,240.093135388658,686165202
-14,21.0,-244.0,-8325.0,7996.0,23.0,-7438.0,-220.563812544964,-300.761110636142,231.340811435372,686179685
40,16.0,-95.0,-8407.0,7894.0,189.0,-7345.0,-220.556396852238,-300.740054811207,226.927763619679,686189327
-42,177.0,-56.0,-8492.0,7789.0,102.0,-7251.0,-220.56118923298,-300.748714845293,220.38917246732,686196936
-156,-166.0,114.0,-8492.0,7789.0,102.0,-7251.0,-220.552802668756,-300.747609130806,213.81842022658,686205579
124,184.0,0.0,-8654.0,7574.0,181.0,-7061.0,-220.537548093284,-300.727563606427,207.220846245726,686222183
124,184.0,0.0,-8735.0,7466.0,96.0,-6963.0,-220.516806805818,-300.686058499929,202.803718849398,686228561
-183,-122.0,76.0,-8816.0,7356.0,10.0,-6862.0,-220.498067029534,-300.669278440046,194.047584169171,686240982
107,93.0,-163.0,-8967.0,7132.0,99.0,-6667.0,-220.492411478807,-300.665511070706,187.473791180483,686259493
168,219.0,-59.0,-9044.0,7018.0,17.0,-6564.0,-220.495941527593,-300.672087744012,180.914879263008,686267837
-340,6.0,320.0,-9121.0,6905.0,193.0,-6457.0,-220.505493870439,-300.697336071605,174.36410909966,686281991
-28,111.0,-133.0,-9193.0,6790.0,114.0,-6357.0,-220.513554068263,-300.695348848111,167.802516459646,686295430
256,119.0,-322.0,-9262.0,6672.0,35.0,-6257.0,-220.520043636369,-300.703190538765,161.239704141383,686304010
-11,14.0,-162.0,-9335.0,6553.0,214.0,-6150.0,-220.528367066405,-300.729830575233,154.673062633017,686316112
-301,340.0,78.0,-9475.0,6322.0,67.0,-5932.0,-220.541318586841,-300.728424213571,145.900330462767,686336529
126,-31.0,-209.0,-9607.0,6076.0,176.0,-5721.0,-220.541223500302,-300.74598251008,139.337253223762,686350813
126,-31.0,-209.0,-9674.0,5953.0,106.0,-5610.0,-220.566095910887,-300.772538531805,130.567742937086,686359139
-25,-135.0,189.0,-9737.0,5834.0,38.0,-5499.0,-220.564782767302,-300.784056301911,124.015532297476,686367513
-99,119.0,-75.0,-9797.0,5712.0,227.0,-5391.0,-220.557910605016,-300.760117015088,117.568748529832,686385052
54,50.0,-138.0,-9919.0,5459.0,96.0,-5167.0,-220.557603843626,-300.757431240092,111.396889717907,686399143
44,-107.0,-3.0,-9978.0,5335.0,34.0,-5053.0,-220.553726806002,-300.755671537537,105.496975530525,686407713
-20,-51.0,8.0,-9978.0,5335.0,34.0,-5053.0,-220.552803306462,-300.757435489354,99.9669070829548,686416432
-97,77.0,-49.0,-10089.0,5086.0,168.0,-4825.0,-220.525282483862,-300.712707083464,96.5005328334807,686430542
-27,169.0,-192.0,-10144.0,4957.0,109.0,-4709.0,-220.503851454404,-300.686400155788,91.6302714058563,686440191
20,-42.0,-58.0,-10198.0,4828.0,52.0,-4595.0,-220.46806360971,-300.636843140855,88.6225741304887,686456442
-29,14.0,-88.0,-10249.0,4699.0,253.0,-4479.0,-220.435533162077,-300.578841122146,84.4829575870213,686464851
-31,109.0,-204.0,-10298.0,4570.0,197.0,-4362.0,-220.389243280319,-300.535403429561,81.9847866090861,686472529
-27,55.0,-103.0,-10347.0,4440.0,144.0,-4245.0,-220.36767155531,-300.493431053816,78.6593370562912,686485580
-12,42.0,-43.0,-10394.0,4309.0,93.0,-4127.0,-220.309350994956,-300.421676164498,75.7720656687756,686491803
37,-120.0,-170.0,-10441.0,4177.0,43.0,-4009.0,-220.286797590717,-300.390669906504,73.432010234526,686502195
-31,47.0,-133.0,-10528.0,3913.0,203.0,-3769.0,-220.225499122094,-300.298480998914,71.5549661332709,686519104
-36,38.0,-118.0,-10570.0,3781.0,158.0,-3650.0,-220.204184019139,-300.25699590174,69.736875606292,686532730
-11,6.0,22.0,-10610.0,3647.0,114.0,-3530.0,-220.082092467461,-300.185953015427,68.7408423828923,686546078
-23,-12.0,-77.0,-10650.0,3512.0,71.0,-3408.0,-219.952500634534,-300.128432192639,68.1880715310162,686554668
-49,27.0,-87.0,-10687.0,3377.0,30.0,-3286.0,-219.565534441105,-300.113738896422,67.7320738136535,686566632
-72,95.0,-153.0,-10722.0,3243.0,246.0,-3166.0,-218.961063327263,-300.116686085478,67.1947815649334,686574483
76,-45.0,-135.0,-10755.0,3107.0,208.0,-3047.0,-218.373511689957,-300.080319931464,66.690554664083,686587962
9,-60.0,-46.0,-10789.0,2969.0,171.0,-2923.0,-217.230042269831,-300.032971216309,66.4250668759395,686595223
-63,-1.0,-28.0,-10822.0,2833.0,137.0,-2797.0,-216.317913374985,-300.024074880238,66.1304472136653,686603507
-65,50.0,-111.0,-10879.0,2564.0,71.0,-2552.0,-214.666505586056,-300.012548354428,65.8798543349686,686620021
77,-30.0,-173.0,-10907.0,2423.0,41.0,-2428.0,-213.386848745071,-300.009956805031,65.7416068257352,686630583
115,-146.0,-134.0,-10907.0,2423.0,41.0,-2428.0,-211.16673364491,-299.997887933853,65.6104977840416,686636802
-40,44.0,3.0,-10933.0,2285.0,12.0,-2300.0,-209.487725930027,-300.016174289073,65.4540586156725,686643409
-170,53.0,61.0,-10979.0,2013.0,216.0,-2053.0,-206.691800667419,-300.060279835666,65.3596482675031,686659672
-5,-32.0,-158.0,-11000.0,1871.0,191.0,-1929.0,-204.612951466112,-300.095997994959,65.2936095684124,686668031
145,-37.0,-200.0,-11000.0,1871.0,191.0,-1929.0,-201.178170306939,-300.105879518821,65.1587763771311,686675533
35,-221.0,-150.0,-11038.0,1592.0,148.0,-1678.0,-197.388399647411,-300.166859406363,65.1128408888536,686692116
35,-221.0,-150.0,-11056.0,1455.0,129.0,-1551.0,-194.63957203736,-300.24170483583,65.0825194753207,686700099
-222,302.0,157.0,-11073.0,1316.0,113.0,-1422.0,-190.206112068521,-300.303888185758,65.0118078405242,686708806
45,-196.0,-228.0,-11086.0,1175.0,96.0,-1299.0,-185.500111736215,-300.376482511261,64.9549928428239,686725314
10,162.0,-101.0,-11098.0,1035.0,81.0,-1174.0,-179.615517542958,-300.458077148239,64.9110237648896,686737879
190,-255.0,-279.0,-11109.0,892.0,68.0,-1049.0,-175.442468725862,-300.55143627074,64.8984888718516,686744663
-223,226.0,-25.0,-11118.0,754.0,57.0,-918.0,-168.412396656172,-300.595773245506,64.8471967341036,686756942
223,-320.0,-18.0,-11132.0,475.0,38.0,-665.0,-163.065737094465,-300.676222763384,64.8415049782133,686773494
329,-2.0,-281.0,-11138.0,329.0,32.0,-542.0,-157.612531120225,-300.708733873122,64.8241393530762,686786205
-102,-2.0,61.0,-11145.0,53.0,26.0,-285.0,-152.137678895473,-300.772842044344,64.8347840272977,686800449
-356,-26.0,-39.0,-11144.0,-87.0,23.0,-157.0,-146.593260026696,-300.778227115261,64.8097868577116,686808992
126,-233.0,48.0,-11143.0,-230.0,23.0,-35.0,-141.043852018286,-300.808147374891,64.8129136062014,686820897
52,-352.0,-234.0,-11140.0,-371.0,24.0,93.0,-135.465647364545,-300.853324732206,64.8340741950084,686834004
38,-166.0,-177.0,-11133.0,-645.0,34.0,348.0,-129.8607323721,-300.85136364629,64.8282165750337,686847683
-142,-102.0,218.0,-11133.0,-645.0,34.0,348.0,-124.254093978395,-300.845143329858,64.8267605724443,686856455
6,-59.0,202.0,-11118.0,-914.0,46.0,583.0,-114.887241886909,-300.887332572707,64.8606991232616,686872662
-71,89.0,360.0,-11111.0,-1036.0,56.0,697.0,-111.125781618091,-300.857355560387,64.8446644084614,686888621
-115,3.0,110.0,-11101.0,-1153.0,64.0,802.0,-105.493727826463,-300.851253349419,64.8345989031168,686895586
208,-430.0,-115.0,-11083.0,-1370.0,85.0,1000.0,-99.8546259932133,-300.854177290349,64.8827898403786,686911716
199,-227.0,-7.0,-11072.0,-1469.0,94.0,1087.0,-92.3499208569631,-300.85992186417,64.8774476234248,686927208
60,-278.0,-63.0,-11053.0,-1645.0,116.0,1250.0,-86.6966986538869,-300.84507398222,64.8735628867128,686943238
60,-278.0,-63.0,-11044.0,-1720.0,126.0,1320.0,-81.0573152759704,-300.854253464496,64.8966981908888,686951107
-51,130.0,340.0,-11036.0,-1787.0,135.0,1382.0,-75.4185851897276,-300.866620485553,64.9172005927663,686959601
-32,-45.0,191.0,-11027.0,-1848.0,143.0,1438.0,-69.7876004364771,-300.866968858668,64.9252621013606,686975499
-32,-45.0,191.0,-11020.0,-1904.0,151.0,1489.0,-66.0264620476401,-300.827658467849,64.9135516096034,686981801
78,-286.0,293.0,-11014.0,-1953.0,159.0,1532.0,-60.3740234477919,-300.82561447773,64.9195590697553,686995011
-171,-125.0,91.0,-11008.0,-1991.0,165.0,1570.0,-54.7318593601283,-300.831040115439,64.9416547718722,687006703
135,-64.0,-67.0,-10999.0,-2043.0,171.0,1617.0,-47.2266664544421,-300.816961682309,64.9449943546805,687023324
132,16.0,-273.0,-10994.0,-2060.0,172.0,1630.0,-41.5871946021253,-300.818322856053,64.9505863110879,687036006
-2,112.0,-324.0,-10990.0,-2084.0,176.0,1654.0,-34.0591077766944,-300.81169011983,64.9564960559445,687050153
-144,231.0,-334.0,-10989.0,-2094.0,178.0,1664.0,-28.4303600206071,-300.816432298402,64.960024925163,687059071
-144,231.0,-334.0,-10989.0,-2094.0,178.0,1664.0,-24.6787420997601,-300.814700408867,64.9647882692913,687059071
-144,231.0,-334.0,-10989.0,-2094.0,178.0,1664.0,-19.0373535433385,-300.813215421115,64.9685852067474,687059071
-14,271.0,-534.0,-10983.0,-2114.0,178.0,1681.0,-13.3932386289238,-300.812009004893,64.9757295022798,687118141
-14,271.0,-534.0,-10983.0,-2114.0,178.0,1681.0,-9.64122329970947,-300.814507289356,64.984929024917,687118141
-14,271.0,-534.0,-10983.0,-2114.0,178.0,1681.0,-4.01035706100501,-300.814615845923,64.9901471886045,687118141
33,153.0,-368.0,-10983.0,-2114.0,178.0,1681.0,1.62585742115761,-300.795392058915,64.9879865720064,687126026
-49,254.0,-335.0,-10983.0,-2115.0,178.0,1683.0,7.26479322056421,-300.75351653896,64.9868567853242,687138563
-61,215.0,-404.0,-10982.0,-2115.0,178.0,1685.0,12.8951176492312,-300.749250258793,64.9869657436023,687145647
26,120.0,-236.0,-10979.0,-2117.0,176.0,1687.0,18.5247688939337,-300.750481260633,64.9843011397266,687162123
26,120.0,-236.0,-10978.0,-2121.0,176.0,1692.0,22.2806719032926,-300.75305056271,64.9795430659243,687170662
8,56.0,-171.0,-10977.0,-2125.0,176.0,1695.0,27.9214838914673,-300.760472166333,64.9786670297805,687181186
-50,25.0,-82.0,-10975.0,-2128.0,176.0,1700.0,33.5539288240259,-300.763863653055,64.9735171435036,687193964
8,128.0,-168.0,-10974.0,-2130.0,176.0,1702.0,37.3046168313511,-300.77473218659,64.9825895888929,687202344
8,128.0,-168.0,-10972.0,-2130.0,175.0,1704.0,42.9411766431968,-300.786735116884,64.9836242628078,687210842
-16,152.0,-102.0,-10971.0,-2132.0,174.0,1706.0,48.5821806782221,-300.793727972366,64.9856541412051,687227102
-39,23.0,-102.0,-10970.0,-2133.0,174.0,1709.0,52.342534704124,-300.803292269568,64.9826490219599,687233381
-21,18.0,-34.0,-10969.0,-2135.0,173.0,1712.0,57.9761672164965,-300.804040494757,64.9732593851806,687243465
-5,-26.0,32.0,-10966.0,-2137.0,172.0,1716.0,63.6068218812649,-300.810273432454,64.977121010824,687260047
5,48.0,-84.0,-10965.0,-2137.0,171.0,1718.0,69.2488624591466,-300.821746958872,64.9741620632893,687268386
-15,74.0,-74.0,-10965.0,-2136.0,170.0,1719.0,74.8938603064378,-300.826858345994,64.9724025889561,687283277
-15,74.0,-74.0,-10963.0,-2136.0,169.0,1722.0,78.6475038462322,-300.829479048549,64.9625693081963,687291407
6,2.0,-129.0,-10962.0,-2136.0,169.0,1722.0,84.2830937121295,-300.826093105152,64.9489012625935,687299997
-18,-101.0,26.0,-10961.0,-2138.0,168.0,1725.0,89.9212047618241,-300.829521916322,64.9345026662017,687311960
-18,-101.0,26.0,-10960.0,-2136.0,167.0,1727.0,93.6855620517147,-300.836052138428,64.9344544227001,687320643
-17,75.0,-19.0,-10959.0,-2137.0,167.0,1728.0,99.3303542108112,-300.85193061104,64.9445858832503,687334130
0,5.0,-90.0,-10958.0,-2134.0,165.0,1728.0,104.969054163898,-300.865644981305,64.9312427939328,687347981
-14,65.0,-99.0,-10957.0,-2134.0,165.0,1731.0,110.60338014748,-300.840817118647,64.9041555395615,687356898
0,-2.0,-31.0,-10957.0,-2134.0,165.0,1732.0,116.254341761171,-300.859649444688,64.8972497038858,687365379
-12,23.0,-14.0,-10956.0,-2133.0,164.0,1734.0,121.892775699061,-300.849439572067,64.8916366376974,687382713
-23,-104.0,34.0,-10954.0,-2130.0,162.0,1737.0,129.43556506815,-300.902482561042,64.8972702207144,687399713
-9,-82.0,-23.0,-10954.0,-2130.0,162.0,1738.0,135.075114600041,-300.893931738596,64.8556859193569,687409266
-16,128.0,-38.0,-10954.0,-2130.0,162.0,1738.0,138.828196483329,-300.872888988344,64.8367027340719,687418156
-10,-154.0,8.0,-10953.0,-2128.0,161.0,1739.0,144.491513999223,-300.898771266794,64.8541711322528,687426259
-22,109.0,-14.0,-10953.0,-2127.0,161.0,1740.0,148.270287072085,-300.939253472065,64.8652196894466,687433691
-14,-90.0,2.0,-10952.0,-2124.0,160.0,1743.0,153.911478026388,-300.927497792418,64.8236378623583,687452774
-14,-90.0,2.0,-10951.0,-2124.0,160.0,1745.0,157.679984393964,-300.94198595092,64.809197823327,687461130
-20,100.0,-39.0,-10951.0,-2122.0,159.0,1745.0,163.326816109912,-300.931185220903,64.7888718802577,687469558
-8,-136.0,44.0,-10950.0,-2122.0,159.0,1748.0,168.905030326522,-300.952414553702,64.8133267463382,687483213
-8,-136.0,44.0,-10950.0,-2122.0,159.0,1748.0,172.542198856411,-300.964144360992,64.792993661878,687489468
-5,14.0,-23.0,-10950.0,-2121.0,159.0,1747.0,176.075612546673,-300.88543868332,64.7567358967268,687496523
-16,-104.0,7.0,-10949.0,-2118.0,157.0,1751.0,181.189627805759,-300.882575879804,64.7787923820811,687510136
-9,-135.0,7.0,-10948.0,-2117.0,157.0,1752.0,186.042429187604,-300.832311746956,64.7630293111455,687519435
-5,-103.0,2.0,-10948.0,-2115.0,156.0,1752.0,190.583706958361,-300.773665169179,64.7974775925254,687533352
-5,-103.0,2.0,-10948.0,-2115.0,156.0,1752.0,193.448029996192,-300.709619678495,64.7745234051991,687539608
-15,-16.0,-19.0,-10947.0,-2113.0,155.0,1755.0,197.440704206638,-300.640747772199,64.7643616274964,687555966
-19,-28.0,5.0,-10946.0,-2112.0,155.0,1757.0,199.932873142772,-300.604076341393,64.8108627455692,687564233
-16,-12.0,-40.0,-10946.0,-2110.0,154.0,1759.0,203.360292635922,-300.49226349751,64.7979299993801,687574683
-16,-12.0,-40.0,-10946.0,-2108.0,154.0,1759.0,206.429203437736,-300.459452581905,64.8299674851066,687581938
-21,35.0,23.0,-10947.0,-2106.0,155.0,1762.0,208.255634189051,-300.374401808716,64.8331144414991,687599100
1,-119.0,-45.0,-10947.0,-2106.0,155.0,1762.0,210.698294621082,-300.314140984789,64.8487550049981,687607883
-21,-20.0,34.0,-10946.0,-2106.0,154.0,1764.0,212.77688821774,-300.224746611524,64.879377209896,687617655
-14,-75.0,-42.0,-10946.0,-2103.0,155.0,1766.0,214.46916198265,-300.146964869755,64.8942604588257,687632313
-23,-20.0,-65.0,-10947.0,-2100.0,155.0,1766.0,215.809436083581,-300.122041050881,64.9441548345314,687641980
-19,-24.0,45.0,-10947.0,-2098.0,155.0,1767.0,216.756878913635,-300.017659528376,64.9320824495736,687649885
-29,15.0,50.0,-10947.0,-2097.0,155.0,1769.0,217.81806252459,-299.797065463697,64.9257732327618,687667808
-11,19.0,58.0,-10948.0,-2096.0,155.0,1771.0,218.906946221142,-299.404000894771,64.9591130031417,687675844
4,-152.0,-78.0,-10948.0,-2093.0,156.0,1773.0,220.232998024573,-298.766310431814,64.9769158049343,687691566
-28,93.0,63.0,-10948.0,-2092.0,156.0,1775.0,221.268018840177,-297.818347832576,64.9852192836976,687700294
-4,-193.0,-92.0,-10949.0,-2092.0,156.0,1777.0,223.092082702862,-297.006098651834,64.9899691149355,687712228
4,-156.0,-88.0,-10949.0,-2090.0,156.0,1778.0,225.297444486039,-295.507281032745,65.0072870268094,687720891
1,-175.0,-95.0,-10949.0,-2090.0,157.0,1780.0,226.991659574768,-293.634826825443,65.0160932008889,687734545
1,-175.0,-95.0,-10949.0,-2088.0,157.0,1781.0,229.877384109748,-291.349531522904,65.0105773745212,687740798
-16,-25.0,83.0,-10949.0,-2087.0,157.0,1783.0,233.194234069864,-288.620472828444,64.9972713959022,687756814
-8,-131.0,-94.0,-10950.0,-2085.0,157.0,1784.0,238.336319006425,-285.449445248807,65.0069275470663,687765094
-30,15.0,83.0,-10950.0,-2082.0,158.0,1787.0,242.663291868405,-281.838938410219,65.0171102818849,687781279
0,-166.0,-72.0,-10951.0,-2080.0,158.0,1789.0,248.845891346118,-276.433757350706,65.0065250125376,687801877
-26,18.0,49.0,-10951.0,-2079.0,158.0,1791.0,253.68535122199,-272.024551774348,65.0041170180372,687810632
-3,-168.0,-59.0,-10951.0,-2078.0,159.0,1792.0,256.968665475147,-267.358550486006,65.00659526206,687819635
-6,-147.0,-57.0,-10951.0,-2078.0,159.0,1792.0,261.928293703147,-262.48917459734,65.0137921496089,687827319
-10,-93.0,-37.0,-10952.0,-2075.0,159.0,1795.0,266.889774796689,-257.423294386558,65.0060001622896,687843139
-23,-70.0,18.0,-10952.0,-2073.0,159.0,1798.0,273.468809030469,-250.407331369271,65.0049107378521,687860149
-24,-89.0,6.0,-10952.0,-2073.0,159.0,1798.0,278.355823084474,-246.794306459079,65.0051035855436,687868827
-9,-74.0,-8.0,-10953.0,-2070.0,160.0,1800.0,283.173394765017,-241.254512695201,65.0049043373273,687883320
-10,-84.0,-29.0,-10953.0,-2070.0,160.0,1800.0,287.905403719031,-235.59115196379,65.0028236092767,687889616
-23,-113.0,19.0,-10956.0,-2050.0,162.0,1820.0,292.543268634742,-229.807861695917,65.0013834335044,687900854
-5,-17.0,-65.0,-10956.0,-2048.0,163.0,1820.0,297.081588399126,-223.916779817055,65.0031249861508,687918305
-24,-124.0,39.0,-10957.0,-2048.0,163.0,1823.0,301.512279452617,-217.912863405422,65.000248989828,687926347
-24,-47.0,-69.0,-10957.0,-2045.0,163.0,1823.0,304.407009715056,-211.806462312331,65.0005951315613,687938884
-8,-48.0,-69.0,-10957.0,-2044.0,163.0,1824.0,308.652094112491,-207.680867433967,64.9990138563381,687945568
-19,-83.0,43.0,-10957.0,-2043.0,163.0,1826.0,311.412266560175,-201.423026007498,64.9987768574578,687953964
0,-103.0,-93.0,-10958.0,-2040.0,164.0,1829.0,315.451933428875,-197.204332949187,65.0004746307904,687972783
-25,-123.0,60.0,-10958.0,-2039.0,164.0,1830.0,318.074670344093,-190.800470330241,64.9994501032167,687980154
-14,-125.0,49.0,-10958.0,-2039.0,164.0,1830.0,321.904605803419,-186.48509737849,65.0006981149916,687988366
-25,-134.0,70.0,-10959.0,-2036.0,165.0,1832.0,328.003102892171,-175.538183862816,64.9999792598965,688005214
-17,-23.0,-107.0,-10960.0,-2034.0,165.0,1834.0,331.483059571126,-168.875870799,65.0001267483099,688022210
-3,-206.0,47.0,-10961.0,-2034.0,166.0,1836.0,333.727765898647,-162.145198569259,64.9994112678592,688033615
-3,-206.0,47.0,-10961.0,-2031.0,166.0,1837.0,336.981441327839,-157.618187674992,65.0001700982832,688042082
-16,-46.0,-99.0,-10962.0,-2031.0,167.0,1839.0,339.075318398618,-150.771153476924,64.9999758868409,688050812
-30,-146.0,55.0,-10962.0,-2029.0,167.0,1839.0,342.103846940344,-146.169375171009,64.9997889960958,688059593
-15,-117.0,-75.0,-10962.0,-2028.0,168.0,1840.0,344.990600371001,-139.218607815655,65.0002241421568,688075635
-15,-117.0,-75.0,-10963.0,-2026.0,168.0,1841.0,346.83539838083,-132.216842058285,65.0001126822383,688081847
-27,-112.0,33.0,-10963.0,-2026.0,168.0,1841.0,349.484810154905,-127.5181591686,64.999825025314,688088117
-27,-112.0,33.0,-10963.0,-2026.0,168.0,1841.0,351.172551104888,-120.422862389412,65.0000839743271,688088117
-16,-51.0,-67.0,-10965.0,-2023.0,171.0,1848.0,353.584288967962,-115.664522809955,65.0003068945037,688130267
-16,-51.0,-67.0,-10965.0,-2023.0,171.0,1848.0,355.113734105987,-108.486473546127,65.0003716316509,688130267
-32,-123.0,-20.0,-10965.0,-2023.0,171.0,1848.0,357.283851892836,-101.263735779161,65.0005658439857,688138613
-35,-371.0,-72.0,-10965.0,-2027.0,172.0,1851.0,359.307307816966,-96.4305741928314,64.9999905291672,688147366
-26,-378.0,-140.0,-10965.0,-2027.0,172.0,1853.0,360.574910532159,-89.1447536674759,65.0000839744077,688155908
24,-387.0,-158.0,-10966.0,-2025.0,172.0,1855.0,362.354056949966,-84.2632684541064,65.0002781865738,688163922
-63,-298.0,-39.0,-10967.0,-2023.0,173.0,1853.0,363.984162218365,-76.9158281036953,65.0002134491233,688179331
-29,-260.0,-142.0,-10968.0,-2020.0,174.0,1852.0,364.98889588208,-69.5354528989725,64.9997315801893,688188781
-2,-153.0,-110.0,-10970.0,-2014.0,173.0,1846.0,366.371017083203,-62.1281181115406,65.0000192370222,688203753
-2,-153.0,-110.0,-10972.0,-2010.0,174.0,1842.0,367.97974781994,-54.6958165045571,65.0002134491233,688212185
-62,-151.0,-229.0,-10975.0,-2004.0,174.0,1834.0,368.68328397931,-47.2415376745518,65.0002781864554,688220842
-176,-409.0,-18.0,-10978.0,-1984.0,172.0,1821.0,370.150290882125,-37.2710790727726,65.0001487118124,688241794
-93,-334.0,-9.0,-10980.0,-1973.0,170.0,1813.0,370.828689299,-29.7747314663943,64.9999544996705,688252911
125,-352.0,-123.0,-10984.0,-1963.0,171.0,1803.0,371.197019924041,-22.2691529312059,64.9997963171466,688261628
-201,-396.0,-224.0,-10987.0,-1947.0,169.0,1786.0,371.621619524798,-14.7519537510012,65.0001487119802,688277823
-137,-179.0,30.0,-10991.0,-1926.0,167.0,1772.0,371.894554479902,-9.73632033802506,65.0001487118884,688284115
8,55.0,257.0,-10995.0,-1905.0,164.0,1756.0,372.01524248794,-2.21224164891532,64.9999544997317,688297168
-47,-193.0,-43.0,-10997.0,-1889.0,161.0,1739.0,372.011965387337,5.31616655157251,65.0003068947162,688305157
-31,-244.0,-11.0,-11001.0,-1872.0,160.0,1723.0,371.878522412072,12.8409185363499,65.0002134495696,688316017
-206,-237.0,303.0,-11006.0,-1828.0,153.0,1689.0,371.593298394074,17.8510882414255,65.0001126822248,688331287
146,77.0,-256.0,-11006.0,-1828.0,153.0,1689.0,371.319429889088,25.364375717733,65.0004830920495,688337707
-22,-187.0,258.0,-11014.0,-1787.0,149.0,1653.0,370.567570351017,32.869148199999,65.0000839746407,688352104
-147,-84.0,-73.0,-11017.0,-1764.0,146.0,1634.0,370.089877794771,37.8637982381672,64.9999184706513,688360972
-91,-238.0,116.0,-11022.0,-1743.0,145.0,1616.0,369.249007099319,47.8334516341332,64.9999184703998,688380340
132,240.0,-369.0,-11023.0,-1719.0,140.0,1599.0,368.255818396436,55.2837059382443,65.0001126822946,688386630
28,-19.0,-126.0,-11032.0,-1678.0,137.0,1560.0,367.112298775907,62.7163341209365,64.999983207743,688400566
65,205.0,-320.0,-11034.0,-1654.0,134.0,1542.0,365.354151854279,72.5851342352672,65.000335602659,688417608
56,-183.0,-12.0,-11039.0,-1630.0,132.0,1522.0,363.859946303238,79.9516738102848,65.0003068948461,688425566
25,38.0,185.0,-11045.0,-1587.0,127.0,1485.0,362.218135155598,87.2856696333951,64.9997062443656,688441776
-96,-109.0,-354.0,-11045.0,-1587.0,127.0,1485.0,360.428299102863,92.1536717577822,64.9997709814476,688449182
15,-39.0,30.0,-11050.0,-1564.0,127.0,1466.0,359.151823428486,99.4263154823021,65.0007994576474,688457840
-72,39.0,32.0,-11057.0,-1519.0,123.0,1427.0,357.115866799446,104.251339552389,65.0001700982329,688473945
-72,39.0,32.0,-11057.0,-1519.0,123.0,1427.0,355.677544885317,111.454358551032,65.0007994572428,688480752
-50,30.0,-97.0,-11061.0,-1496.0,121.0,1405.0,353.398296487306,116.232727086029,65.0000946676788,688487041
139,80.0,-34.0,-11065.0,-1472.0,119.0,1388.0,350.97445601564,123.358295225633,64.9998357187326,688496918
234,-41.0,-277.0,-11072.0,-1429.0,116.0,1349.0,349.278763946562,128.081619012785,64.9997709814805,688512882
-94,50.0,-44.0,-11075.0,-1407.0,114.0,1327.0,345.698175510513,137.453935018835,65.0003175882331,688521559
100,343.0,3.0,-11080.0,-1379.0,113.0,1309.0,343.811219459321,144.420879270296,65.0002061280625,688536043
100,343.0,3.0,-11082.0,-1357.0,111.0,1291.0,340.867315140089,149.029159282342,64.9996415073197,688542180
-23,78.0,6.0,-11090.0,-1318.0,109.0,1250.0,337.783056670084,155.895549853005,65.0004290484588,688562281
-23,78.0,6.0,-11090.0,-1318.0,109.0,1250.0,335.648054006646,160.438057326484,65.0002528505277,688562281
-159,-240.0,89.0,-11095.0,-1294.0,109.0,1227.0,332.335272121608,167.192342924451,64.9995120330149,688578296
143,69.0,-109.0,-11098.0,-1267.0,107.0,1209.0,330.049698866375,173.882017195986,65.0005405080023,688590871
79,207.0,11.0,-11101.0,-1246.0,106.0,1191.0,326.508690219777,178.303858137074,65.0001700984311,688597690
-121,-96.0,-114.0,-11104.0,-1226.0,105.0,1171.0,324.075421647632,184.871327762537,64.999975886599,688605717
37,98.0,-107.0,-11112.0,-1177.0,103.0,1130.0,319.029785734228,191.363943015589,64.9999111494224,688624590
37,98.0,-107.0,-11116.0,-1154.0,103.0,1111.0,315.092700439251,197.780362244632,65.0000873465111,688631829
-52,-172.0,-134.0,-11119.0,-1134.0,102.0,1091.0,312.396870838984,204.113446293654,65.0003930185775,688644397
-52,-172.0,-134.0,-11122.0,-1111.0,101.0,1071.0,308.247930810587,210.363662350916,64.9998751205515,688652286
-15,-103.0,-144.0,-11126.0,-1090.0,101.0,1050.0,303.969800168528,214.483582702185,64.9997636607975,688668980
-24,-29.0,-1.0,-11130.0,-1066.0,100.0,1028.0,299.568241990281,220.588920931657,65.0007454137424,688676839
-66,21.0,-144.0,-11136.0,-1024.0,99.0,989.0,295.043837395858,228.58738164113,64.9999578721547,688692847
-18,-133.0,-142.0,-11139.0,-1000.0,98.0,968.0,290.401479192541,232.523149070542,64.9999578722844,688700763
37,-18.0,-183.0,-11139.0,-1000.0,98.0,968.0,285.63805913808,238.351309054358,64.9995407413327,688709560
-43,-76.0,-107.0,-11146.0,-956.0,98.0,927.0,282.395426085889,244.083254097929,64.9999111494614,688726126
-55,-115.0,-148.0,-11149.0,-934.0,97.0,907.0,275.760181127507,251.566687911873,64.9999111495059,688739355
38,-13.0,-157.0,-11155.0,-889.0,97.0,867.0,268.926017128703,257.058269120678,65.0003282812037,688750433
-49,-82.0,-108.0,-11159.0,-868.0,97.0,845.0,263.722370080593,262.393673991227,64.999634186696,688767681
-29,-78.0,-50.0,-11164.0,-823.0,96.0,805.0,258.550918366144,269.118801775718,65.0076716354055,688782097
-22,-74.0,-155.0,-11164.0,-823.0,96.0,805.0,253.414171316277,273.762806664131,65.0163259082365,688788304
-28,-44.0,-116.0,-11171.0,-777.0,96.0,766.0,248.328446952255,276.636700726138,65.0194288524477,688801963
6,-8.0,-93.0,-11174.0,-755.0,97.0,746.0,243.317772428623,280.606444398684,65.0174926703131,688813707
-14,81.0,-54.0,-11176.0,-733.0,96.0,725.0,238.37221894135,284.155323843731,64.9914097329611,688822256
-29,1.0,-178.0,-11179.0,-711.0,96.0,704.0,233.51508295762,287.294063614413,64.9913854381587,688835957
-17,-90.0,-151.0,-11182.0,-691.0,96.0,684.0,228.784306883014,290.03130873129,64.9859887215287,688849266
75,123.0,-61.0,-11188.0,-643.0,97.0,643.0,224.186462722226,293.020283771594,64.9901357498982,688865571
75,123.0,-61.0,-11190.0,-623.0,97.0,621.0,219.735194790353,294.240271742771,64.9949122867984,688873639
-80,-193.0,-136.0,-11192.0,-602.0,97.0,599.0,216.835181978107,295.689938553334,64.9490088001849,688883928
-148,-158.0,-41.0,-11195.0,-581.0,98.0,579.0,212.569817694292,296.819851768353,64.9386893352079,688896723
71,152.0,-142.0,-11198.0,-556.0,98.0,559.0,208.352684181975,297.690690914548,64.952427657989,688904589
33,-127.0,-191.0,-11203.0,-513.0,99.0,519.0,204.052938836866,298.333548103796,64.9278343943532,688921679
-20,126.0,-102.0,-11203.0,-513.0,99.0,519.0,199.570965167108,298.834578021373,64.8994084481322,688929225
-9,144.0,-26.0,-11205.0,-491.0,99.0,496.0,194.8721847039,299.25847745681,64.8908571728901,688935469
-49,-297.0,-57.0,-11212.0,-427.0,101.0,435.0,189.932318985806,299.483366804303,64.8770236523981,688969234
-49,-297.0,-57.0,-11212.0,-427.0,101.0,435.0,186.560848671504,299.782910678264,64.856177605837,688969234
161,45.0,-241.0,-11214.0,-402.0,101.0,415.0,181.345628613129,299.935842994105,64.8139096884453,688977074
161,45.0,-241.0,-11216.0,-382.0,102.0,394.0,177.827820235396,300.162580265651,64.8361545293452,688983295
-213,-113.0,-349.0,-11216.0,-362.0,100.0,369.0,172.467730717373,300.266880375471,64.8135399856419,688995912
-213,-113.0,-349.0,-11220.0,-341.0,103.0,348.0,167.030639918242,300.398442201707,64.7980020693537,689003638
-206,-312.0,159.0,-11222.0,-314.0,103.0,331.0,161.554043642484,300.528568463772,64.8084718639082,689012595
272,296.0,-255.0,-11225.0,-295.0,105.0,310.0,156.014601210997,300.602923575615,64.7906791260177,689021709
-310,-79.0,-282.0,-11224.0,-275.0,103.0,286.0,150.475479302943,300.703402693674,64.8145655052142,689039488
-227,-228.0,183.0,-11228.0,-254.0,106.0,264.0,146.749606513843,300.723851923313,64.7932811610901,689046728
266,276.0,-328.0,-11231.0,-207.0,107.0,225.0,141.155030790279,300.758584317963,64.7934205630323,689063196
65,-392.0,-66.0,-11232.0,-185.0,107.0,204.0,135.54847382951,300.793072324424,64.8059508972275,689071627
24,118.0,-173.0,-11232.0,-170.0,107.0,182.0,131.805454060282,300.827114793704,64.8194159889536,689085341
24,118.0,-173.0,-11232.0,-170.0,107.0,182.0,126.176312585813,300.840299452251,64.8170394347974,689085341
24,118.0,-173.0,-11232.0,-170.0,107.0,182.0,120.541512009404,300.830588857684,64.8092618114316,689085341
-71,244.0,94.0,-11238.0,-94.0,111.0,113.0,114.923505166059,300.879147118594,64.8596727307763,689127234
-71,244.0,94.0,-11238.0,-94.0,111.0,113.0,109.275042566645,300.851803718202,64.8397482808629,689127234
10,83.0,-459.0,-11237.0,-77.0,109.0,94.0,103.630324905078,300.843936143526,64.8354303957029,689139703
-166,-436.0,-548.0,-11238.0,-62.0,110.0,80.0,99.8620859835707,300.836054293104,64.8635053486558,689145912
124,178.0,-200.0,-11238.0,-34.0,110.0,52.0,94.240836168446,300.897506725885,64.9008243094687,689162384
-185,-403.0,-757.0,-11238.0,-34.0,110.0,52.0,90.4771392310192,300.870705274749,64.8724631215843,689170872
-101,128.0,-170.0,-11240.0,-20.0,112.0,39.0,84.8293817238073,300.836119344775,64.8763534519296,689178590
48,-25.0,-612.0,-11239.0,2.0,110.0,17.0,81.0658068960891,300.862355204991,64.9008916607888,689194128
-6,-86.0,-454.0,-11240.0,12.0,112.0,4.0,75.4197915518127,300.85402573284,64.9080862187658,689201883
-136,53.0,-102.0,-11240.0,12.0,112.0,4.0,69.7851362450084,300.860167426015,64.9224408744509,689210615
74,287.0,-429.0,-11240.0,26.0,111.0,-8.0,64.1475016202633,300.828716626208,64.9183708329659,689227095
74,287.0,-429.0,-11240.0,31.0,111.0,-14.0,58.5028317147574,300.839657388606,64.9287255362425,689233502
-206,71.0,-426.0,-11239.0,35.0,110.0,-22.0,54.7339886169379,300.833025945024,64.9356095556786,689246721
-29,-30.0,-320.0,-11240.0,43.0,112.0,-28.0,49.1017173449657,300.818592891906,64.938714020625,689257211
230,60.0,-97.0,-11243.0,61.0,115.0,-42.0,43.4649842197828,300.817885079426,64.950295008111,689273372
118,-48.0,-212.0,-11243.0,61.0,115.0,-42.0,37.8276908609455,300.823522871835,64.9625125240228,689280549
84,-12.0,-285.0,-11243.0,73.0,115.0,-53.0,32.1843867844412,300.818045997885,64.9564264210597,689293000
289,-130.0,-186.0,-11244.0,111.0,116.0,-88.0,26.5528195763068,300.81398684883,64.960980689156,689308074
263,46.0,-170.0,-11242.0,137.0,115.0,-113.0,22.7953617818128,300.802350254781,64.9597365265113,689319128
31,-156.0,-101.0,-11241.0,169.0,115.0,-145.0,17.1577638986657,300.811089701776,64.9726192952552,689327116
31,-156.0,-101.0,-11240.0,208.0,115.0,-182.0,11.5204393839417,300.817382914738,64.9766229563708,689333411
483,139.0,56.0,-11242.0,259.0,119.0,-224.0,7.76377342890366,300.804635027721,64.9763327367731,689345876
483,139.0,56.0,-11243.0,314.0,122.0,-268.0,2.13244920288706,300.803057419542,64.9828333836269,689354208
131,-124.0,-265.0,-11239.0,439.0,125.0,-389.0,-3.50571999445736,300.786264835045,64.9803275718762,689371589
122,53.0,19.0,-11239.0,439.0,125.0,-389.0,-9.14042347640672,300.745441316699,64.9802267616207,689382724
216,-197.0,-260.0,-11236.0,513.0,127.0,-456.0,-12.8946856050483,300.748341965139,64.9825796591379,689389000
545,304.0,407.0,-11233.0,690.0,140.0,-613.0,-18.5275842500435,300.768412015377,64.9905899838474,689403220
209,-284.0,-487.0,-11227.0,788.0,146.0,-704.0,-24.1612005645151,300.766091658406,64.9863852383807,689411911
223,95.0,59.0,-11227.0,788.0,146.0,-704.0,-27.9190310447128,300.769180074717,64.9798707634048,689420724
18,-350.0,-181.0,-11212.0,1007.0,162.0,-906.0,-35.4329928035643,300.774796553318,64.9860844060545,689434932
292,353.0,-171.0,-11204.0,1127.0,175.0,-1014.0,-39.1869276639583,300.779098255235,64.9872029867909,689444456
19,31.0,36.0,-11180.0,1378.0,200.0,-1247.0,-46.6995202198148,300.801728586216,64.9901824559679,689461862
-17,247.0,-97.0,-11166.0,1508.0,216.0,-1364.0,-52.3393630114705,300.801624421555,64.9795439455086,689477956
-17,247.0,-97.0,-11152.0,1641.0,235.0,-1486.0,-56.0991952811647,300.799506168654,64.9768208247473,689484158
128,-192.0,-226.0,-11135.0,1777.0,255.0,-1610.0,-63.6109048317217,300.815333517761,64.9780185776482,689496550
37,170.0,24.0,-11114.0,1911.0,18.0,-1735.0,-67.369636421302,300.824272446532,64.9808925135619,689506815
11,-243.0,-244.0,-11072.0,2186.0,66.0,-1987.0,-73.0101882817112,300.831093740805,64.9744895787502,689523602
-101,18.0,-149.0,-11072.0,2186.0,66.0,-1987.0,-78.6455594086324,300.833310837852,64.963175156737,689530976
7,-301.0,-126.0,-11023.0,2464.0,122.0,-2241.0,-84.2842406623708,300.824530877833,64.945589887593,689543418
-23,163.0,-19.0,-11023.0,2464.0,122.0,-2241.0,-89.9236387251842,300.828905496155,64.938690610725,689550564
3,4.0,-196.0,-10995.0,2602.0,150.0,-2370.0,-93.6868062232003,300.837197461868,64.9404475069396,689559616
-69,-129.0,-221.0,-10967.0,2743.0,183.0,-2498.0,-99.3278490934283,300.841970029192,64.9417971926401,689571742
59,16.0,-195.0,-10905.0,3024.0,252.0,-2754.0,-104.966856586736,300.858186986192,64.9338401021985,689585695
43,176.0,48.0,-10871.0,3162.0,33.0,-2882.0,-108.724768325295,300.835418466672,64.9091924513233,689598314
-94,-158.0,-339.0,-10835.0,3301.0,71.0,-3011.0,-114.371684757885,300.857428241127,64.9075562460442,689606030
-94,-158.0,-339.0,-10798.0,3440.0,111.0,-3138.0,-118.132898626736,300.854786005882,64.8878100619939,689614380
-33,-96.0,-140.0,-10721.0,3718.0,199.0,-3392.0,-123.782189784003,300.887482289738,64.9012855258077,689633799
141,212.0,164.0,-10721.0,3718.0,199.0,-3392.0,-129.436191813132,300.898641307263,64.902750153411,689640113
-95,-176.0,-398.0,-10678.0,3856.0,243.0,-3520.0,-133.196949573516,300.898815440907,64.8716949107759,689646363
-95,-176.0,-398.0,-10634.0,3994.0,35.0,-3646.0,-138.824937652769,300.862037119656,64.8383914054488,689654434
-1,33.0,65.0,-10543.0,4267.0,133.0,-3896.0,-144.493578323286,300.905842535586,64.861277934189,689672152
8,109.0,-287.0,-10497.0,4404.0,188.0,-4021.0,-150.157552341682,300.927658285641,64.8284308357795,689686179
0,-75.0,153.0,-10446.0,4540.0,241.0,-4146.0,-157.677888821617,300.931072883089,64.811234570467,689695804
-16,121.0,-55.0,-10345.0,4808.0,99.0,-4391.0,-163.327077856059,300.93632548428,64.7952830181476,689712398
51,0.0,79.0,-10345.0,4808.0,99.0,-4391.0,-168.908206706648,300.959764323708,64.8061251329293,689721237
-18,26.0,-270.0,-10290.0,4940.0,156.0,-4514.0,-172.536338993039,300.929082748484,64.7835242351528,689729182
-157,-5.0,-254.0,-10235.0,5074.0,218.0,-4636.0,-177.797915816542,300.879671779107,64.7504296729179,689741711
66,58.0,135.0,-10178.0,5206.0,23.0,-4758.0,-181.193970243317,300.883998842504,64.7827589509097,689748223
-175,122.0,-227.0,-10119.0,5336.0,86.0,-4878.0,-186.041875753919,300.804665802077,64.7669301000626,689759340
221,13.0,107.0,-9998.0,5597.0,217.0,-5116.0,-190.586100266693,300.78008394488,64.7940671886858,689775279
19,-108.0,-33.0,-9935.0,5726.0,30.0,-5236.0,-194.807472872064,300.698827382988,64.7624808850065,689788326
19,-108.0,-33.0,-9869.0,5853.0,98.0,-5352.0,-198.706686642572,300.622623267437,64.7942563595136,689794525
149,-191.0,9.0,-9805.0,5981.0,171.0,-5470.0,-202.262832878413,300.573451740615,64.8013501839425,689810408
-65,-51.0,-246.0,-9668.0,6232.0,61.0,-5701.0,-204.413347661903,300.478423631655,64.8150836693045,689823319
198,9.0,86.0,-9668.0,6232.0,61.0,-5701.0,-207.356637156399,300.401931155982,64.8267023068839,689830920
-277,99.0,-267.0,-9598.0,6356.0,135.0,-5815.0,-209.9248757265,300.343898647682,64.847091251292,689843261
130,77.0,79.0,-9526.0,6480.0,212.0,-5929.0,-211.435286574245,300.272058121563,64.865021192159,689850198
38,-10.0,56.0,-9379.0,6724.0,115.0,-6153.0,-213.378772694754,300.193291378341,64.8776928875786,689866041
64,-57.0,42.0,-9226.0,6963.0,22.0,-6373.0,-215.404830077823,300.119300797052,64.9343690538639,689884688
-29,65.0,24.0,-9226.0,6963.0,22.0,-6373.0,-216.777142420629,300.060009535904,64.9437039282552,689890948
12,36.0,28.0,-9069.0,7200.0,193.0,-6592.0,-217.284423490289,300.004230459557,65.023503862995,689904939
-207,9.0,-126.0,-8989.0,7318.0,26.0,-6698.0,-217.906785759077,299.990746047192,65.3163430364641,689913529
