ACC_X,ACC_Y,ACC_Z,QUAT_W,QUAT_X,QUAT_Y,QUAT_Z,X_pos,Y_pos,Z_pos,t
-38,-38.0,-188.0,-10868.0,3156.0,47.0,-2957.0,-218.402720636788,299.973498253986,65.6174327116276,333545867
-72,-101.0,-180.0,-10830.0,3299.0,87.0,-3087.0,-218.790534364346,300.009555290686,66.3232318628374,333558395
-36,-124.0,-303.0,-10793.0,3442.0,129.0,-3217.0,-219.098090084183,300.026010892987,67.2815368142247,333564835
-73,-47.0,-321.0,-10710.0,3723.0,216.0,-3477.0,-219.316236064095,300.023158116553,68.5285574221813,333583246
-73,-47.0,-321.0,-10666.0,3864.0,6.0,-3607.0,-219.447369356341,300.049885315571,69.5525364719497,333591513
69,127.0,38.0,-10666.0,3864.0,6.0,-3607.0,-219.584800802632,300.047502372087,71.3024089937729,333598509
-63,-238.0,-316.0,-10574.0,4144.0,105.0,-3863.0,-219.670169474301,300.029295097032,73.3863451144646,333610849
-85,-151.0,-301.0,-10527.0,4283.0,157.0,-3991.0,-219.784138356522,300.060748347634,75.903376296913,333626702
-168,-37.0,-329.0,-10476.0,4422.0,211.0,-4118.0,-219.870898546702,300.085641985303,78.7469682540623,333634851
105,88.0,209.0,-10425.0,4560.0,11.0,-4245.0,-219.92491032633,300.127663473978,80.8352047337912,333644776
-30,-30.0,-378.0,-10372.0,4697.0,68.0,-4371.0,-219.935315473386,300.091328522854,84.2287807037242,333657259
123,88.0,78.0,-10318.0,4834.0,126.0,-4496.0,-220.020447035392,300.163976847525,88.0742050578418,333663393
60,71.0,-31.0,-10203.0,5104.0,248.0,-4745.0,-220.085443502793,300.207373766246,90.8405348296783,333679851
-161,-110.0,-198.0,-10142.0,5238.0,55.0,-4868.0,-220.129139930303,300.250124467597,95.3060030856498,333688817
69,79.0,-2.0,-10142.0,5238.0,55.0,-4868.0,-220.150051650152,300.272017960329,98.3757099187743,333696588
38,-64.0,-96.0,-10081.0,5372.0,119.0,-4991.0,-220.18295668618,300.328944712125,103.248642652757,333705879
159,-77.0,89.0,-9953.0,5635.0,253.0,-5234.0,-220.237469144703,300.3666791277,108.282261370624,333720633
-267,328.0,-265.0,-9887.0,5766.0,66.0,-5354.0,-220.268663658429,300.38984622881,113.448492194785,333729418
13,-209.0,-23.0,-9887.0,5766.0,66.0,-5354.0,-220.292539567264,300.414353682163,118.687566889488,333737777
112,182.0,86.0,-9752.0,6025.0,211.0,-5591.0,-220.308054792191,300.436537647817,122.256012258601,333751980
217,-128.0,-25.0,-9752.0,6025.0,211.0,-5591.0,-220.346891361902,300.48419439699,127.668097420175,333758195
-164,171.0,-109.0,-9609.0,6280.0,105.0,-5827.0,-220.355151898652,300.491935082768,133.110110044517,333768921
150,69.0,94.0,-9537.0,6407.0,184.0,-5943.0,-220.364451402843,300.519369556771,136.794678905869,333786460
-10,10.0,0.0,-9462.0,6532.0,6.0,-6057.0,-220.364039179536,300.499271594866,142.284873405621,333794411
95,-52.0,105.0,-9387.0,6658.0,89.0,-6172.0,-220.373715596464,300.509949492223,145.96817511921,333806871
95,-52.0,105.0,-9308.0,6781.0,170.0,-6285.0,-220.382630742356,300.517230935188,151.525864682679,333813148
-75,104.0,-256.0,-9230.0,6903.0,254.0,-6397.0,-220.382536442301,300.519208776529,157.096311019902,333821395
-175,-10.0,-109.0,-9149.0,7024.0,83.0,-6510.0,-220.392055159889,300.520742965109,160.816731210724,333832888
136,158.0,47.0,-9068.0,7144.0,169.0,-6619.0,-220.388924060126,300.525507383936,166.414361867256,333848395
53,-10.0,-248.0,-8985.0,7263.0,2.0,-6729.0,-220.39138483819,300.529260682115,172.036229395051,333854646
-1,240.0,61.0,-8901.0,7381.0,91.0,-6835.0,-220.385101903069,300.522432994061,175.757519602796,333867828
-102,176.0,224.0,-8813.0,7498.0,182.0,-6946.0,-220.388467211084,300.515821904492,181.363502040299,333876412
-189,-144.0,-380.0,-8726.0,7613.0,17.0,-7050.0,-220.383931927341,300.511092744855,186.972772057462,333884552
142,276.0,270.0,-8553.0,7840.0,211.0,-7261.0,-220.38697185426,300.52273958081,192.607639859786,333901278
-34,-127.0,-217.0,-8461.0,7953.0,50.0,-7362.0,-220.388877029825,300.526402378357,200.103059947249,333913715
-76,5.0,17.0,-8273.0,8174.0,246.0,-7566.0,-220.38404628154,300.511411243463,205.731197654929,333930538
-125,105.0,-2.0,-8179.0,8281.0,90.0,-7665.0,-220.373498269635,300.504870267636,211.356501777066,333939115
-72,-11.0,-107.0,-8179.0,8281.0,90.0,-7665.0,-220.36542688148,300.477651136752,215.067242548588,333946765
-50,16.0,-104.0,-8085.0,8387.0,191.0,-7763.0,-220.348464186229,300.469726593286,222.554738620764,333956181
-104,110.0,-103.0,-7897.0,8585.0,127.0,-7945.0,-220.354185681985,300.48737080638,226.342737648192,333970145
-210,2.0,34.0,-7807.0,8677.0,219.0,-8030.0,-220.357755424478,300.482647942168,231.962152774395,333987708
-206,-105.0,-121.0,-7722.0,8764.0,55.0,-8110.0,-220.372443700376,300.498852572274,237.618133802712,333995827
-206,-105.0,-121.0,-7642.0,8846.0,143.0,-8185.0,-220.376601824543,300.509102325357,243.278451708132,334002152
-209,67.0,-137.0,-7564.0,8922.0,226.0,-8255.0,-220.375510481442,300.50685896447,248.89207400648,334018892
-387,104.0,105.0,-7486.0,8995.0,47.0,-8322.0,-220.384741503507,300.520459455148,252.667381247133,334028063
-458,307.0,174.0,-7416.0,9059.0,117.0,-8381.0,-220.382410430729,300.527954422482,258.303062856173,334036549
-317,46.0,-23.0,-7294.0,9173.0,250.0,-8485.0,-220.399453972745,300.533535115192,265.808358041012,334050929
-26,-116.0,-174.0,-7239.0,9223.0,51.0,-8531.0,-220.403566120766,300.54587127626,271.466262692122,334063500
-274,139.0,-97.0,-7189.0,9267.0,103.0,-8571.0,-220.401218628907,300.545211222618,277.074741238121,334071306
-440,139.0,-22.0,-7107.0,9336.0,183.0,-8635.0,-220.414866533739,300.565793670971,282.762421364646,334091347
-223,154.0,-92.0,-7075.0,9364.0,217.0,-8661.0,-220.418531742548,300.566782198594,290.250277040868,334105001
-223,154.0,-92.0,-7049.0,9387.0,244.0,-8680.0,-220.427628855353,300.57984182087,294.025348820467,334111216
-154,117.0,-145.0,-7029.0,9405.0,10.0,-8695.0,-220.428080887973,300.580810752973,299.653209466796,334127299
-287,156.0,30.0,-7012.0,9417.0,22.0,-8707.0,-220.439580488481,300.596491873227,305.301153077285,334135507
-69,200.0,172.0,-7002.0,9423.0,30.0,-8714.0,-220.44425231099,300.602107049792,309.058156937508,334145446
-69,200.0,172.0,-7000.0,9425.0,32.0,-8715.0,-220.45688999837,300.61959187181,312.836234360813,334151698
-133,374.0,34.0,-7000.0,9425.0,32.0,-8715.0,-220.462807818103,300.628165195162,318.462185470304,334158000
22,240.0,187.0,-7011.0,9418.0,27.0,-8710.0,-220.472999069256,300.643321436873,324.112812057858,334172335
-49,239.0,22.0,-7024.0,9407.0,13.0,-8700.0,-220.484976685028,300.660158174167,329.7821506967,334180964
-30,170.0,68.0,-7043.0,9390.0,248.0,-8684.0,-220.496366011774,300.677853201939,335.434200736979,334197336
-13,209.0,74.0,-7070.0,9367.0,221.0,-8664.0,-220.509991064072,300.700007693462,339.184584315509,334206810
-227,367.0,17.0,-7140.0,9308.0,149.0,-8608.0,-220.526461950188,300.728511019582,344.829288023981,334220816
-284,461.0,-98.0,-7185.0,9268.0,102.0,-8573.0,-220.546460522917,300.742487877903,348.59548460056,334230103
254,325.0,378.0,-7185.0,9268.0,102.0,-8573.0,-220.567979875379,300.772839995364,354.287360154503,334238554
-182,416.0,62.0,-7287.0,9177.0,251.0,-8489.0,-220.58959133837,300.802058030669,359.981164780264,334252721
-67,229.0,-17.0,-7287.0,9177.0,251.0,-8489.0,-220.609511631171,300.827457900791,365.590969104538,334258935
-230,288.0,-283.0,-7411.0,9066.0,122.0,-8382.0,-220.641524820588,300.874136145895,369.283053061787,334269556
17,474.0,254.0,-7411.0,9066.0,122.0,-8382.0,-220.659228096399,300.91164195799,374.672240135349,334278233
-16,166.0,58.0,-7561.0,8925.0,223.0,-8254.0,-220.685056850145,300.931733267225,379.832651584983,334294893
-16,166.0,58.0,-7639.0,8848.0,140.0,-8182.0,-220.699869079267,300.95872648831,383.136608039715,334301367
-32,12.0,-182.0,-7719.0,8770.0,54.0,-8107.0,-220.71510859554,300.977833554285,387.831497200308,334313923
-32,12.0,-182.0,-7800.0,8689.0,224.0,-8028.0,-220.723293166688,300.986646713973,392.198771350735,334321715
-51,344.0,-53.0,-7885.0,8603.0,135.0,-7947.0,-220.724476297914,300.989520747485,396.316148347361,334333688
-51,344.0,-53.0,-7972.0,8512.0,44.0,-7862.0,-220.718102195368,300.975263898001,398.867124218107,334342325
142,187.0,210.0,-8059.0,8418.0,208.0,-7775.0,-220.708961395289,300.959042693445,402.379306149091,334355515
142,187.0,210.0,-8145.0,8322.0,116.0,-7686.0,-220.694012484939,300.943441206855,405.496291173911,334361718
32,-12.0,-80.0,-8230.0,8226.0,24.0,-7595.0,-220.668205473021,300.912031186375,408.292065298798,334377365
-162,-19.0,-269.0,-8314.0,8129.0,188.0,-7503.0,-220.646999438211,300.866892750222,409.941754606694,334385529
177,153.0,152.0,-8399.0,8028.0,97.0,-7408.0,-220.605816091047,300.804842413791,412.11061617935,334395770
-194,-101.0,-302.0,-8484.0,7924.0,5.0,-7313.0,-220.560696700314,300.762656504328,413.869966058507,334408441
-128,35.0,-123.0,-8651.0,7712.0,79.0,-7116.0,-220.463236469482,300.633282725863,415.982985446334,334422403
-129,231.0,-64.0,-8814.0,7498.0,159.0,-6913.0,-220.418013830977,300.544373757612,416.590128729019,334440248
130,-174.0,-113.0,-8814.0,7498.0,159.0,-6913.0,-220.320594704403,300.434231237776,417.35744020577,334447943
29,-191.0,-205.0,-8972.0,7276.0,241.0,-6708.0,-219.993409393709,300.333117116337,418.096445736768,334463608
0,199.0,-1.0,-9051.0,7162.0,154.0,-6601.0,-219.688053664869,300.246909386117,418.52878225155,334471387
246,171.0,176.0,-9128.0,7049.0,72.0,-6496.0,-219.017791183355,300.17915315263,418.895057663544,334488831
109,-24.0,-18.0,-9203.0,6932.0,244.0,-6388.0,-217.70716416371,300.138331489046,419.085216822471,334496852
96,151.0,29.0,-9277.0,6819.0,164.0,-6280.0,-216.866288045916,300.121824031534,419.453942020627,334509457
174,76.0,134.0,-9420.0,6584.0,4.0,-6061.0,-214.140989977034,300.138928128609,419.627871163479,334526599
-135,-27.0,-234.0,-9491.0,6463.0,182.0,-5951.0,-212.78748740925,300.19647601255,419.903346627784,334534493
34,-186.0,-23.0,-9628.0,6221.0,30.0,-5727.0,-208.745953249324,300.240572739759,420.011449572101,334555973
13,260.0,-151.0,-9693.0,6099.0,211.0,-5612.0,-205.830606862093,300.303795771677,420.066968450472,334569448
7,164.0,-25.0,-9757.0,5977.0,139.0,-5501.0,-201.353797033367,300.381277264055,420.202384229398,334578238
-62,-258.0,-9.0,-9883.0,5728.0,255.0,-5271.0,-197.564348497152,300.458737580767,420.272868217126,334591218
-21,67.0,-129.0,-9944.0,5601.0,186.0,-5153.0,-193.404475589335,300.549630773341,420.34503973711,334605037
6,22.0,-4.0,-10002.0,5474.0,119.0,-5037.0,-187.298174331314,300.633786832477,420.417298157051,334618330
-161,-180.0,60.0,-10059.0,5347.0,55.0,-4921.0,-184.061931987055,300.717368631094,420.464624751632,334626418
-38,84.0,-127.0,-10172.0,5091.0,186.0,-4684.0,-179.037429736607,300.76941152481,420.489987325588,334642662
120,310.0,-297.0,-10225.0,4961.0,124.0,-4562.0,-173.864503289387,300.837063861635,420.482436139543,334653104
-35,-218.0,-28.0,-10225.0,4961.0,124.0,-4562.0,-170.356267995205,300.88540626346,420.49328212658,334659337
-206,-121.0,47.0,-10326.0,4697.0,6.0,-4325.0,-165.004292013401,300.912366141278,420.485849181608,334673595
-206,-121.0,47.0,-10374.0,4565.0,206.0,-4206.0,-159.57619005774,300.943679611296,420.476535470551,334682041
-99,-136.0,8.0,-10422.0,4434.0,152.0,-4084.0,-154.083572540311,300.972591870596,420.49582215128,334690734
88,-166.0,-159.0,-10468.0,4301.0,99.0,-3961.0,-150.399832798354,300.987290353646,420.469363574627,334707934
37,-20.0,-82.0,-10514.0,4167.0,48.0,-3838.0,-144.843730430313,300.994129306529,420.437064877355,334714472
37,-20.0,-82.0,-10557.0,4031.0,254.0,-3715.0,-139.267223919666,300.992393280749,420.422872119744,334722461
-105,27.0,-54.0,-10598.0,3896.0,205.0,-3594.0,-135.538094380785,300.990962448787,420.410713423842,334731036
-37,-70.0,-80.0,-10639.0,3761.0,159.0,-3469.0,-129.93320151959,300.990173884368,420.375160855085,334748334
1,-128.0,-105.0,-10678.0,3625.0,114.0,-3343.0,-126.183445048777,300.983149200034,420.363933956889,334754563
-20,-77.0,-112.0,-10751.0,3350.0,28.0,-3093.0,-120.552043807383,300.976840701725,420.331157573991,334772045
35,117.0,-138.0,-10785.0,3212.0,244.0,-2970.0,-114.919050129547,300.969555350608,420.299216827173,334780672
-139,-85.0,-115.0,-10785.0,3212.0,244.0,-2970.0,-111.163425324353,300.957757344436,420.286473333989,334789325
-13,65.0,-78.0,-10818.0,3073.0,205.0,-2845.0,-105.52680353599,300.944918545518,420.250568829192,334797307
-60,-91.0,25.0,-10849.0,2935.0,169.0,-2719.0,-99.8897579268001,300.936104428788,420.26957939603,334809803
78,14.0,-125.0,-10879.0,2798.0,134.0,-2591.0,-94.2415516400562,300.924236097276,420.227034375922,334816360
67,-78.0,-6.0,-10908.0,2657.0,100.0,-2463.0,-90.4761530499837,300.919097338405,420.230850148404,334824169
-20,60.0,-303.0,-10960.0,2373.0,38.0,-2211.0,-84.8324530756766,300.90362638023,420.184760580787,334849193
-20,60.0,-303.0,-10960.0,2373.0,38.0,-2211.0,-79.196749760757,300.901782526552,420.163911444171,334849193
-92,98.0,89.0,-11005.0,2094.0,237.0,-1957.0,-73.5548252722216,300.888240015222,420.147437201098,334861743
-94,-265.0,104.0,-11026.0,1953.0,212.0,-1826.0,-67.9077459054435,300.87783836578,420.121177340201,334877027
12,103.0,-232.0,-11046.0,1809.0,189.0,-1698.0,-62.2656111540481,300.876747081334,420.120452376646,334885004
-277,-133.0,-22.0,-11064.0,1667.0,167.0,-1571.0,-56.6239150157764,300.866594523052,420.116953979987,334900263
-100,46.0,64.0,-11094.0,1384.0,128.0,-1314.0,-49.1097414426723,300.854375553244,420.068035486967,334916105
-275,-220.0,-65.0,-11130.0,955.0,82.0,-925.0,-37.8288114754952,300.841358999727,420.082284494775,334940839
-156,-135.0,51.0,-11140.0,812.0,72.0,-797.0,-30.3111103959984,300.84187574225,420.056857658253,334955217
-156,-135.0,51.0,-11140.0,812.0,72.0,-797.0,-26.5501075445248,300.840805728799,420.029396525721,334961424
68,53.0,-280.0,-11153.0,526.0,54.0,-539.0,-20.9190701910223,300.836396504326,420.019713738386,334972706
26,-51.0,-127.0,-11155.0,381.0,45.0,-408.0,-15.2851148981835,300.831050604187,420.03210041682,334981380
30,15.0,98.0,-11159.0,239.0,41.0,-280.0,-9.64147504932882,300.829868848857,420.024546419337,334997931
30,15.0,98.0,-11159.0,94.0,37.0,-149.0,-5.88545832252247,300.832552700799,420.001507075093,335004190
328,233.0,-244.0,-11159.0,-49.0,36.0,-19.0,-0.248522309751612,300.833399948233,419.981658760157,335016774
-357,-301.0,84.0,-11153.0,-336.0,38.0,239.0,5.38457209458835,300.808064956922,419.953387864912,335033047
-149,-38.0,152.0,-11148.0,-474.0,40.0,365.0,14.772414619793,300.81219726311,419.960643295795,335044492
189,-123.0,-289.0,-11140.0,-610.0,44.0,487.0,20.4126017684095,300.814012594472,419.97236833427,335058209
188,-51.0,66.0,-11124.0,-869.0,56.0,718.0,24.1718289625907,300.817476108613,419.967904516698,335072058
-61,-113.0,-40.0,-11116.0,-989.0,65.0,826.0,29.8030852209693,300.824362699634,419.970991997296,335080719
-158,-220.0,270.0,-11106.0,-1103.0,73.0,929.0,39.190198400562,300.823568944002,420.009883992293,335097516
-53,-190.0,95.0,-11085.0,-1312.0,91.0,1115.0,46.7090788414529,300.826306719896,419.996736033019,335113135
-328,-17.0,491.0,-11075.0,-1406.0,101.0,1199.0,52.3473431420634,300.829698186078,420.015478681685,335129612
45,24.0,44.0,-11066.0,-1493.0,111.0,1276.0,57.9808363308917,300.834732592604,420.014118372642,335137976
-76,-23.0,240.0,-11047.0,-1644.0,129.0,1413.0,63.6152812563015,300.83721703999,420.007713876727,335152849
289,-269.0,-207.0,-11047.0,-1644.0,129.0,1413.0,67.3719184768508,300.842906468788,420.015002859093,335159215
4,-155.0,168.0,-11040.0,-1709.0,137.0,1469.0,73.0075756799785,300.842834384266,420.044663113885,335169773
14,-210.0,80.0,-11032.0,-1765.0,145.0,1517.0,78.6529849725659,300.843553812836,420.053493518487,335178473
-228,147.0,358.0,-11021.0,-1855.0,158.0,1596.0,84.2995582718057,300.855145132817,420.056523348874,335194642
-228,147.0,358.0,-11021.0,-1855.0,158.0,1596.0,89.9291955208804,300.862386928015,420.053019801513,335201503
350,-258.0,-39.0,-11013.0,-1917.0,168.0,1651.0,93.6869519877956,300.860856209871,420.089926869891,335214056
159,-271.0,-305.0,-11009.0,-1946.0,173.0,1676.0,99.3269974299477,300.866438591715,420.09245884599,335224577
159,-271.0,-305.0,-11008.0,-1968.0,178.0,1696.0,103.096213060296,300.87352238222,420.109686149654,335233102
275,-398.0,-436.0,-11004.0,-1986.0,180.0,1715.0,108.746706302535,300.884016284468,420.104356324647,335248882
-82,-269.0,-158.0,-11001.0,-2002.0,183.0,1730.0,112.506828628158,300.890565480757,420.129767635314,335255629
129,-419.0,-505.0,-10999.0,-2017.0,185.0,1743.0,118.146032833833,300.899895084443,420.14021422856,335268843
-61,-379.0,-439.0,-10996.0,-2030.0,186.0,1753.0,123.793034596005,300.91197422494,420.16636297945,335277240
-61,-379.0,-439.0,-10996.0,-2030.0,186.0,1753.0,127.563676733546,300.923903248267,420.176141223986,335277240
106,-347.0,-338.0,-10990.0,-2055.0,188.0,1777.0,133.214639080177,300.938431201598,420.206385235948,335303165
-7,-419.0,-396.0,-10990.0,-2055.0,188.0,1777.0,138.86828568909,300.956115234655,420.213925235577,335309488
-32,-544.0,-519.0,-10988.0,-2067.0,190.0,1787.0,144.526860865926,300.975279066,420.251439921137,335324015
-173,-402.0,-389.0,-10985.0,-2071.0,188.0,1792.0,150.182916714472,300.993760117862,420.283951426461,335332596
37,-459.0,-445.0,-10983.0,-2073.0,187.0,1792.0,155.842367924088,301.022700481991,420.330824787935,335341476
2,-357.0,-221.0,-10983.0,-2073.0,187.0,1792.0,159.62020247156,301.051552764568,420.341803935121,335349142
-89,-270.0,-135.0,-10981.0,-2075.0,185.0,1788.0,165.266712300738,301.06962729981,420.373773799271,335365544
-89,-270.0,-135.0,-10980.0,-2075.0,184.0,1785.0,170.81274846482,301.088163990807,420.393421301992,335373635
21,-197.0,-188.0,-10979.0,-2076.0,182.0,1784.0,174.413863568672,301.094538699077,420.415151993785,335382322
-6,-178.0,-123.0,-10978.0,-2075.0,181.0,1783.0,179.630670861693,301.084628634583,420.438633742511,335399561
-14,-209.0,-70.0,-10977.0,-2076.0,180.0,1782.0,184.586142086581,301.066293810626,420.474701772151,335406916
-13,-258.0,-118.0,-10977.0,-2076.0,180.0,1780.0,189.260520399481,301.046422891592,420.496751286553,335414960
-13,-258.0,-118.0,-10975.0,-2076.0,178.0,1778.0,193.625292582139,301.005820231742,420.497896450861,335423488
0,-95.0,-20.0,-10974.0,-2076.0,176.0,1772.0,197.651230209269,300.963147531323,420.515815824023,335443332
-26,-142.0,-21.0,-10974.0,-2076.0,176.0,1772.0,201.332406612755,300.909389512197,420.52455610251,335450586
0,-53.0,-63.0,-10973.0,-2078.0,175.0,1770.0,204.654312688774,300.8512888961,420.521221484485,335463441
27,-119.0,-85.0,-10972.0,-2079.0,174.0,1769.0,207.609176286275,300.784414276814,420.48421572685,335471092
-45,-210.0,-9.0,-10972.0,-2079.0,174.0,1769.0,209.371885298052,300.71147108461,420.492881344996,335480203
-27,-156.0,-1.0,-10970.0,-2080.0,173.0,1765.0,211.697001882696,300.626072870534,420.438012539937,335500586
-103,-83.0,11.0,-10969.0,-2081.0,171.0,1761.0,214.192613074071,300.538731709481,420.386726312017,335512877
-96,-53.0,36.0,-10968.0,-2081.0,170.0,1758.0,215.610195143822,300.408354531776,420.320657217903,335528913
87,-130.0,-53.0,-10967.0,-2083.0,169.0,1757.0,216.997029748578,300.282997100838,420.282462023136,335536995
38,-93.0,-67.0,-10967.0,-2084.0,169.0,1755.0,217.880885439407,300.083896983732,420.267055554866,335545068
-110,-110.0,43.0,-10967.0,-2085.0,168.0,1753.0,218.5061313753,299.719957260908,420.222605304566,335561907
32,-58.0,-67.0,-10967.0,-2086.0,168.0,1752.0,219.999376431588,299.133858847331,420.175485058262,335569391
-33,-125.0,25.0,-10965.0,-2089.0,167.0,1750.0,220.923226696705,298.273305329406,420.149013040544,335586135
13,-98.0,-28.0,-10965.0,-2090.0,167.0,1748.0,223.224404211348,297.085122567258,420.1269360912,335601466
-37,-100.0,-15.0,-10964.0,-2093.0,166.0,1744.0,226.218588761776,294.969676678403,420.078675008183,335617667
-51,-103.0,8.0,-10964.0,-2095.0,166.0,1743.0,227.987904009078,292.945074455103,420.070339873806,335625684
-51,-103.0,8.0,-10964.0,-2095.0,166.0,1740.0,231.000594317975,290.516289729564,420.058115120133,335634045
24,-3.0,-22.0,-10964.0,-2097.0,166.0,1740.0,234.455448832988,288.653077476395,420.054952146444,335642472
-94,-119.0,47.0,-10963.0,-2098.0,165.0,1738.0,238.368752470833,285.478090517889,420.031491570887,335656197
-94,-119.0,47.0,-10963.0,-2099.0,165.0,1737.0,241.210210372821,281.853565075523,420.014278935442,335662979
74,-131.0,-70.0,-10963.0,-2099.0,165.0,1737.0,245.731362474124,279.221505840148,420.012541178898,335670749
-106,-107.0,60.0,-10963.0,-2102.0,165.0,1734.0,250.46549183942,275.002356559949,420.016964425289,335683757
103,-143.0,-79.0,-10962.0,-2104.0,165.0,1732.0,253.704696692434,272.027212371728,420.019608814157,335699966
-139,40.0,99.0,-10962.0,-2104.0,164.0,1730.0,258.624860515758,267.367085621587,420.022493931646,335706255
88,-121.0,-92.0,-10962.0,-2107.0,164.0,1729.0,263.582692725407,262.491786095861,420.016824817374,335719535
-126,14.0,81.0,-10962.0,-2107.0,164.0,1727.0,268.54077971259,257.427009845367,420.013395958107,335727997
-95,-89.0,74.0,-10961.0,-2110.0,164.0,1727.0,271.832509616698,252.189126817268,420.007886549198,335736020
64,-94.0,-69.0,-10961.0,-2112.0,163.0,1724.0,276.735706425022,248.609631701143,420.003357320267,335753144
-80,-93.0,62.0,-10961.0,-2112.0,163.0,1724.0,281.575719014797,243.116740606395,420.007435087285,335759362
20,-35.0,-42.0,-10960.0,-2115.0,163.0,1719.0,284.7579915358,237.493389248361,420.01119845238,335774389
-17,-6.0,-23.0,-10960.0,-2116.0,162.0,1717.0,289.459896426475,233.67851406201,420.006359116179,335783173
-6,-62.0,-4.0,-10960.0,-2117.0,162.0,1716.0,294.068627636706,227.857342330951,420.000354312484,335792099
-45,-60.0,8.0,-10960.0,-2117.0,162.0,1716.0,297.083124589061,223.914215759013,420.000045052856,335799709
34,-46.0,-22.0,-10959.0,-2120.0,162.0,1715.0,300.050181828604,217.911571907706,419.998552862502,335809240
78,-80.0,-51.0,-10959.0,-2122.0,162.0,1713.0,304.407893093518,211.807196197249,420.002725644581,335823864
-128,-31.0,55.0,-10959.0,-2123.0,161.0,1710.0,308.649158679132,207.684982413506,420.002175294978,335832585
-139,-18.0,76.0,-10958.0,-2125.0,161.0,1709.0,312.771464267545,199.320595011252,420.000523353989,335849010
-142,65.0,92.0,-10958.0,-2126.0,161.0,1706.0,316.770835063316,192.94270997986,419.999371766551,335861518
101,-145.0,-78.0,-10958.0,-2129.0,161.0,1704.0,320.642719922034,188.644922538115,420.000650451208,335873301
-149,69.0,90.0,-10958.0,-2130.0,161.0,1702.0,323.151937409356,182.132697807515,420.003246952727,335882531
111,-175.0,-76.0,-10958.0,-2132.0,160.0,1700.0,326.811799572205,177.745505871713,420.000283535563,335891699
72,-167.0,-67.0,-10958.0,-2132.0,160.0,1700.0,330.337267361278,171.105321957464,419.998345068237,335899664
-84,71.0,52.0,-10957.0,-2133.0,160.0,1699.0,333.727066524988,164.395859252364,419.999516554818,335906832
48,-134.0,-47.0,-10957.0,-2136.0,160.0,1696.0,338.036237664122,155.342142294114,420.001053010487,335923643
-63,8.0,30.0,-10956.0,-2137.0,160.0,1696.0,340.099557517568,148.474997536205,420.001234421051,335932322
-30,20.0,-7.0,-10956.0,-2138.0,160.0,1693.0,343.080287046158,141.541740308686,420.000250963023,335951775
29,-99.0,-18.0,-10957.0,-2140.0,160.0,1690.0,346.835068453507,134.556809190219,420.000240048008,335964154
61,-121.0,-39.0,-10956.0,-2143.0,160.0,1690.0,348.616827389754,127.513897379097,419.999317776566,335972297
-117,108.0,19.0,-10956.0,-2143.0,160.0,1690.0,351.172593798146,120.421959133718,420.001088062624,335981376
98,-172.0,-36.0,-10956.0,-2145.0,159.0,1688.0,353.583810205253,115.665460733151,420.001168928422,335989997
-143,51.0,42.0,-10956.0,-2147.0,160.0,1686.0,355.111025826191,108.488599206761,419.999042431442,336007674
-143,51.0,42.0,-10957.0,-2148.0,160.0,1684.0,357.282205308838,103.678467451985,420.000773361616,336013931
110,-92.0,-58.0,-10957.0,-2148.0,160.0,1684.0,359.307018411122,96.4294194175184,420.00211963973,336021589
100,-111.0,-48.0,-10957.0,-2150.0,161.0,1680.0,360.574664880083,89.1391590006291,419.99996254956,336039043
80,-160.0,-39.0,-10958.0,-2153.0,161.0,1680.0,362.353160018692,81.8158423020069,420.000954771064,336046849
-112,122.0,20.0,-10958.0,-2152.0,162.0,1678.0,363.983207011344,74.461538735027,420.002008180294,336059880
60,-189.0,-20.0,-10959.0,-2155.0,162.0,1677.0,365.465423894494,67.0712144759352,420.001055314849,336070134
-73,112.0,6.0,-10960.0,-2155.0,163.0,1674.0,366.797067745026,59.6553069880577,419.999851089481,336078603
-37,91.0,-11.0,-10961.0,-2159.0,164.0,1672.0,367.977968933093,52.2113774309659,420.000327522663,336094952
-19,-25.0,-19.0,-10961.0,-2159.0,164.0,1672.0,369.009833995308,47.2386075880139,420.002008180294,336102406
-53,53.0,-15.0,-10962.0,-2161.0,166.0,1670.0,369.890146212047,39.7670350497845,420.000347200561,336118770
-89,172.0,-16.0,-10962.0,-2162.0,166.0,1668.0,370.392398358336,34.7752512387908,420.000054331197,336127012
71,-178.0,-32.0,-10963.0,-2164.0,167.0,1668.0,371.0198467641,27.2743366773667,420.001492391809,336137796
71,-178.0,-32.0,-10964.0,-2164.0,167.0,1666.0,371.354827390516,19.7649818453382,420.00117769079,336145619
89,-180.0,-23.0,-10964.0,-2167.0,168.0,1666.0,371.728748667181,12.2433655493033,419.999112380723,336158658
89,-180.0,-23.0,-10965.0,-2166.0,169.0,1663.0,371.950837112699,7.22658546321581,420.001077147402,336164881
-121,135.0,-27.0,-10967.0,-2169.0,170.0,1660.0,372.021310454558,-0.296928640853306,420.002718448127,336182456
92,-150.0,2.0,-10967.0,-2169.0,170.0,1660.0,371.939506917883,-10.3332139014751,420.0017852618,336191396
-124,155.0,-40.0,-10968.0,-2171.0,172.0,1658.0,371.704961910694,-15.3475196032702,419.999304706167,336203537
-107,112.0,-40.0,-10969.0,-2173.0,173.0,1656.0,371.463722008063,-22.8618544598682,420.002303204078,336212103
57,-85.0,6.0,-10969.0,-2173.0,173.0,1656.0,370.976612152117,-27.8685559061661,420.001957909927,336221209
-76,95.0,-41.0,-10970.0,-2173.0,173.0,1656.0,370.337092768846,-35.3674240890183,419.998961564462,336229987
-15,-28.0,-15.0,-10972.0,-2177.0,175.0,1655.0,369.825661668728,-42.8514326075827,420.001280388662,336246115
-15,-28.0,-15.0,-10972.0,-2177.0,175.0,1655.0,368.933815861731,-50.3193918756934,420.002637583175,336252902
-30,15.0,-41.0,-10974.0,-2178.0,177.0,1653.0,367.890899883113,-55.2864481318812,419.99959972967,336269296
17,-18.0,-28.0,-10975.0,-2178.0,178.0,1651.0,367.111072079461,-62.7176069606375,419.999153890279,336278306
29,-59.0,-23.0,-10976.0,-2179.0,179.0,1651.0,365.352102250966,-70.123373467163,420.00117984479,336286618
-77,134.0,-80.0,-10977.0,-2179.0,180.0,1649.0,363.859900279852,-77.4971483766648,420.002829909339,336302227
55,-123.0,-26.0,-10978.0,-2181.0,181.0,1648.0,362.781714378652,-84.8431260711084,420.000237894687,336308373
42,-64.0,-71.0,-10980.0,-2177.0,182.0,1643.0,361.039922886961,-89.7212489533116,420.000126434929,336322099
-74,360.0,-260.0,-10986.0,-2165.0,182.0,1625.0,359.150661977869,-97.0074059292136,420.002325035367,336334895
118,108.0,-189.0,-10989.0,-2155.0,182.0,1615.0,357.809730129996,-104.254024061175,420.000764599716,336343327
-15,337.0,-303.0,-10989.0,-2155.0,182.0,1615.0,355.676077600598,-111.457608203876,419.999833565066,336350808
-169,341.0,-286.0,-10994.0,-2138.0,181.0,1600.0,353.397296658178,-116.232711131284,420.001433358287,336363367
-172,88.0,-268.0,-10998.0,-2119.0,180.0,1585.0,350.974234500729,-123.357429743476,420.002486767192,336370484
-48,296.0,-98.0,-11007.0,-2069.0,173.0,1536.0,348.407381550941,-132.778190579712,420.001129572956,336391057
197,268.0,-414.0,-11012.0,-2037.0,168.0,1503.0,345.697283080711,-139.78297123046,420.00002589084,336399316
-277,159.0,-123.0,-11019.0,-1999.0,163.0,1470.0,342.844794387307,-146.728455638781,420.000248810431,336411829
-7,303.0,-509.0,-11032.0,-1910.0,152.0,1389.0,339.853644112541,-153.613066005349,420.00201033532,336425890
37,3.0,-251.0,-11038.0,-1860.0,144.0,1343.0,336.723130709158,-158.169873577888,420.001686872605,336434394
411,-85.0,-268.0,-11044.0,-1806.0,136.0,1294.0,333.45444930575,-164.949079546696,420.000279404205,336442727
-279,164.0,16.0,-11044.0,-1806.0,136.0,1294.0,331.199642786625,-171.658801890873,420.001079301105,336453985
-183,-100.0,193.0,-11058.0,-1680.0,118.0,1182.0,328.884412855193,-176.096597536915,420.000744921741,336466764
-183,-100.0,193.0,-11066.0,-1606.0,109.0,1117.0,325.299187824489,-182.691388299708,419.999894752754,336474902
-23,-139.0,44.0,-11075.0,-1529.0,101.0,1045.0,321.580282026938,-187.045008642386,420.001413680219,336484360
168,-378.0,249.0,-11083.0,-1448.0,92.0,969.0,317.731163336932,-195.651378621535,420.001413680219,336500680
-180,299.0,-150.0,-11090.0,-1358.0,81.0,888.0,313.751466301399,-202.01088008531,420.001171082497,336506941
-180,299.0,-150.0,-11098.0,-1263.0,73.0,802.0,309.643898903585,-206.20537575988,420.000309998282,336516512
74,-252.0,0.0,-11113.0,-1061.0,56.0,620.0,301.048718819629,-220.586354517109,419.999855396058,336541424
-109,28.0,62.0,-11125.0,-845.0,42.0,422.0,293.509518158566,-230.561710556809,419.999582204331,336561555
3,-124.0,29.0,-11134.0,-626.0,31.0,221.0,287.238218445789,-236.419537764044,420.001171083109,336578170
-118,18.0,-108.0,-11137.0,-512.0,26.0,121.0,284.022610511942,-242.18389828324,420.000766752814,336586610
-170,169.0,-89.0,-11139.0,-398.0,24.0,15.0,279.103953869562,-247.845837995647,420.000655292837,336602365
163,-205.0,-33.0,-11141.0,-167.0,21.0,-194.0,272.367864649317,-253.40869234119,420.000766752554,336614809
-221,315.0,-201.0,-11141.0,-167.0,21.0,-194.0,267.194305049782,-258.857609160071,420.0004629673,336622005
239,-262.0,-33.0,-11141.0,-51.0,22.0,-301.0,263.723616664449,-262.392398594671,420.0029302949,336630589
88,-317.0,65.0,-11138.0,69.0,23.0,-405.0,260.267478218215,-267.479271520257,420.008428566679,336642738
-111,187.0,-284.0,-11132.0,300.0,30.0,-616.0,255.133961744908,-272.238971047108,420.027613369041,336656699
-26,-406.0,163.0,-11132.0,300.0,30.0,-616.0,250.104433470829,-275.206670934147,420.029431163336,336662881
50,428.0,-448.0,-11120.0,538.0,41.0,-832.0,246.822485408531,-279.320189649214,420.03642069101,336677012
50,428.0,-448.0,-11113.0,656.0,48.0,-939.0,240.466789276595,-283.026838858602,420.040822113993,336685764
-152,214.0,-253.0,-11105.0,775.0,56.0,-1044.0,237.40424449082,-286.311034329932,420.077796755932,336702132
-117,95.0,-17.0,-11096.0,892.0,66.0,-1152.0,232.974526118623,-289.187545395317,420.052832854348,336711523
-72,20.0,-151.0,-11074.0,1127.0,88.0,-1365.0,227.407235477217,-291.651425041257,420.084382975561,336725572
214,-269.0,-68.0,-11061.0,1249.0,100.0,-1471.0,223.509994173763,-293.692186343318,420.103174750611,336734193
-198,319.0,-199.0,-11061.0,1249.0,100.0,-1471.0,219.86058560838,-295.310007285092,420.147920321995,336742741
127,260.0,-455.0,-11033.0,1486.0,130.0,-1687.0,217.57018749416,-296.173817744715,420.157346332627,336756833
-81,-270.0,138.0,-11033.0,1486.0,130.0,-1687.0,214.257397817576,-297.188515134377,420.183819449244,336763053
129,-257.0,-96.0,-11001.0,1719.0,164.0,-1897.0,211.003304305882,-297.970151010132,420.234798951073,336782662
-81,48.0,-61.0,-10984.0,1840.0,183.0,-2003.0,208.822299001691,-298.566481133768,420.22210412661,336792001
-41,-60.0,-110.0,-10965.0,1958.0,203.0,-2110.0,205.486847486727,-298.880081564899,420.281944034985,336800137
-41,-60.0,-110.0,-10945.0,2076.0,224.0,-2217.0,202.033084521516,-299.274777307787,420.319138611424,336806412
66,-98.0,-126.0,-10924.0,2192.0,246.0,-2321.0,198.41757764537,-299.590650673166,420.33553760671,336819248
-49,-117.0,74.0,-10902.0,2309.0,13.0,-2426.0,195.914542608111,-299.831870639166,420.32519385308,336829902
17,112.0,-291.0,-10855.0,2543.0,63.0,-2638.0,191.98673799952,-300.030329561244,420.344913417373,336846047
0,-252.0,-94.0,-10855.0,2543.0,63.0,-2638.0,187.864542479566,-300.186479373065,420.383256908748,336853066
-7,96.0,-227.0,-10804.0,2774.0,118.0,-2846.0,183.603918050819,-300.27524678696,420.403665443736,336865470
74,-74.0,-14.0,-10804.0,2774.0,118.0,-2846.0,180.700211276489,-300.391300831574,420.407460147072,336872899
-16,116.0,-211.0,-10776.0,2893.0,147.0,-2952.0,176.261179478689,-300.486062449155,420.40235936511,336881263
-148,180.0,-266.0,-10718.0,3126.0,208.0,-3159.0,171.761827591513,-300.553591463276,420.383471591827,336902040
118,21.0,-97.0,-10687.0,3236.0,239.0,-3262.0,167.205034445141,-300.606902981798,420.384556726723,336908309
49,99.0,-21.0,-10654.0,3351.0,15.0,-3365.0,162.617411374514,-300.632298801271,420.392472451373,336921635
73,-30.0,-16.0,-10623.0,3466.0,51.0,-3469.0,157.994467438261,-300.660297202749,420.375884789426,336929835
-1,97.0,-222.0,-10557.0,3699.0,126.0,-3671.0,153.34467627134,-300.683229764861,420.335618267057,336946045
-1,97.0,-222.0,-10557.0,3699.0,126.0,-3671.0,148.675839404371,-300.694327548505,420.312013318025,336946045
27,-30.0,-13.0,-10445.0,4035.0,240.0,-3978.0,144.001037665176,-300.704718261465,420.333594805882,336973517
32,74.0,-104.0,-10445.0,4035.0,240.0,-3978.0,139.321029803656,-300.703381695348,420.300231016291,336982185
-4,-54.0,-101.0,-10406.0,4148.0,26.0,-4080.0,134.630413987306,-300.700873055347,420.272479662023,336990815
-154,132.0,-181.0,-10327.0,4371.0,111.0,-4277.0,129.928701911117,-300.69726233499,420.263421117496,337005424
55,20.0,-73.0,-10285.0,4481.0,155.0,-4379.0,125.22266219162,-300.69541852091,420.236747301385,337017835
55,20.0,-73.0,-10242.0,4591.0,201.0,-4479.0,120.527340067655,-300.684931183591,420.243455761463,337025738
-53,179.0,-161.0,-10198.0,4704.0,248.0,-4577.0,115.823664604313,-300.676431932101,420.193113727553,337037217
-45,-150.0,-40.0,-10155.0,4814.0,40.0,-4673.0,111.116183256412,-300.667853661263,420.194048664462,337052921
-96,-22.0,-88.0,-10063.0,5031.0,138.0,-4869.0,104.841321019489,-300.662867723726,420.166066251062,337065530
44,24.0,-75.0,-10063.0,5031.0,138.0,-4869.0,101.703588637394,-300.653032498471,420.18263419857,337072782
153,-149.0,-1.0,-9964.0,5246.0,239.0,-5065.0,96.9952751914788,-300.645944452034,420.147358875613,337089457
12,-89.0,-50.0,-9914.0,5355.0,35.0,-5159.0,92.2940085001811,-300.638986786646,420.153085792439,337099663
-53,30.0,-80.0,-9866.0,5461.0,90.0,-5253.0,87.5921772651497,-300.630625015301,420.131674795034,337112163
-75,160.0,-142.0,-9814.0,5570.0,146.0,-5348.0,82.8852658171201,-300.627031151095,420.105820032691,337118371
-73,-49.0,-39.0,-9707.0,5782.0,2.0,-5538.0,78.1820815980275,-300.619059320945,420.115940167427,337134915
-61,-35.0,-52.0,-9707.0,5782.0,2.0,-5538.0,75.0413621910466,-300.612204279083,420.099965838041,337143444
114,-8.0,-104.0,-9653.0,5883.0,59.0,-5631.0,70.341668068891,-300.611331300261,420.069441331593,337151187
137,23.0,-47.0,-9597.0,5986.0,117.0,-5725.0,65.6429877882396,-300.610222688041,420.07766513372,337160537
27,43.0,29.0,-9483.0,6197.0,239.0,-5908.0,62.5068249121621,-300.599806491431,420.078960482254,337174479
-132,-69.0,-231.0,-9483.0,6197.0,239.0,-5908.0,57.8026809001512,-300.598503485939,420.080848411968,337183170
3,-34.0,-227.0,-9426.0,6298.0,46.0,-6000.0,54.66596629952,-300.595765713204,420.06517896306,337191812
31,131.0,-76.0,-9367.0,6398.0,109.0,-6092.0,49.9678191940125,-300.598577773621,420.038137448688,337199821
110,97.0,-3.0,-9306.0,6499.0,172.0,-6182.0,46.8345479363369,-300.591568733674,420.048152450401,337212336
110,97.0,-3.0,-9306.0,6499.0,172.0,-6182.0,42.1301788720615,-300.586679738167,420.063371023801,337212336
-115,133.0,-95.0,-9058.0,6898.0,181.0,-6536.0,38.9982802237921,-300.5878317069,420.055122601271,337246633
-115,133.0,-95.0,-9058.0,6898.0,181.0,-6536.0,34.3004567840211,-300.588260087194,420.026798351861,337246633
45,36.0,-208.0,-9058.0,6898.0,181.0,-6536.0,31.1683239027269,-300.584839092692,420.009321746355,337253686
-102,265.0,48.0,-8925.0,7092.0,61.0,-6711.0,26.4647536136896,-300.581249483078,420.014621453391,337266048
48,-29.0,-37.0,-8925.0,7092.0,61.0,-6711.0,21.7656693622394,-300.580072331793,420.022680253389,337273491
98,-229.0,-95.0,-8861.0,7186.0,131.0,-6796.0,17.0688077652049,-300.579929222141,420.016734117736,337282022
-35,96.0,-73.0,-8725.0,7380.0,21.0,-6966.0,12.371167593616,-300.581343465919,420.00859940604,337299081
-54,146.0,-96.0,-8655.0,7476.0,94.0,-7049.0,9.2378645502535,-300.577142044578,419.9787635559,337309598
-54,146.0,-96.0,-8587.0,7567.0,166.0,-7131.0,4.53882356576298,-300.574945983736,419.992549233979,337315889
73,-75.0,26.0,-8587.0,7567.0,166.0,-7131.0,1.40664396114351,-300.573089537862,420.005317031438,337323107
-19,50.0,-90.0,-8443.0,7753.0,62.0,-7296.0,-3.29107091717277,-300.56471729475,419.991332526261,337339569
-19,50.0,-90.0,-8371.0,7842.0,138.0,-7379.0,-7.98995655010546,-300.546700168219,419.954705006757,337347359
-392,377.0,55.0,-8299.0,7935.0,215.0,-7456.0,-12.6881957589643,-300.554794722562,419.940790866992,337360498
-392,377.0,55.0,-8226.0,8022.0,38.0,-7538.0,-15.8204871113793,-300.56853831137,419.955390801607,337366650
-443,585.0,110.0,-8149.0,8114.0,117.0,-7616.0,-20.5198069038493,-300.570476511667,419.968662696334,337377382
-366,401.0,78.0,-7998.0,8285.0,21.0,-7773.0,-25.216500582553,-300.572104225816,419.976343905824,337394686
323,-266.0,-250.0,-7998.0,8285.0,21.0,-7773.0,-29.9156585284874,-300.571294697313,419.974421432962,337402717
86,40.0,-168.0,-7920.0,8375.0,103.0,-7848.0,-33.0472294185885,-300.573784637081,419.979562988237,337409148
-89,158.0,105.0,-7843.0,8458.0,185.0,-7925.0,-39.3112567739729,-300.577528316978,419.977359086938,337422620
114,68.0,41.0,-7690.0,8621.0,91.0,-8072.0,-44.0097655214561,-300.576018415825,420.011379798578,337442440
179,-225.0,-48.0,-7615.0,8700.0,172.0,-8140.0,-47.1421551268107,-300.574115331407,420.013336817976,337450251
179,-225.0,-48.0,-7545.0,8773.0,247.0,-8204.0,-51.8433568569528,-300.578796794949,420.004368706064,337456477
-44,93.0,-33.0,-7473.0,8843.0,65.0,-8267.0,-56.5420625536686,-300.578989239244,420.018591308033,337468933
106,289.0,-16.0,-7340.0,8973.0,206.0,-8383.0,-61.2418298973035,-300.582135560803,420.008599958282,337485370
330,-58.0,-92.0,-7279.0,9030.0,15.0,-8435.0,-65.9394837625568,-300.585075668004,420.013793788403,337494143
-356,562.0,163.0,-7279.0,9030.0,15.0,-8435.0,-69.0757322562961,-300.585646651122,420.004038310352,337505274
198,71.0,-111.0,-7221.0,9087.0,77.0,-8483.0,-73.7715973238138,-300.58390939858,420.039127178021,337511462
-142,312.0,84.0,-7114.0,9188.0,193.0,-8571.0,-78.4730796231179,-300.5906951112,420.036334923223,337525572
-110,195.0,154.0,-7066.0,9230.0,244.0,-8610.0,-84.7473225676564,-300.597513883221,420.0214668584,337542573
213,230.0,-70.0,-7022.0,9271.0,34.0,-8644.0,-89.441045297009,-300.599848259084,420.049060162259,337550352
-332,416.0,244.0,-6944.0,9339.0,117.0,-8706.0,-92.5728448072081,-300.600047630057,420.074694518476,337566236
-285,226.0,222.0,-6944.0,9339.0,117.0,-8706.0,-97.2830618670053,-300.604401251352,420.073740554226,337573661
6,356.0,-120.0,-6912.0,9370.0,152.0,-8729.0,-101.987017330762,-300.605414240092,420.066380354417,337582176
113,-84.0,189.0,-6883.0,9394.0,183.0,-8752.0,-105.121427096118,-300.610970468954,420.077701558653,337590442
-171,654.0,38.0,-6856.0,9417.0,209.0,-8771.0,-109.821344861738,-300.617454649699,420.083832164498,337605332
188,367.0,-97.0,-6837.0,9433.0,231.0,-8787.0,-114.522539040577,-300.621367067195,420.10165314738,337612272
-73,184.0,-94.0,-6808.0,9463.0,9.0,-8807.0,-117.664350785408,-300.624823562743,420.109551684737,337629082
-73,184.0,-94.0,-6798.0,9474.0,20.0,-8812.0,-122.373477061483,-300.633478678394,420.118136064307,337637276
-235,102.0,-127.0,-6790.0,9482.0,29.0,-8817.0,-127.079681680793,-300.639454144564,420.127410848818,337645529
-338,175.0,84.0,-6790.0,9482.0,29.0,-8817.0,-130.215428249929,-300.648301607232,420.12882000179,337652995
-34,59.0,-41.0,-6784.0,9488.0,38.0,-8822.0,-134.924022005563,-300.662400279013,420.153162074039,337665780
-514,117.0,-3.0,-6775.0,9500.0,50.0,-8826.0,-139.635485719631,-300.664492180899,420.164983486817,337681422
-247,72.0,-87.0,-6772.0,9504.0,55.0,-8828.0,-144.349134271972,-300.673985741026,420.192443332449,337693221
-235,192.0,-1.0,-6769.0,9507.0,59.0,-8832.0,-149.056325013629,-300.6885982343,420.197213487801,337701367
-235,192.0,-1.0,-6766.0,9509.0,62.0,-8833.0,-152.202130348433,-300.703700869606,420.205241036778,337708304
-397,144.0,0.0,-6765.0,9510.0,63.0,-8834.0,-156.915068536817,-300.718057761008,420.224716413556,337721366
-454,135.0,-26.0,-6764.0,9512.0,65.0,-8835.0,-160.05870851926,-300.724793284388,420.234857884228,337729444
-454,135.0,-26.0,-6762.0,9514.0,67.0,-8836.0,-164.774998010992,-300.746364336685,420.259807662106,337737744
-295,-97.0,-106.0,-6761.0,9514.0,69.0,-8839.0,-167.903350262568,-300.766877015918,420.28658616112,337746055
-424,-46.0,58.0,-6759.0,9515.0,70.0,-8840.0,-172.528490190186,-300.774510283628,420.305597559766,337763058
-358,94.0,-87.0,-6758.0,9514.0,70.0,-8842.0,-178.489712049317,-300.766756704421,420.324536713674,337777987
-281,169.0,113.0,-6756.0,9512.0,70.0,-8845.0,-182.761212885379,-300.756079760176,420.33514389111,337786500
-197,68.0,-46.0,-6755.0,9510.0,69.0,-8847.0,-186.837450747533,-300.742967621196,420.355799880587,337802845
-168,-35.0,-38.0,-6754.0,9510.0,69.0,-8848.0,-190.709908227933,-300.72061703908,420.353114293382,337809987
-43,-18.0,-114.0,-6753.0,9508.0,69.0,-8850.0,-193.163503014575,-300.708601465025,420.37066078461,337821154
-62,125.0,60.0,-6752.0,9507.0,68.0,-8851.0,-196.640644930221,-300.664890727059,420.384503048618,337829528
9,121.0,-158.0,-6751.0,9506.0,67.0,-8852.0,-199.877956093436,-300.629398725266,420.380788170725,337846391
-154,5.0,53.0,-6751.0,9506.0,67.0,-8852.0,-202.868940767616,-300.60434399861,420.365290790538,337854359
-147,53.0,-53.0,-6750.0,9506.0,67.0,-8854.0,-204.720081118807,-300.563727236057,420.35342902421,337862329
-33,51.0,-16.0,-6748.0,9504.0,66.0,-8856.0,-208.073185151909,-300.507000726651,420.355226358813,337878943
202,8.0,-83.0,-6747.0,9503.0,65.0,-8857.0,-210.278700543593,-300.456925784135,420.351033668516,337889677
-59,95.0,23.0,-6748.0,9505.0,66.0,-8854.0,-212.220678407471,-300.40707547405,420.310759101315,337905423
-33,-28.0,-83.0,-6748.0,9505.0,66.0,-8854.0,-213.892748339521,-300.370775133649,420.277318138682,337914316
3,46.0,-156.0,-6747.0,9504.0,66.0,-8857.0,-215.290819374141,-300.320909670495,420.238385018258,337923188
391,78.0,-192.0,-6746.0,9502.0,64.0,-8858.0,-216.423019931321,-300.240369729372,420.200698339381,337939497
391,78.0,-192.0,-6747.0,9501.0,64.0,-8858.0,-217.533635178632,-300.170730573716,420.175179388605,337947674
-135,-13.0,133.0,-6747.0,9504.0,66.0,-8857.0,-218.124610444521,-300.135271320223,420.118456134143,337964382
-271,510.0,41.0,-6745.0,9503.0,66.0,-8859.0,-218.429907596109,-300.1041209026,419.815892995836,337971169
283,-246.0,-248.0,-6744.0,9504.0,64.0,-8858.0,-218.914204800186,-300.093769389483,419.227890435587,337987666
340,-663.0,-152.0,-6748.0,9499.0,64.0,-8861.0,-219.196936121702,-300.110425432543,418.313837509791,338003817
-192,448.0,-71.0,-6743.0,9505.0,64.0,-8858.0,-219.419314010937,-300.129941385638,417.061774876239,338010129
-123,83.0,141.0,-6746.0,9501.0,67.0,-8862.0,-219.604889508976,-300.166776603634,416.011928723391,338020387
-192,502.0,-118.0,-6746.0,9501.0,64.0,-8860.0,-219.776830358991,-300.226844725856,413.273429132502,338036931
16,-390.0,6.0,-6743.0,9501.0,63.0,-8860.0,-219.886127378518,-300.331963354433,410.733989708508,338045442
24,-164.0,-30.0,-6745.0,9502.0,64.0,-8859.0,-220.05326183484,-300.428196887389,407.742177047503,338059525
-45,49.0,-164.0,-6744.0,9503.0,65.0,-8860.0,-220.181967120997,-300.491816037671,404.241235900173,338072584
-54,-9.0,-33.0,-6744.0,9503.0,65.0,-8860.0,-220.266068942815,-300.593353101342,401.634947912384,338080510
-183,289.0,47.0,-6743.0,9503.0,64.0,-8859.0,-220.385474522281,-300.704473133262,397.28188146736,338091424
189,-268.0,-214.0,-6743.0,9503.0,64.0,-8860.0,-220.490606448731,-300.816734919246,392.457244616801,338099501
3,-98.0,-96.0,-6741.0,9501.0,63.0,-8862.0,-220.577705339665,-300.88438862235,387.214620168736,338115382
101,-45.0,-239.0,-6740.0,9502.0,62.0,-8861.0,-220.635844976887,-300.969193883816,383.504611361813,338125107
-184,340.0,153.0,-6740.0,9502.0,62.0,-8861.0,-220.706954816074,-301.011769309864,377.793909219922,338134252
59,-138.0,-240.0,-6740.0,9502.0,62.0,-8861.0,-220.754877579049,-301.06401383548,371.879629863931,338142924
68,-235.0,-303.0,-6740.0,9501.0,61.0,-8861.0,-220.788796942251,-301.110291086942,365.789871335776,338161207
97,3.0,-221.0,-6740.0,9502.0,61.0,-8862.0,-220.806927525346,-301.127085768532,359.571876037384,338169556
97,3.0,-221.0,-6739.0,9502.0,61.0,-8861.0,-220.816190253006,-301.131234310675,355.392568552444,338178080
-119,403.0,280.0,-6739.0,9502.0,61.0,-8861.0,-220.816974987849,-301.130538664503,349.106014323589,338186755
68,-174.0,-339.0,-6739.0,9503.0,61.0,-8860.0,-220.8154785002,-301.119569087877,344.847204428922,338195580
-82,250.0,244.0,-6739.0,9502.0,61.0,-8862.0,-220.810053213381,-301.109748444803,338.390381894981,338211270
9,3.0,-81.0,-6738.0,9502.0,60.0,-8861.0,-220.798470202348,-301.08916096858,334.051530504932,338219567
24,-44.0,-204.0,-6738.0,9502.0,60.0,-8861.0,-220.792000296185,-301.079077309632,327.559942709522,338230976
-37,314.0,100.0,-6738.0,9502.0,60.0,-8861.0,-220.776297813357,-301.05640394552,323.245057881621,338239253
-37,314.0,100.0,-6738.0,9503.0,60.0,-8860.0,-220.763775742015,-301.033783443032,316.715882651399,338247856
-24,-29.0,-18.0,-6737.0,9501.0,60.0,-8863.0,-220.747866314568,-301.017129686757,312.368479080354,338261230
-24,-29.0,-18.0,-6736.0,9502.0,59.0,-8862.0,-220.730836919992,-300.985839734029,303.587308348209,338267419
371,203.0,-217.0,-6736.0,9500.0,59.0,-8864.0,-220.710376792795,-300.948415606815,299.186126263208,338283284
172,267.0,420.0,-6737.0,9500.0,58.0,-8863.0,-220.699846661564,-300.946606940004,292.68417171122,338296399
346,-471.0,-225.0,-6737.0,9500.0,58.0,-8863.0,-220.682519637796,-300.921369776546,288.307336232298,338304295
365,84.0,-331.0,-6735.0,9499.0,57.0,-8864.0,-220.678003427659,-300.900781488169,281.741304991628,338311691
271,359.0,198.0,-6736.0,9499.0,58.0,-8864.0,-220.647468143034,-300.868630659256,275.120950247304,338319814
271,359.0,198.0,-6735.0,9499.0,55.0,-8862.0,-220.643112994111,-300.858123492551,268.596465813445,338328820
204,-41.0,295.0,-6735.0,9499.0,56.0,-8863.0,-220.612346522631,-300.832079618701,261.99029625551,338346204
404,90.0,-311.0,-6735.0,9499.0,56.0,-8863.0,-220.616843646579,-300.828635933432,255.437874662165,338354111
171,201.0,313.0,-6735.0,9499.0,56.0,-8863.0,-220.591585235812,-300.793690143958,248.860518699863,338365815
334,15.0,1.0,-6736.0,9500.0,57.0,-8862.0,-220.584096267192,-300.779206802034,242.276332693346,338383663
554,-102.0,-423.0,-6736.0,9498.0,57.0,-8864.0,-220.569660403612,-300.769336732045,235.692688296575,338392130
69,304.0,349.0,-6738.0,9500.0,57.0,-8861.0,-220.5706423954,-300.751657458592,229.130641043285,338407561
218,-61.0,41.0,-6739.0,9501.0,56.0,-8858.0,-220.553481749472,-300.757475047832,222.587958845397,338415852
201,180.0,71.0,-6739.0,9501.0,56.0,-8858.0,-220.547595788022,-300.745546301735,216.008900004742,338424621
102,343.0,124.0,-6752.0,9496.0,46.0,-8845.0,-220.537827361602,-300.7259291169,209.409979616222,338438029
-70,262.0,135.0,-6764.0,9489.0,34.0,-8833.0,-220.516393094013,-300.696701296383,202.803136690318,338454202
127,204.0,-7.0,-6781.0,9474.0,17.0,-8822.0,-220.497447822424,-300.673134279041,198.414147031983,338460482
129,205.0,-49.0,-6803.0,9455.0,250.0,-8807.0,-220.504307293974,-300.68198419062,191.85482772719,338473582
68,336.0,113.0,-6829.0,9433.0,222.0,-8787.0,-220.499563095065,-300.677776730222,185.284908215848,338481459
-48,350.0,115.0,-6896.0,9375.0,151.0,-8735.0,-220.504697665615,-300.687442391034,176.542150268458,338500391
-48,350.0,115.0,-6937.0,9337.0,106.0,-8704.0,-220.514354909491,-300.696944662327,169.979619025255,338507078
189,311.0,-141.0,-6985.0,9297.0,56.0,-8666.0,-220.519475445852,-300.704576600461,163.414226876177,338519630
-122,295.0,146.0,-7092.0,9199.0,197.0,-8581.0,-220.521106169642,-300.708165966572,156.852972458625,338536732
-41,512.0,81.0,-7092.0,9199.0,197.0,-8581.0,-220.530191372632,-300.739986330087,150.30301654988,338545298
255,426.0,-79.0,-7154.0,9140.0,130.0,-8531.0,-220.537948010824,-300.748956656991,143.725828952271,338553148
-65,412.0,208.0,-7298.0,9008.0,238.0,-8412.0,-220.550515225131,-300.759633001519,137.154478130618,338568845
-56,561.0,101.0,-7373.0,8933.0,155.0,-8347.0,-220.564875677137,-300.77087457343,130.566309206303,338585123
-25,192.0,21.0,-7456.0,8851.0,69.0,-8277.0,-220.564926813342,-300.782298591935,126.203766328805,338593705
120,59.0,-275.0,-7540.0,8765.0,236.0,-8205.0,-220.581028506443,-300.791641355881,119.68528405547,338601979
120,59.0,-275.0,-7626.0,8679.0,145.0,-8125.0,-220.563691045627,-300.765677889057,115.474990503389,338608396
108,-173.0,-209.0,-7714.0,8585.0,53.0,-8047.0,-220.570776128654,-300.777408915172,111.396083629236,338620998
59,208.0,-182.0,-7798.0,8492.0,215.0,-7965.0,-220.554433915959,-300.749060166087,105.495895378997,338631306
-147,430.0,297.0,-7886.0,8398.0,124.0,-7881.0,-220.551717568392,-300.722330239279,99.9671672192684,338639744
45,79.0,-221.0,-7975.0,8296.0,30.0,-7796.0,-220.501635467145,-300.683126483999,93.2092032415227,338655463
-68,169.0,139.0,-8150.0,8095.0,100.0,-7615.0,-220.49369875742,-300.636857837438,90.0861481795226,338668025
-116,48.0,131.0,-8150.0,8095.0,100.0,-7615.0,-220.459375113643,-300.626758055855,85.8136572388661,338675288
98,-59.0,-450.0,-8236.0,7989.0,7.0,-7525.0,-220.423163520719,-300.577882134702,83.2177633378421,338683801
17,310.0,-66.0,-8407.0,7778.0,82.0,-7337.0,-220.370007944709,-300.506403974278,80.8078169978496,338696260
-110,-35.0,-76.0,-8407.0,7778.0,82.0,-7337.0,-220.36102239541,-300.454576116879,76.662590264244,338703980
-66,-167.0,-85.0,-8492.0,7668.0,248.0,-7241.0,-220.303042598528,-300.411468738853,74.9534484955824,338716558
-55,138.0,-53.0,-8657.0,7447.0,72.0,-7047.0,-220.240501629676,-300.328797040924,72.1100289753341,338731287
-284,107.0,164.0,-8821.0,7220.0,155.0,-6846.0,-220.200699982771,-300.251507216855,70.1477129488424,338748359
4,-88.0,-70.0,-8898.0,7106.0,71.0,-6746.0,-220.086695103104,-300.195751704721,69.0421169623755,338758878
5,3.0,-171.0,-8978.0,6989.0,245.0,-6644.0,-219.856123884054,-300.124921474245,67.9576711639055,338771394
-324,148.0,167.0,-9132.0,6756.0,83.0,-6433.0,-219.196971701163,-300.122396764304,67.3720353444074,338787847
-203,17.0,138.0,-9203.0,6636.0,3.0,-6331.0,-218.695883044475,-300.097843038621,67.0182854947221,338796626
179,120.0,-444.0,-9203.0,6636.0,3.0,-6331.0,-217.652323512197,-300.054656101565,66.5431311716944,338804255
179,120.0,-444.0,-9279.0,6513.0,181.0,-6223.0,-216.796178692207,-300.028039097248,66.2188811200755,338810526
-87,-212.0,-57.0,-9424.0,6276.0,31.0,-6002.0,-214.671724391826,-300.015283475313,66.0324098842238,338827935
-284,162.0,115.0,-9491.0,6154.0,214.0,-5896.0,-213.386363787354,-300.015166468566,65.8048944449507,338836707
-190,347.0,25.0,-9491.0,6154.0,214.0,-5896.0,-211.168745561696,-300.00482004476,65.5925160876714,338845025
178,-57.0,-343.0,-9628.0,5899.0,69.0,-5675.0,-208.596641802916,-300.015166642795,65.4674844278985,338859280
48,-121.0,33.0,-9628.0,5899.0,69.0,-5675.0,-206.692026107097,-300.067111014618,65.3896289562708,338865538
-130,80.0,-98.0,-9757.0,5653.0,189.0,-5452.0,-203.516137162723,-300.097502243501,65.2855802996224,338882159
52,138.0,-190.0,-9819.0,5524.0,122.0,-5339.0,-199.953402693452,-300.108134065212,65.1648528260656,338890097
52,138.0,-190.0,-9882.0,5395.0,57.0,-5224.0,-197.39045459016,-300.187008126943,65.1311112006495,338898589
9,-118.0,-3.0,-9943.0,5268.0,250.0,-5109.0,-193.207390530482,-300.255639155075,65.063596135542,338911914
-85,32.0,-40.0,-10001.0,5141.0,189.0,-4992.0,-188.676239771493,-300.33495052423,65.0127188497593,338925080
-47,169.0,-207.0,-10058.0,5011.0,127.0,-4876.0,-183.867735359085,-300.377681259264,64.9429113124526,338933573
0,54.0,-131.0,-10114.0,4880.0,68.0,-4760.0,-178.855384554502,-300.508198607921,64.9295517337634,338946123
26,-35.0,-61.0,-10169.0,4747.0,11.0,-4643.0,-173.70088643695,-300.549524164837,64.8835260726088,338954088
-3,-58.0,-16.0,-10223.0,4615.0,211.0,-4525.0,-168.413826534153,-300.595227746497,64.8525436884444,338966479
-33,101.0,-162.0,-10323.0,4350.0,103.0,-4286.0,-163.065666964087,-300.675233606759,64.8437910200446,338980716
-14,25.0,-50.0,-10420.0,4080.0,1.0,-4046.0,-157.613354317043,-300.730064017478,64.8272485992159,338997577
52,-170.0,-141.0,-10466.0,3944.0,209.0,-3924.0,-152.138634492311,-300.771748133944,64.8353110817197,339008338
-18,3.0,-123.0,-10466.0,3944.0,209.0,-3924.0,-146.595573159297,-300.778396822227,64.8122376835483,339014620
-62,120.0,-97.0,-10510.0,3811.0,162.0,-3801.0,-142.894958231317,-300.808939392146,64.81338890679,339021018
-30,27.0,-146.0,-10594.0,3538.0,73.0,-3557.0,-137.32622542393,-300.837886473435,64.8272947571741,339037778
-40,13.0,68.0,-10635.0,3398.0,30.0,-3433.0,-131.733225473504,-300.850245413075,64.8275826935767,339047176
-82,47.0,-86.0,-10672.0,3260.0,245.0,-3309.0,-124.255101191951,-300.849889401551,64.8179541976237,339061280
-82,47.0,-86.0,-10672.0,3260.0,245.0,-3309.0,-118.634333392542,-300.884192471469,64.8563691646044,339061280
-47,-46.0,-74.0,-10811.0,2704.0,99.0,-2810.0,-113.006189599121,-300.874970636312,64.8541998112256,339102638
-47,-46.0,-74.0,-10811.0,2704.0,99.0,-2810.0,-107.372700820947,-300.854768938789,64.8410578232358,339102638
-47,-46.0,-74.0,-10841.0,2567.0,67.0,-2686.0,-103.609471614356,-300.836882130418,64.837943311645,339108974
-67,45.0,-122.0,-10841.0,2567.0,67.0,-2686.0,-97.9824059718312,-300.883472788166,64.8827611141238,339115207
115,-171.0,-270.0,-10899.0,2284.0,7.0,-2433.0,-92.3494658504104,-300.886347556945,64.8775087540669,339129277
27,-12.0,-46.0,-10926.0,2144.0,236.0,-2303.0,-88.5769034536105,-300.837705270111,64.8653123556102,339137824
-111,35.0,71.0,-10926.0,2144.0,236.0,-2303.0,-82.9421555387128,-300.854387727917,64.8929699373267,339146263
93,-110.0,-212.0,-10972.0,1863.0,185.0,-2054.0,-77.2949699937367,-300.853229958794,64.9059879879343,339163435
93,-110.0,-212.0,-10994.0,1718.0,161.0,-1925.0,-71.6647702768135,-300.869963555398,64.9286244874231,339169637
31,-138.0,-103.0,-11014.0,1576.0,141.0,-1798.0,-66.0258583818421,-300.832395278561,64.9128362537043,339185868
60,-268.0,-277.0,-11033.0,1436.0,122.0,-1669.0,-62.2557189365821,-300.829671584393,64.919036747311,339194515
-213,158.0,12.0,-11052.0,1294.0,105.0,-1537.0,-56.6141219704783,-300.837700780778,64.933402509739,339202513
12,-114.0,-223.0,-11067.0,1152.0,89.0,-1411.0,-52.8551263240089,-300.834987207027,64.9445027627183,339215269
39,88.0,-223.0,-11080.0,1009.0,73.0,-1284.0,-47.2264575301326,-300.820702611103,64.9437449134506,339225655
107,-109.0,-20.0,-11093.0,862.0,61.0,-1156.0,-43.4661643235443,-300.820911734166,64.949936740492,339234206
-159,181.0,-57.0,-11103.0,719.0,49.0,-1024.0,-37.8202508936362,-300.820683749824,64.9569957322439,339242154
-338,67.0,168.0,-11115.0,581.0,42.0,-894.0,-34.0601705302478,-300.812452502956,64.9568102964588,339257015
-120,171.0,-348.0,-11121.0,437.0,32.0,-766.0,-28.4311262522963,-300.820691089804,64.9621244191411,339263133
167,-235.0,-73.0,-11132.0,147.0,22.0,-509.0,-22.7980054144187,-300.815116847443,64.9666545126706,339276827
-29,-1.0,-32.0,-11137.0,5.0,21.0,-378.0,-19.0359800783635,-300.809115459659,64.9683259722351,339289390
-321,-142.0,39.0,-11137.0,-138.0,18.0,-248.0,-13.3931689701043,-300.813376291148,64.9787251957259,339297987
-173,177.0,-322.0,-11137.0,-138.0,18.0,-248.0,-7.76418321019552,-300.814188937378,64.9867606422409,339305396
116,276.0,-34.0,-11137.0,-283.0,20.0,-123.0,-2.134702062535,-300.815714008376,64.9899422159216,339317968
103,-324.0,-294.0,-11134.0,-427.0,20.0,7.0,1.62572710739252,-300.792813983704,64.9872832484858,339324852
-315,427.0,186.0,-11130.0,-707.0,33.0,266.0,7.26415699373657,-300.762009973543,64.9864697613532,339340830
273,-371.0,-265.0,-11123.0,-845.0,38.0,386.0,11.0204660536416,-300.749831943353,64.9863787372155,339351959
273,-371.0,-265.0,-11123.0,-845.0,38.0,386.0,18.5246570430189,-300.74866535585,64.982783264966,339358607
-39,33.0,244.0,-11110.0,-1101.0,57.0,619.0,24.1619835460324,-300.757687627439,64.9811928095895,339371135
-190,130.0,360.0,-11094.0,-1331.0,78.0,833.0,35.4306557488794,-300.778202190493,64.9849041702747,339396237
119,-147.0,103.0,-11066.0,-1627.0,110.0,1099.0,46.7005626457889,-300.793659228778,64.9828524790939,339420001
18,-141.0,23.0,-11056.0,-1711.0,120.0,1173.0,54.2187672854058,-300.792757836554,64.9738309547967,339436380
-105,129.0,450.0,-11049.0,-1785.0,131.0,1242.0,59.8522996619052,-300.798605634247,64.9761497229653,339444778
-15,9.0,42.0,-11032.0,-1911.0,148.0,1357.0,65.4876200090544,-300.817036340709,64.9724983135264,339459192
-26,-318.0,-52.0,-11032.0,-1911.0,148.0,1357.0,71.1295844881008,-300.817657464815,64.9755926838728,339465357
147,-87.0,347.0,-11026.0,-1966.0,157.0,1407.0,74.8935194621243,-300.82882657662,64.9671056761657,339475863
-255,-22.0,167.0,-11015.0,-2046.0,170.0,1485.0,80.5254469031829,-300.837179849567,64.9633506014281,339492771
-188,-13.0,192.0,-11012.0,-2073.0,174.0,1509.0,86.1578690978255,-300.822559806445,64.941436870911,339501021
170,-131.0,-198.0,-11007.0,-2095.0,176.0,1524.0,91.8038827995153,-300.830194734364,64.9331041025489,339514149
91,81.0,-315.0,-11002.0,-2122.0,179.0,1550.0,97.4482515034165,-300.835478668645,64.9370567016763,339528030
-80,105.0,-282.0,-11000.0,-2133.0,181.0,1561.0,101.213147910303,-300.859214314377,64.9446765611843,339540190
-154,193.0,-347.0,-10999.0,-2143.0,183.0,1569.0,106.84619133922,-300.847541605559,64.9174917525711,339548532
68,88.0,-328.0,-10999.0,-2143.0,183.0,1569.0,112.483466475821,-300.85161739161,64.9035732488929,339556719
127,20.0,-364.0,-10996.0,-2154.0,183.0,1577.0,118.137037775566,-300.859674971239,64.8892616683721,339569515
-90,176.0,-367.0,-10996.0,-2154.0,183.0,1580.0,123.780127923628,-300.864887731569,64.8986788882295,339585919
-90,176.0,-367.0,-10996.0,-2154.0,183.0,1580.0,129.43461833037,-300.899950511041,64.901382857423,339585919
-79,288.0,-536.0,-10993.0,-2156.0,182.0,1583.0,133.196489628047,-300.898750648663,64.8745655596137,339599228
92,135.0,-441.0,-10992.0,-2160.0,181.0,1584.0,138.828714371668,-300.874074728025,64.8377988120878,339612905
20,172.0,-384.0,-10991.0,-2160.0,180.0,1584.0,144.491336039913,-300.899016744326,64.8546703665657,339626894
-97,196.0,-301.0,-10990.0,-2161.0,180.0,1588.0,150.156550866983,-300.93971449885,64.853313649668,339635843
-59,294.0,-388.0,-10989.0,-2161.0,180.0,1590.0,155.793902212918,-300.927023811451,64.8149834595889,339644244
-3,112.0,-126.0,-10987.0,-2169.0,180.0,1597.0,159.566742591649,-300.935480003409,64.8007283876805,339663236
-3,112.0,-126.0,-10986.0,-2171.0,180.0,1601.0,165.19575331056,-300.932950185443,64.7872163632278,339669685
-31,14.0,-92.0,-10986.0,-2171.0,180.0,1601.0,170.736475298429,-300.966604760098,64.8106162812731,339677335
-59,36.0,-101.0,-10984.0,-2174.0,180.0,1606.0,174.319722971704,-300.918317590685,64.779158544555,339685851
15,65.0,-150.0,-10981.0,-2177.0,177.0,1609.0,179.502708079767,-300.870558739874,64.7640546534348,339702296
15,65.0,-150.0,-10980.0,-2177.0,177.0,1611.0,184.461845418019,-300.85680399829,64.7732699424276,339709761
-30,82.0,-126.0,-10978.0,-2180.0,177.0,1616.0,189.09982030126,-300.78013946943,64.7586381474988,339717982
-42,37.0,4.0,-10977.0,-2180.0,176.0,1618.0,193.447009911267,-300.754014489605,64.7946115561673,339730502
-5,14.0,-21.0,-10975.0,-2182.0,175.0,1622.0,196.144276713001,-300.640857903663,64.7641047025672,339747759
4,-7.0,-38.0,-10975.0,-2182.0,175.0,1622.0,199.934097477077,-300.602836008505,64.8105373887282,339755562
-36,49.0,-118.0,-10973.0,-2181.0,174.0,1624.0,204.416497363403,-300.493171349535,64.8113332840546,339768116
-7,43.0,-30.0,-10971.0,-2180.0,172.0,1627.0,206.428209311483,-300.433790504738,64.8276704178422,339783610
-2,-69.0,-11.0,-10970.0,-2181.0,171.0,1630.0,209.10948557415,-300.342312502135,64.8361783206847,339794345
-29,49.0,36.0,-10969.0,-2181.0,170.0,1631.0,211.433944213022,-300.270037372539,64.86215576514,339802388
-8,-75.0,-53.0,-10968.0,-2181.0,170.0,1634.0,213.385350371408,-300.192535365908,64.8785386389345,339815312
-8,-75.0,-53.0,-10967.0,-2179.0,169.0,1634.0,214.958094895228,-300.146603880624,64.9112914885853,339821589
0,87.0,-117.0,-10965.0,-2176.0,167.0,1637.0,216.168416457481,-300.100446254541,64.9425996993716,339838497
-20,-35.0,-23.0,-10965.0,-2176.0,167.0,1637.0,216.814431584275,-299.994567086019,64.9282260384733,339847099
-18,6.0,4.0,-10963.0,-2177.0,166.0,1641.0,218.024946851969,-299.78328517709,64.9321761297771,339859014
-9,48.0,-75.0,-10963.0,-2177.0,166.0,1641.0,219.079376485839,-299.407064677971,64.9701710699553,339867382
-23,76.0,-57.0,-10962.0,-2174.0,164.0,1645.0,219.90136537482,-298.761439139056,64.9816807629708,339885329
-8,-40.0,-34.0,-10961.0,-2173.0,164.0,1646.0,221.928764360869,-297.813632707731,64.9861841845312,339893811
-12,-118.0,54.0,-10960.0,-2172.0,163.0,1647.0,223.855214329179,-296.548635906071,64.9938773074152,339908835
-18,76.0,-57.0,-10960.0,-2171.0,162.0,1649.0,226.177903896399,-294.928337874079,65.0163873394869,339915117
-12,56.0,-40.0,-10958.0,-2169.0,161.0,1651.0,228.907390385978,-292.91702170007,65.008640961515,339934158
-23,39.0,-56.0,-10958.0,-2168.0,161.0,1654.0,232.065634963306,-290.485705153391,65.0000673295961,339942223
-23,39.0,-56.0,-10958.0,-2166.0,161.0,1653.0,234.433347127486,-287.613613707195,64.9995694994383,339950531
-14,12.0,-66.0,-10957.0,-2165.0,160.0,1656.0,239.758825003762,-283.093952809439,65.0162519598594,339964353
-25,27.0,29.0,-10957.0,-2164.0,160.0,1658.0,245.716599251699,-279.214850981132,65.0085564561767,339978608
-7,-148.0,-23.0,-10957.0,-2161.0,159.0,1661.0,253.694124085583,-272.024590570522,65.0066371318397,339999626
-30,106.0,4.0,-10957.0,-2160.0,160.0,1662.0,256.976301024285,-267.359048371038,65.0080091214276,340015451
-4,-122.0,-18.0,-10956.0,-2158.0,159.0,1664.0,261.93116656376,-262.488074924332,65.0091982400677,340023774
-19,25.0,11.0,-10956.0,-2159.0,160.0,1666.0,266.887296374103,-257.422872162838,65.0017978316213,340031839
-6,-157.0,-10.0,-10956.0,-2156.0,159.0,1669.0,273.470909437425,-252.186597156444,65.0033645416783,340049069
-8,-161.0,-12.0,-10957.0,-2154.0,159.0,1669.0,276.733580373743,-246.792347490511,65.0049560849108,340060882
-21,54.0,10.0,-10957.0,-2154.0,160.0,1671.0,281.576161148049,-243.11614067051,65.0052815209702,340069875
-7,-146.0,-13.0,-10957.0,-2151.0,160.0,1672.0,284.763948443425,-237.492340573195,65.0046249324239,340078899
-20,81.0,-5.0,-10957.0,-2151.0,160.0,1672.0,289.462455185973,-231.747484201252,65.0013795324132,340087717
-23,38.0,1.0,-10957.0,-2151.0,160.0,1674.0,294.068844735016,-227.85807455388,65.0026065913421,340096438
-10,-145.0,3.0,-10956.0,-2148.0,159.0,1677.0,297.083684766368,-221.927104940607,65.0021978354029,340110625
-21,25.0,-8.0,-10956.0,-2148.0,159.0,1677.0,301.513306608722,-217.912138877997,65.0000699429938,340116878
-14,-60.0,22.0,-10956.0,-2145.0,159.0,1679.0,304.409232099062,-211.807057373703,65.0009621519945,340133728
-14,-60.0,22.0,-10957.0,-2145.0,159.0,1682.0,308.651895150684,-205.60527526431,64.9998013809925,340141762
-16,-106.0,-34.0,-10957.0,-2142.0,159.0,1682.0,312.773000034717,-201.423314558659,65.0010172917724,340150180
-8,-151.0,-39.0,-10957.0,-2142.0,160.0,1685.0,316.770707570859,-195.079633637812,65.0011400110721,340163668
-8,-151.0,-39.0,-10957.0,-2140.0,160.0,1685.0,319.366073889429,-188.649487206848,65.0012948169827,340170406
-10,-119.0,-66.0,-10958.0,-2139.0,160.0,1687.0,323.154528795782,-184.31505544453,65.0018560654083,340178218
-17,7.0,68.0,-10958.0,-2137.0,160.0,1688.0,326.813185765146,-175.538668419336,64.9998571069504,340190869
-30,32.0,70.0,-10958.0,-2136.0,160.0,1689.0,330.338266471539,-171.105002638143,64.9994472959508,340207559
-24,-42.0,83.0,-10958.0,-2135.0,160.0,1691.0,333.727975980762,-164.396307255473,64.9997529669903,340215080
-11,-119.0,-71.0,-10959.0,-2132.0,161.0,1694.0,336.98184735571,-157.619361987311,65.0004003402875,340231809
-25,-26.0,67.0,-10959.0,-2130.0,161.0,1694.0,339.075932846439,-150.770769323616,65.0001126824275,340240401
-7,-124.0,-65.0,-10959.0,-2129.0,161.0,1696.0,342.104670276942,-146.168434072715,64.9999077770801,340249001
-9,-93.0,-45.0,-10960.0,-2127.0,161.0,1697.0,344.991100363962,-139.217848038478,65.00041835432,340259908
-11,-170.0,-18.0,-10960.0,-2127.0,162.0,1699.0,346.835664803914,-132.217071960698,65.0002134491233,340273847
-30,-22.0,9.0,-10960.0,-2124.0,162.0,1700.0,349.484560361359,-125.159825224634,64.9995914121533,340282142
-30,-22.0,9.0,-10960.0,-2124.0,162.0,1702.0,351.993028383797,-120.422948074452,65.0001380187294,340290559
-21,-41.0,-13.0,-10961.0,-2122.0,162.0,1702.0,354.357105912103,-113.276694949162,64.9999618212567,340299364
-26,-23.0,-34.0,-10961.0,-2120.0,162.0,1704.0,355.852810403654,-106.082044902286,64.9995446897996,340313240
-5,-123.0,37.0,-10961.0,-2119.0,162.0,1705.0,357.975410843353,-98.8500318911028,64.9997208865834,340323163
-5,-123.0,37.0,-10962.0,-2118.0,163.0,1706.0,359.949183538341,-94.0056495003099,65.0000912961499,340331286
-5,-159.0,-76.0,-10962.0,-2115.0,163.0,1709.0,362.353355627302,-84.2644785729355,65.0000732812793,340348651
-34,-45.0,86.0,-10962.0,-2115.0,163.0,1711.0,363.456800084893,-76.9148515991933,64.9997856239113,340362716
0,-166.0,-85.0,-10963.0,-2112.0,163.0,1712.0,365.465651805327,-69.5354762933776,64.9995446895098,340375915
-30,-73.0,85.0,-10963.0,-2112.0,164.0,1714.0,366.797785732367,-59.6556339200278,64.9997676093403,340387651
-12,-101.0,-91.0,-10963.0,-2110.0,164.0,1715.0,367.97962162637,-52.2155809925551,65.0000552664989,340396406
-4,-104.0,-87.0,-10964.0,-2108.0,164.0,1717.0,369.320952791709,-44.7513376769524,64.999591411969,340410715
0,-99.0,-69.0,-10964.0,-2106.0,164.0,1719.0,369.890363123528,-37.2712400963702,64.9998790691931,340423181
0,-99.0,-69.0,-10964.0,-2105.0,165.0,1720.0,370.619307403211,-32.2766523427843,64.9995914119954,340431120
-20,-109.0,32.0,-10964.0,-2104.0,165.0,1722.0,371.196749651869,-24.771253157844,64.999814331811,340439908
-30,-36.0,7.0,-10965.0,-2103.0,165.0,1723.0,371.62175349676,-17.2588045728407,64.9999905294665,340452226
-23,-67.0,-18.0,-10965.0,-2102.0,165.0,1724.0,371.820283237824,-9.735719841172,64.999461937795,340468239
3,-236.0,0.0,-10965.0,-2101.0,166.0,1726.0,371.992420284487,-4.71864347015452,64.9994439231326,340477388
-10,-216.0,17.0,-10965.0,-2099.0,166.0,1727.0,372.011578563015,5.31616394321407,64.9999905292111,340486268
-8,-150.0,16.0,-10966.0,-2097.0,166.0,1729.0,371.878094497942,12.8413539300237,64.9999905291197,340503082
-8,-150.0,16.0,-10966.0,-2096.0,166.0,1731.0,371.592828279596,20.3584309826195,64.999537368468,340510616
-11,-96.0,-62.0,-10966.0,-2095.0,166.0,1732.0,371.156950943976,25.36437289303,64.9993431568848,340522141
-9,-121.0,-74.0,-10966.0,-2094.0,167.0,1734.0,370.780110485147,32.8694499556272,64.9998610545093,340530765
-19,-112.0,-67.0,-10966.0,-2093.0,167.0,1735.0,370.089741893155,40.3595064983141,64.9993791858521,340547768
-19,-159.0,37.0,-10968.0,-2092.0,168.0,1736.0,369.248682724473,45.3424294323908,64.9991849744654,340555756
-17,-160.0,39.0,-10968.0,-2091.0,169.0,1737.0,368.255676065373,55.2854346213789,64.9996201199799,340568301
-23,-95.0,-72.0,-10969.0,-2089.0,169.0,1738.0,367.11202654366,60.2426145706335,65.0001774196627,340576912
-17,-177.0,11.0,-10970.0,-2087.0,170.0,1741.0,365.817731111462,70.1219468071195,65.0002241427632,340590269
-6,-90.0,-61.0,-10970.0,-2088.0,171.0,1744.0,364.374298087559,75.0421770067783,64.9995660763611,340599349
-32,-354.0,-111.0,-10970.0,-2090.0,171.0,1746.0,362.782157146693,82.4000569179457,64.9991489457646,340613364
-19,-485.0,-150.0,-10970.0,-2092.0,172.0,1750.0,361.040786193383,89.7225354258191,65.0001126826235,340626934
0,-373.0,-158.0,-10970.0,-2092.0,172.0,1751.0,359.151302244125,97.0072709892943,64.9996415071994,340635531
-65,-355.0,-27.0,-10970.0,-2091.0,172.0,1752.0,357.811779170877,101.840593909941,64.9993071281456,340643560
-27,-265.0,-150.0,-10973.0,-2087.0,174.0,1751.0,355.677456739468,109.059415151853,65.0000299302895,340654006
34,-382.0,-155.0,-10975.0,-2081.0,174.0,1747.0,354.173944348583,113.845506284019,65.0001233756077,340669438
70,-568.0,-280.0,-10975.0,-2079.0,174.0,1744.0,352.606411708155,120.987202710125,65.0001881128198,340679376
-80,-239.0,-168.0,-10975.0,-2079.0,174.0,1744.0,350.134627118875,125.722913733105,65.0003643100744,340688536
-37,-564.0,-307.0,-10978.0,-2074.0,174.0,1738.0,347.519445762346,132.778436522104,65.0000299305908,340697314
-194,-376.0,13.0,-10981.0,-2068.0,175.0,1730.0,345.698118739594,139.7796486306,64.9993071281456,340705270
-194,-376.0,13.0,-10983.0,-2059.0,175.0,1724.0,342.846264766788,144.419600609374,65.0002528505277,340711485
196,-377.0,-207.0,-10982.0,-2046.0,171.0,1717.0,339.853786701101,151.324692749321,65.0004757705416,340728434
-114,-350.0,37.0,-10986.0,-2035.0,171.0,1708.0,336.72327964251,158.168630000957,64.999605478628,340736915
-168,-293.0,-235.0,-10994.0,-2005.0,168.0,1677.0,333.455367457634,167.192503710671,64.9995407414912,340752620
168,88.0,212.0,-10994.0,-2005.0,168.0,1677.0,330.049401834307,173.882299531419,65.0002995731255,340759529
-37,-111.0,-30.0,-10999.0,-1964.0,163.0,1648.0,326.508633624515,178.303657902182,64.9999758866094,340775689
-12,-307.0,-147.0,-11002.0,-1948.0,160.0,1631.0,322.83514735727,184.871301526743,64.999494018649,340784005
-17,-81.0,-152.0,-11008.0,-1906.0,154.0,1597.0,319.030433318365,191.363291666757,64.9993178219802,340800861
130,41.0,-248.0,-11008.0,-1906.0,154.0,1597.0,315.092837019431,197.779921582823,65.0002455289609,340808302
47,-14.0,118.0,-11011.0,-1884.0,152.0,1581.0,311.0277856435,204.11322163779,65.0001700985287,340820844
-176,-178.0,66.0,-11016.0,-1864.0,150.0,1562.0,306.834091077261,210.36278616286,64.9999111494614,340827965
0,22.0,-56.0,-11021.0,-1822.0,144.0,1526.0,302.517134275,216.525664545757,64.9992350711658,340840973
78,11.0,-286.0,-11024.0,-1800.0,141.0,1509.0,298.0746410389,222.603293968668,64.9999111496422,340857584
58,105.0,-180.0,-11027.0,-1776.0,138.0,1490.0,293.509730605202,228.587845837857,65.0002168213784,340870011
-137,-147.0,-69.0,-11031.0,-1757.0,137.0,1472.0,288.825338302575,234.478192919643,65.0001807917404,340876936
66,-203.0,-102.0,-11038.0,-1711.0,132.0,1434.0,284.023699603766,240.272006409086,64.9997169381621,340893592
17,121.0,122.0,-11043.0,-1687.0,130.0,1414.0,280.756483861929,245.969252395592,64.9997456465663,340904200
-143,-80.0,-270.0,-11045.0,-1666.0,128.0,1396.0,274.07074238173,251.566222059049,64.9999758867827,340917000
-143,-80.0,-270.0,-11048.0,-1644.0,125.0,1377.0,268.926905241628,258.858517264602,64.9998464124473,340923273
200,-58.0,-176.0,-11055.0,-1596.0,120.0,1338.0,263.720866556111,264.126267520345,65.0018549295804,340939757
-1,85.0,-14.0,-11055.0,-1596.0,120.0,1338.0,258.526758917933,267.493732408629,65.0090052458391,340948170
111,84.0,27.0,-11061.0,-1552.0,116.0,1300.0,253.337763671778,273.764025565952,65.0194494074061,340965325
243,-103.0,-242.0,-11064.0,-1528.0,114.0,1282.0,248.178454214807,278.007712953791,65.0201014216433,340979191
0,103.0,-160.0,-11067.0,-1506.0,111.0,1264.0,243.078950715522,281.837685804661,65.0078739995256,340988531
-222,-264.0,-89.0,-11070.0,-1482.0,110.0,1243.0,238.035252581093,285.252809232186,64.9890813767574,340997216
20,272.0,75.0,-11076.0,-1433.0,106.0,1208.0,233.084721927988,288.270745670804,64.9960841029707,341011492
29,16.0,0.0,-11079.0,-1414.0,104.0,1187.0,226.655749530623,290.861798933957,64.9842914155009,341027948
-180,-73.0,-243.0,-11084.0,-1393.0,104.0,1165.0,221.996667175939,293.044479222601,64.992334515415,341036217
-203,-204.0,142.0,-11091.0,-1341.0,100.0,1125.0,215.969548919397,295.264637709744,64.9349021566765,341052453
56,-222.0,-322.0,-11092.0,-1322.0,98.0,1108.0,213.043537990394,296.506387569828,64.9388009049212,341065612
56,-222.0,-322.0,-11097.0,-1300.0,98.0,1087.0,208.712085359499,297.458770586556,64.9518044410159,341071854
-90,-81.0,-184.0,-11097.0,-1300.0,98.0,1087.0,204.322774814644,297.96290457081,64.9276036801244,341079209
-90,-81.0,-184.0,-11097.0,-1300.0,98.0,1087.0,201.305732377245,298.527126915309,64.894433690558,341079209
-41,-250.0,-124.0,-11113.0,-1186.0,92.0,987.0,196.638805647031,299.01595358267,64.8850495573182,341123588
-41,-250.0,-124.0,-11113.0,-1186.0,92.0,987.0,191.740085925576,299.404006193852,64.866885511727,341123588
-41,-250.0,-124.0,-11113.0,-1186.0,92.0,987.0,186.662441500919,299.636569356179,64.8534478196983,341123588
-1,-76.0,-200.0,-11120.0,-1141.0,91.0,944.0,181.420836261559,299.96252080088,64.8149820558044,341140480
-10,-104.0,-90.0,-11120.0,-1141.0,91.0,944.0,177.890091726625,300.128075188338,64.8356372036737,341148896
-43,-7.0,-145.0,-11126.0,-1098.0,90.0,905.0,172.515822251912,300.290273103406,64.8138322271607,341162954
-61,-110.0,-109.0,-11126.0,-1098.0,90.0,905.0,167.067638669323,300.429955642101,64.8059074779509,341169122
-13,-71.0,-107.0,-11160.0,-1040.0,113.0,875.0,161.583539201647,300.512046935933,64.7903633193796,341185194
-13,-71.0,-107.0,-11184.0,-1009.0,133.0,865.0,156.037432082122,300.592579374365,64.7919834568401,341193247
-69,-40.0,-83.0,-11187.0,-987.0,133.0,844.0,152.34117781664,300.694373135892,64.8140484577126,341201942
5,-8.0,-158.0,-11190.0,-964.0,132.0,825.0,146.762841682915,300.71854865836,64.8054615058725,341215398
5,-8.0,-158.0,-11193.0,-942.0,132.0,803.0,143.026435434617,300.734406047596,64.7945641230459,341221562
-13,-90.0,-74.0,-11193.0,-942.0,132.0,803.0,139.297273024887,300.768991265736,64.8043234246164,341228586
-54,-32.0,-42.0,-11199.0,-899.0,132.0,762.0,131.812604812045,300.825807996167,64.8203469340055,341248274
-39,-133.0,-142.0,-11202.0,-876.0,131.0,742.0,126.181521065357,300.838229415177,64.8163180295337,341256067
-28,-150.0,-174.0,-11205.0,-854.0,131.0,724.0,122.428472506503,300.828418115823,64.8090259298701,341268605
-2,32.0,-105.0,-11209.0,-830.0,132.0,704.0,116.798942802924,300.877183364964,64.8571297694918,341274837
-5,18.0,-44.0,-11213.0,-787.0,131.0,662.0,111.163001006823,300.866644017232,64.8514160878319,341291246
36,-8.0,-107.0,-11216.0,-765.0,131.0,640.0,107.395222725972,300.84609960006,64.8396830963542,341300584
-31,45.0,-181.0,-11219.0,-744.0,131.0,621.0,101.745656652296,300.835872793785,64.8402618472413,341311513
-49,-131.0,-123.0,-11219.0,-744.0,131.0,621.0,96.1169796961043,300.887021637674,64.9010008405793,341317768
-9,-114.0,-103.0,-11224.0,-697.0,131.0,579.0,90.4784424774185,300.849990606531,64.8730195618472,341331872
61,1.0,-33.0,-11226.0,-679.0,131.0,558.0,84.8306655365821,300.843878423589,64.8769851591754,341340494
-122,-116.0,-145.0,-11229.0,-656.0,131.0,536.0,79.185845916725,300.862307324657,64.9053410257984,341356500
-122,-116.0,-145.0,-11232.0,-634.0,132.0,517.0,73.5376831051908,300.853024465486,64.9074626347717,341362704
31,74.0,-141.0,-11234.0,-609.0,132.0,497.0,67.9116147163555,300.858044209664,64.9195767723065,341379931
46,-131.0,-157.0,-11237.0,-589.0,133.0,478.0,62.2662665770049,300.831721216581,64.9292676814759,341388435
-4,144.0,-2.0,-11241.0,-545.0,133.0,434.0,54.7345558576097,300.831530926525,64.9351742832599,341405319
-137,-250.0,-95.0,-11242.0,-526.0,133.0,413.0,50.9779747836286,300.830769436303,64.9377056652655,341417999
13,133.0,-84.0,-11245.0,-501.0,133.0,392.0,45.3421564394675,300.813523484065,64.9448809627744,341424313
13,133.0,-84.0,-11245.0,-501.0,133.0,392.0,39.7078871055165,300.825700433158,64.9628165114119,341424313
13,133.0,-84.0,-11245.0,-501.0,133.0,392.0,34.0668955829235,300.826400323176,64.9620905024828,341424313
-201,-151.0,-393.0,-11256.0,-395.0,137.0,286.0,28.4276490609971,300.800575819721,64.9610637624128,341473190
-235,-263.0,148.0,-11257.0,-368.0,136.0,269.0,20.9150129037813,300.808557468782,64.9704731590284,341481204
164,213.0,-193.0,-11257.0,-368.0,136.0,269.0,13.3979586327471,300.817959414341,64.9765135298764,341489924
-54,-102.0,-25.0,-11259.0,-350.0,137.0,246.0,9.64436242644273,300.806416451204,64.9751360191871,341499491
-239,38.0,-418.0,-11262.0,-307.0,138.0,201.0,4.00816080127267,300.803451209344,64.9798765461151,341513804
270,324.0,-328.0,-11263.0,-283.0,138.0,184.0,-1.62689317853347,300.787773637849,64.9823184493886,341526569
0,98.0,-25.0,-11266.0,-262.0,140.0,161.0,-7.2617443579173,300.756687188209,64.9801488479056,341537628
23,247.0,-91.0,-11266.0,-242.0,140.0,141.0,-11.0197337912295,300.740516299859,64.9788238708074,341545499
23,247.0,-91.0,-11266.0,-225.0,139.0,118.0,-16.6489632706666,300.754890734962,64.985103021894,341553472
-43,57.0,-600.0,-11269.0,-204.0,141.0,103.0,-20.4041883094138,300.766856778057,64.9891076470569,341566505
-43,57.0,-600.0,-11270.0,-184.0,141.0,86.0,-26.039802117367,300.765307498714,64.9865568222482,341572817
-113,-314.0,-597.0,-11270.0,-170.0,141.0,66.0,-31.6755527856346,300.763658019498,64.9809606468665,341588582
-90,78.0,-11.0,-11270.0,-137.0,141.0,30.0,-37.3091345167768,300.778416248872,64.9848191274786,341601898
85,197.0,-350.0,-11270.0,-137.0,141.0,30.0,-41.06513770289,300.785599930459,64.9888571747198,341609423
135,300.0,-253.0,-11274.0,-106.0,144.0,4.0,-46.6988905947913,300.799498754722,64.9896406057624,341621987
95,191.0,-29.0,-11274.0,-106.0,144.0,4.0,-52.3386106653463,300.797761174398,64.9788938711461,341629080
-159,18.0,-265.0,-11273.0,-82.0,143.0,-25.0,-57.9764566013335,300.798429281054,64.9771270244605,341645292
-159,18.0,-265.0,-11273.0,-71.0,143.0,-35.0,-63.6115083793506,300.814031916233,64.9770340298884,341653404
29,-15.0,-520.0,-11273.0,-60.0,143.0,-49.0,-67.370133332516,300.817681877112,64.9797949139344,341663829
7,-66.0,-519.0,-11273.0,-60.0,143.0,-49.0,-71.1305280816773,300.827898493545,64.9782302389651,341670017
-42,99.0,-391.0,-11274.0,-43.0,144.0,-67.0,-78.6451993898522,300.83374868899,64.9630226831322,341684475
126,215.0,-461.0,-11274.0,-34.0,144.0,-79.0,-84.2837125133254,300.822731644165,64.9454750989202,341701501
-162,68.0,-339.0,-11274.0,-34.0,144.0,-79.0,-89.923387514068,300.83694757591,64.9398257752471,341709027
-217,5.0,-441.0,-11276.0,-20.0,146.0,-91.0,-95.5665289157321,300.837979226559,64.9381231852292,341724559
183,-75.0,-268.0,-11278.0,-8.0,148.0,-98.0,-101.209808248465,300.849933614702,64.9434657241075,341732378
270,94.0,-68.0,-11278.0,3.0,148.0,-109.0,-104.966632474947,300.848165254514,64.9237277853108,341741023
154,-59.0,-158.0,-11278.0,3.0,148.0,-109.0,-110.604896709371,300.835000069591,64.9084658935726,341749594
85,-34.0,-301.0,-11278.0,37.0,148.0,-142.0,-116.253023533643,300.861242602087,64.8964207946392,341763730
263,-190.0,-233.0,-11277.0,62.0,148.0,-165.0,-121.893482195398,300.85394589928,64.8895554639244,341776418
263,-190.0,-233.0,-11276.0,92.0,148.0,-194.0,-125.669903622589,300.895925412013,64.9052950270192,341784233
26,-193.0,-148.0,-11275.0,128.0,147.0,-231.0,-131.315767975425,300.89833111107,64.8863852101447,341794959
26,-193.0,-148.0,-11275.0,175.0,149.0,-272.0,-136.949542475597,300.861837650235,64.8390993820398,341803377
547,106.0,38.0,-11276.0,286.0,154.0,-367.0,-142.601924299925,300.905531475454,64.8532040841545,341822882
353,-61.0,-198.0,-11276.0,286.0,154.0,-367.0,-148.274771060388,300.930558621175,64.8663016370518,341829964
107,-244.0,-227.0,-11273.0,350.0,156.0,-430.0,-153.90817447069,300.916790826486,64.8270415657677,341838515
403,67.0,72.0,-11269.0,505.0,163.0,-570.0,-159.563082469488,300.938711256774,64.8080148879355,341856645
403,67.0,72.0,-11266.0,595.0,169.0,-651.0,-163.326705286493,300.93658154155,64.7955415831532,341862927
279,-91.0,-292.0,-11261.0,689.0,174.0,-738.0,-168.907819501197,300.960201171284,64.8112445138458,341875369
279,-91.0,-292.0,-11254.0,792.0,180.0,-836.0,-174.316527504927,300.930095854877,64.7844265321835,341883390
257,190.0,-13.0,-11246.0,902.0,188.0,-938.0,-179.50503235062,300.876093524104,64.7517541863718,341892192
252,372.0,154.0,-11237.0,1021.0,199.0,-1045.0,-182.846642444911,300.884175052852,64.7750243280034,341909307
304,-151.0,-122.0,-11226.0,1144.0,210.0,-1160.0,-187.587798348909,300.803804027079,64.761136937924,341918807
46,290.0,210.0,-11199.0,1397.0,237.0,-1396.0,-192.039804532313,300.779257826656,64.7810541104394,341933065
49,-120.0,-238.0,-11184.0,1530.0,254.0,-1516.0,-196.145316998638,300.64230649855,64.7677484049225,341941707
-41,-211.0,-376.0,-11184.0,1530.0,254.0,-1516.0,-199.937729960626,300.616014583624,64.8166092666043,341950152
186,224.0,297.0,-11148.0,1799.0,36.0,-1763.0,-204.415609342283,300.49470525145,64.8160653341501,341964327
45,264.0,306.0,-11104.0,2073.0,81.0,-2018.0,-206.425360234616,300.425916199821,64.8194508801226,341981432
38,-36.0,-178.0,-11104.0,2073.0,81.0,-2018.0,-209.10878370633,300.342815681906,64.8465255719132,341990276
-97,-290.0,-454.0,-11080.0,2211.0,106.0,-2143.0,-211.437547463162,300.271193474339,64.8724565572837,341998978
89,-51.0,-59.0,-11026.0,2488.0,161.0,-2400.0,-213.946279901215,300.165853657525,64.8833269239165,342013779
6,211.0,107.0,-10998.0,2629.0,192.0,-2529.0,-215.805002515169,300.118910615158,64.9398632871026,342026529
131,175.0,97.0,-10936.0,2907.0,3.0,-2785.0,-216.774721114454,300.057920556208,64.9586270400293,342045091
131,175.0,97.0,-10901.0,3046.0,38.0,-2913.0,-217.283183606539,300.018557049025,65.0919388604772,342053537
-48,-164.0,-363.0,-10901.0,3046.0,38.0,-2913.0,-217.907921088604,299.98852862349,65.3054718121519,342060753
