ACC_X,ACC_Y,ACC_Z,QUAT_W,QUAT_X,QUAT_Y,QUAT_Z,X_pos,Y_pos,Z_pos,t
-14,308.0,-127.0,-9721.0,5916.0,139.0,-5627.0,-218.682426971897,299.999730228579,66.3096658754593,568157498
-14,308.0,-127.0,-9651.0,6042.0,209.0,-5740.0,-218.913628165934,300.028970298016,67.2743495773473,568165246
-42,-40.0,-307.0,-9581.0,6168.0,28.0,-5857.0,-219.170570748577,300.028788462683,69.0166199132937,568173699
1,-122.0,-26.0,-9508.0,6293.0,101.0,-5969.0,-219.394717298347,300.056247615806,70.109860219579,568189688
123,21.0,23.0,-9435.0,6417.0,178.0,-6082.0,-219.541203846433,300.031529851568,71.9543784872397,568202270
-151,241.0,-341.0,-9285.0,6662.0,79.0,-6303.0,-219.640712383811,300.023549276278,73.3804586715709,568214331
62,-93.0,62.0,-9207.0,6784.0,161.0,-6414.0,-219.730418589643,300.073327264196,75.901452652677,568223208
-81,175.0,-265.0,-9128.0,6903.0,241.0,-6522.0,-219.82758362381,300.078569015644,78.7474278976163,568231959
7,-9.0,4.0,-9049.0,7023.0,70.0,-6630.0,-219.894815029716,300.130109283027,80.8427022792865,568245977
7,-9.0,4.0,-9049.0,7023.0,70.0,-6630.0,-219.913861466507,300.093985912688,83.0239886059718,568252245
37,-3.0,-236.0,-8885.0,7259.0,242.0,-6842.0,-219.996101597032,300.1591789957,86.7476103495231,568266993
-30,263.0,28.0,-8801.0,7374.0,74.0,-6947.0,-220.067960615745,300.211190947517,92.2707484300911,568277603
-52,-221.0,-215.0,-8715.0,7490.0,162.0,-7051.0,-220.14041218814,300.276567835498,96.820970974974,568292615
-106,111.0,147.0,-8628.0,7603.0,252.0,-7154.0,-220.1484028942,300.299241257825,101.592586800935,568299069
180,212.0,211.0,-8454.0,7828.0,184.0,-7356.0,-220.22671219034,300.362974353568,106.596670202891,568314124
142,352.0,101.0,-8272.0,8047.0,119.0,-7556.0,-220.25891305355,300.396032923628,111.715893087858,568332104
142,352.0,101.0,-8272.0,8047.0,119.0,-7556.0,-220.295375423576,300.414379018874,118.687019789711,568332104
-82,23.0,-107.0,-7992.0,8365.0,158.0,-7845.0,-220.310764457212,300.43669032187,124.065466016537,568368864
-82,23.0,-107.0,-7992.0,8365.0,158.0,-7845.0,-220.336503897218,300.46877063916,127.664958679567,568368864
-94,181.0,-9.0,-7897.0,8468.0,0.0,-7938.0,-220.350511254283,300.484599915623,134.950433754997,568376701
-272,41.0,-11.0,-7802.0,8567.0,96.0,-8026.0,-220.376900935566,300.500189197017,138.600710276291,568391933
-315,-92.0,-86.0,-7714.0,8656.0,186.0,-8108.0,-220.375023789964,300.512740333932,144.10651228597,568398063
-266,-13.0,-39.0,-7625.0,8745.0,22.0,-8190.0,-220.389634612034,300.518266945345,149.674671163748,568411598
-100,336.0,27.0,-7540.0,8830.0,112.0,-8265.0,-220.389655415166,300.528412892757,155.239615115861,568420848
-75,234.0,8.0,-7384.0,8981.0,19.0,-8401.0,-220.37992326153,300.532137323603,158.972610077289,568434096
-248,-176.0,-161.0,-7315.0,9043.0,87.0,-8458.0,-220.38996689863,300.527122874497,166.416139556802,568447674
-408,141.0,-181.0,-7250.0,9103.0,155.0,-8512.0,-220.391739730315,300.529492870695,172.035295003944,568460857
-199,204.0,31.0,-7139.0,9206.0,18.0,-8603.0,-220.395150942874,300.534396203438,179.50339406115,568477021
-199,204.0,31.0,-7089.0,9250.0,69.0,-8643.0,-220.38538882048,300.518869391922,186.971324295938,568485122
-360,97.0,40.0,-7045.0,9286.0,110.0,-8676.0,-220.389582128085,300.526298986496,192.610815015008,568501644
-285,24.0,-105.0,-6975.0,9347.0,183.0,-8730.0,-220.388274170556,300.523711068302,198.25133195982,568516101
-285,24.0,-105.0,-6949.0,9370.0,210.0,-8750.0,-220.378930156512,300.511018612093,203.869549985899,568525018
-58,148.0,-30.0,-6929.0,9388.0,231.0,-8764.0,-220.371122902267,300.500120835242,207.588367801399,568541373
-246,132.0,-157.0,-6911.0,9400.0,243.0,-8776.0,-220.374135235517,300.505487116667,213.215496070025,568547618
-229,108.0,68.0,-6901.0,9407.0,251.0,-8783.0,-220.356651003635,300.480890232646,218.83059134269,568557194
-142,139.0,48.0,-6901.0,9408.0,254.0,-8784.0,-220.344170797641,300.463368693718,224.445008902434,568573726
-57,361.0,73.0,-6908.0,9403.0,249.0,-8780.0,-220.36036189212,300.483874149477,228.210477796542,568582595
-4,235.0,62.0,-6908.0,9403.0,249.0,-8780.0,-220.357360951823,300.48236174247,233.861966805393,568590368
12,188.0,49.0,-6920.0,9393.0,236.0,-8770.0,-220.369996525898,300.499591786992,237.619362808336,568603061
-58,340.0,-35.0,-6939.0,9377.0,216.0,-8755.0,-220.377061992891,300.514250308925,243.278866309623,568610071
-6,181.0,-40.0,-6965.0,9355.0,191.0,-8736.0,-220.374602851361,300.506124764668,246.9975469395,568618008
-128,342.0,-79.0,-7033.0,9297.0,122.0,-8683.0,-220.386304991639,300.522333721112,252.670536395658,568643060
-128,342.0,-79.0,-7033.0,9297.0,122.0,-8683.0,-220.382566889473,300.527453532413,258.302213975683,568643060
152,333.0,286.0,-7124.0,9219.0,30.0,-8613.0,-220.399241598642,300.540729559431,262.090862584042,568655661
133,223.0,54.0,-7177.0,9171.0,230.0,-8569.0,-220.394180855438,300.534741020005,267.684716174916,568663280
-136,299.0,-238.0,-7234.0,9121.0,171.0,-8522.0,-220.403600234611,300.54839066851,273.34446428285,568680335
-75,295.0,-242.0,-7298.0,9063.0,105.0,-8469.0,-220.402191342996,300.554670853222,278.976382450409,568688201
-12,304.0,-42.0,-7444.0,8927.0,212.0,-8346.0,-220.417717104092,300.564532789894,284.628610368696,568704016
60,455.0,277.0,-7444.0,8927.0,212.0,-8346.0,-220.418279620261,300.565934842395,290.248981533502,568711168
9,498.0,125.0,-7521.0,8853.0,131.0,-8277.0,-220.427528559431,300.580057585044,295.89716955247,568719360
2,168.0,195.0,-7680.0,8697.0,220.0,-8131.0,-220.427842352455,300.585082574916,299.652584269473,568736130
35,21.0,-94.0,-7680.0,8697.0,220.0,-8131.0,-220.439233464341,300.596522271865,303.418137661919,568742954
-157,-30.0,-288.0,-7849.0,8524.0,44.0,-7972.0,-220.443994002541,300.604581699723,309.058790532291,568755405
97,70.0,-24.0,-7936.0,8432.0,210.0,-7888.0,-220.456941493507,300.620165739757,314.726857150163,568766016
-110,224.0,-137.0,-8021.0,8339.0,120.0,-7802.0,-220.464399264156,300.630838993919,320.333991639658,568774568
-166,199.0,-193.0,-8106.0,8245.0,30.0,-7714.0,-220.479690848002,300.651439134247,324.110626195701,568790562
-166,199.0,-193.0,-8190.0,8150.0,196.0,-7625.0,-220.489425898433,300.667484579883,329.782801940934,568796838
-174,-98.0,-347.0,-8275.0,8053.0,107.0,-7533.0,-220.499743083864,300.684975772513,335.435444517385,568810060
160,196.0,158.0,-8359.0,7952.0,17.0,-7439.0,-220.515987707209,300.705279152522,341.043314228253,568818155
139,294.0,200.0,-8526.0,7743.0,94.0,-7251.0,-220.53413888449,300.729716433411,346.71134692771,568837464
139,294.0,200.0,-8526.0,7743.0,94.0,-7251.0,-220.546464586432,300.753879426947,350.496792366338,568844138
77,157.0,60.0,-8689.0,7534.0,176.0,-7054.0,-220.574497069259,300.781727028346,356.199324415755,568856683
-97,188.0,-133.0,-8769.0,7428.0,92.0,-6956.0,-220.589172477522,300.815140106965,361.864839186407,568864390
139,-157.0,-125.0,-8847.0,7318.0,5.0,-6855.0,-220.620477404808,300.8610897579,367.448430032293,568873073
102,48.0,76.0,-8926.0,7207.0,178.0,-6754.0,-220.649752716716,300.89880791773,372.895603009033,568892395
-230,77.0,-172.0,-9080.0,6983.0,13.0,-6546.0,-220.674991274115,300.931392467973,378.140790934345,568904938
264,37.0,92.0,-9080.0,6983.0,13.0,-6546.0,-220.699205645906,300.958385036964,384.739454140806,568912291
200,167.0,129.0,-9227.0,6757.0,110.0,-6336.0,-220.717439428018,300.977907958949,389.322856234227,568929370
-315,-128.0,-343.0,-9297.0,6640.0,31.0,-6233.0,-220.725686618793,300.989658381216,393.594215643716,568937378
88,52.0,-42.0,-9439.0,6404.0,135.0,-6018.0,-220.716168915984,300.975671199123,400.08868142582,568960369
37,255.0,-15.0,-9509.0,6286.0,61.0,-5907.0,-220.704607522126,300.958140951092,403.46567820598,568968376
22,-72.0,0.0,-9641.0,6048.0,173.0,-5688.0,-220.693972648309,300.935975556351,405.496097413922,568984605
31,257.0,-122.0,-9641.0,6048.0,173.0,-5688.0,-220.668269978922,300.899228482485,408.291394204412,568991919
-81,-191.0,-205.0,-9768.0,5805.0,34.0,-5465.0,-220.620234172153,300.847119623575,410.706276100162,569004472
129,-71.0,34.0,-9891.0,5557.0,156.0,-5239.0,-220.590781118636,300.784250517798,412.744892101667,569024319
-8,275.0,-250.0,-9949.0,5433.0,91.0,-5125.0,-220.524615693822,300.713455447549,414.38252521513,569033908
131,186.0,-107.0,-9949.0,5433.0,91.0,-5125.0,-220.485458336397,300.633262513911,415.630808652523,569041639
-133,-158.0,80.0,-10006.0,5309.0,28.0,-5014.0,-220.414646634349,300.573318117445,416.585882735473,569054184
-82,103.0,-108.0,-10062.0,5183.0,221.0,-4896.0,-220.34110296492,300.465751365101,417.115144184562,569060959
37,-20.0,-246.0,-10173.0,4928.0,103.0,-4663.0,-220.123784062471,300.389506411549,417.736434267786,569079470
49,-138.0,-70.0,-10224.0,4800.0,46.0,-4549.0,-219.704742636301,300.262115796018,418.265870756332,569087353
-103,154.0,-173.0,-10273.0,4669.0,244.0,-4434.0,-219.027540942588,300.209817902029,418.665395186486,569100422
-103,154.0,-173.0,-10321.0,4541.0,188.0,-4316.0,-218.431709924322,300.164269515336,418.888644244259,569106816
-70,-329.0,74.0,-10417.0,4281.0,84.0,-4075.0,-216.871072706274,300.141022874183,419.257424080314,569123163
128,191.0,-338.0,-10417.0,4281.0,84.0,-4075.0,-214.597943309482,300.134475496511,419.460987522919,569132684
35,109.0,-249.0,-10506.0,4015.0,241.0,-3837.0,-213.485505155415,300.156406928911,419.661224294198,569150324
35,109.0,-249.0,-10548.0,3883.0,195.0,-3719.0,-211.292879421992,300.200719072862,419.798165559559,569156646
-25,-106.0,-10.0,-10588.0,3752.0,149.0,-3598.0,-208.746598310968,300.229307036844,419.911978365536,569172881
21,-165.0,-96.0,-10628.0,3619.0,105.0,-3475.0,-206.839748421695,300.284339556959,420.0175193981,569181271
55,-112.0,-173.0,-10668.0,3484.0,63.0,-3353.0,-203.675802356737,300.327256775657,420.132145815394,569188942
-60,-2.0,-202.0,-10739.0,3213.0,239.0,-3110.0,-201.354909042678,300.404609257764,420.195721528799,569204814
6,43.0,-78.0,-10739.0,3213.0,239.0,-3110.0,-196.219402972159,300.481239923593,420.26012010336,569212140
51,-52.0,-40.0,-10804.0,2941.0,164.0,-2866.0,-193.401661386483,300.552068179671,420.327407901516,569229066
-108,9.0,28.0,-10835.0,2804.0,130.0,-2743.0,-188.87127624572,300.607134912418,420.407622944564,569237633
-108,9.0,28.0,-10835.0,2804.0,130.0,-2743.0,-184.06082140358,300.686104857471,420.463614017312,569244446
-18,41.0,-145.0,-10894.0,2531.0,65.0,-2493.0,-179.037462837124,300.767553597906,420.462636315393,569256974
188,-21.0,-340.0,-10921.0,2392.0,35.0,-2369.0,-175.602044501985,300.81637735898,420.479523372123,569267512
188,-21.0,-340.0,-10946.0,2252.0,7.0,-2246.0,-170.354294270931,300.874027546153,420.482005462943,569275915
-80,126.0,44.0,-10969.0,2115.0,236.0,-2122.0,-166.794680993443,300.913270761626,420.496745718257,569291914
-4,-130.0,-105.0,-10990.0,1977.0,210.0,-1997.0,-161.396220707122,300.942778504411,420.503035402289,569298186
-5,-177.0,-19.0,-11012.0,1840.0,188.0,-1871.0,-155.922625769321,300.962729080046,420.498190334731,569311452
168,106.0,-341.0,-11051.0,1557.0,147.0,-1619.0,-150.399076617049,300.98082550671,420.468445345505,569323452
-305,-47.0,13.0,-11051.0,1557.0,147.0,-1619.0,-144.841550332386,300.995333688868,420.430539125975,569332371
-25,-46.0,-252.0,-11081.0,1281.0,110.0,-1368.0,-139.267109680628,300.992655641059,420.393831673304,569347311
111,168.0,34.0,-11094.0,1142.0,94.0,-1241.0,-133.672619358019,300.989861412257,420.413068812478,569360029
-49,-187.0,-239.0,-11106.0,999.0,80.0,-1114.0,-129.933652361249,300.988850879331,420.381089318897,569367712
-49,-187.0,-239.0,-11118.0,858.0,69.0,-988.0,-124.305938077616,300.98354105993,420.363203380053,569376022
-106,-71.0,-86.0,-11127.0,717.0,58.0,-860.0,-120.551558678315,300.977807057131,420.328357846063,569387481
-100,-31.0,112.0,-11135.0,578.0,50.0,-736.0,-114.918295327104,300.968436016294,420.29546889518,569400561
229,17.0,-360.0,-11146.0,297.0,37.0,-483.0,-109.285785013848,300.957809085663,420.289820663889,569414460
-316,32.0,345.0,-11146.0,297.0,37.0,-483.0,-105.52679152026,300.944411440119,420.253379161969,569423148
-352,-57.0,347.0,-11148.0,154.0,31.0,-355.0,-99.8892467202949,300.9362885256,420.270030647913,569431774
-296,-93.0,234.0,-11150.0,-127.0,29.0,-100.0,-94.240989190794,300.924054569146,420.201833534741,569449582
-296,-93.0,234.0,-11149.0,-269.0,29.0,27.0,-90.4767112964057,300.913864944725,420.216406793677,569455782
-151,-37.0,65.0,-11146.0,-409.0,31.0,153.0,-82.9534304016684,300.902488786946,420.171932787506,569471677
103,-90.0,-317.0,-11141.0,-549.0,35.0,279.0,-75.4335143025808,300.89196323976,420.153485290416,569479800
-224,69.0,445.0,-11136.0,-684.0,40.0,401.0,-69.7899601948551,300.881510676207,420.134290953147,569494464
8,-271.0,-81.0,-11121.0,-945.0,55.0,636.0,-64.1488426138156,300.876721393498,420.118587253377,569507059
-246,-89.0,287.0,-11103.0,-1186.0,73.0,852.0,-54.7439666645303,300.864828539642,420.109588770466,569526015
45,62.0,235.0,-11093.0,-1296.0,82.0,952.0,-49.1091159373264,300.856933892557,420.078103186557,569542823
221,-218.0,-229.0,-11083.0,-1402.0,93.0,1046.0,-45.3506768263092,300.85922415346,420.074150015946,569549136
189,-231.0,-54.0,-11074.0,-1501.0,104.0,1134.0,-39.7103992134612,300.847511131588,420.065271123148,569562573
-268,-57.0,414.0,-11064.0,-1593.0,115.0,1217.0,-35.9465300026323,300.841083729562,420.083716309059,569570998
-29,-156.0,71.0,-11055.0,-1678.0,127.0,1292.0,-30.3107042864186,300.842664649359,420.059131552631,569582380
-324,24.0,468.0,-11045.0,-1756.0,136.0,1363.0,-26.5489757790862,300.843162252691,420.038530906774,569590120
-324,24.0,468.0,-11036.0,-1826.0,146.0,1425.0,-22.7991711616818,300.836466344752,420.017358376557,569596341
17,-165.0,143.0,-11028.0,-1890.0,155.0,1480.0,-17.1611379926376,300.830370607463,420.027471537829,569608849
17,-165.0,143.0,-11021.0,-1945.0,163.0,1528.0,-11.5215272972857,300.830077415133,420.031983022499,569616663
-22,-204.0,62.0,-11013.0,-1995.0,170.0,1573.0,-7.76400275003376,300.831562642576,420.005621594106,569625352
52,-187.0,60.0,-11009.0,-2034.0,178.0,1607.0,-2.12400480034837,300.832484844479,419.997169799945,569634241
-227,116.0,361.0,-11003.0,-2068.0,182.0,1636.0,1.62634199072483,300.83257875549,419.972461053709,569645261
344,-290.0,-37.0,-11002.0,-2097.0,190.0,1660.0,7.26108133450946,300.808902876751,419.95326447378,569657877
-193,-107.0,-178.0,-10996.0,-2147.0,200.0,1704.0,11.0132658493445,300.811109359423,419.956245221123,569674486
-148,-295.0,-144.0,-10996.0,-2147.0,200.0,1704.0,16.6503847862379,300.813631013914,419.965700477738,569682830
272,-395.0,-406.0,-10992.0,-2165.0,202.0,1724.0,22.2933771615995,300.815275455653,419.967953816792,569690577
131,-436.0,-512.0,-10987.0,-2196.0,207.0,1751.0,27.9254271080118,300.818614039619,419.969964606334,569706281
-273,-238.0,-282.0,-10987.0,-2196.0,207.0,1751.0,33.5540321053718,300.826952631727,419.981498012553,569713935
-85,-237.0,-243.0,-10983.0,-2216.0,209.0,1769.0,39.1898622807789,300.823997752768,420.008914628435,569730870
103,-371.0,-352.0,-10979.0,-2223.0,209.0,1778.0,44.8293921376663,300.822460201673,420.002369890388,569738830
-28,-414.0,-365.0,-10978.0,-2232.0,210.0,1786.0,48.5872457081193,300.832431205538,420.00546201771,569752357
-28,-414.0,-365.0,-10978.0,-2232.0,210.0,1786.0,56.1017032875894,300.834592653814,420.013717367655,569752357
-12,-344.0,-223.0,-10971.0,-2249.0,210.0,1802.0,61.7390636386253,300.838656726662,420.008627580014,569789234
-12,-344.0,-223.0,-10971.0,-2249.0,210.0,1802.0,67.3724782181222,300.841676821527,420.014627880959,569789234
61,-320.0,-242.0,-10970.0,-2250.0,208.0,1801.0,73.0068153816249,300.840531086379,420.046155732321,569802112
-63,-317.0,-170.0,-10969.0,-2252.0,208.0,1799.0,76.7692787517006,300.844108656761,420.055119027592,569808545
-36,-223.0,-117.0,-10967.0,-2252.0,205.0,1795.0,84.3002328452604,300.856198917836,420.055892365409,569825442
-2,-162.0,-110.0,-10966.0,-2252.0,204.0,1793.0,89.9291625432794,300.861657236829,420.065674544696,569842283
-69,-186.0,-42.0,-10965.0,-2253.0,204.0,1793.0,95.5669664062427,300.867666269424,420.099218728235,569852767
-61,-179.0,-22.0,-10964.0,-2252.0,202.0,1790.0,101.208899926726,300.871095611483,420.099975802068,569862093
-24,-100.0,-4.0,-10962.0,-2252.0,199.0,1786.0,106.864312105198,300.881663134487,420.113894443955,569878775
-24,-100.0,-4.0,-10961.0,-2253.0,198.0,1784.0,112.50645383023,300.888239845982,420.128151895959,569887138
-49,-123.0,-36.0,-10961.0,-2252.0,198.0,1781.0,118.147426636548,300.899204907884,420.140871490535,569900459
-39,-176.0,-24.0,-10961.0,-2254.0,198.0,1781.0,121.910305525755,300.911479911644,420.17669925555,569910339
14,-106.0,-45.0,-10960.0,-2254.0,197.0,1779.0,127.56446191335,300.924257064217,420.177435012442,569918240
-26,-190.0,24.0,-10958.0,-2255.0,195.0,1775.0,135.103019633406,300.939039469378,420.203875217396,569935442
-67,-127.0,19.0,-10958.0,-2255.0,195.0,1775.0,138.869649465676,300.947876129966,420.213315171206,569942934
-40,-68.0,-34.0,-10958.0,-2257.0,194.0,1772.0,144.527325567194,300.974969691993,420.251868242833,569955941
-51,-136.0,3.0,-10958.0,-2257.0,194.0,1772.0,150.182631000708,300.994692375833,420.283706512696,569963639
2,-157.0,-30.0,-10956.0,-2260.0,193.0,1770.0,155.84251514924,301.030491840561,420.331179468446,569976701
-5,-80.0,-13.0,-10956.0,-2261.0,193.0,1768.0,161.511244378537,301.051364426936,420.355191368445,569992852
-5,-80.0,-13.0,-10956.0,-2263.0,193.0,1767.0,167.128871975639,301.078691442476,418.104966114678,569999068
-8,-107.0,-20.0,-10956.0,-2263.0,192.0,1764.0,170.812009712442,301.095146912263,420.392436002694,570012905
26,-108.0,-10.0,-10955.0,-2265.0,192.0,1763.0,176.174205774002,301.094408749319,420.426461239674,570021436
-24,-131.0,10.0,-10954.0,-2265.0,191.0,1761.0,181.309208031734,301.084231978084,420.440053787947,570029400
29,-146.0,-27.0,-10954.0,-2267.0,191.0,1758.0,184.58535695527,301.066944945772,420.473999969479,570047528
33,-151.0,-48.0,-10953.0,-2270.0,191.0,1757.0,189.259770669733,301.046831713952,420.495686837176,570056526
-67,-140.0,25.0,-10953.0,-2270.0,190.0,1755.0,193.623868267068,301.007041627175,420.497474217386,570065335
56,-116.0,-54.0,-10953.0,-2270.0,190.0,1755.0,196.350222913247,300.963083528524,420.523597271162,570074330
-94,-166.0,65.0,-10953.0,-2273.0,190.0,1751.0,200.14670769466,300.908961480087,420.522942304835,570090796
77,-41.0,-77.0,-10952.0,-2275.0,189.0,1748.0,204.653754769948,300.835828001656,420.503607157012,570106916
-114,-167.0,59.0,-10952.0,-2276.0,189.0,1747.0,207.609220638567,300.783707487408,420.483276252221,570114627
92,-132.0,-84.0,-10952.0,-2276.0,189.0,1747.0,210.18566539292,300.712155063551,420.46185272754,570123699
-138,0.0,97.0,-10951.0,-2278.0,188.0,1743.0,212.386650520071,300.625124426129,420.463257865116,570140452
100,-140.0,-92.0,-10951.0,-2280.0,188.0,1741.0,214.192238596381,300.504846212083,420.387460315185,570152999
-132,-31.0,93.0,-10951.0,-2280.0,188.0,1738.0,215.609946337824,300.439504844056,420.348707921354,570159508
104,-149.0,-96.0,-10950.0,-2283.0,187.0,1736.0,216.68761252592,300.330688425885,420.294745170154,570178515
104,-149.0,-96.0,-10950.0,-2286.0,187.0,1736.0,217.29097624039,300.166055240955,420.27183775149,570187031
-129,-95.0,101.0,-10950.0,-2286.0,187.0,1736.0,218.18762707201,299.979257260391,420.255720958741,570194305
106,-105.0,-87.0,-10949.0,-2288.0,187.0,1732.0,219.200157271563,299.358659621658,420.188409938479,570206690
-102,-58.0,69.0,-10949.0,-2289.0,186.0,1729.0,220.443143666086,298.596668463369,420.145980393746,570223336
52,-82.0,-69.0,-10949.0,-2292.0,186.0,1726.0,221.992967002536,297.912952625132,420.152672388162,570236499
-90,-30.0,62.0,-10949.0,-2292.0,186.0,1726.0,223.224435597361,296.617631687002,420.125264002344,570244553
-56,5.0,51.0,-10948.0,-2293.0,186.0,1725.0,225.401547094885,295.557864198135,420.095395480976,570252533
16,-119.0,-38.0,-10948.0,-2294.0,185.0,1723.0,227.988107903242,293.665148601411,420.068983302661,570261473
-38,-22.0,20.0,-10947.0,-2297.0,185.0,1721.0,231.000690595336,290.515726333709,420.059876878563,570277937
-11,-102.0,-22.0,-10947.0,-2298.0,185.0,1719.0,234.454951131177,288.652700347242,420.053050317368,570286306
-28,-56.0,-9.0,-10947.0,-2298.0,185.0,1719.0,238.368817642307,285.478400370994,420.030042944076,570294206
26,-115.0,-6.0,-10947.0,-2300.0,184.0,1716.0,241.20885819958,281.853993584813,420.015714275805,570306501
45,-146.0,-30.0,-10946.0,-2303.0,184.0,1715.0,245.731497617175,277.848232893545,420.014571846186,570324279
59,-130.0,-41.0,-10946.0,-2303.0,184.0,1713.0,250.465648271183,273.529091885036,420.020525376269,570333034
-90,-19.0,34.0,-10946.0,-2306.0,183.0,1710.0,255.337068574776,268.945265169391,420.017756317121,570347483
-114,-41.0,68.0,-10945.0,-2308.0,183.0,1710.0,260.277709576037,264.138846921489,420.015356557158,570360885
-133,-25.0,57.0,-10945.0,-2309.0,183.0,1708.0,266.890202417657,257.426357655482,420.013015170313,570371820
106,-134.0,-64.0,-10944.0,-2312.0,183.0,1705.0,273.473738915537,252.188599972488,420.005134538504,570388036
-135,58.0,73.0,-10944.0,-2313.0,183.0,1703.0,278.356049955831,246.794507606511,420.006162897617,570401173
-135,58.0,73.0,-10944.0,-2314.0,182.0,1702.0,283.173226572905,241.256126464266,420.007278675686,570407460
-135,108.0,64.0,-10944.0,-2315.0,183.0,1700.0,286.336139845539,235.592790368314,420.008193793289,570424037
109,-235.0,-65.0,-10945.0,-2317.0,183.0,1698.0,291.006164838377,231.752349443261,420.004362177611,570437143
105,-195.0,-58.0,-10945.0,-2317.0,183.0,1698.0,295.582455762295,223.914369058774,420.00298656574,570444430
-132,55.0,60.0,-10945.0,-2321.0,183.0,1694.0,300.050133930772,217.911524784104,420.001579821603,570456962
98,-152.0,-52.0,-10944.0,-2322.0,183.0,1694.0,304.407679503925,211.80619259907,420.003901406179,570465117
-88,10.0,26.0,-10945.0,-2323.0,183.0,1691.0,308.649241841732,205.60667332961,420.004806682813,570482810
43,-46.0,-39.0,-10945.0,-2325.0,184.0,1691.0,312.771830745902,201.424682694931,420.002374525932,570493555
28,-120.0,-20.0,-10945.0,-2328.0,184.0,1688.0,316.770726837405,195.077376573614,419.999773964813,570509145
28,-120.0,-20.0,-10946.0,-2329.0,185.0,1687.0,320.642029583579,188.646240634957,420.000091014617,570517587
1,-90.0,-19.0,-10947.0,-2330.0,186.0,1686.0,324.386609683502,179.943036627744,419.997641243738,570526325
-5,-90.0,-18.0,-10947.0,-2332.0,186.0,1684.0,329.177129874221,171.106046675767,419.996867646617,570543026
-11,45.0,-19.0,-10948.0,-2332.0,187.0,1682.0,332.611587566428,164.395828454148,419.998928662288,570550273
-53,42.0,-8.0,-10950.0,-2336.0,189.0,1679.0,335.91220615832,159.884530321156,420.000456354765,570577911
-67,94.0,-15.0,-10951.0,-2336.0,189.0,1677.0,343.08075937613,143.860115672933,420.000312150222,570594248
-79,77.0,-27.0,-10952.0,-2337.0,191.0,1675.0,345.920812544594,136.890145314483,419.999540694994,570606992
-89,83.0,-29.0,-10952.0,-2340.0,191.0,1674.0,347.734393781584,129.8687493348,420.001625683686,570623070
64,-90.0,-33.0,-10953.0,-2341.0,192.0,1672.0,350.337161558219,122.791375846595,420.001280388662,570631408
72,-111.0,-30.0,-10954.0,-2341.0,193.0,1672.0,352.796419204794,115.665961095252,420.000246656889,570641995
-98,93.0,-35.0,-10954.0,-2342.0,193.0,1670.0,355.111021099325,108.488750289353,419.999912277389,570654438
63,-121.0,-27.0,-10955.0,-2344.0,194.0,1669.0,356.575191280543,103.677532756127,420.001501154206,570661024
-98,93.0,-41.0,-10956.0,-2344.0,195.0,1668.0,358.64922695438,98.8486864942036,420.000570120379,570669446
-97,148.0,-42.0,-10958.0,-2347.0,196.0,1665.0,360.575148271194,91.5728884753191,420.001308828826,570686477
69,-224.0,0.0,-10958.0,-2347.0,196.0,1665.0,361.77727399192,86.7017446602856,420.002443103561,570694328
-102,182.0,-50.0,-10959.0,-2350.0,198.0,1663.0,362.913299894755,79.3694025680536,419.999870767281,570705998
51,-183.0,4.0,-10959.0,-2350.0,198.0,1663.0,364.49327696801,74.4614223830503,420.000074009105,570715043
50,-160.0,9.0,-10961.0,-2349.0,199.0,1661.0,365.465106554175,69.5387006940979,420.00133942216,570723870
-70,73.0,-54.0,-10961.0,-2351.0,200.0,1661.0,366.797067400552,62.129604925214,420.000327522661,570732445
30,-55.0,16.0,-10962.0,-2352.0,201.0,1659.0,367.60103093033,54.6970815111707,420.002504291202,570740536
18,-31.0,8.0,-10964.0,-2353.0,202.0,1657.0,368.68338206281,49.7266070867765,420.002008180699,570756058
-54,32.0,-62.0,-10964.0,-2353.0,202.0,1657.0,369.890260770018,39.766135719217,420.00060071406,570764743
-1,-20.0,-32.0,-10967.0,-2352.0,204.0,1652.0,370.392346868584,32.275882430182,419.999719951893,570777963
-49,288.0,-218.0,-10969.0,-2351.0,205.0,1647.0,371.019873530323,27.274487658798,420.001654123591,570794218
32,129.0,-243.0,-10971.0,-2345.0,205.0,1639.0,371.496053013356,19.7643870328908,420.002392831586,570800490
40,263.0,-258.0,-10973.0,-2340.0,205.0,1632.0,371.820163577784,12.2439503983785,420.000165790979,570813710
40,169.0,-198.0,-10977.0,-2329.0,204.0,1621.0,371.950847186984,4.71789036459337,420.000854227669,570821611
-158,158.0,-230.0,-10980.0,-2316.0,204.0,1611.0,372.021182111876,-2.80489042217125,420.002899857813,570829546
-204,120.0,-295.0,-10990.0,-2274.0,199.0,1574.0,371.939643663033,-7.82331074457596,420.002099962169,570847188
99,128.0,-333.0,-10994.0,-2250.0,195.0,1549.0,371.704810692932,-15.3485545369634,420.000257572768,570859737
16,257.0,-201.0,-10998.0,-2221.0,190.0,1520.0,371.463522522585,-20.3589896782768,420.002657260954,570867333
240,206.0,-442.0,-11004.0,-2186.0,185.0,1488.0,370.976265094305,-27.868976929731,420.00025757275,570876131
-60,209.0,-402.0,-11011.0,-2146.0,180.0,1454.0,370.089883570619,-37.8624543299932,420.000369032537,570892287
131,-49.0,-230.0,-11022.0,-2056.0,164.0,1374.0,369.248188795434,-45.3431174265213,420.001037791027,570908147
542,-188.0,-195.0,-11022.0,-2056.0,164.0,1374.0,368.602352380338,-52.8033695835569,420.00098751896,570915670
-348,166.0,5.0,-11027.0,-2008.0,156.0,1326.0,367.509114289511,-57.765357376079,420.002091199988,570924198
-251,-88.0,170.0,-11041.0,-1887.0,138.0,1220.0,366.696742560931,-65.1893761684063,420.001503308208,570940648
-251,-88.0,170.0,-11048.0,-1817.0,127.0,1157.0,365.352423375524,-72.5856798847211,420.000541680135,570947329
0,54.0,-15.0,-11057.0,-1744.0,118.0,1089.0,363.859512660074,-79.9503393816985,420.001949146627,570963615
117,-264.0,190.0,-11064.0,-1665.0,107.0,1017.0,362.217868299951,-84.8425220469657,420.001898875157,570971727
-171,334.0,-247.0,-11072.0,-1582.0,96.0,941.0,360.427232535444,-94.5812481762852,420.000522001903,570980247
-350,238.0,98.0,-11080.0,-1493.0,87.0,858.0,358.488819625966,-101.842214035277,419.999671833303,570995825
188,-355.0,64.0,-11095.0,-1295.0,66.0,682.0,356.403398860152,-106.660029079381,420.001241032355,571008306
-110,12.0,-123.0,-11095.0,-1295.0,66.0,682.0,354.173597468514,-113.846487496096,420.00181800925,571015753
-157,-20.0,-41.0,-11109.0,-1089.0,49.0,491.0,351.798362036323,-120.988397482802,419.999206315594,571028470
-186,250.0,-242.0,-11114.0,-980.0,41.0,393.0,350.133851993421,-128.080524400728,420.000613783511,571037845
-172,1.0,1.0,-11117.0,-872.0,32.0,294.0,347.51947661266,-132.778448309233,420.001525139501,571051913
173,-236.0,-126.0,-11121.0,-765.0,27.0,196.0,344.762352784798,-139.782113004843,420.001190760484,571065407
223,-323.0,-86.0,-11124.0,-651.0,21.0,97.0,342.844896990595,-146.72853455948,420.000421457763,571073987
-237,58.0,-105.0,-11127.0,-538.0,18.0,-8.0,339.853582528795,-153.613684680735,420.001697786367,571082684
251,-248.0,-121.0,-11128.0,-426.0,15.0,-111.0,336.722866133285,-158.169749297942,420.000482645332,571092779
-240,99.0,-138.0,-11128.0,-311.0,12.0,-213.0,334.558453840544,-164.950035303291,420.000036806367,571105113
-339,136.0,-54.0,-11127.0,-196.0,12.0,-318.0,331.199201268687,-169.431097274413,420.001039943859,571111596
284,-255.0,-126.0,-11121.0,34.0,12.0,-523.0,327.704162191723,-176.096419278629,420.000755837103,571127889
-289,119.0,-77.0,-11118.0,147.0,15.0,-628.0,325.298824268466,-182.6905381803,419.999693664171,571136672
-49,132.0,-228.0,-11118.0,147.0,15.0,-628.0,321.58070079066,-187.044220674413,420.001728380227,571144326
-49,132.0,-228.0,-11118.0,147.0,15.0,-628.0,319.028793548614,-193.511953894431,420.000624698921,571144326
138,-544.0,133.0,-11091.0,615.0,34.0,-1045.0,315.09192744104,-199.900846632365,419.999551610428,571180603
138,-544.0,133.0,-11091.0,615.0,34.0,-1045.0,311.027097163894,-206.204726348721,420.000462966977,571180603
138,-544.0,133.0,-11083.0,729.0,43.0,-1151.0,306.834141624942,-212.427662554323,420.001009350251,571189027
54,-366.0,72.0,-11061.0,960.0,61.0,-1361.0,301.049115336052,-218.561863575631,420.000928484539,571208571
167,109.0,-293.0,-11061.0,960.0,61.0,-1361.0,296.565799660872,-224.608134335125,419.9999668558,571215878
140,53.0,-334.0,-11036.0,1196.0,85.0,-1571.0,293.508990629627,-230.561938358669,419.999409556794,571232706
-199,-120.0,134.0,-11023.0,1312.0,98.0,-1675.0,290.400132009947,-234.47737299342,420.000655292741,571243083
-199,-120.0,134.0,-11007.0,1429.0,112.0,-1777.0,285.636704873677,-240.273114392435,420.000290319775,571249302
36,121.0,-219.0,-10991.0,1542.0,128.0,-1881.0,280.756419780291,-244.081790165,419.999855396024,571262043
36,121.0,-219.0,-10974.0,1661.0,145.0,-1985.0,274.071666730952,-251.564649791341,419.999643391726,571269770
-44,94.0,-239.0,-10936.0,1893.0,182.0,-2194.0,270.65341848614,-257.057547624537,420.000493560769,571286813
-42,-145.0,-150.0,-10936.0,1893.0,182.0,-2194.0,265.457132740903,-260.63882987148,420.001826614964,571294429
44,-51.0,-47.0,-10895.0,2121.0,221.0,-2399.0,260.257010349328,-265.815112943064,420.014589497018,571310063
-77,-60.0,48.0,-10872.0,2238.0,244.0,-2504.0,255.095805665937,-272.242206789268,420.019333607315,571317801
-69,-219.0,-109.0,-10849.0,2353.0,12.0,-2607.0,250.019666516006,-276.626694951759,420.02842823582,571335368
-56,-17.0,18.0,-10800.0,2581.0,61.0,-2811.0,243.446207676441,-281.846422303079,420.033007346074,571349731
-14,25.0,-131.0,-10773.0,2696.0,87.0,-2914.0,238.69842370512,-285.270632078395,420.073789306617,571366464
-110,-92.0,-136.0,-10746.0,2812.0,116.0,-3016.0,232.656060849898,-288.28902500601,420.053914959292,571374898
86,-6.0,-87.0,-10687.0,3037.0,173.0,-3219.0,228.365201480257,-290.894032756603,420.08619281433,571391459
107,49.0,-23.0,-10656.0,3147.0,202.0,-3321.0,224.304371198688,-293.710618386925,420.137110428382,571404486
51,63.0,-73.0,-10593.0,3377.0,13.0,-3523.0,219.272906681822,-295.33018180876,420.153227414493,571418636
-264,134.0,-194.0,-10561.0,3492.0,48.0,-3621.0,215.783602913299,-296.563947177954,420.19465748485,571430112
-95,-159.0,-126.0,-10527.0,3601.0,83.0,-3720.0,213.533302306521,-297.498159302229,420.161560431526,571438795
-4,11.0,-50.0,-10491.0,3712.0,118.0,-3820.0,210.184481838236,-298.206586829039,420.222634532162,571452424
-4,11.0,-50.0,-10454.0,3822.0,155.0,-3921.0,206.818256949289,-298.584381913703,420.280586793478,571458686
1,-131.0,-55.0,-10416.0,3935.0,194.0,-4021.0,203.360810465088,-299.039420484286,420.312371219453,571474389
-129,104.0,-213.0,-10379.0,4046.0,234.0,-4118.0,200.981163874885,-299.408849262988,420.317778670082,571482379
21,-73.0,-103.0,-10298.0,4267.0,58.0,-4314.0,196.006075626195,-299.696699660876,420.323548252213,571499259
67,-72.0,1.0,-10255.0,4377.0,100.0,-4413.0,192.056866887481,-299.92112316205,420.341648516566,571511839
67,-72.0,1.0,-10213.0,4487.0,144.0,-4510.0,187.917690798226,-300.104523322784,420.381754009879,571519530
-68,-43.0,-141.0,-10128.0,4705.0,236.0,-4699.0,183.643336394825,-300.291590071128,420.404554218045,571536903
-159,87.0,-153.0,-10128.0,4705.0,236.0,-4699.0,177.773145603408,-300.442603342364,420.388073032772,571544628
-159,87.0,-153.0,-10128.0,4705.0,236.0,-4699.0,173.283754775041,-300.499321789729,420.395925890994,571544628
1,-92.0,-63.0,-9894.0,5235.0,222.0,-5176.0,168.743305236136,-300.565222158371,420.403624120805,571593020
1,-92.0,-63.0,-9894.0,5235.0,222.0,-5176.0,164.162176378466,-300.609408185234,420.375174384369,571593020
1,-92.0,-63.0,-9844.0,5343.0,18.0,-5270.0,159.550394401186,-300.64601213243,420.356773883607,571599330
-56,68.0,-81.0,-9844.0,5343.0,18.0,-5270.0,156.452487419476,-300.67164943303,420.381576710596,571605602
-74,-72.0,-61.0,-9740.0,5553.0,123.0,-5455.0,151.79416996705,-300.690968683368,420.351426970999,571619691
-97,131.0,-185.0,-9688.0,5653.0,176.0,-5547.0,147.121964730986,-300.701316541451,420.30443134436,571628399
146,-18.0,-143.0,-9634.0,5756.0,231.0,-5640.0,142.443829182678,-300.697872291034,420.297682601689,571645077
30,51.0,11.0,-9580.0,5861.0,33.0,-5730.0,137.755457949439,-300.702906921993,420.307895977467,571654722
-124,41.0,-145.0,-9524.0,5966.0,90.0,-5819.0,134.633069462852,-300.699405683167,420.272665063231,571661035
-137,-82.0,-260.0,-9412.0,6165.0,208.0,-6000.0,129.931894986675,-300.697593054842,420.264030623071,571677317
-20,-41.0,-233.0,-9412.0,6165.0,208.0,-6000.0,125.224230032462,-300.69546022387,420.249969252082,571685645
141,109.0,0.0,-9353.0,6265.0,12.0,-6090.0,122.094994097681,-300.687409844417,420.241455717237,571694110
6,69.0,-54.0,-9294.0,6365.0,72.0,-6177.0,117.386419139136,-300.680970653432,420.210556421572,571706741
90,-179.0,-184.0,-9175.0,6566.0,200.0,-6350.0,114.258054333021,-300.671281863007,420.200043020247,571717504
-221,56.0,-23.0,-9175.0,6566.0,200.0,-6350.0,109.548446927139,-300.666931156183,420.186865383295,571726268
-23,121.0,-207.0,-9114.0,6663.0,7.0,-6438.0,106.414149126337,-300.662354483933,420.167717591842,571734917
151,-29.0,-118.0,-8986.0,6857.0,136.0,-6610.0,101.704990508406,-300.651928440426,420.184035304828,571749284
-74,193.0,23.0,-8986.0,6857.0,136.0,-6610.0,96.995633983975,-300.646663903324,420.164775586528,571755859
-40,66.0,-3.0,-8858.0,7049.0,15.0,-6777.0,93.8657047566499,-300.642168235978,420.153402887284,571770090
-50,73.0,-143.0,-8793.0,7144.0,85.0,-6862.0,89.1577451287429,-300.631051290927,420.125721181939,571781037
-50,73.0,-143.0,-8724.0,7239.0,153.0,-6945.0,84.4539702998994,-300.627651449276,420.110409659609,571789421
-99,283.0,-99.0,-8658.0,7330.0,221.0,-7026.0,81.3198982342347,-300.62381219141,420.113677677048,571803776
-99,283.0,-99.0,-8589.0,7422.0,35.0,-7108.0,76.6113399358637,-300.617230640627,420.104670004138,571810101
70,-44.0,-109.0,-8519.0,7516.0,109.0,-7190.0,70.3414501258111,-300.609169127185,420.077615860299,571826340
-178,157.0,-17.0,-8450.0,7607.0,182.0,-7271.0,67.2069699031111,-300.610472708663,420.072607208288,571834972
-482,378.0,91.0,-8380.0,7699.0,255.0,-7348.0,62.5060212854819,-300.599339532943,420.079612105906,571845890
349,-167.0,-275.0,-8309.0,7787.0,73.0,-7428.0,57.8023456419427,-300.597961778851,420.080943140847,571858284
203,40.0,-223.0,-8164.0,7964.0,225.0,-7584.0,53.0999239307817,-300.595964213651,420.057672678284,571873144
204,114.0,-320.0,-8089.0,8054.0,45.0,-7660.0,49.9677494941149,-300.598548228594,420.034925390001,571881037
204,114.0,-320.0,-8015.0,8141.0,123.0,-7735.0,45.2687884480066,-300.586966970855,420.058662299166,571889454
76,291.0,-249.0,-7939.0,8227.0,202.0,-7812.0,40.5638244507146,-300.58453932232,420.062875858495,571906862
-181,-109.0,135.0,-7865.0,8310.0,23.0,-7885.0,37.4331395719644,-300.588976452609,420.033816322505,571913608
-254,325.0,187.0,-7789.0,8392.0,101.0,-7958.0,32.7354826683849,-300.588292169938,420.016241894193,571921472
-254,325.0,187.0,-7717.0,8471.0,179.0,-8029.0,29.6024883959924,-300.582076748774,420.008806276172,571929718
-315,503.0,76.0,-7647.0,8548.0,253.0,-8092.0,24.899254064781,-300.579193987584,420.021009791065,571946033
43,22.0,-79.0,-7577.0,8621.0,69.0,-8155.0,18.6327644330444,-300.58020949312,420.017527528348,571958419
-191,274.0,103.0,-7445.0,8754.0,208.0,-8275.0,13.9391173950623,-300.581732822982,420.009178075699,571969576
319,162.0,-193.0,-7384.0,8816.0,15.0,-8328.0,10.8046399029448,-300.579584102137,419.982877505096,571978318
316,-121.0,-163.0,-7326.0,8874.0,76.0,-8376.0,4.53918782431761,-300.573911139618,419.992999996067,571994669
-9,163.0,-54.0,-7271.0,8929.0,136.0,-8423.0,-1.72506306373668,-300.569853837294,420.007285071906,572007761
-189,260.0,89.0,-7168.0,9027.0,242.0,-8507.0,-6.42301712275355,-300.54650445988,419.96385165905,572022325
192,262.0,-105.0,-7124.0,9068.0,33.0,-8544.0,-11.1205507053962,-300.555042513174,419.94233362727,572033225
312,114.0,-145.0,-7081.0,9107.0,77.0,-8578.0,-15.8205923645883,-300.568086424758,419.957007898004,572048188
-442,489.0,274.0,-7009.0,9174.0,153.0,-8635.0,-20.5185206096391,-300.570607434617,419.968907774184,572060792
347,93.0,-209.0,-6977.0,9205.0,187.0,-8658.0,-23.6510662439985,-300.572734362735,419.973091940481,572068423
-351,291.0,235.0,-6977.0,9205.0,187.0,-8658.0,-28.3508476721055,-300.572433326962,419.977243399635,572077100
109,-71.0,162.0,-6952.0,9228.0,214.0,-8679.0,-33.0476910307816,-300.573147506006,419.973960564831,572085562
80,-113.0,92.0,-6910.0,9266.0,4.0,-8712.0,-36.181134106429,-300.576562290026,419.974676918443,572102945
80,-113.0,92.0,-6894.0,9283.0,22.0,-8722.0,-40.8779683855921,-300.579202079156,419.997930133872,572109429
-65,224.0,-120.0,-6883.0,9295.0,35.0,-8730.0,-44.0102841303759,-300.574769362433,420.011313118834,572125242
-394,24.0,41.0,-6875.0,9306.0,45.0,-8733.0,-48.7098720735274,-300.577095369618,420.012196917578,572133451
-201,130.0,-171.0,-6867.0,9313.0,53.0,-8739.0,-53.4104426305199,-300.581484315173,420.010447990842,572141600
-241,116.0,8.0,-6862.0,9320.0,61.0,-8744.0,-58.1074195280169,-300.579054226983,420.018076873269,572157989
-244,54.0,12.0,-6857.0,9325.0,68.0,-8746.0,-61.2418573716091,-300.584747801054,420.009761946363,572164780
-215,52.0,-142.0,-6852.0,9336.0,78.0,-8749.0,-65.9399261354155,-300.58537110015,420.013403972083,572180898
-601,39.0,22.0,-6849.0,9337.0,82.0,-8753.0,-70.6413683941187,-300.586178253314,420.0126964533,572189174
-243,-6.0,24.0,-6849.0,9337.0,82.0,-8753.0,-73.7725827567552,-300.583345472635,420.039059728461,572196523
-188,299.0,-53.0,-6844.0,9341.0,85.0,-8755.0,-78.4731778170474,-300.585595471538,420.041615523997,572209688
-324,-47.0,-26.0,-6843.0,9343.0,87.0,-8755.0,-83.1776207300151,-300.592394321793,420.032724328371,572220723
-343,-25.0,-80.0,-6841.0,9345.0,89.0,-8757.0,-86.3150527550345,-300.60012133696,420.03496772555,572229472
-361,144.0,-127.0,-6840.0,9345.0,90.0,-8759.0,-91.0047527979989,-300.603351275552,420.062262596538,572238300
-236,247.0,-69.0,-6838.0,9345.0,91.0,-8761.0,-95.7126526904714,-300.598678263976,420.067570081077,572252133
-402,47.0,0.0,-6838.0,9344.0,90.0,-8761.0,-101.986746662646,-300.606195202564,420.067383062292,572265889
-344,-21.0,-38.0,-6837.0,9344.0,90.0,-8762.0,-106.689041075125,-300.610998330133,420.080235228007,572274343
-143,184.0,-2.0,-6834.0,9342.0,90.0,-8767.0,-109.821100071203,-300.618616932096,420.082498100582,572293080
-143,184.0,-2.0,-6833.0,9341.0,90.0,-8768.0,-114.522862011875,-300.62149289356,420.102925381139,572300366
-239,124.0,-40.0,-6832.0,9340.0,89.0,-8769.0,-117.66467635129,-300.624212991682,420.111457585904,572309707
-165,69.0,38.0,-6831.0,9338.0,88.0,-8771.0,-122.374795196899,-300.633057710263,420.118603420774,572319014
9,-16.0,17.0,-6830.0,9337.0,87.0,-8772.0,-127.079320295792,-300.64672910959,420.127443526889,572336983
-41,-9.0,5.0,-6830.0,9337.0,87.0,-8772.0,-131.78348463096,-300.653118756799,420.140461693779,572345041
-149,81.0,-18.0,-6831.0,9337.0,88.0,-8772.0,-136.491301037565,-300.66231585485,420.161403011051,572352002
-17,20.0,-28.0,-6828.0,9335.0,87.0,-8776.0,-141.203539856301,-300.663619535643,420.164845601491,572378362
-17,20.0,-28.0,-6828.0,9335.0,87.0,-8776.0,-144.349430102166,-300.673678390141,420.19438306101,572378362
39,124.0,-91.0,-6828.0,9335.0,87.0,-8776.0,-149.055512786345,-300.696999713221,420.196418623963,572387082
-117,107.0,47.0,-6828.0,9335.0,87.0,-8775.0,-153.769630459668,-300.704282564448,420.193057385769,572402301
-117,107.0,47.0,-6830.0,9337.0,88.0,-8774.0,-158.488052627534,-300.717995905708,420.231487862561,572410769
-358,125.0,44.0,-6827.0,9335.0,87.0,-8777.0,-163.204400920005,-300.742096304848,420.268188341509,572428374
10,239.0,93.0,-6827.0,9335.0,87.0,-8777.0,-167.903260196195,-300.759612735585,420.285636600285,572437470
449,53.0,-186.0,-6826.0,9333.0,86.0,-8779.0,-172.528853878607,-300.770704627031,420.281018912701,572448664
-275,102.0,189.0,-6828.0,9334.0,86.0,-8776.0,-177.024746830379,-300.771063227951,420.29715603221,572461294
-280,585.0,81.0,-6826.0,9333.0,87.0,-8780.0,-181.361094635441,-300.76024320976,420.325094307389,572478178
311,-264.0,-336.0,-6826.0,9333.0,87.0,-8780.0,-185.503361695541,-300.742767799933,420.348481099284,572487084
181,31.0,-82.0,-6827.0,9334.0,85.0,-8776.0,-190.710327633478,-300.72127837805,420.353142371803,572501545
-410,577.0,220.0,-6826.0,9333.0,85.0,-8778.0,-194.349465467888,-300.695260169363,420.360403248838,572511444
-322,428.0,211.0,-6825.0,9334.0,87.0,-8779.0,-197.746823201068,-300.665338775549,420.38401339451,572528644
424,-462.0,-416.0,-6825.0,9334.0,87.0,-8779.0,-200.906834779056,-300.629968489548,420.392792094361,572537585
-297,711.0,-4.0,-6824.0,9335.0,85.0,-8777.0,-202.868735368952,-300.591790118979,420.368778517318,572545549
-37,266.0,25.0,-6825.0,9333.0,84.0,-8778.0,-205.601190888167,-300.550012851694,420.354509396929,572558049
173,-107.0,-182.0,-6824.0,9334.0,85.0,-8778.0,-208.073933669228,-300.522862490602,420.356602002624,572564806
173,-107.0,-182.0,-6824.0,9334.0,85.0,-8778.0,-209.571274087041,-300.494530352026,420.327995345288,572564806
-21,79.0,149.0,-6824.0,9334.0,84.0,-8777.0,-211.603152561899,-300.438859788591,420.303670306054,572603035
-21,79.0,149.0,-6824.0,9334.0,84.0,-8777.0,-213.367594035106,-300.387943765752,420.322448545941,572603035
-21,79.0,149.0,-6824.0,9335.0,83.0,-8776.0,-214.388863987375,-300.340257931656,420.267509304008,572611527
-168,222.0,118.0,-6823.0,9334.0,84.0,-8778.0,-216.077840856607,-300.277864135192,420.225942127689,572630082
91,-154.0,-390.0,-6822.0,9334.0,83.0,-8778.0,-217.027989519489,-300.19265552033,420.203475468121,572639174
-76,221.0,43.0,-6822.0,9334.0,83.0,-8778.0,-217.752791879578,-300.158345678803,420.115137494478,572654800
-83,261.0,179.0,-6823.0,9335.0,83.0,-8777.0,-218.287399909631,-300.129285737755,420.015996579794,572662839
-132,214.0,58.0,-6822.0,9334.0,83.0,-8778.0,-218.560876977318,-300.096830231634,419.670514820051,572673744
-132,214.0,58.0,-6822.0,9335.0,83.0,-8778.0,-218.917338575815,-300.097541264882,418.97188185074,572681942
97,-296.0,-380.0,-6822.0,9335.0,83.0,-8778.0,-219.20387060955,-300.11497770955,417.937983758214,572690407
-32,-163.0,-142.0,-6822.0,9334.0,83.0,-8778.0,-219.359036440284,-300.141754237893,417.058675144473,572706106
59,-123.0,-342.0,-6823.0,9335.0,83.0,-8777.0,-219.556216402034,-300.182776867988,415.405399920739,572714454
22,201.0,54.0,-6822.0,9335.0,84.0,-8778.0,-219.736935408032,-300.251887924517,413.278848550869,572723137
63,-333.0,-435.0,-6822.0,9335.0,83.0,-8777.0,-219.900799008275,-300.328825173093,409.784844105807,572742805
63,-333.0,-435.0,-6822.0,9335.0,84.0,-8778.0,-220.029579176777,-300.425753861539,407.7401489989,572750327
-172,534.0,488.0,-6821.0,9336.0,83.0,-8777.0,-220.163575293889,-300.489878815218,404.238480783624,572767651
-37,333.0,193.0,-6820.0,9334.0,83.0,-8780.0,-220.248805560743,-300.592317842489,401.634117113394,572776236
156,-43.0,-331.0,-6819.0,9335.0,83.0,-8779.0,-220.413787127041,-300.701600711269,397.280386434254,572784323
156,-43.0,-331.0,-6819.0,9334.0,82.0,-8780.0,-220.482402570653,-300.812175819858,392.458719827818,572792194
218,294.0,267.0,-6820.0,9333.0,81.0,-8779.0,-220.571294706209,-300.911462641314,387.21610441513,572811674
-8,395.0,335.0,-6820.0,9333.0,81.0,-8779.0,-220.656445534439,-300.967085670039,381.619451834029,572820994
350,54.0,-422.0,-6819.0,9334.0,82.0,-8780.0,-220.71704579875,-301.02780152461,377.793582784794,572829979
235,329.0,216.0,-6819.0,9334.0,82.0,-8780.0,-220.749199819965,-301.079018795001,371.876751708039,572838875
389,-8.0,-391.0,-6820.0,9333.0,83.0,-8781.0,-220.791448724723,-301.109601151702,365.788283133311,572852895
421,54.0,-330.0,-6819.0,9333.0,82.0,-8780.0,-220.810229149073,-301.125375309821,357.479961193368,572866146
130,245.0,321.0,-6819.0,9334.0,81.0,-8780.0,-220.816007842797,-301.128715247411,351.199960206412,572878380
647,-125.0,-583.0,-6818.0,9333.0,83.0,-8782.0,-220.81791100041,-301.122580348713,344.845135229134,572886848
42,378.0,413.0,-6820.0,9333.0,83.0,-8781.0,-220.809615478192,-301.108647051608,338.390914475922,572901064
73,323.0,318.0,-6819.0,9335.0,82.0,-8778.0,-220.798278973856,-301.088647984494,331.89083091655,572913786
246,-112.0,-21.0,-6820.0,9335.0,82.0,-8779.0,-220.783519270407,-301.068016709631,325.394539624113,572930858
194,152.0,53.0,-6822.0,9336.0,81.0,-8774.0,-220.769814858935,-301.048320166124,318.883747999733,572939658
72,317.0,129.0,-6827.0,9334.0,78.0,-8770.0,-220.75715838212,-301.030304910438,314.557030319814,572950745
-7,236.0,-7.0,-6835.0,9330.0,71.0,-8763.0,-220.733582451182,-300.995634749103,305.791398371673,572963311
148,262.0,-10.0,-6863.0,9306.0,44.0,-8742.0,-220.709538529215,-300.95629330358,299.183516038274,572979810
73,210.0,-77.0,-6863.0,9306.0,44.0,-8742.0,-220.704066855849,-300.947596316249,294.867370564728,572988133
-35,269.0,141.0,-6884.0,9289.0,23.0,-8725.0,-220.681175480653,-300.927448859739,288.306282462755,572995974
16,277.0,61.0,-6938.0,9241.0,221.0,-8683.0,-220.678719403533,-300.901325958297,281.742963439047,573011915
-63,447.0,170.0,-6972.0,9209.0,184.0,-8656.0,-220.647945349751,-300.869785425659,275.121032808324,573019668
25,290.0,49.0,-7012.0,9170.0,142.0,-8626.0,-220.643830008,-300.864173852944,268.596851166725,573029078
28,304.0,111.0,-7058.0,9131.0,95.0,-8588.0,-220.610798827007,-300.83148115069,264.17682935966,573046241
-80,487.0,135.0,-7161.0,9035.0,243.0,-8506.0,-220.606192685089,-300.795892129827,251.026433940067,573065258
291,467.0,-178.0,-7219.0,8977.0,180.0,-8459.0,-220.594306136414,-300.794898845041,246.677463881557,573076015
1,393.0,184.0,-7286.0,8912.0,110.0,-8402.0,-220.577192354692,-300.781861248481,240.094363011597,573083987
-109,159.0,141.0,-7358.0,8844.0,39.0,-8342.0,-220.560767422661,-300.758973813769,233.510530389903,573099000
56,547.0,-161.0,-7428.0,8771.0,216.0,-8280.0,-220.555784995815,-300.752431658663,226.926773358304,573105139
-43,262.0,36.0,-7507.0,8690.0,134.0,-8212.0,-220.552791216875,-300.757254254069,222.589307786376,573118783
91,137.0,-228.0,-7588.0,8604.0,49.0,-8141.0,-220.547228944947,-300.74836898363,216.010785271939,573128267
-203,320.0,323.0,-7757.0,8426.0,130.0,-7985.0,-220.539223520672,-300.728840578586,211.607693134898,573141393
78,60.0,-150.0,-7840.0,8332.0,41.0,-7906.0,-220.516450241407,-300.685912497211,202.802637295778,573154896
-57,511.0,108.0,-7922.0,8239.0,208.0,-7823.0,-220.497672861509,-300.674196751603,196.218021672375,573168294
82,-71.0,-359.0,-8009.0,8138.0,119.0,-7740.0,-220.505080810765,-300.676442700638,191.853586457283,573176723
-36,164.0,-24.0,-8095.0,8037.0,28.0,-7651.0,-220.499577349631,-300.676541871194,185.282903322001,573184813
-36,164.0,-24.0,-8180.0,7937.0,197.0,-7562.0,-220.505118099954,-300.685104833668,178.727918928199,573192743
-18,-3.0,-216.0,-8264.0,7832.0,109.0,-7474.0,-220.504985365956,-300.69804614246,174.364424598744,573209256
26,171.0,-25.0,-8347.0,7727.0,21.0,-7382.0,-220.5136967416,-300.69529151263,167.80354147749,573215802
-33,182.0,-66.0,-8514.0,7513.0,106.0,-7196.0,-220.520057966793,-300.720708778992,161.2407186794,573231744
-165,-150.0,101.0,-8594.0,7403.0,19.0,-7100.0,-220.529006961896,-300.71893968701,154.674548305228,573240395
106,-33.0,-132.0,-8673.0,7293.0,192.0,-7006.0,-220.544475155715,-300.740032507896,148.101996049921,573254134
-229,83.0,-59.0,-8753.0,7183.0,109.0,-6906.0,-220.536671893355,-300.750115116851,143.726169972939,573263719
-229,83.0,-59.0,-8834.0,7069.0,27.0,-6805.0,-220.550381269976,-300.759386658156,137.154288783472,573271725
167,225.0,-101.0,-8909.0,6954.0,202.0,-6708.0,-220.567207891442,-300.772795104692,130.567495008675,573288631
158,-124.0,-269.0,-8984.0,6840.0,123.0,-6611.0,-220.566548226432,-300.783202939778,126.204817444251,573296536
158,-124.0,-269.0,-9061.0,6724.0,44.0,-6505.0,-220.582119754407,-300.792121541012,119.684201550462,573302823
-341,-1.0,262.0,-9138.0,6608.0,224.0,-6400.0,-220.564571535776,-300.76582360388,113.409610871859,573315544
258,81.0,-370.0,-9206.0,6489.0,147.0,-6301.0,-220.571769100749,-300.744345497872,109.371334403196,573325980
184,-25.0,12.0,-9349.0,6247.0,254.0,-6091.0,-220.546757701189,-300.737850000192,103.611353551052,573342373
10,13.0,-198.0,-9349.0,6247.0,254.0,-6091.0,-220.528115378602,-300.716966932521,98.2100359768035,573349480
-147,-245.0,-13.0,-9487.0,6013.0,115.0,-5874.0,-220.501716282249,-300.686835325945,93.2101150172835,573361855
-83,228.0,-14.0,-9487.0,6013.0,115.0,-5874.0,-220.468032567853,-300.635541621458,88.6237654271777,573369187
127,-44.0,-257.0,-9685.0,5636.0,166.0,-5550.0,-220.459318252604,-300.594648195564,85.8140124357755,573390254
-11,-183.0,126.0,-9685.0,5636.0,166.0,-5550.0,-220.413732413987,-300.53425034371,81.9843277964932,573397821
-11,-183.0,126.0,-9746.0,5515.0,102.0,-5441.0,-220.368066887434,-300.502498425048,78.6578598138601,573404011
23,100.0,-301.0,-9806.0,5390.0,38.0,-5332.0,-220.308768490287,-300.410319366798,75.7707547255718,573417167
49,-137.0,-10.0,-9928.0,5133.0,170.0,-5106.0,-220.285787282127,-300.366427328864,73.4312973687774,573433671
49,-137.0,-10.0,-9986.0,5008.0,112.0,-4992.0,-220.218371569401,-300.282802803109,70.5933686345726,573442268
-51,177.0,-195.0,-10096.0,4753.0,254.0,-4764.0,-220.164483539101,-300.213829948207,69.0422739370046,573465697
17,-42.0,-119.0,-10203.0,4491.0,146.0,-4534.0,-220.074209635161,-300.142835335309,68.1841690999493,573482029
-8,-37.0,-123.0,-10253.0,4361.0,94.0,-4419.0,-219.699140244799,-300.111695449953,67.3398680609751,573498047
-39,108.0,-201.0,-10350.0,4098.0,250.0,-4184.0,-218.940293858384,-300.081924471444,66.6965418264684,573513822
-46,60.0,-99.0,-10397.0,3965.0,203.0,-4067.0,-218.006224143159,-300.035880113567,66.3277602375209,573521631
-13,-17.0,3.0,-10442.0,3832.0,157.0,-3949.0,-216.791599676176,-300.029772950398,66.0508218824722,573530062
-15,20.0,-171.0,-10486.0,3698.0,112.0,-3829.0,-215.801695558743,-300.006570945809,65.8876642725152,573547365
-15,20.0,-171.0,-10528.0,3565.0,69.0,-3708.0,-214.043046693921,-300.005667188953,65.6928040976626,573553640
39,-94.0,-181.0,-10569.0,3431.0,28.0,-3590.0,-211.943731365981,-299.998698015907,65.5163530268936,573566302
-8,15.0,19.0,-10609.0,3296.0,244.0,-3470.0,-209.486510935467,-300.018414421081,65.3673383129822,573577014
-12,-41.0,-105.0,-10683.0,3023.0,168.0,-3227.0,-205.667847963398,-300.064719461311,65.2723120527381,573592893
7,9.0,-161.0,-10717.0,2887.0,132.0,-3107.0,-203.514290365924,-300.103727952562,65.215465129897,573605961
7,9.0,-161.0,-10750.0,2749.0,98.0,-2987.0,-199.952836599847,-300.105205947608,65.1059041743504,573612255
25,-103.0,-92.0,-10783.0,2610.0,65.0,-2863.0,-197.38741103399,-300.187493922919,65.0833361185373,573628112
-78,33.0,-104.0,-10844.0,2339.0,6.0,-2615.0,-193.205189227397,-300.260112021217,65.0307848580539,573641695
-74,121.0,-101.0,-10844.0,2339.0,6.0,-2615.0,-188.672642241412,-300.29951107009,64.9883163145376,573649191
-181,43.0,-187.0,-10949.0,1785.0,163.0,-2118.0,-175.442345073954,-300.554112894281,64.8901288912393,573684487
-181,43.0,-187.0,-10970.0,1646.0,141.0,-1996.0,-170.177728017865,-300.593059410207,64.8396504672867,573692775
-8,-39.0,-166.0,-10990.0,1504.0,120.0,-1871.0,-164.862158506916,-300.655441501609,64.851556342937,573703254
33,-204.0,-135.0,-11009.0,1362.0,102.0,-1744.0,-159.430927094398,-300.690334651433,64.8243548351404,573716290
-4,-169.0,-262.0,-11027.0,1225.0,85.0,-1621.0,-155.794628743916,-300.746150383506,64.8227623009127,573724221
-4,-169.0,-262.0,-11045.0,1087.0,72.0,-1492.0,-150.296322267158,-300.783004886543,64.8254742688551,573732540
-132,24.0,-125.0,-11060.0,946.0,59.0,-1365.0,-144.741755211695,-300.783787286156,64.8072158438648,573749242
29,139.0,-123.0,-11072.0,806.0,46.0,-1242.0,-141.043451286972,-300.812609207605,64.8109339134483,573755570
131,-172.0,-4.0,-11083.0,664.0,35.0,-1116.0,-135.465626935889,-300.838277978945,64.8252614481424,573765562
188,-301.0,-294.0,-11103.0,384.0,21.0,-860.0,-131.733051322146,-300.852332602174,64.8271193850389,573781962
-227,201.0,-36.0,-11112.0,247.0,17.0,-735.0,-126.126783989635,-300.850242737239,64.817219324113,573790311
-76,171.0,-340.0,-11112.0,247.0,17.0,-735.0,-120.503710014775,-300.87134509701,64.8444770184342,573798001
229,-362.0,-14.0,-11116.0,102.0,11.0,-610.0,-114.887862686404,-300.878985839509,64.8552592450325,573810641
-100,-42.0,47.0,-11125.0,-178.0,11.0,-356.0,-109.248050054504,-300.856889176964,64.8420280755102,573828741
-125,129.0,-353.0,-11126.0,-317.0,12.0,-227.0,-103.609348738777,-300.836271919532,64.835820318331,573837244
132,-241.0,78.0,-11126.0,-460.0,14.0,-102.0,-97.9817276729513,-300.880981641844,64.9003282210036,573845578
125,272.0,-52.0,-11124.0,-601.0,18.0,23.0,-92.3502795593292,-300.888141706777,64.8788256507951,573858418
52,-386.0,-244.0,-11117.0,-881.0,32.0,278.0,-86.6969527961179,-300.836650842349,64.8723350906564,573872611
-319,384.0,159.0,-11114.0,-1015.0,43.0,402.0,-82.9410358531654,-300.851657110724,64.8906211902455,573881255
-319,384.0,159.0,-11114.0,-1015.0,43.0,402.0,-77.2949252728873,-300.865055876681,64.9159150412794,573881255
73,-490.0,-216.0,-11079.0,-1516.0,88.0,850.0,-69.7873470104324,-300.856481386559,64.9255072980142,573922316
73,-490.0,-216.0,-11079.0,-1516.0,88.0,850.0,-62.2555205982107,-300.820115879129,64.9178525494369,573922316
-108,-40.0,119.0,-11071.0,-1624.0,102.0,955.0,-56.6128461635014,-300.836211054166,64.9326996921565,573930995
186,-227.0,-11.0,-11059.0,-1728.0,113.0,1043.0,-50.9804584262668,-300.835997000607,64.9462252614103,573947546
-223,343.0,531.0,-11050.0,-1825.0,127.0,1130.0,-45.346840478368,-300.816209182812,64.9480221868361,573960129
56,-307.0,-32.0,-11030.0,-1996.0,152.0,1288.0,-41.5874281885291,-300.817876103166,64.950064512784,573974439
-18,19.0,204.0,-11022.0,-2068.0,165.0,1356.0,-35.9371465926991,-300.812101515722,64.954026109456,573985132
-18,19.0,204.0,-11013.0,-2133.0,175.0,1415.0,-30.3073402766584,-300.816846749755,64.9610319889941,573993379
-27,-56.0,205.0,-11005.0,-2192.0,184.0,1469.0,-24.6784564625431,-300.813113110069,64.965939945745,574006592
149,-12.0,185.0,-10998.0,-2247.0,194.0,1518.0,-19.0378352887487,-300.807946292489,64.9680633563117,574020214
-170,-142.0,120.0,-10992.0,-2293.0,203.0,1559.0,-13.3940639890752,-300.813923280791,64.9792926932927,574028763
-243,-29.0,267.0,-10987.0,-2327.0,209.0,1594.0,-7.76294003814013,-300.813217432017,64.9852348778303,574037140
-1,-66.0,63.0,-10978.0,-2376.0,216.0,1635.0,-2.13458222816533,-300.815761892851,64.990797924879,574054407
-3,86.0,-310.0,-10974.0,-2391.0,218.0,1648.0,3.50631922472592,-300.775792582067,64.9861260311405,574067155
-152,139.0,-318.0,-10971.0,-2413.0,223.0,1673.0,11.0208107973858,-300.748770474984,64.9863023079524,574083162
-132,181.0,-346.0,-10969.0,-2424.0,225.0,1680.0,16.6470251481851,-300.750356898427,64.9835932107028,574091583
2,70.0,-271.0,-10967.0,-2432.0,225.0,1686.0,20.401825749783,-300.752358153071,64.9807940649067,574102553
-50,155.0,-332.0,-10967.0,-2436.0,226.0,1689.0,26.0431538504964,-300.760679107186,64.9790677622356,574115290
-50,155.0,-332.0,-10967.0,-2436.0,226.0,1692.0,29.7978861630506,-300.767432140579,64.9796036666613,574123319
-151,201.0,-321.0,-10966.0,-2435.0,225.0,1693.0,35.4298956707602,-300.765303214589,64.9783231052508,574132029
-106,285.0,-524.0,-10964.0,-2438.0,224.0,1694.0,41.0625673341362,-300.773919794718,64.9822543497093,574141080
49,123.0,-360.0,-10962.0,-2442.0,224.0,1696.0,46.7007818750922,-300.787928572818,64.9833024293249,574155573
-52,218.0,-338.0,-10962.0,-2442.0,224.0,1698.0,52.3421050674743,-300.799596020369,64.9824472814186,574165542
-88,193.0,-371.0,-10960.0,-2443.0,224.0,1703.0,56.0975978661192,-300.801982205633,64.9748170605597,574182189
-12,276.0,-383.0,-10959.0,-2444.0,223.0,1704.0,61.7289497714453,-300.813782591719,64.9747934226607,574190906
29,110.0,-241.0,-10959.0,-2444.0,223.0,1704.0,67.3685407601972,-300.810570804453,64.9763468859322,574198688
16,36.0,-159.0,-10958.0,-2450.0,223.0,1709.0,71.1310614031381,-300.829944197932,64.9777047434522,574211371
-20,12.0,-107.0,-10957.0,-2452.0,223.0,1713.0,76.7716312039687,-300.830512932332,64.9667734263854,574218241
-43,59.0,-53.0,-10955.0,-2455.0,224.0,1718.0,82.4047566610816,-300.835358845252,64.9568012148048,574230045
9,37.0,-213.0,-10952.0,-2457.0,222.0,1722.0,86.1574082738291,-300.822526635017,64.941393566495,574246860
-11,94.0,-95.0,-10951.0,-2457.0,221.0,1724.0,91.8032015667019,-300.831408435992,64.9321164240189,574254682
-11,94.0,-95.0,-10950.0,-2460.0,221.0,1728.0,97.4479318898683,-300.835311833352,64.9379945465323,574263247
-35,-5.0,-20.0,-10947.0,-2464.0,220.0,1733.0,103.089787801077,-300.860829333021,64.9417066223313,574281024
11,-63.0,36.0,-10947.0,-2464.0,220.0,1733.0,106.846673199295,-300.849877104127,64.9181501796839,574289499
11,-63.0,36.0,-10947.0,-2464.0,220.0,1733.0,112.483109799011,-300.850407655049,64.90208385378,574289499
-23,70.0,-70.0,-10944.0,-2463.0,217.0,1738.0,116.254081784682,-300.859323438489,64.8970624227255,574316727
-23,70.0,-70.0,-10944.0,-2463.0,217.0,1738.0,121.893210544714,-300.864349586958,64.8911968219617,574316727
8,-62.0,-117.0,-10941.0,-2463.0,216.0,1741.0,127.555029373387,-300.897876255237,64.9041261104159,574333340
-15,-126.0,17.0,-10940.0,-2465.0,216.0,1745.0,135.076326422748,-300.892770619282,64.8742193273601,574342251
-13,-122.0,-16.0,-10939.0,-2463.0,214.0,1746.0,138.828939854059,-300.871155675338,64.8358032090193,574356869
-13,-122.0,-16.0,-10938.0,-2464.0,214.0,1747.0,144.49264011021,-300.899576170848,64.8556762353626,574363442
-9,63.0,-90.0,-10936.0,-2461.0,212.0,1750.0,152.034986808586,-300.933567806504,64.8534637840314,574383831
-36,-18.0,27.0,-10936.0,-2462.0,212.0,1751.0,155.792766981195,-300.933980111607,64.8144967497348,574392170
4,-123.0,-4.0,-10935.0,-2461.0,211.0,1753.0,161.446574519175,-300.933202353947,64.7935238324389,574405795
-24,-93.0,34.0,-10934.0,-2460.0,210.0,1755.0,168.90455032622,-300.97022065203,64.813277835715,574419000
-7,121.0,-94.0,-10934.0,-2458.0,210.0,1755.0,174.319906800894,-300.939255752608,64.7770885235361,574427173
-24,121.0,-30.0,-10933.0,-2455.0,209.0,1756.0,179.501951197239,-300.869290103476,64.7650046937149,574446155
-24,121.0,-30.0,-10933.0,-2455.0,209.0,1756.0,184.462485361911,-300.857038618767,64.7676149614455,574452718
-9,-215.0,55.0,-10932.0,-2454.0,208.0,1761.0,189.100296750372,-300.780897304262,64.7698517439517,574466448
-9,-215.0,55.0,-10932.0,-2454.0,208.0,1763.0,192.044199878029,-300.755260529348,64.7948575933701,574474618
-13,73.0,-42.0,-10932.0,-2451.0,207.0,1762.0,196.141815175459,-300.67008513554,64.7635782145243,574483175
-10,-103.0,-3.0,-10931.0,-2450.0,207.0,1765.0,199.933382527275,-300.604975058884,64.8118906189522,574499695
-24,92.0,-40.0,-10930.0,-2448.0,206.0,1768.0,203.360001265755,-300.49228714273,64.7983849284145,574511536
-5,-49.0,-8.0,-10930.0,-2447.0,206.0,1769.0,207.363483874244,-300.434615998165,64.8305609822342,574529485
-20,74.0,-27.0,-10929.0,-2446.0,205.0,1770.0,209.110464017414,-300.341146142938,64.8356164692331,574538301
-11,-137.0,14.0,-10929.0,-2444.0,205.0,1772.0,211.433622424425,-300.270127758675,64.8617300520747,574546500
-27,115.0,-33.0,-10929.0,-2442.0,204.0,1773.0,213.382854386353,-300.192808721702,64.8770559290681,574563060
-11,-153.0,8.0,-10929.0,-2440.0,205.0,1775.0,214.956845706428,-300.132698212315,64.9114391685367,574571967
-16,-152.0,32.0,-10929.0,-2440.0,205.0,1777.0,216.168475907475,-300.075602798738,64.9424119619893,574584279
-17,-23.0,-16.0,-10929.0,-2438.0,204.0,1777.0,217.11143497991,-299.994017583345,64.9256463879676,574592936
-21,-33.0,-24.0,-10929.0,-2437.0,205.0,1780.0,218.023729320654,-299.784128665287,64.9322586983081,574606675
-21,-82.0,-28.0,-10929.0,-2435.0,205.0,1780.0,218.702577679155,-299.408501466066,64.9615927668002,574620664
-16,-25.0,26.0,-10930.0,-2435.0,205.0,1782.0,219.901129807641,-298.762088105901,64.9826232347735,574629235
-10,-108.0,-37.0,-10929.0,-2433.0,204.0,1783.0,221.370305589332,-297.816996146556,64.9868663958653,574637709
-2,-129.0,-29.0,-10929.0,-2431.0,204.0,1787.0,223.854353933185,-296.548235179602,64.9941333832701,574654616
-6,-54.0,-61.0,-10929.0,-2430.0,205.0,1788.0,226.179297356047,-294.303358341706,65.0163270750755,574667536
-21,-30.0,54.0,-10930.0,-2427.0,205.0,1792.0,228.908132044928,-292.917247221352,65.011044895898,574684194
-4,-154.0,-61.0,-10930.0,-2425.0,205.0,1792.0,233.223814705354,-289.575291109872,64.9978860080579,574700063
-12,-31.0,72.0,-10930.0,-2424.0,205.0,1795.0,237.003862472144,-286.556832802918,65.0105610540443,574709548
-2,-182.0,-77.0,-10930.0,-2422.0,205.0,1795.0,241.20143592322,-283.093226549958,65.0168309150059,574715942
8,-239.0,-87.0,-10931.0,-2419.0,205.0,1798.0,244.183351250131,-280.545787030291,65.011476299215,574732554
-33,51.0,74.0,-10931.0,-2419.0,205.0,1798.0,248.853105652185,-276.431777854842,65.0039224353438,574741346
-2,-162.0,-77.0,-10931.0,-2419.0,206.0,1800.0,253.69643709064,-272.023149166221,65.0070829477453,574749187
-18,-18.0,88.0,-10931.0,-2417.0,206.0,1801.0,256.978347965412,-267.35895228268,65.0105903442339,574761679
-32,-54.0,100.0,-10932.0,-2415.0,206.0,1803.0,261.934248354244,-262.489849496035,65.0128799968952,574773053
-2,-140.0,-99.0,-10932.0,-2414.0,207.0,1806.0,266.890060822958,-259.132667815044,65.0033512964614,574781948
-7,-143.0,-82.0,-10932.0,-2412.0,207.0,1807.0,270.185945847083,-253.951474545474,65.0048345274603,574798565
-4,-152.0,-79.0,-10933.0,-2411.0,207.0,1808.0,275.105364013365,-250.407751749726,65.0050165224482,574805910
-4,-152.0,-79.0,-10933.0,-2410.0,207.0,1810.0,278.357705508688,-246.792599148274,65.0035581781187,574814475
-22,-18.0,87.0,-10933.0,-2409.0,208.0,1811.0,283.174887311354,-241.253636776336,65.0036393701316,574823304
-6,-197.0,-72.0,-10933.0,-2408.0,208.0,1812.0,286.340397176416,-235.590389024625,65.0006163617349,574832274
-27,-4.0,68.0,-10934.0,-2405.0,208.0,1813.0,291.007606070907,-229.809271069119,65.0005565126719,574844635
-9,-155.0,-56.0,-10934.0,-2405.0,208.0,1815.0,295.580304552253,-225.89337530734,65.002531673674,574857760
-9,-155.0,-56.0,-10935.0,-2403.0,208.0,1816.0,300.047624335896,-219.926131859531,65.0003283430261,574864030
-13,-109.0,-43.0,-10935.0,-2400.0,209.0,1819.0,304.408959212132,-213.852940027377,65.0014941190037,574882681
-3,-147.0,-24.0,-10935.0,-2400.0,209.0,1819.0,307.251837562042,-207.680023102842,65.0002866245868,574891522
-37,-86.0,9.0,-10935.0,-2400.0,209.0,1821.0,311.414537386586,-203.517356868529,65.0012796142084,574899350
-9,-111.0,-14.0,-10936.0,-2397.0,209.0,1823.0,316.770878558361,-195.079389871364,64.9989648617984,574918887
-21,-34.0,-22.0,-10936.0,-2395.0,209.0,1824.0,320.641414535547,-188.649154862038,64.9995942139054,574927138
-9,-208.0,30.0,-10937.0,-2393.0,210.0,1827.0,324.388487127865,-182.132647666246,64.9998784945998,574943836
-6,-77.0,-55.0,-10937.0,-2393.0,210.0,1827.0,328.003197106532,-173.324622638948,65.0000152891321,574951077
-17,-168.0,43.0,-10937.0,-2391.0,210.0,1830.0,331.48287912811,-168.875945658829,65.0001627774166,574963651
-12,-170.0,43.0,-10938.0,-2389.0,211.0,1832.0,334.826506509459,-162.145669932764,64.9999578720881,574975238
-16,-62.0,-63.0,-10938.0,-2389.0,211.0,1834.0,338.036572628498,-153.061591924229,65.0000226094268,574983984
-29,-127.0,65.0,-10938.0,-2387.0,211.0,1834.0,342.104038667744,-146.168810649325,65.0004290473198,575000049
-8,-113.0,-85.0,-10938.0,-2386.0,211.0,1836.0,344.044244457605,-139.218189779101,65.0000946676583,575012811
0,-105.0,-97.0,-10939.0,-2384.0,212.0,1839.0,348.617602283993,-129.870341280633,65.0003068943277,575028487
-9,-248.0,70.0,-10940.0,-2382.0,213.0,1841.0,351.172673147266,-122.794395969976,65.0001487116662,575048321
-9,-248.0,70.0,-10940.0,-2380.0,213.0,1841.0,353.584878556643,-115.663777501219,65.0002134490551,575054698
0,-243.0,57.0,-10940.0,-2379.0,213.0,1843.0,355.113838317204,-108.485728785666,65.000083974312,575067584
-29,-187.0,60.0,-10942.0,-2377.0,215.0,1846.0,357.97542285585,-101.263390917997,64.9999077773319,575084851
-13,-159.0,49.0,-10943.0,-2376.0,216.0,1847.0,360.574944355209,-91.5768232943617,64.9999077772452,575096292
-23,-109.0,-73.0,-10945.0,-2374.0,217.0,1849.0,362.353782892224,-84.2638150383738,65.000342923938,575112422
-14,-174.0,-73.0,-10945.0,-2374.0,217.0,1849.0,363.456667320913,-76.9152310598747,64.9999725143989,575121519
-11,-166.0,23.0,-10946.0,-2373.0,218.0,1850.0,364.98893852279,-71.9989571624162,64.9996668427572,575130232
-19,-98.0,-68.0,-10946.0,-2372.0,218.0,1852.0,366.370624667578,-64.5992654996979,65.0000372517421,575138671
-25,-184.0,21.0,-10947.0,-2371.0,220.0,1855.0,367.207564868029,-57.177859350674,64.9997963173005,575153466
-25,-184.0,21.0,-10947.0,-2371.0,220.0,1855.0,368.339625848261,-52.2152788190634,64.9997315802992,575153466
-34,-398.0,-139.0,-10948.0,-2372.0,222.0,1863.0,369.321029994209,-44.7505985299046,64.9998790691579,575193122
-34,-398.0,-139.0,-10948.0,-2372.0,222.0,1863.0,370.150270507431,-34.773128581162,64.9998790692183,575193122
-15,-391.0,-190.0,-10948.0,-2372.0,222.0,1863.0,370.828402789749,-27.273388082051,64.9998790691384,575200722
-57,-357.0,-52.0,-10950.0,-2369.0,223.0,1861.0,371.354872913107,-22.2683993869567,64.9997963171761,575207099
-23,-243.0,-123.0,-10950.0,-2367.0,223.0,1860.0,371.621735154109,-14.7521010912053,64.9999257922594,575220304
58,-428.0,-145.0,-10953.0,-2362.0,223.0,1858.0,371.894491044222,-7.22735387236577,64.9999257918774,575228755
54,-639.0,-250.0,-10956.0,-2354.0,223.0,1851.0,372.01550821803,-2.21164876576598,64.9997315798616,575245449
-62,-196.0,-222.0,-10958.0,-2348.0,223.0,1843.0,372.01174467625,5.31646208911379,64.9994726310707,575255819
-84,-518.0,-205.0,-10958.0,-2348.0,223.0,1843.0,371.878195974324,12.8404643517442,64.9999257919492,575262071
260,-176.0,-464.0,-10960.0,-2326.0,219.0,1830.0,371.593221355291,17.8518284629159,64.9995373682554,575276580
260,-176.0,-464.0,-10963.0,-2316.0,219.0,1822.0,371.156573622536,25.3644960672848,64.9998610545093,575284857
137,-401.0,-138.0,-10967.0,-2305.0,218.0,1809.0,370.780142340134,32.8698788293009,64.9999257918774,575293301
-148,-204.0,26.0,-10971.0,-2287.0,216.0,1792.0,370.089623028022,37.8643697281002,64.9995373682165,575307244
217,16.0,157.0,-10975.0,-2265.0,213.0,1778.0,369.248759877018,45.341989717812,64.9995840908734,575316927
11,21.0,265.0,-10980.0,-2230.0,206.0,1745.0,368.255717292103,52.8040802951294,64.9997963172825,575333586
-54,-188.0,-18.0,-10985.0,-2211.0,205.0,1729.0,367.509630498857,60.2425174155513,65.0000192372285,575342441
-181,-260.0,281.0,-10985.0,-2211.0,205.0,1729.0,366.266581939634,67.6564722214824,64.9995840908465,575350253
35,-74.0,-263.0,-10987.0,-2189.0,199.0,1712.0,364.872528997766,75.0417889952653,64.9994546165221,575362610
150,2.0,-245.0,-10990.0,-2167.0,196.0,1696.0,363.329575329082,79.9517729175425,64.9999545004264,575369112
38,-42.0,-333.0,-10996.0,-2126.0,190.0,1659.0,361.636762331321,87.2865374859197,65.0000192380456,575388635
-18,35.0,26.0,-11001.0,-2103.0,188.0,1640.0,359.151491941602,97.0071682881762,64.9999545004264,575403341
-93,-285.0,144.0,-11007.0,-2058.0,180.0,1605.0,357.115954523447,104.251210345247,64.9995013391886,575415984
124,170.0,-354.0,-11011.0,-2039.0,178.0,1587.0,355.677296530917,111.453739457107,64.9995013392455,575423532
-43,-454.0,21.0,-11015.0,-2015.0,175.0,1567.0,352.606528259259,120.986506164499,64.9997602881076,575435739
59,183.0,-303.0,-11019.0,-1992.0,172.0,1549.0,350.134659215448,125.722609451409,64.9999184704531,575451793
68,-233.0,-24.0,-11024.0,-1968.0,170.0,1529.0,347.519469345795,132.779400078986,64.9998717479495,575464310
-87,-127.0,-361.0,-11026.0,-1948.0,167.0,1511.0,345.69769508616,139.778864322593,64.9997889959778,575471357
-121,5.0,-286.0,-11029.0,-1926.0,164.0,1491.0,342.846247566715,144.419754624281,65.0000946679467,575479769
187,22.0,-190.0,-11037.0,-1878.0,158.0,1452.0,339.853242227366,153.614961067557,65.0001774203303,575498382
-257,-359.0,-167.0,-11041.0,-1859.0,156.0,1432.0,336.723507698006,160.437943068675,64.9999184705694,575511037
-74,1.0,-96.0,-11048.0,-1810.0,151.0,1395.0,332.334880957894,167.193144295326,64.9995300474175,575525028
132,43.0,-20.0,-11051.0,-1788.0,148.0,1377.0,328.885071740332,173.882669524855,64.9996415071764,575533660
-247,-427.0,-226.0,-11055.0,-1769.0,147.0,1355.0,325.299128489123,182.689732594682,64.9999004559837,575550313
-205,-202.0,-27.0,-11059.0,-1746.0,145.0,1334.0,320.312482779778,189.209477648694,64.9997709814562,575559765
74,304.0,25.0,-11066.0,-1697.0,140.0,1298.0,316.419324881401,195.650910238402,64.9999004559837,575573784
-33,-219.0,-459.0,-11069.0,-1678.0,138.0,1277.0,311.028096373698,204.112714527058,64.9999004562741,575591383
-226,-113.0,-113.0,-11074.0,-1657.0,137.0,1256.0,308.247751420816,210.362688435752,64.9993178224089,575599142
-182,-289.0,93.0,-11078.0,-1632.0,135.0,1234.0,303.969225675014,214.483722989433,64.9995767701683,575611782
120,61.0,-101.0,-11081.0,-1605.0,132.0,1216.0,299.567919638254,220.588868122776,64.9998357188838,575622575
52,-253.0,-315.0,-11083.0,-1586.0,130.0,1199.0,296.56665773214,226.603849279756,64.999512033091,575631176
-75,-322.0,-129.0,-11090.0,-1542.0,127.0,1158.0,291.961670369141,230.561804147009,64.9995767700771,575647424
-75,-322.0,-129.0,-11090.0,-1542.0,127.0,1158.0,287.237693112826,236.420645204231,65.0002815586002,575654000
49,81.0,-37.0,-11098.0,-1493.0,124.0,1118.0,282.395259716547,242.183903006941,64.9996882298526,575666543
-1,-2.0,-121.0,-11101.0,-1474.0,123.0,1100.0,279.105408791005,247.845140407158,64.9996522010747,575674223
-36,12.0,-170.0,-11108.0,-1429.0,120.0,1057.0,272.370182372162,253.406383000664,64.9997169381813,575694855
-22,-45.0,10.0,-11108.0,-1429.0,120.0,1057.0,268.926886320785,258.859292793161,65.0002168211426,575702134
0,-109.0,-137.0,-11114.0,-1385.0,117.0,1016.0,263.721997018828,262.393722092098,64.9995227272542,575714699
-46,-11.0,-124.0,-11114.0,-1385.0,117.0,1016.0,260.266117988816,267.489565222759,65.0051244884029,575721820
-38,-129.0,-144.0,-11117.0,-1364.0,116.0,996.0,255.116698823396,270.707635567355,65.0116215708767,575730372
-4,-38.0,-36.0,-11121.0,-1340.0,115.0,975.0,250.01744320819,275.220051343526,65.0146338886469,575742411
-10,-20.0,-100.0,-11127.0,-1297.0,113.0,935.0,246.651342787165,279.329209288058,65.0207362490725,575756689
-65,-140.0,-170.0,-11130.0,-1274.0,111.0,914.0,240.010637490721,284.155453884044,64.9929816962591,575769393
41,49.0,-103.0,-11137.0,-1229.0,110.0,874.0,233.516794107867,288.254978712261,64.9929072803661,575785609
-26,-63.0,-92.0,-11140.0,-1207.0,109.0,853.0,228.785136045829,290.846644323913,64.9874293914464,575794564
-33,-162.0,-63.0,-11143.0,-1186.0,108.0,834.0,224.186097284695,293.021469530815,64.9902933207626,575813935
-16,-65.0,-120.0,-11145.0,-1163.0,107.0,814.0,219.735578359482,294.241520893387,64.9902691847053,575821137
-37,-160.0,-185.0,-11148.0,-1141.0,107.0,795.0,215.397295041645,295.69149053462,64.9359140898248,575829420
-9,23.0,-72.0,-11155.0,-1094.0,106.0,754.0,212.569304377463,296.817808637596,64.936245475378,575845675
16,-19.0,-62.0,-11155.0,-1094.0,106.0,754.0,209.766728383427,297.42763906721,64.9532104827794,575852897
-17,-130.0,-133.0,-11160.0,-1052.0,104.0,712.0,205.503674838726,298.154017733847,64.9560204090195,575865373
-56,25.0,-174.0,-11163.0,-1031.0,104.0,692.0,201.080134014601,298.503513715025,64.8961119438844,575876445
-30,-113.0,-143.0,-11166.0,-1007.0,104.0,672.0,196.464662494534,298.973603220898,64.8846254478752,575885057
-3,-61.0,-98.0,-11169.0,-984.0,103.0,651.0,193.254932390481,299.374937251625,64.8775955145607,575894289
-98,-219.0,-143.0,-11171.0,-965.0,102.0,629.0,188.257339028281,299.703464751853,64.8748678770616,575908162
-130,-81.0,-152.0,-11173.0,-943.0,102.0,607.0,183.093842803579,299.93585439534,64.8276506769625,575921241
-151,-160.0,-44.0,-11176.0,-921.0,102.0,588.0,177.826245523229,300.162917335272,64.8364814799169,575929209
114,-77.0,-69.0,-11179.0,-896.0,102.0,568.0,172.468109619359,300.31565804687,64.8142399020028,575939975
34,-142.0,-191.0,-11184.0,-853.0,101.0,528.0,167.029595002545,300.448820546822,64.8136997127632,575954685
-28,74.0,-106.0,-11186.0,-832.0,100.0,504.0,159.703430962192,300.546611748844,64.7852694468866,575967294
-134,-75.0,-71.0,-11190.0,-787.0,100.0,462.0,154.170339044463,300.634436571982,64.7893400501863,575983878
47,161.0,-100.0,-11190.0,-787.0,100.0,462.0,150.474765733449,300.718848386082,64.8142481087301,575992171
-57,-263.0,-48.0,-11193.0,-766.0,101.0,444.0,144.87670783241,300.741097171419,64.7946996376371,576003616
167,209.0,-23.0,-11197.0,-723.0,100.0,401.0,139.287124005112,300.77346162975,64.7953911764077,576016146
-214,-275.0,-90.0,-11197.0,-703.0,98.0,377.0,133.676900105404,300.8096499148,64.8201531693076,576023835
-194,-321.0,171.0,-11202.0,-679.0,100.0,358.0,126.17700277818,300.840260353346,64.8164565459211,576041265
277,-87.0,17.0,-11205.0,-635.0,100.0,317.0,120.542788794432,300.840725709431,64.8217732091326,576055640
-111,-84.0,-169.0,-11205.0,-635.0,100.0,317.0,114.923407262348,300.879251383986,64.8601000859286,576061939
-220,-276.0,191.0,-11209.0,-592.0,100.0,272.0,109.27446621777,300.849210899309,64.8409640745371,576080551
64,-411.0,-76.0,-11213.0,-547.0,101.0,232.0,101.744037392314,300.832549763329,64.8390892596501,576096874
-70,230.0,62.0,-11213.0,-547.0,101.0,232.0,96.1167812000741,300.88722958644,64.9022476189689,576103826
24,79.0,-179.0,-11213.0,-510.0,99.0,189.0,92.3627884277496,300.870080694899,64.8878512571359,576116234
-263,-490.0,-328.0,-11213.0,-510.0,99.0,189.0,86.7107960788488,300.839973081543,64.866359459418,576123599
-65,-272.0,-590.0,-11217.0,-454.0,99.0,137.0,81.0663737595193,300.852934826925,64.8875405515175,576149890
-65,-272.0,-590.0,-11217.0,-454.0,99.0,137.0,77.2998361313079,300.860326492826,64.906231540747,576149890
-65,-272.0,-590.0,-11219.0,-436.0,100.0,119.0,71.6606579689325,300.861230135404,64.9220478041015,576156262
-166,-469.0,-542.0,-11217.0,-421.0,98.0,100.0,67.9119434536398,300.843608697616,64.9198121319918,576168838
-166,-469.0,-542.0,-11220.0,-404.0,100.0,89.0,62.2665583156846,300.829554369928,64.9219781651033,576176579
104,148.0,-186.0,-11221.0,-390.0,100.0,75.0,54.7343272334796,300.832321469359,64.9349909635993,576193662
-179,-416.0,-766.0,-11219.0,-379.0,98.0,58.0,50.9781827652902,300.831790399624,64.9396484050434,576201390
36,170.0,-159.0,-11221.0,-355.0,99.0,37.0,45.3432175592802,300.815902455409,64.9460127302267,576217197
44,-38.0,-593.0,-11221.0,-344.0,98.0,24.0,39.7082335437297,300.82739875058,64.9584297584688,576224881
-15,-95.0,-450.0,-11221.0,-344.0,98.0,24.0,35.9439320463054,300.82213063268,64.966053024271,576233523
-132,19.0,-100.0,-11222.0,-333.0,99.0,12.0,32.1840400480389,300.803912403148,64.95594576963,576242079
127,-112.0,-400.0,-11222.0,-320.0,99.0,2.0,26.5522836157513,300.813402881596,64.9615658332189,576256381
80,237.0,-437.0,-11222.0,-320.0,99.0,2.0,22.794982680381,300.804947924949,64.9613958948122,576262671
-201,10.0,-453.0,-11221.0,-310.0,98.0,-12.0,17.1587804864206,300.813804952399,64.9727608030923,576281735
212,-15.0,-210.0,-11223.0,-301.0,100.0,-18.0,11.5205348567797,300.816733468399,64.975257223727,576289686
212,-15.0,-210.0,-11225.0,-290.0,101.0,-25.0,7.76429662344254,300.801449852674,64.9742654834693,576297497
143,-58.0,-208.0,-11225.0,-279.0,101.0,-35.0,2.13292439532204,300.802221836377,64.9816489666297,576310704
143,-58.0,-208.0,-11225.0,-264.0,100.0,-50.0,-3.50619889811597,300.768352680825,64.9798643053529,576316896
269,46.0,-199.0,-11225.0,-218.0,100.0,-91.0,-9.14066085535467,300.745338561565,64.9783346504242,576336843
281,-191.0,-242.0,-11225.0,-188.0,99.0,-120.0,-12.8944609825838,300.748175816899,64.9820500328684,576345577
252,91.0,-100.0,-11225.0,-188.0,99.0,-120.0,-18.5272283013,300.762997936838,64.9904669060551,576353034
-32,-165.0,-305.0,-11223.0,-152.0,97.0,-157.0,-24.1610607900861,300.76576920604,64.9864012187609,576359335
262,-100.0,-82.0,-11224.0,-104.0,98.0,-198.0,-29.7970108283595,300.770182006933,64.9838696825566,576372695
314,-146.0,-275.0,-11225.0,7.0,101.0,-292.0,-35.4338358684511,300.775748517861,64.9866459639029,576388786
314,-146.0,-275.0,-11225.0,7.0,101.0,-292.0,-39.1870266534943,300.781153798751,64.9881028134083,576388786
315,-139.0,-63.0,-11217.0,319.0,108.0,-575.0,-44.8205175018941,300.797536286126,64.9912893571322,576428921
315,-139.0,-63.0,-11217.0,319.0,108.0,-575.0,-50.4603074179256,300.802165559442,64.9797368553151,576428921
315,-139.0,-63.0,-11217.0,319.0,108.0,-575.0,-56.0983012146589,300.798750461029,64.9734269315488,576428921
120,-202.0,-175.0,-11206.0,517.0,115.0,-759.0,-63.6113701076485,300.811403959855,64.9765392093659,576445873
73,-354.0,-518.0,-11199.0,628.0,120.0,-862.0,-69.2488047010522,300.833444497109,64.9840327325214,576459696
232,231.0,172.0,-11191.0,748.0,129.0,-968.0,-74.8915117014101,300.831778135985,64.9683882392656,576472949
-52,-346.0,-466.0,-11181.0,871.0,137.0,-1083.0,-80.5270619034061,300.83246457881,64.9581337407722,576481559
9,119.0,203.0,-11169.0,997.0,147.0,-1199.0,-84.2835011514541,300.823314414933,64.9457337875954,576493451
87,9.0,-169.0,-11156.0,1126.0,159.0,-1317.0,-89.9225684325738,300.830580356387,64.9403838422105,576501383
-41,-252.0,-420.0,-11142.0,1260.0,172.0,-1437.0,-95.5651761262695,300.836079795254,64.9398438087573,576515157
-90,-378.0,-504.0,-11107.0,1531.0,204.0,-1683.0,-101.209491257406,300.849786697381,64.9400067141343,576530145
-6,121.0,297.0,-11087.0,1669.0,223.0,-1810.0,-104.966129768371,300.842108866893,64.9157061396769,576538116
42,64.0,-71.0,-11043.0,1946.0,9.0,-2062.0,-114.37139405124,300.857387204923,64.9041414676876,576557306
125,152.0,6.0,-11019.0,2086.0,34.0,-2190.0,-120.01054432547,300.844770060778,64.8897433600016,576570186
-94,-325.0,-610.0,-10990.0,2226.0,58.0,-2318.0,-125.669260819283,300.88721473742,64.9048497584772,576578069
-15,155.0,96.0,-10934.0,2510.0,116.0,-2574.0,-131.314658565838,300.897775064596,64.8861404754242,576595075
-84,-169.0,-290.0,-10934.0,2510.0,116.0,-2574.0,-136.948147552468,300.87032171972,64.837163428323,576602559
-21,-100.0,-355.0,-10869.0,2790.0,179.0,-2831.0,-142.602746221714,300.886596464805,64.8530074495022,576619365
-21,-100.0,-355.0,-10834.0,2931.0,212.0,-2959.0,-146.383775929799,300.931006232062,64.8701727341519,576627280
-102,-31.0,-41.0,-10798.0,3072.0,248.0,-3086.0,-152.033804672725,300.916296775392,64.8265325293357,576635921
86,166.0,110.0,-10759.0,3212.0,30.0,-3213.0,-157.67705148012,300.938806407745,64.8081215056444,576652411
14,-79.0,-201.0,-10721.0,3353.0,71.0,-3340.0,-163.326826785709,300.936149625434,64.7958214281479,576658735
23,61.0,89.0,-10680.0,3492.0,111.0,-3467.0,-167.058515585953,300.960974414621,64.8066037737813,576671931
-148,-139.0,-72.0,-10637.0,3631.0,154.0,-3594.0,-172.536642704502,300.952502410891,64.8003716403758,576683863
73,91.0,36.0,-10593.0,3769.0,198.0,-3719.0,-177.797826846711,300.879521219336,64.7511875627513,576692561
-107,-94.0,-450.0,-10501.0,4047.0,37.0,-3969.0,-182.847733094522,300.885428112627,64.7751011212873,576706822
-106,-161.0,-319.0,-10501.0,4047.0,37.0,-3969.0,-186.041583607748,300.804208753653,64.766690218076,576713237
51,86.0,54.0,-10402.0,4319.0,138.0,-4218.0,-190.586509050793,300.780150641311,64.794018815265,576727277
-194,-65.0,-329.0,-10352.0,4457.0,193.0,-4340.0,-194.808813118081,300.69668437776,64.7645703296425,576735879
168,94.0,211.0,-10298.0,4591.0,246.0,-4463.0,-197.444016118733,300.622697082473,64.7719892122644,576748032
155,81.0,82.0,-10298.0,4591.0,246.0,-4463.0,-201.12804283365,300.572875388452,64.8142797264665,576754968
-103,-121.0,-297.0,-10187.0,4859.0,103.0,-4706.0,-204.414181488939,300.493896873411,64.8149314743557,576767552
27,81.0,-84.0,-10129.0,4993.0,163.0,-4827.0,-206.423895387353,300.428071962462,64.8213046042602,576775008
139,-96.0,-30.0,-10070.0,5127.0,224.0,-4946.0,-209.10753380565,300.369893392464,64.8378867526486,576791995
-166,148.0,-226.0,-10009.0,5258.0,30.0,-5065.0,-211.435219890609,300.295460120436,64.8657932260025,576802306
202,-107.0,110.0,-9947.0,5389.0,95.0,-5184.0,-213.379336667618,300.217218065286,64.8764474179835,576815508
232,-68.0,124.0,-9817.0,5648.0,226.0,-5419.0,-215.404980885195,300.136179576518,64.9354503100515,576830628
-185,200.0,-173.0,-9751.0,5778.0,39.0,-5534.0,-216.48782031168,300.081816692706,64.95957768109,576838671
123,-71.0,-117.0,-9683.0,5904.0,109.0,-5651.0,-217.037803652212,300.019837720374,65.0275528419138,576854411
38,156.0,81.0,-9613.0,6031.0,180.0,-5764.0,-217.711860918012,299.993747576644,65.3062207959179,576863870
161,9.0,58.0,-9541.0,6156.0,252.0,-5879.0,-218.084372034501,299.983850468348,65.615766855189,576870361
