ACC_X,ACC_Y,ACC_Z,QUAT_W,QUAT_X,QUAT_Y,QUAT_Z,X_pos,Y_pos,Z_pos,t
10,-40.0,-325.0,-8288.0,8273.0,124.0,-7595.0,-218.249241446992,299.979693919849,65.8092777404729,750777186
52,142.0,118.0,-8194.0,8378.0,224.0,-7694.0,-218.798425135064,300.004501367559,66.6104332802258,750789679
-64,20.0,-137.0,-8099.0,8481.0,68.0,-7790.0,-219.009895113145,300.029519994162,67.2797521993461,750800083
-46,47.0,-223.0,-8003.0,8583.0,170.0,-7886.0,-219.244824603582,300.022058342837,68.0618128169254,750808621
-100,30.0,-170.0,-7812.0,8782.0,120.0,-8070.0,-219.389994710324,300.045305902395,69.5528088042688,750824968
-100,30.0,-170.0,-7812.0,8782.0,120.0,-8070.0,-219.499849394998,300.04975064159,70.6906522504351,750831793
2,0.0,44.0,-7622.0,8965.0,59.0,-8242.0,-219.635907600038,300.01849476785,72.6324871771631,750844285
-303,228.0,165.0,-7532.0,9049.0,154.0,-8322.0,-219.759337054649,300.059072033925,75.0262023704232,750851668
-231,75.0,120.0,-7366.0,9206.0,80.0,-8466.0,-219.82251511555,300.080574084618,77.7409336153426,750872614
-192,-39.0,-156.0,-7366.0,9206.0,80.0,-8466.0,-219.910520779371,300.127435970105,80.8378216100342,750880217
-239,13.0,-208.0,-7287.0,9275.0,162.0,-8532.0,-219.925697310736,300.171998770345,84.2280104957372,750886551
-263,89.0,26.0,-7140.0,9400.0,55.0,-8649.0,-220.00928566181,300.162580849117,86.7521534382712,750901400
-378,90.0,108.0,-7140.0,9400.0,55.0,-8649.0,-220.059675310485,300.208490891736,90.8413074149155,750909912
-474,275.0,235.0,-7074.0,9455.0,125.0,-8701.0,-220.121216680705,300.247114768861,95.3047492678044,750918450
-44,-87.0,-145.0,-7017.0,9505.0,189.0,-8747.0,-220.146040472358,300.27126354005,98.3778333029119,750926519
-250,115.0,-138.0,-6912.0,9591.0,43.0,-8827.0,-220.200629751736,300.325745123608,104.939243259597,750942974
-226,-48.0,44.0,-6868.0,9624.0,85.0,-8858.0,-220.233860112163,300.36703042454,108.284110165295,750958662
-333,131.0,55.0,-6830.0,9655.0,124.0,-8886.0,-220.266964775956,300.403892397699,113.450256146913,750966508
-333,131.0,55.0,-6798.0,9681.0,159.0,-8910.0,-220.290260246646,300.414265225063,118.688084679258,750974542
-197,126.0,-72.0,-6772.0,9702.0,187.0,-8928.0,-220.307317858927,300.435996698318,122.256616417857,750987597
-197,126.0,-72.0,-6772.0,9702.0,187.0,-8928.0,-220.34618074413,300.482218486294,127.667072183159,750987597
-98,170.0,171.0,-6724.0,9735.0,228.0,-8960.0,-220.35569857723,300.49091853783,131.301804613843,751026005
-98,170.0,171.0,-6724.0,9735.0,228.0,-8960.0,-220.365616917519,300.518186160343,136.794874660146,751026005
-98,170.0,171.0,-6724.0,9735.0,228.0,-8960.0,-220.364385203987,300.497729660359,140.431849786184,751026005
-113,353.0,37.0,-6728.0,9734.0,228.0,-8959.0,-220.365100263948,300.509350676369,145.967991411487,751039038
-32,224.0,20.0,-6749.0,9718.0,207.0,-8944.0,-220.382643071402,300.5152102222,151.524559347696,751052952
21,233.0,97.0,-6769.0,9702.0,186.0,-8929.0,-220.382764305641,300.513709664052,157.094672946313,751061612
-45,132.0,124.0,-6796.0,9681.0,158.0,-8910.0,-220.378210858156,300.511044697029,164.552623256007,751077708
-233,353.0,84.0,-6829.0,9655.0,122.0,-8885.0,-220.383163181052,300.51704254589,170.158549298271,751087229
228,234.0,60.0,-6868.0,9626.0,85.0,-8857.0,-220.385421482125,300.522669567933,175.757844040985,751101434
-234,485.0,-68.0,-6913.0,9589.0,37.0,-8823.0,-220.389935189096,300.526025189851,181.363613122931,751109863
-44,212.0,215.0,-7015.0,9505.0,185.0,-8744.0,-220.385088793177,300.518557293124,185.113979232409,751126232
-44,212.0,215.0,-7015.0,9505.0,185.0,-8744.0,-220.383055906073,300.524223008376,190.746970387641,751132909
-212,268.0,-120.0,-7141.0,9402.0,54.0,-8644.0,-220.381777072142,300.513893756462,196.373763141536,751149158
-17,423.0,-99.0,-7214.0,9340.0,234.0,-8586.0,-220.380374390953,300.512484518159,201.979532913356,751157240
17,160.0,-53.0,-7291.0,9273.0,153.0,-8523.0,-220.380637242157,300.512842944214,207.589614381942,751165332
94,228.0,288.0,-7369.0,9203.0,68.0,-8456.0,-220.376152855417,300.49591396217,215.071577437243,751180852
-120,347.0,20.0,-7532.0,9055.0,149.0,-8310.0,-220.355071618418,300.478736564609,220.69001943935,751193886
-99,193.0,165.0,-7618.0,8976.0,58.0,-8233.0,-220.352941647716,300.475580409153,226.340099507566,751201972
-46,7.0,-274.0,-7794.0,8804.0,127.0,-8071.0,-220.353573657046,300.483326876823,231.962209281748,751223101
-119,123.0,-72.0,-7882.0,8715.0,33.0,-7987.0,-220.372874334825,300.499380231198,237.620144737134,751236819
98,90.0,183.0,-7969.0,8626.0,195.0,-7900.0,-220.376859873716,300.513954361138,245.140833795607,751250091
79,238.0,113.0,-8142.0,8442.0,8.0,-7722.0,-220.380157097772,300.520599984391,250.784909381135,751266034
-85,106.0,-50.0,-8229.0,8347.0,169.0,-7630.0,-220.383420303224,300.518651852121,258.303823892879,751276570
87,178.0,37.0,-8314.0,8248.0,74.0,-7536.0,-220.399773907679,300.541455426476,262.091180714609,751289539
-144,-86.0,-53.0,-8484.0,8048.0,145.0,-7347.0,-220.395353465277,300.533917110503,269.580951682011,751304359
33,192.0,24.0,-8567.0,7947.0,54.0,-7249.0,-220.403630294702,300.547721124106,273.342542427839,751313246
-31,160.0,-30.0,-8649.0,7846.0,220.0,-7152.0,-220.40232696725,300.544936828591,278.977051588767,751322064
77,-87.0,19.0,-8649.0,7846.0,220.0,-7152.0,-220.417013018693,300.566221909356,282.761862435053,751329812
-130,118.0,-47.0,-8730.0,7741.0,129.0,-7053.0,-220.415480131265,300.566744487509,288.364875395111,751339244
119,-30.0,-8.0,-8890.0,7526.0,208.0,-6851.0,-220.427847039008,300.580491871135,294.026360027948,751353141
-7,-82.0,-138.0,-8890.0,7526.0,208.0,-6851.0,-220.42748663318,300.585149172831,299.651999859501,751361631
-277,46.0,-251.0,-9045.0,7310.0,36.0,-6646.0,-220.438987585843,300.596690595004,305.299666532804,751377669
-277,46.0,-251.0,-9120.0,7201.0,208.0,-6540.0,-220.445247008988,300.604722493663,310.947433395176,751384166
-96,-102.0,-102.0,-9193.0,7088.0,124.0,-6438.0,-220.456924119801,300.624756417972,314.726842141463,751400655
120,156.0,136.0,-9268.0,6975.0,42.0,-6330.0,-220.464149679497,300.631002320728,320.336301035804,751409729
-54,17.0,-85.0,-9339.0,6859.0,216.0,-6225.0,-220.479416970285,300.651821220032,325.995383983152,751417940
-87,171.0,-152.0,-9410.0,6746.0,137.0,-6115.0,-220.484653306445,300.668265823776,329.781537340549,751432882
27,-60.0,-9.0,-9547.0,6514.0,237.0,-5900.0,-220.499554519878,300.685057552232,335.435085175824,751445427
-6,79.0,-124.0,-9613.0,6398.0,162.0,-5790.0,-220.515780817581,300.700652289664,341.04337913839,751452972
-82,-207.0,-48.0,-9613.0,6398.0,162.0,-5790.0,-220.526164053672,300.729353689842,344.82758719604,751461675
-51,-184.0,16.0,-9745.0,6159.0,14.0,-5566.0,-220.546217928346,300.75441975885,350.496622763153,751474857
-98,-44.0,-209.0,-9808.0,6038.0,199.0,-5455.0,-220.56699905639,300.781621136532,356.198230768827,751488293
-98,-44.0,-209.0,-9868.0,5918.0,127.0,-5341.0,-220.589285823158,300.802649330293,361.864655427936,751494526
-170,-139.0,97.0,-9928.0,5796.0,60.0,-5231.0,-220.620198734643,300.844551158383,365.590687153673,751510621
-47,102.0,-106.0,-9987.0,5673.0,247.0,-5114.0,-220.641800068316,300.874763520968,371.097034700817,751519123
16,-198.0,48.0,-10046.0,5551.0,183.0,-4999.0,-220.667765986809,300.911683954725,376.430117566797,751527165
167,363.0,-293.0,-10102.0,5426.0,117.0,-4882.0,-220.68463174288,300.943955208211,379.832242011362,751537035
33,222.0,-211.0,-10156.0,5300.0,53.0,-4768.0,-220.704295827398,300.958724347429,384.73936817901,751550257
-209,-155.0,65.0,-10208.0,5173.0,247.0,-4655.0,-220.717193029481,300.978076210674,389.323545999364,751558520
-13,205.0,-37.0,-10311.0,4921.0,128.0,-4420.0,-220.725750157501,300.989745024934,393.59521271447,751574992
97,137.0,-217.0,-10361.0,4792.0,70.0,-4299.0,-220.718051147696,300.98201977358,398.864481754552,751591441
-44,-12.0,-26.0,-10456.0,4533.0,216.0,-4062.0,-220.708979363388,300.958852271005,402.378972085643,751605789
15,233.0,-219.0,-10500.0,4403.0,163.0,-3945.0,-220.693998125676,300.943169531255,404.497025252266,751614829
-154,-55.0,88.0,-10543.0,4275.0,111.0,-3824.0,-220.678349624943,300.91218676134,407.395852793644,751623775
49,-18.0,-231.0,-10586.0,4144.0,61.0,-3701.0,-220.645983809833,300.867694305133,409.940918496905,751637540
49,-18.0,-231.0,-10628.0,4012.0,13.0,-3579.0,-220.606165782303,300.826927374167,412.111033608226,751643817
12,94.0,-21.0,-10667.0,3878.0,222.0,-3458.0,-220.561499235013,300.738760273977,413.869731057754,751655031
-16,114.0,-172.0,-10704.0,3745.0,176.0,-3337.0,-220.505852708579,300.661982761597,415.251876822839,751672285
-55,6.0,-35.0,-10740.0,3611.0,132.0,-3217.0,-220.440672636536,300.603017321258,416.299969835469,751679982
56,98.0,-110.0,-10775.0,3477.0,89.0,-3095.0,-220.360897014313,300.475013568286,417.355569670299,751692552
-6,-26.0,-3.0,-10841.0,3208.0,9.0,-2846.0,-220.103745383607,300.364677508022,417.750061342304,751706670
141,112.0,-181.0,-10902.0,2936.0,191.0,-2599.0,-219.685995434908,300.248375113387,418.392723853891,751726067
67,-86.0,-161.0,-10902.0,2936.0,191.0,-2599.0,-219.016349384763,300.17987720562,418.776898181064,751732930
-237,1.0,-60.0,-10956.0,2663.0,123.0,-2352.0,-218.079448155914,300.150271582348,419.083904220209,751745404
74,-193.0,-161.0,-10979.0,2527.0,91.0,-2228.0,-216.865399847522,300.124020837123,419.328767237826,751761297
-178,-269.0,246.0,-11005.0,2390.0,63.0,-2102.0,-215.337655084122,300.125379168747,419.502205290363,751769706
277,171.0,-430.0,-11027.0,2250.0,33.0,-1974.0,-213.481774772729,300.14774993783,419.697048222818,751780238
-255,-77.0,-199.0,-11049.0,2111.0,8.0,-1851.0,-211.287613750192,300.186687790025,419.90146359419,751792723
-114,0.0,52.0,-11100.0,1699.0,192.0,-1472.0,-207.813972991855,300.261877335841,420.009891533676,751815425
186,249.0,-65.0,-11115.0,1557.0,172.0,-1346.0,-204.773213304229,300.305568249269,420.067144614592,751824216
-206,-200.0,-130.0,-11115.0,1557.0,172.0,-1346.0,-202.534839552337,300.381138192297,420.15584776219,751831680
69,160.0,-14.0,-11129.0,1418.0,154.0,-1219.0,-198.863998558755,300.432561207934,420.231376457875,751841116
-14,-159.0,-350.0,-11152.0,1139.0,122.0,-966.0,-196.22021933332,300.502971381052,420.301665614352,751855320
86,-38.0,-319.0,-11160.0,998.0,107.0,-838.0,-191.932047116515,300.549334972604,420.372563087595,751863915
81,8.0,-84.0,-11160.0,998.0,107.0,-838.0,-187.298039597981,300.633302984388,420.440416188145,751872524
-218,-140.0,130.0,-11175.0,718.0,86.0,-585.0,-182.407903736938,300.717637475504,420.461763454726,751886521
160,-44.0,-373.0,-11175.0,718.0,86.0,-585.0,-179.036908051399,300.795028239436,420.489979058281,751892704
-55,-204.0,-337.0,-11183.0,437.0,70.0,-329.0,-173.862718384748,300.837581585498,420.50041071628,751903626
-376,-210.0,21.0,-11185.0,295.0,65.0,-202.0,-168.579108260749,300.886286338898,420.492629567367,751921010
217,144.0,-235.0,-11184.0,156.0,60.0,-75.0,-165.002932650754,300.922231527274,420.485796373471,751929017
-61,-45.0,-49.0,-11182.0,17.0,57.0,51.0,-159.575279054866,300.955888289342,420.475494016372,751941487
195,-121.0,-188.0,-11175.0,-249.0,57.0,292.0,-152.242251889569,300.978386491555,420.472273663189,751955534
-202,-83.0,210.0,-11170.0,-377.0,59.0,407.0,-148.547944516214,300.988969633458,420.46423013702,751966741
-202,-83.0,210.0,-11164.0,-500.0,62.0,518.0,-142.985284287814,300.996467020339,420.445966863741,751975140
-188,-243.0,154.0,-11157.0,-617.0,66.0,623.0,-137.404493998963,300.993276332945,420.412014608822,751988482
-188,-243.0,154.0,-11149.0,-727.0,70.0,722.0,-131.805025619991,300.989048366365,420.371558660876,751994631
51,89.0,232.0,-11141.0,-831.0,76.0,815.0,-128.055970075165,300.986780879629,420.368737059092,752009888
-12,-55.0,27.0,-11134.0,-930.0,83.0,903.0,-122.42993076462,300.98163973508,420.332247660499,752017845
-12,-55.0,27.0,-11126.0,-1021.0,89.0,985.0,-116.798454205249,300.969914282923,420.328195364562,752026107
-258,-150.0,278.0,-11119.0,-1105.0,96.0,1060.0,-111.163654586484,300.960123955738,420.288755782302,752042598
231,-288.0,-173.0,-11111.0,-1182.0,103.0,1130.0,-105.526273718727,300.950229169143,420.24984404959,752049235
-351,20.0,486.0,-11097.0,-1314.0,115.0,1246.0,-101.769204173733,300.938836746794,420.259263270731,752065502
-330,80.0,412.0,-11092.0,-1369.0,122.0,1293.0,-94.2411600567933,300.923885174138,420.203960145467,752081404
257,-160.0,-78.0,-11085.0,-1418.0,126.0,1337.0,-88.5924949481203,300.919129631243,420.216619821891,752087593
277,-71.0,-38.0,-11078.0,-1489.0,135.0,1399.0,-82.9521249541366,300.902114885085,420.171333890186,752104911
81,-210.0,162.0,-11076.0,-1518.0,140.0,1424.0,-77.3168470094889,300.897484588425,420.168902311739,752113681
-184,76.0,227.0,-11074.0,-1546.0,144.0,1448.0,-71.6725621171841,300.885612015229,420.143015642717,752123199
184,-448.0,-388.0,-11072.0,-1567.0,148.0,1468.0,-66.0295763329802,300.879758020182,420.110903952475,752137390
184,-448.0,-388.0,-11072.0,-1567.0,148.0,1468.0,-60.3830981261311,300.871299550198,420.118815048917,752143691
2,-403.0,-311.0,-11066.0,-1615.0,154.0,1514.0,-54.7441725409594,300.861998502768,420.10734068443,752163643
-18,-315.0,-415.0,-11063.0,-1627.0,154.0,1524.0,-47.231584993908,300.857285342273,420.075697457881,752179755
-30,-245.0,-236.0,-11061.0,-1634.0,154.0,1532.0,-41.5896908676306,300.854410849152,420.069261357778,752192157
187,-364.0,-379.0,-11058.0,-1642.0,154.0,1540.0,-35.9457227892802,300.841198351813,420.082118741724,752198451
-135,-411.0,-451.0,-11056.0,-1659.0,156.0,1555.0,-30.3111944177295,300.842861881294,420.046439499449,752217439
-135,-411.0,-451.0,-11055.0,-1662.0,156.0,1557.0,-24.6746566833235,300.837825926681,420.022730186882,752226258
80,-380.0,-421.0,-11052.0,-1667.0,155.0,1562.0,-19.0371755555112,300.832124715564,420.025896587532,752239484
38,-309.0,-235.0,-11049.0,-1670.0,152.0,1561.0,-13.4061001264305,300.829640743439,420.021629890958,752253445
0,-288.0,-200.0,-11049.0,-1670.0,152.0,1561.0,-7.76386457844255,300.831732894351,420.002061742836,752262460
-85,-200.0,-113.0,-11049.0,-1671.0,152.0,1559.0,-2.12401956233177,300.834575651499,419.989333727727,752270957
33,-155.0,-156.0,-11047.0,-1671.0,150.0,1555.0,3.5042762354528,300.816066818255,419.965354816853,752289272
-24,-228.0,-114.0,-11046.0,-1671.0,148.0,1553.0,9.13580730905296,300.80835181242,419.953673760007,752297596
36,-234.0,-138.0,-11044.0,-1671.0,146.0,1550.0,14.7719311665822,300.813350479073,419.960385502094,752314872
-26,-229.0,-113.0,-11043.0,-1672.0,145.0,1549.0,20.413175172288,300.815617596803,419.973236039072,752323907
12,-205.0,-55.0,-11043.0,-1672.0,145.0,1549.0,24.1713845346913,300.817307072095,419.966855933087,752332111
-5,-24.0,-24.0,-11042.0,-1671.0,144.0,1545.0,29.8033633455605,300.822055088421,419.972277846266,752341678
-20,-185.0,-47.0,-11041.0,-1672.0,143.0,1543.0,33.5543561593807,300.826585509256,419.983128406214,752348246
-20,-185.0,-47.0,-11041.0,-1671.0,142.0,1541.0,37.3121806637729,300.823835704016,419.995955725365,752356413
44,-92.0,-77.0,-11039.0,-1673.0,141.0,1539.0,42.9476730861568,300.822198627645,420.006557354461,752374057
-46,-185.0,0.0,-11039.0,-1673.0,141.0,1539.0,46.7083859020518,300.830858560831,420.005351586262,752381640
72,-128.0,-57.0,-11038.0,-1674.0,139.0,1537.0,52.3470732278849,300.828149613941,420.016628939652,752394177
-51,-111.0,-13.0,-11038.0,-1675.0,139.0,1532.0,57.9807741601092,300.838637698386,420.01373333635,752405508
-79,-110.0,-8.0,-11038.0,-1676.0,139.0,1530.0,63.6152125340557,300.840463323146,420.009930194308,752414215
-58,-84.0,30.0,-11037.0,-1677.0,138.0,1529.0,69.2544943077931,300.843645921493,420.028066579836,752431526
-58,-84.0,30.0,-11036.0,-1678.0,136.0,1527.0,74.8878324735061,300.843144862324,420.048414650886,752437878
28,-71.0,-78.0,-11036.0,-1678.0,136.0,1525.0,78.6522719928956,300.845648210225,420.053021176443,752451102
-104,-154.0,20.0,-11035.0,-1679.0,136.0,1523.0,84.2985365802614,300.854737011899,420.058241516852,752459271
54,-17.0,-75.0,-11035.0,-1679.0,135.0,1520.0,88.0529860507024,300.862067659349,420.053806510872,752470010
76,-56.0,-61.0,-11034.0,-1681.0,135.0,1520.0,93.68786934087,300.863348794308,420.089570223745,752478000
-92,-108.0,56.0,-11034.0,-1682.0,134.0,1518.0,99.3275438423931,300.866882494617,420.091690232656,752493414
60,-106.0,-79.0,-11034.0,-1684.0,134.0,1517.0,104.978898674976,300.87338073448,420.109004242277,752502425
-104,-75.0,40.0,-11034.0,-1684.0,134.0,1515.0,108.745819736141,300.884358187098,420.1035615839,752511295
-89,-27.0,55.0,-11034.0,-1686.0,134.0,1513.0,114.385464230411,300.890418571972,420.140080626196,752519740
-80,-30.0,69.0,-11033.0,-1687.0,133.0,1510.0,120.025752695234,300.902104737956,420.148082972162,752539114
-80,-30.0,69.0,-11033.0,-1689.0,133.0,1508.0,123.792306022515,300.915947180222,420.175610233332,752547403
43,-86.0,-61.0,-11033.0,-1690.0,133.0,1506.0,129.445004679126,300.924427089004,420.185862491943,752555910
22,-59.0,-59.0,-11033.0,-1692.0,133.0,1506.0,135.101041059856,300.93945850974,420.221962618631,752564601
24,-61.0,-47.0,-11032.0,-1693.0,133.0,1504.0,140.752813793412,300.962738378874,420.231848878436,752581168
-44,-92.0,26.0,-11032.0,-1695.0,133.0,1503.0,146.407518146045,300.985876188127,420.252487372714,752593637
-14,-67.0,12.0,-11032.0,-1698.0,132.0,1499.0,153.952446681826,301.009875786302,420.314484219139,752604893
-29,-55.0,-13.0,-11032.0,-1698.0,132.0,1496.0,157.730964794972,301.039723850704,420.341081830151,752613890
-50,-78.0,0.0,-11031.0,-1700.0,132.0,1497.0,165.26657812638,301.077942103105,420.374685749108,752630927
-65,-102.0,22.0,-11031.0,-1701.0,132.0,1494.0,170.812817010724,301.088284815279,420.393465779464,752643497
-87,-42.0,43.0,-11031.0,-1704.0,131.0,1491.0,176.174697670203,301.093869719888,420.427526371588,752658434
74,-123.0,-60.0,-11031.0,-1705.0,131.0,1489.0,181.31005924413,301.083468240388,420.460502089984,752669210
74,-123.0,-60.0,-11030.0,-1707.0,131.0,1488.0,186.175779530635,301.066222079575,420.47525437413,752677317
-129,38.0,65.0,-11030.0,-1708.0,131.0,1486.0,189.259077772953,301.033718952413,420.496390225759,752690311
-129,38.0,65.0,-11030.0,-1710.0,130.0,1485.0,193.624570880868,301.006548231471,420.497290287169,752696622
105,-131.0,-81.0,-11030.0,-1711.0,130.0,1484.0,197.651915076964,300.963666324898,420.515479813032,752704584
-141,-48.0,86.0,-11029.0,-1713.0,130.0,1483.0,201.332860137306,300.909027005307,420.536112599257,752721927
-153,12.0,90.0,-11029.0,-1716.0,130.0,1480.0,205.679144644426,300.809820586718,420.513816007038,752739966
127,-96.0,-97.0,-11029.0,-1719.0,129.0,1476.0,208.507916719886,300.738192847082,420.495814311234,752754763
111,-81.0,-93.0,-11029.0,-1719.0,129.0,1476.0,210.961257703146,300.658243790032,420.460054831776,752763620
-143,24.0,91.0,-11028.0,-1718.0,129.0,1474.0,213.033094819666,300.595107125957,420.41693127943,752772307
94,-121.0,-85.0,-11028.0,-1722.0,129.0,1471.0,214.708679931411,300.469359599007,420.381279777855,752787541
-114,129.0,63.0,-11028.0,-1724.0,129.0,1471.0,215.999710023448,300.406905341167,420.305537109161,752798450
67,-137.0,-71.0,-11027.0,-1726.0,128.0,1468.0,217.346002085788,300.191112535364,420.281713564567,752815562
-99,40.0,60.0,-11027.0,-1728.0,128.0,1466.0,218.32391699235,299.881467919033,420.253042038749,752824549
51,-70.0,-41.0,-11027.0,-1729.0,128.0,1465.0,219.047565870999,299.375290481605,420.201691582266,752839081
51,-70.0,-41.0,-11027.0,-1729.0,128.0,1465.0,220.329019552689,298.604137328232,420.162834829865,752845401
1,-6.0,-38.0,-11027.0,-1734.0,128.0,1461.0,222.508970989737,297.093859330941,420.153329624314,752865383
-2,0.0,-24.0,-11027.0,-1734.0,128.0,1461.0,224.564788455394,296.116363725246,420.122528677462,752874177
-7,-27.0,-1.0,-11027.0,-1737.0,128.0,1459.0,227.033950083771,294.34353940034,420.076913021386,752888099
7,-17.0,-18.0,-11028.0,-1736.0,129.0,1457.0,229.914790969245,292.184826327428,420.067302515431,752900432
7,-17.0,-18.0,-11030.0,-1738.0,131.0,1457.0,232.074674465693,289.614334715375,420.057993603001,752907756
31,18.0,-36.0,-11030.0,-1739.0,131.0,1454.0,235.684673613251,287.650236847237,420.052695213274,752916275
-66,22.0,7.0,-11029.0,-1740.0,131.0,1454.0,238.349067741551,284.319876709406,420.027260898471,752927965
-101,71.0,16.0,-11029.0,-1741.0,130.0,1452.0,242.672301275555,281.855095107451,420.011727900754,752941197
-117,142.0,12.0,-11030.0,-1744.0,131.0,1450.0,247.281446271367,276.443279383994,420.011769106475,752955300
89,-166.0,-49.0,-11030.0,-1744.0,131.0,1450.0,250.458309316011,273.53051394661,420.019829877979,752964092
-117,162.0,12.0,-11030.0,-1745.0,131.0,1448.0,256.972875548406,268.946142188887,420.021836025444,752972689
85,-143.0,-47.0,-11030.0,-1747.0,131.0,1447.0,261.924727109382,264.139079135534,420.018791003879,752980610
-129,116.0,8.0,-11032.0,-1749.0,132.0,1442.0,265.233212123058,259.133753553241,420.0146282484,753007036
-129,116.0,8.0,-11032.0,-1749.0,132.0,1442.0,270.18753505271,255.700010399217,420.009672879772,753007036
90,-79.0,-48.0,-11032.0,-1751.0,133.0,1442.0,275.104838522544,250.407675331583,420.008142035711,753015621
-99,79.0,1.0,-11033.0,-1751.0,134.0,1439.0,279.968815245026,244.962933356175,420.005142093334,753032118
63,-120.0,-26.0,-11033.0,-1753.0,134.0,1439.0,283.172135479551,239.382665171705,420.006139077058,753039236
-104,109.0,5.0,-11035.0,-1756.0,136.0,1436.0,289.459854404707,233.678098156048,420.007195875919,753056689
62,-149.0,-18.0,-11036.0,-1755.0,136.0,1435.0,294.067712444365,227.858137210988,420.000909518027,753065538
35,-130.0,-18.0,-11036.0,-1757.0,137.0,1434.0,298.572531219485,221.924753354932,419.996847554216,753077865
41,-115.0,-16.0,-11037.0,-1759.0,138.0,1433.0,302.966546284289,215.888597279525,420.001767920654,753090931
41,-115.0,-16.0,-11038.0,-1759.0,138.0,1432.0,305.834340009752,209.749445188849,420.002788941096,753097237
-41,20.0,-31.0,-11039.0,-1762.0,140.0,1430.0,310.03614622216,203.52153249939,420.002581756675,753115003
-10,35.0,-15.0,-11039.0,-1762.0,140.0,1430.0,314.116854928447,197.201626276309,420.000483985066,753124072
-2,10.0,-17.0,-11041.0,-1763.0,141.0,1427.0,319.364950631572,188.644805548909,420.000482084976,753141331
-2,10.0,-17.0,-11042.0,-1765.0,142.0,1427.0,323.152477629482,184.31200359555,420.003238183795,753148396
-9,25.0,-32.0,-11045.0,-1766.0,145.0,1423.0,325.606278998915,177.745413342918,420.000176366123,753164524
-33,13.0,-40.0,-11048.0,-1772.0,149.0,1421.0,329.175639843302,171.106895494306,419.998366895986,753172630
-39,54.0,-45.0,-11053.0,-1776.0,153.0,1414.0,332.611851982186,166.641924189265,419.998393193273,753180248
36,-6.0,-32.0,-11063.0,-1788.0,163.0,1404.0,334.828488936226,159.883781116281,419.999534083369,753195066
-56,81.0,-56.0,-11067.0,-1790.0,167.0,1404.0,339.076196068795,153.060584412699,419.9987429504,753207509
33,-51.0,-40.0,-11068.0,-1790.0,168.0,1402.0,341.108285021458,146.17008623009,419.998133226572,753216241
36,-80.0,-31.0,-11070.0,-1791.0,169.0,1401.0,344.04341132271,136.891548212731,419.998010851706,753225221
0,18.0,-141.0,-11071.0,-1789.0,170.0,1397.0,347.734224008628,129.868999892952,419.998172583304,753245948
26,288.0,-266.0,-11076.0,-1780.0,171.0,1382.0,350.337580426647,122.791701889252,420.000379948271,753261156
26,288.0,-266.0,-11076.0,-1780.0,171.0,1382.0,352.796258271909,115.666171853633,419.999103618321,753261156
14,237.0,-204.0,-11082.0,-1759.0,172.0,1362.0,355.852186191556,108.488268234641,419.998677456886,753285470
-144,210.0,-219.0,-11086.0,-1743.0,171.0,1351.0,357.282468653628,98.8494634597136,419.998373671503,753291756
78,149.0,-310.0,-11093.0,-1699.0,167.0,1307.0,359.948698876286,94.0039869495258,420.000642223907,753305589
14,175.0,-141.0,-11098.0,-1671.0,165.0,1281.0,361.777402492773,86.7026923839238,420.000185468997,753322804
214,265.0,-458.0,-11101.0,-1639.0,160.0,1249.0,363.457024477841,79.3696214114418,419.998443621224,753330791
214,265.0,-458.0,-11108.0,-1601.0,157.0,1217.0,364.493058933425,74.4621362524819,419.999962549305,753337089
121,-1.0,-277.0,-11113.0,-1559.0,152.0,1177.0,365.925286777024,67.0720814153169,420.000935093335,753354492
-401,353.0,-124.0,-11118.0,-1513.0,148.0,1137.0,366.79707502214,59.6553445471909,419.999405249923,753362974
508,-130.0,-208.0,-11122.0,-1467.0,141.0,1090.0,367.978191286457,54.6966368629024,420.00240374744,753371199
266,-50.0,-152.0,-11127.0,-1413.0,135.0,1043.0,368.683651337387,49.726493446669,420.002150234401,753379114
-239,-9.0,164.0,-11133.0,-1352.0,128.0,988.0,369.614032733141,39.7667663901923,419.999689357683,753392257
-218,13.0,36.0,-11146.0,-1213.0,116.0,863.0,370.392405470416,32.2757698140366,419.998747406805,753409135
-218,13.0,36.0,-11152.0,-1137.0,109.0,792.0,371.019892254984,27.2747870629263,420.002353475643,753417570
94,-191.0,154.0,-11158.0,-1057.0,103.0,717.0,371.496089378569,19.7655795529189,420.001046553386,753426328
-141,321.0,-238.0,-11158.0,-1057.0,103.0,717.0,371.728807651356,12.2439595623982,419.999577897812,753433871
278,-327.0,142.0,-11164.0,-969.0,96.0,637.0,371.950823354311,7.22762568178609,420.000803955793,753446263
-139,53.0,-106.0,-11175.0,-777.0,85.0,463.0,372.021382997312,-2.80533556377984,420.003214559092,753461181
-143,-32.0,-6.0,-11180.0,-676.0,80.0,372.0,371.939853339633,-10.3321686983365,420.00169563322,753471513
145,-183.0,8.0,-11184.0,-573.0,76.0,276.0,371.704864570099,-17.8530112985497,420.000358116648,753486140
-152,268.0,-253.0,-11190.0,-359.0,70.0,76.0,371.317675718331,-22.8633250293006,419.999781139583,753498665
-172,45.0,-18.0,-11192.0,-252.0,69.0,-22.0,370.779375365697,-30.3716089487099,420.00158417409,753506212
156,-210.0,-119.0,-11192.0,-252.0,69.0,-22.0,370.336883387102,-37.8634919440776,420.000449898468,753514918
-278,79.0,37.0,-11192.0,-141.0,68.0,-121.0,369.544999217487,-42.8514077070229,419.999538541856,753523617
262,-233.0,-84.0,-11191.0,85.0,70.0,-328.0,368.601797457057,-50.3205349370702,420.002364391825,753540903
262,-233.0,-84.0,-11189.0,197.0,73.0,-432.0,367.890834428327,-57.7653878820122,420.001341576778,753547061
278,-252.0,-123.0,-11186.0,309.0,77.0,-537.0,366.696720176551,-65.1905332774446,420.000146113026,753563671
264,-220.0,-96.0,-11181.0,427.0,81.0,-640.0,365.352053875872,-70.1247261104799,420.001260710411,753571987
-280,171.0,-87.0,-11176.0,539.0,87.0,-744.0,363.859355036061,-77.4982478164921,420.002637582865,753579789
138,-176.0,8.0,-11171.0,652.0,94.0,-847.0,362.781473690523,-84.8435873876638,419.999984381199,753596074
-36,172.0,-233.0,-11162.0,769.0,101.0,-954.0,361.039723075203,-92.1540190036788,420.000207300855,753603059
-90,-365.0,186.0,-11144.0,1000.0,121.0,-1166.0,359.150966762291,-97.0057949303455,420.002456173515,753619252
-90,-365.0,186.0,-11136.0,1114.0,133.0,-1268.0,357.810221582057,-104.253162051676,420.001037791418,753627823
-106,397.0,-432.0,-11136.0,1114.0,133.0,-1268.0,355.676113589144,-111.457001034622,420.000683734007,753635077
133,-473.0,132.0,-11111.0,1347.0,158.0,-1479.0,353.397759272732,-116.230829506571,420.001990656321,753647683
22,-290.0,65.0,-11099.0,1459.0,174.0,-1584.0,350.974428481571,-123.356552772559,420.002821145556,753658870
164,91.0,-254.0,-11082.0,1576.0,188.0,-1689.0,349.278450246588,-130.432243060652,419.999741783424,753667413
-55,-65.0,-68.0,-11069.0,1691.0,207.0,-1793.0,346.615700062205,-137.453384804856,420.001241032662,753683403
-55,-65.0,-68.0,-11051.0,1808.0,224.0,-1900.0,343.811185303208,-142.104661574453,420.002740280295,753689705
-21,122.0,-190.0,-11035.0,1922.0,244.0,-2002.0,340.866677680011,-151.326092929455,420.002567632796,753702716
28,134.0,-195.0,-10997.0,2151.0,29.0,-2210.0,337.781957987396,-155.895533814488,419.999802971199,753721179
-43,100.0,-199.0,-10977.0,2267.0,52.0,-2315.0,335.648259376445,-162.696915011656,420.001960063103,753729457
-43,100.0,-199.0,-10977.0,2267.0,52.0,-2315.0,332.334992189157,-169.430256695736,420.00194038536,753736294
81,35.0,-184.0,-10909.0,2607.0,125.0,-2625.0,327.70447839138,-178.302954548868,420.002416816881,753756311
46,2.0,-51.0,-10909.0,2607.0,125.0,-2625.0,324.074700972579,-184.870048784583,420.001271627213,753765302
58,58.0,-275.0,-10885.0,2720.0,152.0,-2728.0,320.312594208662,-189.208335240705,419.999733020803,753773758
-84,-200.0,-81.0,-10858.0,2836.0,180.0,-2833.0,317.730869312688,-195.652113595473,420.00208243785,753784524
1,116.0,-238.0,-10803.0,3060.0,237.0,-3037.0,313.751668577261,-202.010008794967,420.001120810398,753797194
10,45.0,-141.0,-10775.0,3171.0,13.0,-3140.0,309.644330580009,-206.204591926313,420.000290319775,753812330
-128,-54.0,-102.0,-10746.0,3285.0,45.0,-3241.0,305.408839772257,-212.427158511163,420.001363407975,753820299
-135,69.0,-159.0,-10715.0,3396.0,78.0,-3342.0,301.049750814057,-218.561406690836,420.001282542009,753835728
-37,-33.0,-103.0,-10683.0,3504.0,110.0,-3444.0,298.074580856818,-224.607638821516,420.000836703668,753845186
109,60.0,-2.0,-10649.0,3615.0,145.0,-3546.0,293.508759636935,-228.588031469936,419.999875074426,753851609
42,85.0,-49.0,-10582.0,3843.0,221.0,-3746.0,288.825234857757,-234.477534677102,420.001059622967,753868219
58,-68.0,-119.0,-10548.0,3953.0,5.0,-3844.0,285.636498526584,-240.27264002697,420.000817024596,753876778
-126,-130.0,-82.0,-10548.0,3953.0,5.0,-3844.0,280.755727355237,-245.970115131518,419.999955940408,753884271
-38,31.0,-159.0,-10510.0,4061.0,43.0,-3944.0,275.760482656441,-251.565048224639,420.000897891135,753896692
118,-33.0,6.0,-10393.0,4388.0,167.0,-4244.0,268.925968375229,-257.057605763055,420.000685886667,753916599
-3,-122.0,-26.0,-10393.0,4388.0,167.0,-4244.0,265.457197894528,-262.393610261777,420.009311305597,753925225
-113,125.0,-195.0,-10352.0,4499.0,210.0,-4340.0,260.256238763403,-267.479181682655,420.017066141711,753933210
-177,-9.0,-63.0,-10312.0,4603.0,255.0,-4438.0,255.095511465262,-270.693169342282,420.026084039614,753945776
64,-67.0,26.0,-10226.0,4817.0,91.0,-4635.0,250.020646082598,-275.208114253744,420.02951150727,753959980
38,134.0,-133.0,-10181.0,4927.0,139.0,-4731.0,246.700092038067,-279.324594999017,420.038333594404,753971047
38,134.0,-133.0,-10137.0,5033.0,189.0,-4825.0,241.845739044328,-283.034788786415,420.043698470112,753979177
-35,-48.0,-123.0,-10091.0,5140.0,238.0,-4920.0,237.153527929233,-286.323344872614,420.080118250954,753992229
-35,-48.0,-123.0,-10044.0,5243.0,32.0,-5016.0,232.655011322083,-289.206355378562,420.052846522078,753998492
52,95.0,-87.0,-9994.0,5348.0,84.0,-5113.0,228.365960922074,-290.893564648974,420.084918398789,754014366
15,89.0,-45.0,-9945.0,5451.0,137.0,-5208.0,224.304166300877,-293.078120516532,420.086651283655,754022775
88,-74.0,-37.0,-9895.0,5555.0,189.0,-5301.0,221.734094984043,-294.83244475966,420.148255224153,754033159
12,-74.0,-64.0,-9846.0,5657.0,245.0,-5393.0,218.090477093164,-295.783827795602,420.153996670033,754045746
-60,66.0,-44.0,-9794.0,5762.0,45.0,-5485.0,215.782747264559,-296.900027229181,420.210109281778,754052310
-18,136.0,-120.0,-9686.0,5968.0,160.0,-5670.0,212.420923848664,-297.753176794228,420.208529224369,754068894
-58,-72.0,-27.0,-9632.0,6066.0,217.0,-5762.0,207.950243636112,-298.403629189323,420.246980723804,754077483
107,5.0,-105.0,-9576.0,6164.0,20.0,-5854.0,204.527365054937,-298.900316431147,420.285384104363,754094327
136,32.0,-76.0,-9520.0,6265.0,80.0,-5945.0,202.18089664544,-299.290669846816,420.319228836316,754100681
26,54.0,42.0,-9404.0,6466.0,205.0,-6122.0,198.528357469314,-299.514331016763,420.337131997281,754117116
-145,-83.0,-206.0,-9404.0,6466.0,205.0,-6122.0,194.70893139031,-299.854353202778,420.353376575536,754125919
-7,-40.0,-220.0,-9285.0,6659.0,75.0,-6300.0,189.316464043038,-300.049763648563,420.399941021479,754140068
123,121.0,18.0,-9162.0,6853.0,206.0,-6474.0,185.085076141227,-300.203539283993,420.414298446379,754156943
123,-197.0,-169.0,-9162.0,6853.0,206.0,-6474.0,182.193600953138,-300.331220110852,420.390224264292,754165494
-207,50.0,0.0,-9101.0,6950.0,18.0,-6559.0,177.77295931934,-300.407383997731,420.386914069697,754174706
-86,133.0,-63.0,-9036.0,7045.0,85.0,-6645.0,174.788439588099,-300.499541583965,420.414493718368,754182540
-51,149.0,-168.0,-8972.0,7137.0,153.0,-6732.0,170.26542034484,-300.565115409334,420.390287345179,754195062
-87,175.0,69.0,-8839.0,7323.0,34.0,-6900.0,165.694202803615,-300.59862434894,420.376869421775,754209066
192,-335.0,-103.0,-8773.0,7416.0,105.0,-6982.0,161.08997603072,-300.632442141162,420.366497194704,754220372
192,-335.0,-103.0,-8705.0,7509.0,179.0,-7065.0,158.001860162444,-300.667297325656,420.376136978859,754228929
-51,70.0,-134.0,-8705.0,7509.0,179.0,-7065.0,153.351806308992,-300.682701319879,420.333540058745,754236032
52,-65.0,-107.0,-8566.0,7689.0,69.0,-7229.0,148.680522019641,-300.698090563531,420.309527596875,754248549
40,-60.0,3.0,-8497.0,7776.0,141.0,-7309.0,142.443639373662,-300.698220445829,420.298678132486,754264107
-168,144.0,15.0,-8353.0,7956.0,39.0,-7469.0,137.756394835703,-300.69966671672,420.307038429331,754282323
-168,144.0,15.0,-8281.0,8042.0,117.0,-7548.0,133.06544379956,-300.702323363827,420.26261691254,754288610
-414,304.0,87.0,-8208.0,8129.0,193.0,-7624.0,128.363984704443,-300.696277156436,420.258423718759,754301021
-414,304.0,87.0,-8134.0,8213.0,16.0,-7703.0,125.224212469146,-300.693741059187,420.23630220882,754308864
97,128.0,-153.0,-8057.0,8299.0,95.0,-7780.0,118.955699054065,-300.683742482647,420.235098404271,754326237
-81,-108.0,100.0,-7983.0,8382.0,174.0,-7854.0,114.258917828286,-300.671442874269,420.201573095825,754334116
128,140.0,-248.0,-7828.0,8550.0,82.0,-8005.0,107.982393950625,-300.661714716453,420.187286661355,754349794
-154,-98.0,108.0,-7752.0,8629.0,163.0,-8078.0,104.84241536972,-300.65926462343,420.175256418565,754366282
191,230.0,-138.0,-7674.0,8707.0,244.0,-8151.0,100.136114589864,-300.652614947738,420.182117443176,754375416
-210,288.0,173.0,-7599.0,8784.0,69.0,-8219.0,96.9954035342061,-300.645615034006,420.148158376178,754383201
-328,528.0,99.0,-7524.0,8860.0,148.0,-8285.0,92.293437877747,-300.642573457676,420.155413036671,754395611
96,-63.0,-54.0,-7454.0,8928.0,224.0,-8347.0,89.1577954340541,-300.630844548874,420.125270660071,754405975
-94,212.0,-22.0,-7384.0,8996.0,42.0,-8407.0,84.454000958462,-300.627022694951,420.111046089849,754414524
-146,245.0,86.0,-7315.0,9060.0,115.0,-8465.0,79.7519342407936,-300.624167484743,420.116319043672,754422618
-281,467.0,210.0,-7251.0,9120.0,183.0,-8519.0,76.6112885461434,-300.61588737863,420.103560354203,754437557
335,-136.0,-120.0,-7191.0,9174.0,247.0,-8570.0,71.907437069778,-300.611427622351,420.078447594732,754443831
-295,427.0,151.0,-7077.0,9279.0,113.0,-8660.0,67.2080569882592,-300.611034142479,420.074389139606,754457657
53,142.0,-54.0,-7025.0,9324.0,168.0,-8702.0,62.506050104579,-300.601775098062,420.079441973826,754469742
-149,228.0,111.0,-6977.0,9365.0,219.0,-8740.0,57.8035747622512,-300.598618991962,420.079168411452,754478754
-199,239.0,195.0,-6932.0,9404.0,9.0,-8773.0,53.1004064966498,-300.59589207181,420.059517631789,754492366
248,174.0,-92.0,-6892.0,9439.0,53.0,-8804.0,48.4024149554852,-300.59838165751,420.043419347564,754505530
312,125.0,-183.0,-6854.0,9471.0,92.0,-8832.0,43.7000660915351,-300.587394569415,420.067357824493,754513815
70,288.0,-142.0,-6792.0,9525.0,159.0,-8877.0,40.5639426538346,-300.58579492954,420.06160785194,754532424
70,288.0,-142.0,-6765.0,9547.0,187.0,-8897.0,35.8676905576879,-300.588292469913,420.026221870583,754538909
26,-98.0,149.0,-6745.0,9563.0,209.0,-8912.0,31.1695757971374,-300.587016567934,420.012519652323,754551418
26,-98.0,149.0,-6726.0,9578.0,229.0,-8926.0,26.4648471782052,-300.580937818143,420.015870447406,754559215
-110,247.0,214.0,-6714.0,9591.0,244.0,-8934.0,23.3314662158673,-300.579518004803,420.020828278095,754575831
-391,37.0,55.0,-6704.0,9602.0,0.0,-8939.0,18.6323305987348,-300.580784241658,420.016160205181,754583574
-214,111.0,-138.0,-6696.0,9610.0,10.0,-8944.0,13.9382959056483,-300.582182252577,420.005801726518,754593009
-250,86.0,16.0,-6689.0,9617.0,18.0,-8949.0,9.23777445236612,-300.579368738556,419.987406118981,754606619
-73,127.0,2.0,-6684.0,9622.0,25.0,-8953.0,4.5378678623692,-300.575283196588,419.994762252003,754615034
-567,2.0,37.0,-6678.0,9633.0,36.0,-8954.0,-0.159694570355197,-300.5728660316,420.007538842174,754631367
-567,2.0,37.0,-6678.0,9633.0,36.0,-8954.0,-3.29022747986157,-300.554990428625,419.99320817143,754638079
-267,-23.0,50.0,-6671.0,9637.0,43.0,-8961.0,-7.98888057513873,-300.545407013857,419.955855254492,754654411
-351,-70.0,22.0,-6669.0,9638.0,45.0,-8962.0,-12.687873120534,-300.555699504339,419.943600016052,754662592
-351,-70.0,22.0,-6668.0,9639.0,46.0,-8963.0,-17.3858510562094,-300.570868245928,419.966105036955,754670636
-506,-29.0,112.0,-6667.0,9641.0,49.0,-8964.0,-23.6515414402109,-300.571985888855,419.973621297961,754687012
-348,177.0,-126.0,-6663.0,9642.0,51.0,-8968.0,-28.349934301294,-300.57173997625,419.980130642574,754700358
-236,191.0,-75.0,-6663.0,9642.0,52.0,-8969.0,-31.4807892826851,-300.570802950873,419.973139975974,754708391
-419,35.0,45.0,-6662.0,9641.0,51.0,-8969.0,-36.1803104634597,-300.576511151001,419.976193153624,754720571
-336,-48.0,-6.0,-6661.0,9641.0,52.0,-8971.0,-40.8775697272341,-300.57986768266,419.997892278927,754736668
-124,172.0,-14.0,-6659.0,9640.0,52.0,-8974.0,-45.5756303885844,-300.574936691355,420.014876171745,754742807
-233,132.0,-1.0,-6658.0,9639.0,52.0,-8975.0,-48.7086098722469,-300.577082341552,420.011685774063,754756387
-191,140.0,-46.0,-6657.0,9638.0,51.0,-8977.0,-53.4103782820873,-300.58180208618,420.009782480007,754765085
-141,17.0,27.0,-6656.0,9636.0,49.0,-8978.0,-58.1067392628805,-300.579401328584,420.019145832849,754773456
-35,-1.0,4.0,-6654.0,9634.0,48.0,-8981.0,-62.8066375441651,-300.585549089265,420.003650298354,754791184
-35,-1.0,4.0,-6654.0,9634.0,48.0,-8981.0,-67.5066358849987,-300.584191354889,420.011351569748,754799682
-56,101.0,-123.0,-6654.0,9634.0,48.0,-8981.0,-70.641200955876,-300.58674759365,420.01396169958,754808558
-23,28.0,-17.0,-6653.0,9633.0,47.0,-8982.0,-75.3375967049878,-300.584528931341,420.043593471838,754826219
21,75.0,-62.0,-6652.0,9632.0,46.0,-8983.0,-80.042748847551,-300.591249825073,420.041462908889,754834368
-57,46.0,45.0,-6652.0,9631.0,46.0,-8984.0,-83.177160607776,-300.592133029494,420.021260978883,754841600
207,-6.0,-115.0,-6652.0,9631.0,46.0,-8984.0,-87.8782968412741,-300.602298205543,420.044579042374,754852633
207,-6.0,-115.0,-6652.0,9632.0,46.0,-8982.0,-91.0052067813238,-300.604060504137,420.062036460906,754860821
-32,-29.0,-77.0,-6652.0,9633.0,46.0,-8982.0,-94.1444910763592,-300.59852149359,420.072889299553,754869258
3,12.0,-163.0,-6651.0,9631.0,47.0,-8984.0,-98.8540744696728,-300.605397338762,420.074789241714,754885633
445,64.0,-193.0,-6649.0,9630.0,46.0,-8987.0,-103.556200692158,-300.609640737723,420.072437303979,754891919
-258,94.0,239.0,-6650.0,9630.0,46.0,-8985.0,-106.689204587983,-300.615727182381,420.079490997322,754905264
-5,-169.0,-238.0,-6652.0,9630.0,45.0,-8984.0,-112.954819154358,-300.62071422771,420.088478717705,754913526
245,-203.0,-268.0,-6651.0,9629.0,48.0,-8988.0,-117.663804641647,-300.621268412175,420.110828851415,754939127
245,-203.0,-268.0,-6651.0,9629.0,48.0,-8988.0,-120.806220674862,-300.631052854372,420.108338142056,754939127
-390,573.0,221.0,-6649.0,9632.0,45.0,-8984.0,-125.513426101057,-300.634317733715,420.126346634808,754952135
-390,573.0,221.0,-6653.0,9628.0,47.0,-8987.0,-130.21572799356,-300.648005730319,420.124174492335,754960141
200,-613.0,-57.0,-6648.0,9633.0,46.0,-8984.0,-133.352226758459,-300.656166031376,420.142670917948,754968580
399,-474.0,-313.0,-6651.0,9630.0,49.0,-8988.0,-138.062342902363,-300.661978486906,420.165619207495,754984742
399,-474.0,-313.0,-6648.0,9632.0,46.0,-8986.0,-141.203442536879,-300.670702942357,420.165850725839,754991180
58,-331.0,-5.0,-6649.0,9630.0,45.0,-8986.0,-145.915503645167,-300.682975723292,420.178931800264,755010641
174,-62.0,-176.0,-6651.0,9631.0,46.0,-8985.0,-152.202806313797,-300.698171943353,420.20586542951,755019339
-259,159.0,412.0,-6649.0,9631.0,47.0,-8987.0,-155.337951313929,-300.710956531051,420.224860077438,755028298
244,-29.0,-480.0,-6649.0,9631.0,47.0,-8987.0,-160.059330284145,-300.724513242335,420.234337995365,755036084
-57,126.0,201.0,-6650.0,9631.0,47.0,-8986.0,-163.205038536204,-300.746100561439,420.275712123681,755051532
-57,126.0,201.0,-6650.0,9629.0,47.0,-8988.0,-167.902049638847,-300.759702588998,420.285877306981,755060034
49,-8.0,-97.0,-6649.0,9630.0,47.0,-8988.0,-172.527627639355,-300.774563050297,420.282299775582,755068869
-171,149.0,139.0,-6648.0,9629.0,46.0,-8988.0,-179.939002218662,-300.767017437688,420.339121514278,755088709
-86,257.0,195.0,-6648.0,9628.0,45.0,-8989.0,-184.143701983582,-300.756201362954,420.361628716832,755098161
164,-285.0,-301.0,-6648.0,9628.0,45.0,-8989.0,-188.15226268992,-300.737610539079,420.354522418786,755115816
107,-283.0,-352.0,-6648.0,9629.0,45.0,-8988.0,-193.162811460506,-300.708317391357,420.370951875005,755132408
107,-283.0,-352.0,-6648.0,9629.0,45.0,-8988.0,-196.641045661011,-300.676757145362,420.385101924528,755139771
10,279.0,1.0,-6648.0,9629.0,45.0,-8988.0,-199.878293755354,-300.644620546746,420.381449678253,755151281
-6,-219.0,-185.0,-6648.0,9629.0,45.0,-8988.0,-202.870447778516,-300.60450521628,420.369562255715,755168539
-15,238.0,154.0,-6648.0,9629.0,45.0,-8988.0,-205.60093241857,-300.564046209823,420.370786430983,755177201
-2,-65.0,-212.0,-6648.0,9629.0,44.0,-8987.0,-208.072088022923,-300.523274934284,420.354392785861,755192640
-2,-65.0,-212.0,-6649.0,9628.0,44.0,-8987.0,-209.569027379909,-300.479898078369,420.328248761127,755200928
66,-284.0,-382.0,-6649.0,9628.0,44.0,-8987.0,-211.602027189236,-300.440831039157,420.303204854253,755209588
-51,200.0,157.0,-6647.0,9627.0,44.0,-8990.0,-213.892572399507,-300.357726048244,420.278646392837,755229946
381,82.0,-253.0,-6646.0,9628.0,43.0,-8989.0,-215.700395096396,-300.301572404651,420.240346490272,755243540
190,284.0,386.0,-6647.0,9626.0,43.0,-8991.0,-216.73921808997,-300.239653002669,420.200522814849,755257150
364,-487.0,-251.0,-6646.0,9627.0,43.0,-8991.0,-217.946725775271,-300.1465834627,420.118547409307,755274011
189,383.0,282.0,-6644.0,9627.0,43.0,-8991.0,-218.284654438009,-300.115799460951,420.023526253222,755284195
189,383.0,282.0,-6645.0,9626.0,44.0,-8992.0,-218.685725532302,-300.089759546091,419.673594899232,755291525
339,55.0,-278.0,-6646.0,9626.0,42.0,-8990.0,-219.016175914941,-300.0980157926,418.958913759651,755309179
206,-88.0,274.0,-6646.0,9626.0,42.0,-8990.0,-219.276450669755,-300.110885554035,417.928928219757,755317765
637,-150.0,-528.0,-6645.0,9626.0,43.0,-8992.0,-219.543197052323,-300.152646336566,416.562691446823,755334605
637,-150.0,-528.0,-6644.0,9628.0,42.0,-8990.0,-219.663738394671,-300.184299931445,415.398479974246,755340822
79,311.0,376.0,-6645.0,9628.0,43.0,-8990.0,-219.832648203026,-300.253768171268,413.272294640398,755350500
102,308.0,275.0,-6644.0,9627.0,42.0,-8991.0,-219.931753249962,-300.30531005908,410.733539117422,755367156
220,-103.0,48.0,-6645.0,9629.0,43.0,-8989.0,-220.053488921201,-300.397767787131,407.740145773061,755375745
299,47.0,-290.0,-6644.0,9629.0,43.0,-8989.0,-220.14020969435,-300.491939083259,405.458802412027,755383636
213,158.0,26.0,-6645.0,9630.0,42.0,-8986.0,-220.266058612342,-300.594072711269,401.632439289822,755396426
82,201.0,-135.0,-6650.0,9629.0,38.0,-8981.0,-220.386014056698,-300.665726214547,398.791525417475,755402744
-21,193.0,79.0,-6670.0,9619.0,21.0,-8964.0,-220.490512296624,-300.816947836048,390.748916601288,755421276
-76,455.0,258.0,-6686.0,9605.0,5.0,-8954.0,-220.577797996396,-300.913861715714,387.215758164614,755429890
11,261.0,103.0,-6707.0,9588.0,238.0,-8938.0,-220.662331645731,-300.968810677011,381.621915557768,755443560
94,211.0,-28.0,-6731.0,9568.0,212.0,-8920.0,-220.723108861418,-301.029261787612,377.793627807278,755456877
0,290.0,106.0,-6761.0,9544.0,180.0,-8897.0,-220.754158445794,-301.064041907692,371.877282534304,755465014
0,290.0,106.0,-6761.0,9544.0,180.0,-8897.0,-220.788740129677,-301.104393807925,365.788629963565,755465014
170,332.0,-39.0,-6883.0,9442.0,50.0,-8806.0,-220.808745673592,-301.126642632708,359.571785994713,755490141
-107,143.0,15.0,-6934.0,9400.0,254.0,-8766.0,-220.819233222248,-301.130591151426,353.2899565207,755502625
-107,143.0,15.0,-6988.0,9353.0,196.0,-8724.0,-220.819145724584,-301.12769703247,346.974734978262,755510495
-136,323.0,112.0,-7047.0,9298.0,130.0,-8679.0,-220.815760189013,-301.115457339013,340.544427909791,755518988
-89,328.0,41.0,-7116.0,9238.0,58.0,-8624.0,-220.804497883587,-301.090247873491,334.051787311407,755535695
-140,48.0,279.0,-7261.0,9105.0,160.0,-8505.0,-220.79144065041,-301.079575205177,327.560458876476,755551573
35,408.0,-96.0,-7342.0,9029.0,74.0,-8438.0,-220.775696409204,-301.057096995413,323.245867789615,755559178
50,138.0,-108.0,-7342.0,9029.0,74.0,-8438.0,-220.763174382018,-301.035000306444,316.714235098832,755567766
87,92.0,-123.0,-7425.0,8948.0,242.0,-8369.0,-220.747236324811,-301.005157614002,310.168280926174,755576209
-68,318.0,181.0,-7598.0,8779.0,61.0,-8216.0,-220.730280625382,-300.971374180958,303.587449493385,755590479
38,314.0,-187.0,-7684.0,8690.0,224.0,-8139.0,-220.703388261712,-300.949419474524,297.029354905351,755603476
-109,276.0,206.0,-7769.0,8601.0,131.0,-8058.0,-220.698494633786,-300.938458630725,292.681198217288,755613906
-109,276.0,206.0,-7858.0,8506.0,39.0,-7976.0,-220.679370851591,-300.921963072718,286.131050916487,755622092
71,-79.0,-226.0,-7947.0,8409.0,200.0,-7890.0,-220.672174407614,-300.901311191924,281.741977592506,755630656
-103,44.0,75.0,-8034.0,8314.0,108.0,-7802.0,-220.647762961137,-300.86156129741,275.121981259656,755644202
73,-59.0,-383.0,-8121.0,8214.0,16.0,-7716.0,-220.642910672303,-300.864180398949,268.597072246942,755657373
-1,102.0,98.0,-8208.0,8113.0,179.0,-7625.0,-220.624503019645,-300.832775427641,264.180100026817,755665677
-119,-54.0,-57.0,-8292.0,8012.0,88.0,-7534.0,-220.617186377767,-300.829597433852,257.649055740666,755673722
-65,-164.0,-70.0,-8379.0,7909.0,255.0,-7442.0,-220.592744511728,-300.794551059637,251.026727402971,755684030
67,238.0,-137.0,-8545.0,7697.0,76.0,-7254.0,-220.589717650365,-300.78808329859,244.483063203027,755702947
138,13.0,-94.0,-8628.0,7591.0,245.0,-7157.0,-220.577986605827,-300.770979080726,237.892797282301,755711245
-275,84.0,148.0,-8712.0,7482.0,158.0,-7058.0,-220.563636224327,-300.769433567123,231.34133996825,755719890
145,171.0,-205.0,-8790.0,7372.0,71.0,-6962.0,-220.546663809253,-300.739238131681,224.7505148346,755736386
178,23.0,-93.0,-8947.0,7150.0,160.0,-6761.0,-220.554073629585,-300.740230462498,218.187198952885,755752189
-325,95.0,130.0,-9027.0,7038.0,79.0,-6657.0,-220.550735029696,-300.729132051013,211.608217961522,755759868
147,151.0,-430.0,-9099.0,6924.0,254.0,-6559.0,-220.531892332581,-300.698090376292,205.007570879097,755777177
255,-11.0,-104.0,-9174.0,6808.0,174.0,-6458.0,-220.509151906246,-300.688590354683,198.41627534985,755784960
-76,-117.0,-97.0,-9249.0,6691.0,95.0,-6351.0,-220.505251712761,-300.682768257535,191.853858692868,755797561
-235,-43.0,125.0,-9323.0,6576.0,20.0,-6244.0,-220.498714275504,-300.674861230626,185.284088924647,755808688
-242,423.0,30.0,-9393.0,6464.0,201.0,-6137.0,-220.504737716772,-300.683830502625,180.913893761147,755817298
83,17.0,-79.0,-9462.0,6343.0,127.0,-6034.0,-220.505800118322,-300.698350036857,174.364886881007,755825681
63,-108.0,-7.0,-9600.0,6099.0,237.0,-5816.0,-220.513193861616,-300.695613325722,169.979177095581,755840331
-92,-64.0,126.0,-9600.0,6099.0,237.0,-5816.0,-220.518782276623,-300.703824893813,163.413680962486,755846610
-146,189.0,-6.0,-9728.0,5860.0,99.0,-5600.0,-220.521648396101,-300.709409158438,159.037708096149,755860699
-28,123.0,-132.0,-9791.0,5735.0,30.0,-5488.0,-220.538098522249,-300.720699320344,152.476234584911,755872503
46,-18.0,-72.0,-9856.0,5611.0,220.0,-5376.0,-220.541835436014,-300.736684841239,145.901031812514,755880990
0,-185.0,4.0,-9856.0,5611.0,220.0,-5376.0,-220.541385424527,-300.734811589036,139.338545255912,755888269
-50,32.0,-9.0,-9975.0,5368.0,93.0,-5149.0,-220.559683239104,-300.749238065073,134.952647406076,755900789
4,-50.0,-3.0,-10090.0,5115.0,226.0,-4921.0,-220.581036424574,-300.759926447051,117.569484506809,755924001
-15,54.0,-161.0,-10200.0,4860.0,109.0,-4691.0,-220.558905457138,-300.778158243395,111.396778015134,755947360
-15,54.0,-161.0,-10252.0,4732.0,52.0,-4575.0,-220.553635126739,-300.751255419916,105.497390419913,755953680
-31,18.0,-91.0,-10353.0,4473.0,201.0,-4341.0,-220.551642632156,-300.757616316863,99.9671069025356,755970194
-24,33.0,17.0,-10353.0,4473.0,201.0,-4341.0,-220.522137841003,-300.712595591738,94.8177835330002,755978615
-36,105.0,-137.0,-10449.0,4212.0,98.0,-4105.0,-220.49384040435,-300.671237545568,90.0859650526795,755996041
-36,105.0,-137.0,-10494.0,4081.0,49.0,-3984.0,-220.45941087595,-300.627814147753,85.8149096240653,756002283
-11,-25.0,-123.0,-10539.0,3950.0,2.0,-3866.0,-220.413399809438,-300.535015493115,81.9844691122517,756018408
-24,23.0,34.0,-10581.0,3817.0,212.0,-3746.0,-220.368000809139,-300.492445301749,78.6577263465774,756026961
-10,-46.0,-131.0,-10662.0,3549.0,124.0,-3503.0,-220.302006541844,-300.411409356473,75.7721953701457,756041360
-37,96.0,-151.0,-10700.0,3416.0,82.0,-3383.0,-220.268159747778,-300.36651276204,72.7375413939004,756058001
85,-92.0,-118.0,-10737.0,3281.0,42.0,-3264.0,-220.225112639467,-300.299378823761,71.0592256968507,756066367
-34,0.0,26.0,-10773.0,3144.0,3.0,-3140.0,-220.203648826581,-300.256793196608,69.7368559607386,756074238
-53,-11.0,-103.0,-10808.0,3010.0,223.0,-3014.0,-220.082207529014,-300.185104037986,68.7404527453724,756089433
-81,44.0,-158.0,-10871.0,2742.0,154.0,-2770.0,-219.841941124695,-300.109530308863,67.9406238368525,756101799
59,-70.0,-88.0,-10932.0,2465.0,92.0,-2518.0,-218.962072489045,-300.117817487773,67.1962214451721,756122296
-97,40.0,70.0,-10958.0,2331.0,63.0,-2393.0,-218.373473724111,-300.055758306282,66.6910700535718,756131024
70,-82.0,-152.0,-10982.0,2195.0,35.0,-2271.0,-217.232757476243,-300.03205713687,66.3227342436065,756144709
146,51.0,-107.0,-11006.0,2054.0,8.0,-2147.0,-215.806750739253,-300.012076424661,66.0357572791315,756158082
66,-250.0,-263.0,-11050.0,1777.0,217.0,-1896.0,-213.387456905514,-300.012351205504,65.7414629556994,756174185
-212,257.0,73.0,-11071.0,1641.0,197.0,-1767.0,-211.165441279827,-299.997834181692,65.6098092313608,756184749
-212,257.0,73.0,-11089.0,1501.0,178.0,-1639.0,-209.486950187273,-300.017948905494,65.4552065150472,756191312
32,-88.0,-237.0,-11119.0,1221.0,142.0,-1390.0,-205.667354605846,-300.067598298216,65.3239279364207,756211633
16,125.0,-13.0,-11133.0,1079.0,127.0,-1264.0,-202.373420317139,-300.106870261705,65.2593106210301,756220814
40,62.0,-288.0,-11145.0,944.0,114.0,-1134.0,-198.690636772468,-300.129496819764,65.1355681357902,756229817
-205,120.0,-95.0,-11158.0,807.0,104.0,-1008.0,-194.640204343641,-300.220085317244,65.081996995907,756247114
-205,120.0,-95.0,-11164.0,664.0,92.0,-881.0,-190.206109644129,-300.26821359441,65.0106457537339,756253391
173,163.0,-254.0,-11180.0,384.0,77.0,-628.0,-183.867494387008,-300.375131777832,64.937827951125,756270057
-333,263.0,-363.0,-11185.0,246.0,72.0,-497.0,-178.854955054203,-300.507586146363,64.923387056322,756286688
105,-31.0,-14.0,-11187.0,105.0,68.0,-372.0,-171.945598445893,-300.56456802403,64.8606418692796,756299182
123,86.0,-104.0,-11188.0,-178.0,64.0,-119.0,-166.639415639766,-300.616495294897,64.8590696597913,756309780
-93,214.0,-117.0,-11187.0,-316.0,66.0,10.0,-159.428684179682,-300.691328669997,64.8238016843313,756327242
42,-220.0,-199.0,-11180.0,-585.0,72.0,255.0,-153.965053005522,-300.774964119516,64.8346865381935,756341748
-131,235.0,457.0,-11176.0,-715.0,79.0,371.0,-146.594109462806,-300.776919095845,64.8094361967575,756354246
-131,235.0,457.0,-11171.0,-835.0,86.0,483.0,-142.894223076456,-300.807213269987,64.8105508694397,756361936
9,-98.0,-25.0,-11164.0,-951.0,92.0,588.0,-137.327384070893,-300.826906970347,64.8277854980368,756373458
-35,-170.0,242.0,-11158.0,-1060.0,102.0,694.0,-131.731913421911,-300.851853363074,64.8297786669016,756389139
267,-411.0,-243.0,-11149.0,-1165.0,109.0,783.0,-127.994840195721,-300.852820467576,64.8231213950556,756395468
-7,-57.0,341.0,-11141.0,-1262.0,117.0,871.0,-122.377641828195,-300.845517240151,64.8175476559509,756408700
67,-440.0,-6.0,-11134.0,-1351.0,127.0,958.0,-118.633391848275,-300.884660636374,64.8570741723277,756417177
-15,-22.0,97.0,-11125.0,-1434.0,135.0,1031.0,-113.006102258247,-300.865190718135,64.8465944367391,756425400
-55,121.0,403.0,-11111.0,-1573.0,151.0,1160.0,-107.371766643826,-300.852070594139,64.8406090169219,756442374
65,5.0,164.0,-11104.0,-1633.0,158.0,1215.0,-101.729619389446,-300.857277213766,64.856595903167,756454891
65,5.0,164.0,-11098.0,-1688.0,165.0,1264.0,-96.109121588119,-300.89974320983,64.9001936586419,756462764
159,-84.0,312.0,-11093.0,-1735.0,172.0,1306.0,-92.3502599930549,-300.859959019381,64.8783007217065,756471560
-252,47.0,167.0,-11089.0,-1769.0,177.0,1343.0,-86.6981693930934,-300.837710893688,64.8727836178399,756487706
85,-65.0,-42.0,-11085.0,-1797.0,181.0,1369.0,-81.0588122897811,-300.853576997486,64.8920086961579,756497186
85,-65.0,-42.0,-11080.0,-1820.0,182.0,1386.0,-77.2954245187046,-300.855019378476,64.9056309396589,756503495
98,5.0,-172.0,-11077.0,-1838.0,183.0,1400.0,-71.6644828581592,-300.867416042025,64.9291132881781,756519746
-81,70.0,-193.0,-11075.0,-1849.0,185.0,1412.0,-66.0268715948557,-300.834716040927,64.9129676243862,756528314
-90,141.0,-305.0,-11073.0,-1869.0,188.0,1431.0,-60.3743890862202,-300.825171071417,64.9200356062612,756542620
102,65.0,-396.0,-11071.0,-1877.0,188.0,1436.0,-54.7319226422235,-300.839783913971,64.9411298033631,756559432
16,115.0,-353.0,-11070.0,-1882.0,189.0,1441.0,-49.1056508311616,-300.828903123921,64.9453468750437,756568178
-138,177.0,-335.0,-11070.0,-1884.0,189.0,1445.0,-43.4670348405747,-300.821781546305,64.9512852716005,756576615
-69,282.0,-478.0,-11070.0,-1883.0,189.0,1446.0,-39.7027764089914,-300.823837259248,64.9556380928561,756584555
33,214.0,-459.0,-11066.0,-1886.0,186.0,1447.0,-34.0597525551677,-300.812761920843,64.9557336370356,756600517
84,216.0,-555.0,-11066.0,-1886.0,186.0,1447.0,-28.4309918244789,-300.816703107728,64.9600707165181,756609548
-78,259.0,-364.0,-11066.0,-1888.0,187.0,1449.0,-24.678299104511,-300.815315499619,64.9656921128182,756618455
-80,239.0,-347.0,-11065.0,-1888.0,186.0,1452.0,-17.1561418857308,-300.810129387095,64.9716166906972,756632032
-39,265.0,-416.0,-11065.0,-1888.0,186.0,1452.0,-13.3934599555753,-300.813463241174,64.9798558749509,756639629
26,207.0,-338.0,-11062.0,-1891.0,184.0,1456.0,-7.7627764623142,-300.81093293327,64.9851354053183,756652208
-1,59.0,-153.0,-11062.0,-1891.0,184.0,1456.0,-2.13553416444175,-300.814429744923,64.9902289678179,756659898
-53,21.0,7.0,-11061.0,-1898.0,185.0,1464.0,3.50607000901311,-300.795673668439,64.9858417304939,756676860
15,90.0,-139.0,-11059.0,-1902.0,184.0,1468.0,7.26435322100177,-300.75328610991,64.9867659025167,756684656
-7,90.0,-172.0,-11057.0,-1902.0,182.0,1468.0,12.8946230794388,-300.782460998712,64.9862993658176,756694769
-29,93.0,-66.0,-11055.0,-1904.0,182.0,1472.0,18.5249845551106,-300.750066711308,64.982635041281,756708186
-39,93.0,-131.0,-11054.0,-1904.0,181.0,1474.0,22.2811123987606,-300.757767099093,64.9806135475919,756716333
-19,64.0,-28.0,-11052.0,-1908.0,180.0,1479.0,29.7974042124032,-300.771110660092,64.9821580325349,756733438
2,88.0,-124.0,-11050.0,-1910.0,179.0,1483.0,37.305847088904,-300.768633554702,64.9802245343767,756746865
2,88.0,-124.0,-11050.0,-1910.0,179.0,1483.0,41.0625188734346,-300.779072106419,64.9830458117453,756746865
-9,26.0,-45.0,-11047.0,-1909.0,177.0,1488.0,48.5818897371393,-300.796964278798,64.9843902025771,756773052
-20,-44.0,82.0,-11046.0,-1908.0,176.0,1489.0,54.2189956822631,-300.796367958841,64.9755013769224,756789032
-12,93.0,-62.0,-11045.0,-1909.0,176.0,1492.0,59.8513539380356,-300.798875142407,64.9768145931106,756795326
-33,97.0,-31.0,-11044.0,-1910.0,175.0,1495.0,63.6068134552681,-300.817868886697,64.976580081895,756809032
-17,-132.0,47.0,-11043.0,-1909.0,174.0,1496.0,69.2487620050007,-300.8194389947,64.9735667611486,756817719
0,164.0,-139.0,-11042.0,-1907.0,173.0,1497.0,74.8933520266449,-300.829040286943,64.9711431576042,756826105
-31,-55.0,16.0,-11040.0,-1906.0,172.0,1500.0,80.5262799139021,-300.829062116297,64.9631244396783,756844051
-4,-76.0,11.0,-11039.0,-1905.0,171.0,1501.0,84.2827714720965,-300.825012833912,64.9413081198891,756852481
5,9.0,-50.0,-11038.0,-1905.0,170.0,1503.0,89.9213858972841,-300.830328540963,64.9337302117906,756861250
-22,-72.0,86.0,-11038.0,-1905.0,170.0,1503.0,95.5666296340323,-300.836630341855,64.9348896682376,756870013
-21,22.0,-57.0,-11037.0,-1902.0,169.0,1506.0,99.3285163141015,-300.852318922937,64.9446927828776,756886406
-21,22.0,-57.0,-11036.0,-1900.0,168.0,1506.0,104.967830003777,-300.858711437511,64.9296676171931,756892789
-10,8.0,10.0,-11035.0,-1901.0,167.0,1509.0,110.604027144486,-300.840571389205,64.9043475913185,756902344
-14,-85.0,60.0,-11035.0,-1900.0,167.0,1510.0,116.253937163765,-300.85956490431,64.8885313682624,756918538
-14,39.0,-46.0,-11034.0,-1896.0,165.0,1512.0,123.78129272533,-300.86532787802,64.8923673820884,756935611
-14,39.0,-46.0,-11033.0,-1895.0,165.0,1515.0,127.554643970501,-300.901716402216,64.8972718483692,756942316
-10,-25.0,5.0,-11032.0,-1894.0,164.0,1516.0,135.076298867184,-300.878644029828,64.8559833106921,756954789
-16,-100.0,-20.0,-11031.0,-1894.0,164.0,1517.0,140.712809409689,-300.871921885133,64.8383778601756,756965265
-14,37.0,28.0,-11030.0,-1892.0,163.0,1520.0,146.380985928902,-300.912333779255,64.8537661442792,756982272
-9,-144.0,-24.0,-11030.0,-1892.0,163.0,1520.0,150.157241514461,-300.934219714797,64.8534279363941,756989693
-5,-110.0,-41.0,-11029.0,-1888.0,162.0,1523.0,155.793215497225,-300.928347290953,64.8145912275097,757002557
-34,112.0,3.0,-11029.0,-1888.0,162.0,1523.0,159.565003210102,-300.934186675937,64.7990691711873,757010158
-9,-93.0,-42.0,-11029.0,-1888.0,162.0,1524.0,165.194079984573,-300.931972764936,64.7872647911122,757018756
-21,67.0,13.0,-11028.0,-1886.0,161.0,1528.0,170.736367082961,-300.969215400813,64.8085511859455,757031189
-30,-92.0,-29.0,-11028.0,-1883.0,160.0,1527.0,174.31980301517,-300.918811272735,64.7795765394831,757046406
-30,-92.0,-29.0,-11027.0,-1882.0,160.0,1531.0,179.502415391455,-300.870341316077,64.7650132609393,757052697
-8,68.0,13.0,-11027.0,-1882.0,160.0,1531.0,184.461882988398,-300.857674402401,64.7740540868489,757059922
-10,-153.0,-37.0,-11028.0,-1880.0,160.0,1533.0,187.587887134859,-300.780806245916,64.7579413720361,757076609
-10,-153.0,-37.0,-11028.0,-1879.0,161.0,1535.0,192.042715816906,-300.754526287874,64.7945612525002,757084534
0,-255.0,-27.0,-11028.0,-1879.0,161.0,1536.0,196.143388663252,-300.641286602168,64.7633872915974,757095708
-26,120.0,47.0,-11029.0,-1876.0,161.0,1539.0,199.932158782127,-300.603654764501,64.8098528677889,757112895
-31,125.0,37.0,-11029.0,-1875.0,161.0,1540.0,203.359400905173,-300.491640482958,64.7976142453094,757121712
-5,-181.0,-40.0,-11029.0,-1875.0,161.0,1540.0,206.429158132751,-300.434943228606,64.8296281740404,757130550
-12,-84.0,-45.0,-11029.0,-1873.0,162.0,1544.0,209.110271597308,-300.343329850585,64.8413192796899,757145406
-3,-120.0,-30.0,-11030.0,-1870.0,162.0,1547.0,212.125727019687,-300.268523393436,64.8720810123035,757163043
-31,17.0,39.0,-11030.0,-1868.0,162.0,1547.0,214.470495196427,-300.147766842101,64.8951351798046,757171942
-25,37.0,25.0,-11030.0,-1868.0,162.0,1549.0,215.808423924095,-300.122151100501,64.9446786443545,757188449
-15,13.0,20.0,-11030.0,-1865.0,163.0,1550.0,216.792778124175,-300.056400433577,64.9311805696022,757200912
-1,-167.0,-13.0,-11030.0,-1865.0,163.0,1552.0,217.635676430854,-299.930860171518,64.9292724002373,757207612
-17,-117.0,7.0,-11031.0,-1863.0,163.0,1555.0,218.213076752962,-299.678154771234,64.959013036834,757226492
-17,-117.0,7.0,-11031.0,-1861.0,163.0,1555.0,219.611027730465,-299.005488756812,64.9810304855851,757234825
-20,-53.0,-25.0,-11032.0,-1858.0,164.0,1558.0,221.46262114563,-298.163688837643,64.9863535176827,757254223
-29,-51.0,32.0,-11032.0,-1857.0,164.0,1560.0,222.607598148734,-297.008271779045,64.9982919253037,757262111
-10,-77.0,-67.0,-11032.0,-1855.0,164.0,1561.0,225.414469547318,-294.928448126301,65.0158418320595,757279534
-21,-79.0,69.0,-11032.0,-1854.0,164.0,1563.0,228.945565654086,-292.913775055826,65.0057621363528,757290931
-1,-103.0,-100.0,-11033.0,-1851.0,164.0,1565.0,232.095114863612,-289.572609210542,64.996190043874,757307524
-26,-56.0,92.0,-11033.0,-1851.0,165.0,1567.0,235.719229975948,-286.558587415984,65.0085232928583,757315783
-8,-18.0,-100.0,-11033.0,-1848.0,165.0,1570.0,239.7759006593,-284.297814890027,65.0143838604436,757333124
-11,-119.0,86.0,-11033.0,-1848.0,165.0,1570.0,245.726992314478,-279.210467778711,65.0057090758856,757341103
-39,-12.0,100.0,-11034.0,-1846.0,165.0,1570.0,248.864141363046,-274.992689440134,65.0057058637424,757349131
-12,-122.0,-107.0,-11034.0,-1843.0,166.0,1575.0,258.638098829324,-265.758459307243,65.0083796191517,757379660
-29,-74.0,101.0,-11035.0,-1840.0,166.0,1578.0,266.892410989093,-257.422407793862,65.002187225941,757400258
1,-68.0,-116.0,-11035.0,-1839.0,166.0,1579.0,271.835581247167,-253.951281677899,65.0045124634236,757406911
-26,-144.0,92.0,-11035.0,-1837.0,166.0,1580.0,275.108101415063,-248.606822393258,65.0047511860495,757417713
-32,-94.0,89.0,-11036.0,-1834.0,167.0,1583.0,279.974896766468,-243.116910222173,65.0055623841386,757434423
-11,-67.0,-94.0,-11036.0,-1834.0,167.0,1583.0,284.764573946007,-237.492211403009,65.0031190592939,757441468
-22,-134.0,71.0,-11036.0,-1832.0,167.0,1585.0,289.46279232797,-233.676459089156,65.0017290233849,757455112
-16,-105.0,-69.0,-11036.0,-1832.0,167.0,1587.0,292.545692143901,-227.859172980013,65.0027940094031,757463127
-11,-126.0,-68.0,-11036.0,-1830.0,168.0,1588.0,297.082185615289,-221.926012524674,65.0005259466252,757472117
-24,-57.0,40.0,-11036.0,-1829.0,168.0,1590.0,301.513972144402,-217.911703076375,65.000436958141,757484633
-20,-57.0,28.0,-11037.0,-1827.0,168.0,1590.0,304.410171179096,-211.805496827361,64.9999556352346,757497743
-20,-57.0,28.0,-11038.0,-1827.0,169.0,1592.0,308.652678264335,-207.680185759722,64.9993988868812,757503947
6,-135.0,-48.0,-11038.0,-1826.0,169.0,1593.0,312.773001415954,-201.423668973401,64.9995756372859,757520856
-25,-93.0,2.0,-11038.0,-1824.0,169.0,1595.0,315.450234439903,-195.07739630556,64.9971595653292,757529331
-14,-103.0,-23.0,-11044.0,-1805.0,174.0,1613.0,319.365287937338,-190.799214481116,64.9984829975391,757537035
-12,-132.0,-19.0,-11044.0,-1803.0,174.0,1615.0,323.153676686891,-182.131820012402,64.9997022978729,757547796
-13,-166.0,-13.0,-11045.0,-1800.0,175.0,1617.0,329.179435530088,-173.324524450194,65.0001807917109,757571115
-24,-69.0,-35.0,-11045.0,-1800.0,175.0,1619.0,331.483272794574,-166.640665747666,65.0003282809795,757579690
-12,-38.0,-46.0,-11046.0,-1798.0,176.0,1619.0,334.826536248037,-162.146344822826,65.0000119156755,757587543
1,-234.0,-1.0,-11048.0,-1796.0,177.0,1621.0,336.98194967846,-155.343052766168,65.0000946676583,757603163
1,-234.0,-1.0,-11048.0,-1796.0,177.0,1621.0,341.110867218459,-146.168688723282,65.0005478291052,757603163
-9,-317.0,-103.0,-11047.0,-1798.0,178.0,1626.0,344.044470646333,-139.218094210655,64.9999725144984,757630995
-43,-334.0,-91.0,-11048.0,-1800.0,179.0,1630.0,346.835303018819,-134.557059596472,65.0001019891095,757639114
2,-434.0,-127.0,-11048.0,-1800.0,179.0,1631.0,349.484253979987,-127.520012795364,64.9997495949401,757646328
-21,-461.0,-91.0,-11050.0,-1795.0,181.0,1630.0,351.993183619818,-118.047298019819,65.0002134491608,757663761
-66,-142.0,-56.0,-11050.0,-1793.0,180.0,1629.0,354.357637485258,-113.276240788174,65.0000445734987,757672492
35,-411.0,-209.0,-11050.0,-1793.0,180.0,1629.0,356.576842280635,-106.081350474959,65.0002027561214,757680995
-14,-460.0,-190.0,-11053.0,-1786.0,181.0,1622.0,358.648376887162,-98.8507645182612,64.9999618213727,757698423
-94,-219.0,-238.0,-11058.0,-1774.0,182.0,1609.0,360.574928101532,-91.5780458185925,64.9994512443024,757712441
-89,-580.0,-159.0,-11058.0,-1774.0,182.0,1609.0,362.353398422805,-84.2644885249358,65.000202756121,757721336
260,-197.0,-385.0,-11059.0,-1752.0,178.0,1595.0,363.984453672381,-76.9145226362815,64.9999150986582,757737877
260,-197.0,-385.0,-11062.0,-1743.0,179.0,1587.0,364.989377158387,-69.5357259513616,64.999210310111,757744183
-30,-421.0,-8.0,-11062.0,-1743.0,179.0,1587.0,366.370795200617,-64.5992955684543,65.0002027561364,757750392
-224,-409.0,-102.0,-11069.0,-1713.0,177.0,1556.0,367.601949803085,-57.1784988987156,64.9998683760603,757769260
146,2.0,178.0,-11072.0,-1691.0,174.0,1542.0,368.339857669221,-49.7301201625514,64.9990808357816,757777183
-11,129.0,8.0,-11075.0,-1673.0,172.0,1524.0,369.614301008545,-37.2702083659874,64.9998790691579,757792159
-67,-232.0,-161.0,-11081.0,-1637.0,169.0,1491.0,370.619570067433,-29.7736817420318,64.9995914120849,757804533
-63,-119.0,139.0,-11081.0,-1615.0,164.0,1474.0,371.196488187025,-22.2700453984927,65.0000372517421,757815425
117,118.0,-53.0,-11090.0,-1572.0,161.0,1438.0,371.621718525799,-17.2592492691472,65.0001019890636,757832698
-14,-84.0,-280.0,-11091.0,-1552.0,158.0,1421.0,371.951792181914,-7.22764450772441,65.0001019891118,757846742
-14,-84.0,-280.0,-11091.0,-1552.0,158.0,1421.0,372.01506322869,0.299306768984486,64.9996668427572,757853027
12,-179.0,-184.0,-11098.0,-1507.0,154.0,1385.0,371.98445668292,5.31675908107692,64.9994439229072,757867885
122,266.0,-340.0,-11101.0,-1483.0,151.0,1366.0,371.800878303551,12.8413621871743,65.0002314639953,757878628
-44,-130.0,-20.0,-11105.0,-1464.0,151.0,1348.0,371.592976688155,20.3574103452103,64.9996201199736,757886585
-95,112.0,-135.0,-11108.0,-1440.0,149.0,1328.0,371.156737244146,25.3643582890676,64.9999257920368,757899669
-95,112.0,-135.0,-11110.0,-1417.0,146.0,1310.0,370.780291623726,32.8698905711279,64.9999257922594,757905971
37,-39.0,109.0,-11118.0,-1374.0,144.0,1271.0,370.089756594172,40.3590855861808,64.9996488280313,757922534
-30,-40.0,39.0,-11118.0,-1374.0,144.0,1271.0,369.24890137649,47.8332780300369,64.9995660763253,757931583
-48,22.0,-61.0,-11121.0,-1351.0,142.0,1252.0,368.25585591501,52.805000972604,64.999889762386,757943037
140,-164.0,-57.0,-11128.0,-1303.0,139.0,1213.0,367.112366287467,60.2429715242082,65.0001594052192,757955660
142,160.0,-180.0,-11131.0,-1283.0,138.0,1192.0,366.266479932156,67.6561953904491,64.999788995978,757963364
-218,-40.0,-59.0,-11131.0,-1283.0,138.0,1192.0,364.872710014275,75.0412088274584,64.9995013391792,757972158
219,-88.0,-172.0,-11137.0,-1235.0,135.0,1154.0,363.32970211638,79.9514964794612,65.0003823258884,757988419
219,-88.0,-172.0,-11141.0,-1214.0,134.0,1136.0,362.217618859105,87.2859536464953,64.9996415071994,757994824
127,132.0,-267.0,-11144.0,-1194.0,134.0,1113.0,360.428125125856,92.1537806696684,64.9991776539126,758004524
-126,81.0,166.0,-11148.0,-1169.0,133.0,1094.0,358.489283686344,99.428158632315,65.0003175882331,758020862
257,183.0,-145.0,-11151.0,-1142.0,131.0,1075.0,356.403932582169,106.660343930524,64.9996415072602,758029271
186,-25.0,-92.0,-11154.0,-1121.0,131.0,1057.0,354.934480440219,113.846640516109,64.9995120330149,758037304
-101,-179.0,-426.0,-11156.0,-1102.0,129.0,1036.0,351.799300300413,120.986677131037,65.0000946676788,758050399
18,-236.0,-57.0,-11164.0,-1055.0,129.0,994.0,350.135027368358,125.721478417826,65.0002995731255,758067482
18,-236.0,-57.0,-11168.0,-1028.0,128.0,976.0,347.519318668784,135.119319014714,65.0003643108156,758075786
118,334.0,14.0,-11169.0,-1009.0,126.0,958.0,344.763304691014,139.78009349812,64.9992710994744,758084148
-140,-85.0,-92.0,-11173.0,-988.0,127.0,937.0,342.845690984439,146.72939193561,65.0000946679467,758097884
-18,-86.0,-134.0,-11176.0,-964.0,126.0,916.0,339.8532998863,153.615288843907,65.0002528505277,758111256
31,82.0,-18.0,-11182.0,-917.0,125.0,877.0,336.72348017397,158.168888388221,64.9999578720845,758124121
-43,-56.0,-149.0,-11185.0,-897.0,125.0,858.0,333.455524732629,164.949114119582,64.999382558952,758133040
-55,-82.0,-141.0,-11185.0,-897.0,125.0,858.0,331.199269448014,171.66158646029,65.00034629562,758140808
-13,43.0,-170.0,-11188.0,-874.0,124.0,837.0,327.704050336816,178.304341078048,65.0001988062818,758153409
-47,-69.0,-155.0,-11195.0,-830.0,124.0,795.0,322.834969060373,184.871541935519,64.9996054784756,758168572
-63,16.0,-102.0,-11197.0,-808.0,124.0,775.0,320.312328786816,191.363448895622,64.9994760045417,758176675
-63,16.0,-102.0,-11200.0,-786.0,124.0,756.0,316.419450805571,197.779732887273,65.0001700984311,758185070
4,7.0,-70.0,-11203.0,-762.0,124.0,735.0,312.396803473917,202.009890341988,65.0000406239475,758201793
-36,18.0,-94.0,-11206.0,-740.0,124.0,714.0,308.24820857474,210.362564445403,64.9994579903484,758208181
-71,-146.0,-107.0,-11211.0,-696.0,124.0,674.0,303.969480668124,216.525842221817,64.9996054783967,758224598
-22,-90.0,-166.0,-11214.0,-673.0,124.0,655.0,299.568092989125,220.588811213738,65.0008568736345,758233392
-37,-190.0,-119.0,-11216.0,-652.0,124.0,633.0,295.044500685408,226.602786836499,65.0000873467616,758247393
-51,62.0,-68.0,-11221.0,-609.0,124.0,592.0,288.82586300386,234.477853205123,65.0001700984311,758265293
-48,-97.0,-108.0,-11224.0,-586.0,125.0,572.0,285.637926486875,240.272352089615,64.9999865802941,758274086
-27,-6.0,-166.0,-11226.0,-564.0,125.0,553.0,279.104798866805,247.846010327465,64.9992350708663,758290144
-9,6.0,-26.0,-11230.0,-540.0,126.0,534.0,272.36924666884,253.407745293825,64.9994760044626,758302594
-15,-125.0,-73.0,-11234.0,-497.0,127.0,491.0,267.193077358409,260.638643168296,65.0002128736412,758319738
-35,-81.0,-133.0,-11236.0,-475.0,127.0,470.0,261.9772930463,264.130882464092,65.0073642626932,758327713
-29,-99.0,-123.0,-11239.0,-454.0,128.0,450.0,254.985656190569,270.71284805756,65.0189445371636,758343007
12,30.0,-30.0,-11244.0,-407.0,129.0,408.0,249.74418563838,276.637508719465,65.0167801481478,758355398
-84,-182.0,-187.0,-11246.0,-389.0,130.0,387.0,244.537168807053,279.337390915775,65.0064117563265,758372203
-84,-182.0,-187.0,-11246.0,-389.0,130.0,387.0,241.081554609777,283.024211251086,64.9910377386914,758372203
-70,-65.0,-92.0,-11250.0,-343.0,131.0,346.0,234.290411158623,286.317460162311,64.9963487515898,758392355
72,-134.0,-68.0,-11255.0,-298.0,133.0,307.0,229.303804466696,290.060550584504,64.9847345292571,758404891
-28,-69.0,-174.0,-11255.0,-298.0,133.0,307.0,224.438032098839,292.387369867898,64.9993115110896,758411874
-68,-43.0,-104.0,-11258.0,-255.0,134.0,262.0,219.697345196228,293.692999162923,64.9683611758504,758428353
-68,-43.0,-104.0,-11259.0,-235.0,135.0,242.0,216.596717123595,295.280889261321,64.933700685368,758436747
-23,64.0,-102.0,-11262.0,-210.0,136.0,221.0,212.075508596667,296.546972459314,64.9560955948613,758446984
-22,-265.0,-117.0,-11264.0,-189.0,138.0,203.0,207.618519424622,297.496296774462,64.9574050189091,758459849
235,308.0,-184.0,-11266.0,-164.0,138.0,183.0,203.093138712245,297.971329331538,64.9266930437617,758467781
-237,-106.0,-318.0,-11267.0,-126.0,139.0,136.0,200.001831462117,298.563789397477,64.8988154293009,758484740
-206,-131.0,-75.0,-11267.0,-126.0,139.0,136.0,193.560921172244,299.054995658774,64.8806799276964,758492090
410,398.0,-249.0,-11272.0,-77.0,142.0,100.0,190.190127420958,299.453936581076,64.88026101687,758508173
410,398.0,-249.0,-11273.0,-58.0,143.0,76.0,185.024830446686,299.657605711233,64.8378604840978,758516184
-109,27.0,-544.0,-11273.0,-40.0,143.0,53.0,181.504225532655,299.913023376988,64.8123757011828,758524846
-426,-372.0,118.0,-11276.0,-14.0,145.0,31.0,176.184613776687,300.089874450844,64.834738234285,758533723
167,11.0,-166.0,-11277.0,8.0,147.0,14.0,170.751971876172,300.261523828727,64.8061010474281,758547755
-24,359.0,-2.0,-11279.0,30.0,148.0,-9.0,165.286415374536,300.408143592693,64.8064349709827,758560885
-112,-346.0,-184.0,-11279.0,67.0,149.0,-51.0,161.614874843771,300.514807934687,64.7903024976425,758573378
-149,-265.0,-563.0,-11279.0,67.0,149.0,-51.0,156.05990309378,300.578018303844,64.7904940307042,758581971
-31,126.0,-20.0,-11283.0,88.0,152.0,-66.0,150.50700913868,300.684767614052,64.8141742628402,758589715
-124,-272.0,-595.0,-11282.0,107.0,152.0,-84.0,145.257072458192,300.713580240783,64.7947823048778,758602142
-95,-39.0,-236.0,-11282.0,122.0,153.0,-103.0,141.175924752887,300.756814596303,64.7928737164971,758608347
40,407.0,-62.0,-11282.0,154.0,153.0,-139.0,135.566392472304,300.801715195983,64.8157879030471,758624899
-201,-504.0,-510.0,-11284.0,171.0,156.0,-150.0,129.936809284784,300.830714095097,64.8221550400878,758637049
52,88.0,-602.0,-11284.0,186.0,156.0,-164.0,124.31213274028,300.83115718191,64.810083260074,758650245
-211,-241.0,-548.0,-11285.0,210.0,157.0,-192.0,118.674126972501,300.858168631769,64.8417806494326,758664098
-3,-43.0,-338.0,-11285.0,210.0,157.0,-192.0,113.04895471314,300.865368208303,64.8505932933385,758672870
46,-34.0,-627.0,-11284.0,221.0,157.0,-202.0,107.397781903741,300.847218086361,64.8396729770863,758682249
-74,-72.0,-198.0,-11283.0,242.0,157.0,-225.0,103.634670039752,300.833003268617,64.8333297261159,758696400
-74,-72.0,-198.0,-11283.0,242.0,157.0,-225.0,97.9882953033163,300.887864820776,64.8892057168912,758696400
-51,200.0,-372.0,-11283.0,255.0,157.0,-236.0,90.4787949598815,300.87141715371,64.8731499058281,758721676
-242,-93.0,-437.0,-11282.0,258.0,157.0,-244.0,84.8320387666438,300.835420514543,64.8668279790037,758729977
-127,-26.0,-452.0,-11282.0,264.0,157.0,-250.0,81.0689334488608,300.859955713785,64.9001360444504,758738047
250,99.0,-85.0,-11284.0,274.0,159.0,-256.0,75.4231468206243,300.854647224885,64.908228222239,758750989
226,3.0,-102.0,-11286.0,297.0,162.0,-274.0,69.7854537368511,300.861536208167,64.9210988421311,758764911
100,-38.0,-284.0,-11286.0,297.0,162.0,-274.0,66.0325098866256,300.828740825056,64.9138514838403,758773549
53,-41.0,-218.0,-11285.0,333.0,163.0,-308.0,60.3839361537696,300.841613677097,64.930116026453,758786690
274,-61.0,-252.0,-11285.0,333.0,163.0,-308.0,54.7361687962268,300.832137960517,64.9394564917545,758793791
131,-22.0,-74.0,-11283.0,390.0,164.0,-362.0,47.2218647177941,300.813890858111,64.9449058081189,758813633
-63,-208.0,-274.0,-11280.0,427.0,164.0,-400.0,41.5885571400644,300.827257418819,64.9581792075296,758822095
473,212.0,-5.0,-11282.0,531.0,173.0,-485.0,34.0663916841994,300.828399424169,64.963126676991,758838411
152,-125.0,-270.0,-11279.0,587.0,175.0,-538.0,26.5525060381714,300.813178743379,64.9615204003102,758854904
167,-272.0,-335.0,-11271.0,726.0,182.0,-670.0,20.9149669987841,300.807526234274,64.9647803551762,758870455
540,378.0,392.0,-11270.0,811.0,191.0,-744.0,15.2773681981254,300.813741130079,64.9727217551768,758878380
540,378.0,392.0,-11264.0,901.0,197.0,-826.0,11.5204847639998,300.814224230216,64.9768383659536,758886712
233,68.0,66.0,-11257.0,996.0,204.0,-915.0,5.88597876576413,300.803160970125,64.9767160978324,758903148
37,-281.0,-85.0,-11248.0,1100.0,213.0,-1012.0,2.1327959644831,300.800871715208,64.9812481149476,758909759
270,315.0,-194.0,-11238.0,1211.0,224.0,-1116.0,-3.5059540766183,300.766696515871,64.9797438610129,758917695
238,-376.0,-155.0,-11215.0,1454.0,252.0,-1339.0,-9.14026827640849,300.740101067999,64.9796454729531,758934897
85,127.0,76.0,-11215.0,1454.0,252.0,-1339.0,-14.7724785719292,300.749738166278,64.9872765073585,758942474
-6,-403.0,-190.0,-11200.0,1579.0,12.0,-1456.0,-20.404626481754,300.767633221842,64.9897195975867,758955310
8,234.0,-77.0,-11166.0,1840.0,50.0,-1695.0,-24.1612530416914,300.765443308246,64.9858940265346,758966628
146,72.0,-66.0,-11148.0,1974.0,73.0,-1818.0,-29.7960345547017,300.770125067277,64.9802335858633,758975349
109,-161.0,-198.0,-11148.0,1974.0,73.0,-1818.0,-33.5544122832724,300.777275096384,64.9878643637688,758983773
51,175.0,-41.0,-11103.0,2245.0,121.0,-2069.0,-39.1876083606322,300.782719895171,64.9886210606834,758997782
-83,51.0,-80.0,-11078.0,2382.0,147.0,-2196.0,-44.821217640574,300.793981250256,64.991484292598,759010454
9,-252.0,-130.0,-11052.0,2520.0,176.0,-2322.0,-48.5802371639787,300.802053807854,64.9881979695944,759018239
-18,221.0,40.0,-11024.0,2657.0,207.0,-2450.0,-54.2170321740794,300.800370057542,64.9757945285528,759028941
4,34.0,-266.0,-10993.0,2795.0,238.0,-2579.0,-59.8551130004529,300.807722008847,64.9754671237442,759044247
-80,-126.0,-191.0,-10930.0,3074.0,54.0,-2835.0,-65.4899751465083,300.817568337933,64.9804067705382,759056739
104,-119.0,-239.0,-10930.0,3074.0,54.0,-2835.0,-71.1313263314145,300.829429161008,64.9792482610674,759064047
33,189.0,30.0,-10859.0,3350.0,129.0,-3090.0,-76.7675902276093,300.828462671666,64.9631917542144,759080822
-98,-127.0,-340.0,-10820.0,3488.0,170.0,-3219.0,-82.4058192589799,300.829805321305,64.9504029914761,759091040
-98,-127.0,-340.0,-10781.0,3626.0,212.0,-3346.0,-86.1603450180507,300.82437126804,64.9417304560067,759097564
-43,-21.0,-64.0,-10741.0,3764.0,1.0,-3472.0,-91.8063239737893,300.840751412659,64.9416276614637,759110511
124,113.0,161.0,-10699.0,3901.0,48.0,-3599.0,-97.4462416542877,300.842999598099,64.9423098002164,759118393
-115,-110.0,-407.0,-10607.0,4174.0,144.0,-3853.0,-103.086106722992,300.857585153151,64.9231988098016,759135619
-93,-46.0,-178.0,-10607.0,4174.0,144.0,-3853.0,-110.604359355563,300.845791756267,64.9081765866638,759143169
-32,84.0,-327.0,-10510.0,4443.0,246.0,-4102.0,-118.133438849277,300.855102009019,64.8896226302709,759161634
-75,-90.0,-28.0,-10409.0,4713.0,101.0,-4351.0,-123.78310071651,300.87245510845,64.9017326787873,759178029
-75,-90.0,-28.0,-10356.0,4846.0,159.0,-4474.0,-127.554553005101,300.898381845392,64.9025565008311,759187253
-45,86.0,-101.0,-10356.0,4846.0,159.0,-4474.0,-133.197952283935,300.898807364978,64.8713029051762,759194357
40,26.0,126.0,-10245.0,5111.0,23.0,-4717.0,-138.826118199062,300.861752269422,64.8393383759637,759206760
-33,57.0,-291.0,-10245.0,5111.0,23.0,-4717.0,-142.601027452888,300.904658139139,64.8593616133982,759214029
-155,46.0,-253.0,-10128.0,5373.0,150.0,-4959.0,-148.2733035258,300.938264489256,64.8655990244761,759227036
-175,115.0,-220.0,-10067.0,5502.0,215.0,-5079.0,-153.908858788348,300.923862906077,64.8169398079553,759243251
206,31.0,96.0,-9940.0,5760.0,94.0,-5316.0,-161.445287448442,300.935348709842,64.8000448829888,759255886
14,4.0,-36.0,-9940.0,5760.0,94.0,-5316.0,-165.196989843675,300.943695336718,64.7987790617731,759262882
-291,270.0,-222.0,-9807.0,6013.0,235.0,-5551.0,-170.735927593076,300.968160539671,64.8002803222871,759279421
160,-242.0,-8.0,-9740.0,6139.0,53.0,-5667.0,-176.071732717742,300.879657976567,64.7521871284705,759290260
160,-242.0,-8.0,-9670.0,6264.0,127.0,-5781.0,-181.193941254969,300.890914701253,64.7749856311661,759296809
204,-19.0,101.0,-9526.0,6509.0,24.0,-6011.0,-187.586701260418,300.803115293551,64.7609930974964,759317304
-265,168.0,-258.0,-9451.0,6631.0,103.0,-6124.0,-192.03977149469,300.741648903766,64.7813730321431,759325968
-125,180.0,-278.0,-9377.0,6753.0,185.0,-6235.0,-196.144323546043,300.668155875608,64.7672921587006,759342590
8,-27.0,55.0,-9300.0,6872.0,10.0,-6346.0,-199.937078351043,300.616597429055,64.8169474816859,759352139
8,-27.0,55.0,-9223.0,6992.0,95.0,-6457.0,-202.261345937364,300.531019574514,64.8011336104261,759358433
-27,3.0,15.0,-9063.0,7225.0,8.0,-6673.0,-205.441638578485,300.456661103206,64.8230843761337,759375129
45,1.0,45.0,-9063.0,7225.0,8.0,-6673.0,-208.25269098308,300.370558548786,64.8327644152612,759383489
-220,67.0,-127.0,-8897.0,7456.0,184.0,-6887.0,-210.700842583493,300.319558828396,64.8551704476844,759397363
154,131.0,84.0,-8897.0,7456.0,184.0,-6887.0,-212.127652944478,300.247185733702,64.8729577950504,759403684
-9,-197.0,-162.0,-8726.0,7682.0,109.0,-7095.0,-214.469716358016,300.150657233484,64.9179410676153,759422681
-136,121.0,127.0,-8637.0,7793.0,202.0,-7202.0,-215.80393136917,300.099562462395,64.9403822006862,759431042
-181,48.0,-221.0,-8549.0,7903.0,39.0,-7301.0,-216.775197213147,300.058579568398,64.9823174107543,759445869
87,-103.0,-163.0,-8372.0,8119.0,235.0,-7503.0,-217.710255886559,299.988324306391,65.3047833365266,759458415
