ACC_X,ACC_Y,ACC_Z,QUAT_W,QUAT_X,QUAT_Y,QUAT_Z,X_pos,Y_pos,Z_pos,t
-24,-1.0,-230.0,-9937.0,5503.0,148.0,-5191.0,-218.24981585346,299.983129046023,65.8086975569115,524679621
170,-155.0,55.0,-9807.0,5761.0,26.0,-5426.0,-218.681796080904,300.000627086624,66.6037683072361,524692873
-329,293.0,-293.0,-9742.0,5890.0,98.0,-5543.0,-218.913861576475,300.027406039104,67.2738453529799,524700605
52,-194.0,-46.0,-9673.0,6018.0,169.0,-5656.0,-219.170479339178,300.018681469336,68.5167227248348,524709278
237,-155.0,-6.0,-9604.0,6143.0,243.0,-5773.0,-219.393524687218,300.04988205058,70.1101047753053,524725456
-172,151.0,-117.0,-9532.0,6268.0,60.0,-5886.0,-219.501866255029,300.047607724905,71.3134320174055,524735163
-172,151.0,-117.0,-9459.0,6393.0,136.0,-6000.0,-219.6039728001,300.020634445841,72.6345075059236,524741394
166,18.0,113.0,-9387.0,6516.0,214.0,-6111.0,-219.689002081339,300.0576508565,75.0226937117469,524757635
-39,86.0,-111.0,-9311.0,6639.0,36.0,-6221.0,-219.799201070958,300.070248628738,77.7377955626358,524766375
103,-111.0,119.0,-9236.0,6762.0,119.0,-6333.0,-219.896261429101,300.127550733579,80.8431665333545,524774390
103,-111.0,119.0,-9236.0,6762.0,119.0,-6333.0,-219.91506875491,300.092616127637,84.2279772900164,524780942
103,-111.0,119.0,-9236.0,6762.0,119.0,-6333.0,-219.979782271075,300.158264134768,86.7475000462128,524780942
91,150.0,72.0,-8835.0,7353.0,30.0,-6868.0,-220.049817978267,300.199519150848,90.8433255040655,524821032
91,150.0,72.0,-8835.0,7353.0,30.0,-6868.0,-220.081289108266,300.245229003082,95.3046871334922,524821032
-67,221.0,-6.0,-8749.0,7469.0,118.0,-6971.0,-220.149026267467,300.27423022962,99.9879580390617,524834719
-67,221.0,-6.0,-8662.0,7583.0,209.0,-7078.0,-220.195587023132,300.323899252125,104.935663051664,524841000
-162,173.0,-119.0,-8576.0,7696.0,43.0,-7178.0,-220.227152055127,300.364193336392,108.279323426881,524856210
28,39.0,-41.0,-8491.0,7807.0,139.0,-7279.0,-220.26386563223,300.406530783329,113.45174763119,524864188
157,58.0,40.0,-8403.0,7917.0,234.0,-7381.0,-220.287225223962,300.414907774594,118.686996297655,524879506
-6,-32.0,-121.0,-8311.0,8028.0,72.0,-7478.0,-220.306374943269,300.436409024256,122.257422965804,524888943
-159,0.0,67.0,-8124.0,8243.0,10.0,-7675.0,-220.337233950546,300.46850769479,127.665572635887,524904134
-159,0.0,67.0,-8031.0,8348.0,110.0,-7770.0,-220.353856679301,300.485274421619,133.110406053194,524912387
-15,-30.0,-206.0,-7937.0,8452.0,209.0,-7865.0,-220.376346515993,300.518823626738,138.60106230962,524920642
2,42.0,53.0,-7843.0,8552.0,50.0,-7954.0,-220.374334651754,300.512555800933,144.107389110932,524934392
2,42.0,53.0,-7843.0,8552.0,50.0,-7954.0,-220.388436412368,300.528764609842,149.673646934412,524940634
-312,140.0,-11.0,-7574.0,8824.0,70.0,-8201.0,-220.390113181588,300.519364592011,155.238392900981,524960449
-233,200.0,93.0,-7574.0,8824.0,70.0,-8201.0,-220.392111234869,300.532265206195,160.81650543601,524969273
-160,159.0,-42.0,-7416.0,8982.0,243.0,-8342.0,-220.389554402909,300.52698029417,166.41606059241,524983478
-276,16.0,-275.0,-7338.0,9053.0,63.0,-8406.0,-220.390799227378,300.532543045335,172.034744756981,524996129
-356,48.0,-16.0,-7267.0,9117.0,135.0,-8465.0,-220.387105462717,300.533937808087,177.646531784238,525004195
-478,364.0,139.0,-7201.0,9177.0,203.0,-8519.0,-220.381812588536,300.515452598143,183.240023666836,525014796
-215,151.0,188.0,-7142.0,9232.0,13.0,-8568.0,-220.38417715794,300.511356662371,186.972733025046,525029697
-302,149.0,-153.0,-7035.0,9328.0,124.0,-8651.0,-220.389129719096,300.518446996532,192.61122496368,525042210
-218,16.0,-180.0,-7035.0,9328.0,124.0,-8651.0,-220.388716153182,300.524866387012,198.251789127802,525049528
-437,148.0,-28.0,-6950.0,9398.0,206.0,-8715.0,-220.378974082869,300.511581975585,205.735226874136,525066273
-286,70.0,46.0,-6916.0,9427.0,243.0,-8743.0,-220.374111717016,300.505958502621,211.357648167277,525076629
-167,167.0,-136.0,-6888.0,9452.0,17.0,-8763.0,-220.355166555715,300.479117727679,216.950098067289,525089160
-52,176.0,-78.0,-6849.0,9483.0,53.0,-8790.0,-220.348697301412,300.470296169938,222.551044798509,525102866
-184,185.0,-157.0,-6839.0,9489.0,59.0,-8797.0,-220.360133402083,300.483959715733,228.211240438754,525111521
-138,332.0,164.0,-6836.0,9492.0,62.0,-8799.0,-220.357116736997,300.496049252066,233.862062228762,525127930
-156,367.0,59.0,-6847.0,9486.0,59.0,-8794.0,-220.369179207238,300.497346141483,239.493149431292,525143693
37,207.0,63.0,-6860.0,9475.0,45.0,-8784.0,-220.380238359123,300.508696070365,245.13999676285,525151354
-85,424.0,-2.0,-6879.0,9459.0,25.0,-8769.0,-220.380387825268,300.513761507318,250.785163900195,525159996
-78,143.0,-12.0,-6904.0,9437.0,253.0,-8750.0,-220.385290932422,300.517079902642,254.531186130955,525176874
-78,143.0,-12.0,-6935.0,9410.0,219.0,-8725.0,-220.390192932315,300.535009752184,260.199656061507,525183166
-41,446.0,132.0,-7019.0,9341.0,137.0,-8662.0,-220.394318187595,300.534015899541,265.808608649944,525199923
149,380.0,126.0,-7019.0,9341.0,137.0,-8662.0,-220.402788297504,300.545307610825,271.465178866454,525209273
-64,397.0,333.0,-7120.0,9253.0,33.0,-8582.0,-220.400981006463,300.545275893437,277.072703663203,525225511
-64,397.0,333.0,-7179.0,9202.0,228.0,-8533.0,-220.414588489527,300.566252435911,282.763041445212,525231960
55,328.0,52.0,-7243.0,9143.0,161.0,-8481.0,-220.415344944837,300.562688398211,288.364593843457,525244459
55,328.0,52.0,-7315.0,9078.0,88.0,-8422.0,-220.427954159393,300.580637942961,294.027545658777,525252215
69,362.0,151.0,-7390.0,9008.0,10.0,-8357.0,-220.428147206945,300.581131070169,297.769979311869,525263709
-216,393.0,-124.0,-7468.0,8935.0,183.0,-8289.0,-220.435354784967,300.59692713853,303.417019531706,525279538
-126,296.0,153.0,-7546.0,8858.0,98.0,-8217.0,-220.443943963929,300.602442008902,309.057799968119,525285814
9,85.0,120.0,-7628.0,8778.0,13.0,-8142.0,-220.456641107229,300.619756126106,312.837994126147,525299071
-52,11.0,-264.0,-7712.0,8695.0,181.0,-8064.0,-220.462858065587,300.630462044441,318.46167809355,525308139
96,228.0,39.0,-7798.0,8606.0,91.0,-7983.0,-220.472761828429,300.64375346101,324.111883427325,525316287
14,181.0,163.0,-7971.0,8421.0,165.0,-7815.0,-220.485231380047,300.661009201879,329.782625636024,525341164
14,181.0,163.0,-7971.0,8421.0,165.0,-7815.0,-220.496460218391,300.67814534053,333.557435380326,525341164
-50,127.0,-29.0,-8056.0,8328.0,74.0,-7727.0,-220.509321503873,300.694363071346,337.31589189055,525348438
-142,-174.0,-324.0,-8225.0,8136.0,149.0,-7547.0,-220.525903158828,300.715211070382,344.82645364104,525364826
-142,-174.0,-324.0,-8310.0,8036.0,59.0,-7455.0,-220.546499756676,300.742793305048,348.594399967766,525373180
-92,21.0,-201.0,-8394.0,7933.0,223.0,-7360.0,-220.560202161996,300.764501585746,354.287625266053,525386256
-94,174.0,-41.0,-8559.0,7724.0,45.0,-7169.0,-220.589834321516,300.802641346562,361.864902664276,525403274
3,-60.0,4.0,-8640.0,7619.0,213.0,-7071.0,-220.620167505103,300.844508572813,367.447591951756,525412396
-84,93.0,-112.0,-8720.0,7514.0,128.0,-6973.0,-220.649845390804,300.886490543527,372.894957364481,525428290
36,-95.0,-163.0,-8798.0,7404.0,40.0,-6873.0,-220.674447020775,300.919786182203,376.428496377474,525434578
-30,190.0,15.0,-8878.0,7294.0,211.0,-6771.0,-220.699615386099,300.951585655605,381.502206910669,525447682
-177,-91.0,-210.0,-8955.0,7182.0,127.0,-6670.0,-220.709303460223,300.972828259442,386.301095827461,525455663
-251,37.0,-296.0,-9032.0,7070.0,44.0,-6565.0,-220.721601580247,300.986629950335,390.778549372502,525466536
111,-7.0,-52.0,-9106.0,6957.0,220.0,-6463.0,-220.725882326612,300.989946983336,394.980999030908,525481285
128,83.0,23.0,-9250.0,6728.0,60.0,-6254.0,-220.717900657606,300.975797716486,398.866958158284,525493876
-12,-5.0,-98.0,-9323.0,6612.0,238.0,-6145.0,-220.708669625041,300.963175909128,402.381751040063,525509952
-155,11.0,-266.0,-9392.0,6492.0,160.0,-6040.0,-220.693866169346,300.942737498161,404.497416091102,525518405
31,167.0,-33.0,-9461.0,6375.0,85.0,-5929.0,-220.677759282892,300.912492976874,407.393421214185,525528979
48,-186.0,-25.0,-9528.0,6257.0,12.0,-5822.0,-220.646614792573,300.867423851949,409.940446813198,525541442
-100,-253.0,-181.0,-9593.0,6136.0,194.0,-5712.0,-220.606587369032,300.804327280966,412.112752781111,525548399
-111,-13.0,-38.0,-9721.0,5894.0,53.0,-5490.0,-220.561753590718,300.738943447931,413.868472718879,525564326
-111,-13.0,-38.0,-9785.0,5771.0,241.0,-5377.0,-220.506006363515,300.660969200548,415.25198312917,525572809
-61,-106.0,-155.0,-9845.0,5647.0,174.0,-5265.0,-220.440751568909,300.573667462027,416.29812471037,525589391
100,220.0,-48.0,-9961.0,5398.0,44.0,-5040.0,-220.360964092346,300.474883042232,417.120950799961,525603371
-144,-214.0,98.0,-10018.0,5272.0,235.0,-4923.0,-220.104181363032,300.33436886577,418.095219892924,525611953
166,244.0,-270.0,-10074.0,5147.0,176.0,-4808.0,-219.49204300509,300.248555209248,418.526016967723,525628719
38,-86.0,-153.0,-10128.0,5019.0,115.0,-4690.0,-218.732848709428,300.180233462425,418.894285369945,525641281
27,117.0,-171.0,-10229.0,4760.0,253.0,-4462.0,-217.706874715479,300.13944602755,419.084352678174,525652442
-146,-2.0,-84.0,-10278.0,4631.0,197.0,-4344.0,-216.865504254313,300.13053818183,419.328648234078,525661111
-60,-179.0,25.0,-10327.0,4502.0,145.0,-4227.0,-215.337607816681,300.125819532425,419.502674085396,525677710
168,200.0,-339.0,-10375.0,4371.0,91.0,-4105.0,-213.482985651197,300.147167672071,419.628561930367,525690169
-52,-111.0,8.0,-10422.0,4239.0,41.0,-3987.0,-212.056315247906,300.186584329526,419.759704248206,525696768
-137,-153.0,63.0,-10465.0,4106.0,246.0,-3868.0,-209.628820093028,300.203984758015,419.911934830113,525704576
-51,121.0,-164.0,-10507.0,3973.0,198.0,-3750.0,-207.814166877131,300.261899879469,420.008640629182,525715545
-51,121.0,-164.0,-10548.0,3843.0,152.0,-3630.0,-204.775246953626,300.304169198365,420.065964877078,525723669
39,-57.0,-179.0,-10588.0,3709.0,107.0,-3507.0,-201.35504833188,300.380290072818,420.15405837631,525736748
62,42.0,-155.0,-10629.0,3575.0,65.0,-3385.0,-198.864417432452,300.457754633361,420.229976866174,525750404
-106,60.0,-141.0,-10666.0,3439.0,22.0,-3264.0,-194.829780197022,300.504341298297,420.315223967849,525758948
54,33.0,-122.0,-10701.0,3304.0,238.0,-3143.0,-190.251113041911,300.577255620126,420.374875133207,525767404
49,-21.0,-69.0,-10766.0,3032.0,160.0,-2901.0,-187.297857650859,300.661195462695,420.441908716601,525784078
-129,-131.0,-86.0,-10766.0,3032.0,160.0,-2901.0,-182.407307048714,300.743129539756,420.462714712623,525790299
-4,-43.0,-99.0,-10828.0,2760.0,91.0,-2653.0,-177.32409571947,300.7948211453,420.483580039953,525804724
-4,-43.0,-99.0,-10857.0,2622.0,59.0,-2529.0,-172.114176423733,300.855621006777,420.498386975669,525813131
-155,-190.0,-78.0,-10884.0,2483.0,28.0,-2406.0,-166.795669397155,300.899793494119,420.504789133717,525829960
-34,220.0,-259.0,-10910.0,2343.0,254.0,-2283.0,-163.203451149521,300.935010705128,420.490186463456,525839520
-86,-10.0,89.0,-10955.0,2069.0,199.0,-2035.0,-155.920623113686,300.965339260147,420.497050461356,525853897
-99,-76.0,130.0,-10978.0,1931.0,176.0,-1909.0,-150.399228050628,300.98233134168,420.451383458757,525862608
25,112.0,-222.0,-10998.0,1789.0,153.0,-1782.0,-144.843266168759,300.994426635235,420.428371339149,525879026
-278,-135.0,-61.0,-11017.0,1648.0,133.0,-1660.0,-141.127775566308,300.991534063358,420.42198060491,525885311
-11,125.0,70.0,-11048.0,1371.0,94.0,-1409.0,-135.538251677425,300.992816465643,420.410689623863,525902752
-66,-155.0,-97.0,-11061.0,1232.0,77.0,-1282.0,-131.805174249738,300.991329243568,420.370057297234,525911322
195,346.0,-15.0,-11061.0,1232.0,77.0,-1282.0,-126.181495557959,300.983993252572,420.363101727468,525920537
-128,-296.0,-198.0,-11075.0,1089.0,63.0,-1156.0,-120.551627209054,300.977510895955,420.332539575619,525928447
136,7.0,-448.0,-11087.0,948.0,50.0,-1030.0,-114.918606221588,300.969475122607,420.298771509019,525940987
39,-145.0,-122.0,-11104.0,667.0,28.0,-778.0,-107.407083041028,300.954144933289,420.295879876832,525955099
39,-145.0,-122.0,-11104.0,667.0,28.0,-778.0,-101.769827602772,300.941286274115,420.236032489948,525955099
279,-59.0,-618.0,-11121.0,100.0,4.0,-271.0,-98.0068328559492,300.931617887939,420.253828984466,525995052
279,-59.0,-618.0,-11121.0,100.0,4.0,-271.0,-92.3583638310952,300.921325663884,420.215246795056,525995052
279,-59.0,-618.0,-11124.0,-39.0,4.0,-144.0,-86.713136302861,300.903187498716,420.17024815148,526003404
71,-149.0,-293.0,-11115.0,-461.0,6.0,234.0,-71.6735752685376,300.880923579591,420.142521435076,526035765
-23,19.0,212.0,-11111.0,-597.0,11.0,355.0,-66.0292962568042,300.879055852626,420.111028725353,526049039
181,-156.0,-231.0,-11098.0,-857.0,24.0,588.0,-60.3823938915183,300.870905523062,420.119559014126,526061438
174,-181.0,-162.0,-11098.0,-857.0,24.0,588.0,-56.6233053425178,300.865014763754,420.117532809999,526070221
-258,-47.0,364.0,-11090.0,-980.0,32.0,698.0,-50.9849600229917,300.858183470329,420.079459792446,526078187
-83,-215.0,-6.0,-11081.0,-1097.0,40.0,802.0,-45.3521399817802,300.859789015916,420.076079184623,526090697
-87,-197.0,158.0,-11062.0,-1312.0,59.0,994.0,-39.7098391043358,300.843088688442,420.083561752926,526105129
-87,-197.0,158.0,-11054.0,-1411.0,70.0,1081.0,-32.1891491916549,300.842108423294,420.074707887706,526113546
-191,-233.0,177.0,-11044.0,-1502.0,80.0,1163.0,-28.4298312056204,300.842291442822,420.036612933208,526132194
242,-140.0,-42.0,-11036.0,-1586.0,90.0,1237.0,-22.7985743571573,300.83645793029,420.019039268063,526138491
-269,73.0,483.0,-11018.0,-1733.0,108.0,1368.0,-17.1609181927814,300.832570700324,420.03044987275,526152414
-83,-77.0,219.0,-11010.0,-1795.0,117.0,1421.0,-11.5215475097327,300.830605167386,420.026228975865,526161253
117,-164.0,19.0,-11005.0,-1849.0,126.0,1469.0,-7.76386267166345,300.83149625485,420.004467608284,526178119
-147,-208.0,185.0,-10997.0,-1899.0,132.0,1513.0,-2.12377259314887,300.834326775196,419.988582718787,526187644
-147,-208.0,185.0,-10993.0,-1936.0,139.0,1545.0,3.50487116824573,300.826869202519,419.963346963753,526193885
37,18.0,158.0,-10988.0,-1970.0,143.0,1573.0,7.26107705630823,300.80701336577,419.953913410708,526201673
214,-289.0,-402.0,-10986.0,-1998.0,150.0,1597.0,12.8940199023567,300.811765675979,419.956566274977,526218748
-339,16.0,-7.0,-10983.0,-2025.0,155.0,1620.0,18.5295512775683,300.814415181592,419.974633398457,526226553
32,-353.0,-252.0,-10982.0,-2046.0,159.0,1640.0,24.1717078750239,300.815502691514,419.967022832926,526239195
-77,-368.0,-205.0,-10979.0,-2064.0,162.0,1659.0,29.8024529305041,300.821439726053,419.971477958588,526249338
-274,-257.0,-289.0,-10974.0,-2094.0,167.0,1687.0,33.5540871757314,300.826751558591,419.980315914262,526265536
-274,-257.0,-289.0,-10971.0,-2107.0,168.0,1697.0,39.1896118884573,300.822086117456,420.007142776211,526273969
179,-364.0,-364.0,-10969.0,-2115.0,168.0,1705.0,44.8295591828427,300.821108248313,419.999311850586,526287295
179,-364.0,-364.0,-10966.0,-2122.0,168.0,1713.0,50.4660995602257,300.832515942003,420.004479653351,526293499
7,-351.0,-316.0,-10965.0,-2130.0,170.0,1721.0,54.2250249133435,300.829709916967,420.016808160395,526304392
-17,-406.0,-382.0,-10963.0,-2139.0,171.0,1729.0,59.8597941536504,300.838782105677,420.012327921834,526312914
38,-458.0,-431.0,-10963.0,-2142.0,172.0,1732.0,63.6153525383955,300.840430681,420.008423405893,526329108
38,-458.0,-431.0,-10960.0,-2146.0,171.0,1736.0,69.2550103305897,300.843506138827,420.028066508187,526335366
0,-425.0,-291.0,-10958.0,-2148.0,170.0,1739.0,73.0075542817108,300.842625220875,420.046204354394,526348234
20,-309.0,-244.0,-10957.0,-2150.0,169.0,1737.0,78.652090821824,300.843571424354,420.05342364125,526356445
-42,-193.0,-135.0,-10956.0,-2152.0,168.0,1737.0,84.3005446683247,300.854502092829,420.054511325785,526367503
-9,-166.0,-112.0,-10954.0,-2151.0,165.0,1732.0,88.0535881948221,300.862331909838,420.05281168167,526383073
-62,-151.0,-63.0,-10954.0,-2151.0,165.0,1732.0,93.685745351676,300.861215131529,420.091186061627,526391341
-16,-137.0,-103.0,-10953.0,-2151.0,164.0,1729.0,99.3261131153491,300.866989842272,420.093062241066,526400070
-29,-261.0,-79.0,-10951.0,-2152.0,162.0,1727.0,104.980326867527,300.878956633821,420.112260778694,526416393
-29,-261.0,-79.0,-10950.0,-2152.0,161.0,1725.0,110.626027378029,300.888432188001,420.109514185902,526424553
33,-142.0,-75.0,-10950.0,-2151.0,160.0,1722.0,116.267119865041,300.894506030568,420.142872957359,526436072
-75,-169.0,-26.0,-10949.0,-2152.0,159.0,1720.0,120.026677027071,300.909486798419,420.147811480553,526450239
-15,-96.0,-59.0,-10949.0,-2152.0,158.0,1717.0,127.563692950109,300.924517394326,420.177903398915,526458989
-45,-219.0,8.0,-10947.0,-2153.0,156.0,1714.0,133.214564344772,300.933411514956,420.205400211117,526475665
-45,-219.0,8.0,-10947.0,-2153.0,156.0,1714.0,138.869911491032,300.947811954451,420.21356527391,526482453
-101,-157.0,9.0,-10946.0,-2154.0,155.0,1710.0,144.5259778842,300.967151989764,420.251179815631,526498938
55,-159.0,-42.0,-10946.0,-2155.0,155.0,1706.0,150.181319969518,300.994773609668,420.283014357098,526515597
55,-159.0,-42.0,-10945.0,-2156.0,154.0,1705.0,155.842036249894,301.022943414117,420.331117588716,526523938
-50,-109.0,33.0,-10945.0,-2156.0,154.0,1705.0,161.510836766331,301.052048074745,420.355088510732,526531252
53,-172.0,-64.0,-10944.0,-2158.0,153.0,1701.0,167.129016465297,301.079518604275,420.373757037833,526544466
-75,-137.0,32.0,-10944.0,-2160.0,153.0,1697.0,172.622131626072,301.097052681256,420.413099856978,526564653
29,-53.0,-44.0,-10944.0,-2161.0,152.0,1696.0,177.916085017274,301.095297549201,420.455678454415,526573552
-47,-114.0,42.0,-10944.0,-2161.0,152.0,1696.0,182.965206793724,301.080634225469,420.474923017731,526580976
30,-45.0,-35.0,-10942.0,-2165.0,152.0,1694.0,187.73399177219,301.05724734489,420.497073833711,526593476
-58,-67.0,3.0,-10942.0,-2166.0,151.0,1693.0,192.205168982213,301.021289495844,420.508665497484,526610237
7,-153.0,-33.0,-10942.0,-2167.0,151.0,1691.0,195.003533148031,300.976715676753,420.522194854527,526619094
-1,-61.0,0.0,-10942.0,-2167.0,151.0,1688.0,200.146688957361,300.907877784148,420.523410821492,526629623
0,-62.0,0.0,-10945.0,-2155.0,153.0,1699.0,203.588578579029,300.851394710656,420.521490556941,526643259
2,-87.0,-26.0,-10945.0,-2157.0,153.0,1698.0,206.667250251101,300.783681194368,420.50949891439,526658621
-42,-143.0,-1.0,-10945.0,-2159.0,153.0,1697.0,209.370811386943,300.738083072528,420.491970044595,526666932
-55,-104.0,16.0,-10944.0,-2161.0,153.0,1696.0,211.695617212119,300.659426626849,420.462210912797,526682289
61,-169.0,-38.0,-10944.0,-2162.0,153.0,1695.0,213.631362219111,300.566723696447,420.389580449528,526691835
69,-120.0,-59.0,-10943.0,-2165.0,152.0,1691.0,215.181398917522,300.469306888956,420.348327833688,526706569
69,-120.0,-59.0,-10943.0,-2167.0,152.0,1690.0,215.998681106114,300.371534442725,420.306406373355,526714923
-115,-89.0,58.0,-10943.0,-2168.0,152.0,1688.0,217.291663827088,300.166258848732,420.270112101706,526731301
92,-96.0,-76.0,-10943.0,-2169.0,152.0,1687.0,218.187845940827,299.980313926916,420.254462563512,526739470
-109,-143.0,80.0,-10942.0,-2172.0,152.0,1687.0,218.84215576145,299.554004393961,420.190509658358,526748055
100,-113.0,-89.0,-10942.0,-2174.0,151.0,1684.0,219.998685183209,298.881523459636,420.163538267437,526767565
100,-113.0,-89.0,-10941.0,-2174.0,151.0,1681.0,221.438823980261,297.913487835308,420.148609652345,526775691
108,-152.0,-94.0,-10941.0,-2177.0,151.0,1680.0,223.224935697676,297.085088556377,420.126844372442,526788716
108,-152.0,-94.0,-10941.0,-2177.0,150.0,1678.0,224.631224397062,295.556487136827,420.110597011693,526794906
109,-178.0,-90.0,-10941.0,-2180.0,150.0,1677.0,227.082890908962,293.66445496117,420.070277350454,526802679
-125,4.0,89.0,-10940.0,-2180.0,150.0,1675.0,229.948657709919,292.179827767626,420.063424072839,526814941
87,-130.0,-83.0,-10940.0,-2181.0,150.0,1674.0,233.251969922733,288.652583620447,420.062564270388,526831007
-116,-30.0,67.0,-10940.0,-2184.0,149.0,1671.0,237.012431295046,285.479019635676,420.030429038828,526843637
77,-88.0,-75.0,-10940.0,-2184.0,149.0,1671.0,241.209984482561,281.853572226757,420.014582749716,526851275
-75,-35.0,43.0,-10939.0,-2187.0,149.0,1668.0,245.732067599663,279.220732717955,420.010868337828,526868148
21,-61.0,-52.0,-10939.0,-2189.0,149.0,1667.0,250.465761299205,273.533730423908,420.018947037657,526878379
-52,-23.0,34.0,-10938.0,-2190.0,148.0,1665.0,255.337879455193,270.499042711094,420.018108785734,526891037
11,-108.0,-41.0,-10939.0,-2192.0,149.0,1662.0,260.276602938251,264.13869200591,420.020103764008,526905723
-23,-76.0,-19.0,-10938.0,-2195.0,149.0,1662.0,265.235224473712,260.824758252813,420.015789136191,526914332
0,-41.0,-9.0,-10938.0,-2195.0,148.0,1659.0,268.541376385964,255.699205757486,420.009642292812,526922898
14,-45.0,-11.0,-10938.0,-2197.0,148.0,1659.0,273.473274396455,250.407324415754,420.005405736182,526941576
33,-102.0,-37.0,-10938.0,-2197.0,148.0,1656.0,278.356134571771,244.962260972575,420.00576737472,526951382
-81,35.0,17.0,-10937.0,-2200.0,148.0,1655.0,283.172636061768,239.38288305238,420.007774794448,526960302
64,-101.0,-48.0,-10938.0,-2200.0,148.0,1653.0,287.902848902795,235.592517768509,420.007967245702,526968719
-89,55.0,22.0,-10937.0,-2202.0,148.0,1652.0,291.006173734635,229.810428756626,420.004200431649,526976933
-116,58.0,28.0,-10938.0,-2204.0,148.0,1650.0,295.582215675693,223.914943714154,420.001751730116,526992864
74,-124.0,-49.0,-10938.0,-2204.0,148.0,1650.0,300.050174943564,219.924316245041,419.999555988497,527001576
-120,21.0,34.0,-10937.0,-2207.0,148.0,1647.0,304.407930949289,213.851672799623,420.003481623767,527014651
99,-96.0,-58.0,-10937.0,-2209.0,148.0,1646.0,308.648690823904,207.684846724149,420.002852825919,527023346
-132,67.0,34.0,-10937.0,-2209.0,147.0,1644.0,312.771422394983,199.320456915187,420.001262067354,527037282
97,-175.0,-60.0,-10937.0,-2212.0,148.0,1643.0,316.770748357552,192.942589392761,420.000200119335,527050554
-113,143.0,20.0,-10937.0,-2215.0,148.0,1640.0,320.64257286634,188.645353294187,420.001205607107,527067284
-113,143.0,20.0,-10937.0,-2215.0,148.0,1640.0,324.385960922416,182.132251897519,420.002414320561,527067284
-113,143.0,20.0,-10937.0,-2215.0,148.0,1640.0,326.811665920666,175.540233048744,420.000687867387,527067284
49,-86.0,-29.0,-10940.0,-2216.0,150.0,1632.0,330.33734045367,168.877240061583,419.998495886549,527107827
49,-86.0,-29.0,-10940.0,-2216.0,150.0,1632.0,333.727554383143,162.143739966256,419.998301412432,527107827
-84,33.0,4.0,-10941.0,-2218.0,151.0,1630.0,336.981887683463,155.342429575416,420.000211605623,527124448
40,-71.0,-22.0,-10941.0,-2218.0,151.0,1630.0,340.09995332601,148.475695310865,420.00058534204,527131692
-66,11.0,-9.0,-10942.0,-2221.0,152.0,1626.0,343.080586056277,143.860687594669,419.999551610428,527144244
-48,27.0,-14.0,-10942.0,-2221.0,152.0,1626.0,344.988842639966,136.891124976141,419.999560373511,527151452
-27,29.0,-16.0,-10945.0,-2223.0,154.0,1621.0,348.617047363695,127.513437572527,419.999033668433,527172610
-16,67.0,-32.0,-10945.0,-2223.0,154.0,1621.0,351.172751524384,122.791274647823,420.000703411789,527180418
-22,-39.0,-23.0,-10945.0,-2225.0,155.0,1621.0,353.583979937354,115.665828981572,420.000611630056,527192716
-39,1.0,-29.0,-10947.0,-2227.0,157.0,1619.0,355.111300250399,108.488627053298,419.999092702912,527207568
-39,1.0,-29.0,-10948.0,-2228.0,157.0,1617.0,357.282709034422,101.26498585909,420.000500170314,527215908
-56,74.0,-31.0,-10949.0,-2230.0,159.0,1616.0,359.307217304332,96.4283956918936,420.001734988935,527224329
-56,74.0,-31.0,-10949.0,-2230.0,159.0,1616.0,361.184551882735,89.1396044504059,419.999719952099,527224329
42,-119.0,-32.0,-10950.0,-2231.0,160.0,1614.0,362.913240426547,79.3691005551527,419.999304706856,527252304
46,-103.0,-33.0,-10951.0,-2232.0,161.0,1613.0,364.493074475599,72.0009640333683,420.000023737454,527261435
-74,97.0,-61.0,-10953.0,-2231.0,162.0,1612.0,365.925563906615,67.0713767672933,420.001896720656,527270224
51,-74.0,-23.0,-10954.0,-2234.0,164.0,1609.0,367.207594230765,59.65499089952,420.001592935295,527285756
-71,68.0,-70.0,-10955.0,-2235.0,165.0,1610.0,367.978325992614,52.2113761215975,420.000023737376,527294159
-73,81.0,-76.0,-10956.0,-2235.0,166.0,1608.0,369.009755615076,44.7494196009065,420.001734988808,527303145
53,-93.0,-15.0,-10956.0,-2235.0,166.0,1608.0,369.890214907729,39.7661456186103,420.002150233951,527311992
-77,92.0,-88.0,-10959.0,-2235.0,167.0,1604.0,370.61887070409,32.2758684337093,420.000084925236,527325038
12,-31.0,-140.0,-10961.0,-2234.0,169.0,1600.0,371.01976863996,24.7722116948639,420.001411525727,527338618
-64,358.0,-239.0,-10964.0,-2227.0,168.0,1590.0,371.496003264512,19.7642355630434,420.00213055559,527352152
52,111.0,-235.0,-10966.0,-2222.0,169.0,1583.0,371.820399336838,9.73586258412082,420.00079303962,527362056
4,194.0,-219.0,-10973.0,-2196.0,167.0,1560.0,371.991356336657,2.21001195816646,419.999831411701,527379059
-170,108.0,-303.0,-10981.0,-2155.0,162.0,1523.0,371.983402661171,-5.31570361921922,419.999335300456,527397300
-170,108.0,-303.0,-10985.0,-2129.0,158.0,1498.0,371.799254154332,-12.8402651823709,420.000257572768,527405384
128,142.0,-300.0,-10990.0,-2100.0,153.0,1468.0,371.593055590819,-17.8528619904805,420.001603851611,527414130
142,92.0,-283.0,-10990.0,-2100.0,153.0,1468.0,371.155842270777,-25.3669784019501,420.000419304456,527422729
137,258.0,-439.0,-10996.0,-2063.0,149.0,1436.0,370.56614606187,-32.8694694551122,419.999741783755,527430529
23,271.0,-480.0,-11007.0,-1978.0,136.0,1360.0,369.825540913714,-40.3578164319762,420.001756820956,527449601
-211,262.0,-180.0,-11013.0,-1930.0,129.0,1318.0,368.602236238755,-50.3198448820272,420.001402763634,527461142
372,-57.0,-225.0,-11018.0,-1880.0,120.0,1270.0,367.890542223683,-57.7656742462874,420.001088062865,527469577
-273,49.0,128.0,-11025.0,-1823.0,112.0,1219.0,366.696727172585,-62.7170350575556,419.999680595738,527484286
227,17.0,-284.0,-11038.0,-1687.0,93.0,1100.0,365.817460104691,-70.1231251782413,420.002475851139,527496918
27,-3.0,-158.0,-11047.0,-1614.0,85.0,1032.0,364.374496208223,-77.4978975930534,420.001199522786,527504850
-39,-189.0,58.0,-11054.0,-1533.0,75.0,959.0,362.781762183106,-84.8426667436389,420.000379948286,527513551
-206,397.0,-208.0,-11060.0,-1449.0,64.0,882.0,360.427248633975,-92.1538633567866,419.999964703075,527533020
319,-359.0,26.0,-11069.0,-1360.0,56.0,798.0,359.15126064593,-99.4258572610879,420.001929468454,527539176
-318,146.0,121.0,-11076.0,-1261.0,47.0,713.0,357.114850381115,-106.660461202305,420.001787415084,527552750
50,-237.0,100.0,-11083.0,-1161.0,37.0,623.0,354.932660270816,-111.457997223452,420.000764599544,527562479
-209,111.0,-150.0,-11090.0,-1059.0,30.0,529.0,352.605886766414,-118.612399559603,420.00021821649,527571220
-185,167.0,-100.0,-11100.0,-844.0,16.0,332.0,350.13349139248,-125.722979636279,420.001848602769,527588938
-185,167.0,-100.0,-11103.0,-736.0,9.0,234.0,348.406916865429,-132.778016991292,420.00109897865,527595179
83,-160.0,-151.0,-11106.0,-627.0,4.0,136.0,345.697354070944,-139.78222284843,420.001544817771,527610971
-189,-57.0,27.0,-11110.0,-399.0,253.0,-68.0,341.863136587805,-149.03100261613,420.000167944437,527626852
111,-133.0,-115.0,-11110.0,-399.0,253.0,-68.0,338.8253013232,-153.614214101235,420.000360270149,527633831
-84,-101.0,-72.0,-11110.0,-173.0,250.0,-272.0,335.648038263239,-160.437555648035,420.001767737517,527650094
110,-77.0,-233.0,-11108.0,-56.0,251.0,-376.0,332.334685173076,-167.193544878676,420.00130222034,527658090
-211,-140.0,45.0,-11101.0,173.0,253.0,-582.0,330.049526764224,-173.88236808953,420.000279404251,527675378
203,-96.0,-248.0,-11101.0,173.0,253.0,-582.0,326.508473661124,-178.303231890569,420.001251948291,527682682
181,54.0,-227.0,-11092.0,404.0,6.0,-792.0,322.835582632079,-184.870352000462,420.001302220169,527695011
-62,-43.0,-119.0,-11092.0,404.0,6.0,-792.0,320.312777644458,-191.365196419732,420.000036806388,527701973
-51,15.0,-17.0,-11079.0,635.0,20.0,-1000.0,316.418687090149,-195.650515874249,420.00064437748,527714883
111,16.0,-301.0,-11079.0,635.0,20.0,-1000.0,312.396858876514,-202.01028012256,420.001302220527,527723347
-39,301.0,-400.0,-11060.0,869.0,36.0,-1210.0,309.644329574634,-208.288682429736,420.000452051747,527737129
-199,483.0,-293.0,-11048.0,988.0,46.0,-1314.0,303.969169540735,-214.482410188172,420.000867296942,527749769
116,-452.0,113.0,-11037.0,1101.0,57.0,-1418.0,301.048952343469,-218.562296188078,420.001009350381,527757534
116,-452.0,113.0,-11025.0,1219.0,70.0,-1521.0,296.566328496621,-224.6074163065,420.001474867851,527765945
18,96.0,-261.0,-11011.0,1337.0,84.0,-1627.0,293.509405721852,-230.561965009233,419.999986534232,527777453
150,-101.0,-218.0,-10997.0,1453.0,99.0,-1730.0,288.825309023426,-234.477786307926,420.000978756804,527790515
-252,84.0,53.0,-10964.0,1683.0,131.0,-1937.0,285.637211756264,-240.272915494687,420.000705564986,527804472
19,-234.0,-65.0,-10964.0,1683.0,131.0,-1937.0,280.755949150585,-245.969778209434,420.000462967107,527813112
-135,-9.0,45.0,-10928.0,1919.0,169.0,-2145.0,274.071869838671,-251.564432768659,420.000543833327,527829240
-38,-166.0,-116.0,-10908.0,2033.0,189.0,-2250.0,267.193699267735,-258.858056867419,420.000766752676,527838990
101,74.0,-224.0,-10887.0,2147.0,210.0,-2352.0,263.721787741404,-264.119578756601,420.009160474783,527852347
4,-110.0,27.0,-10866.0,2261.0,232.0,-2454.0,258.529097030353,-269.105070068973,420.025248364459,527861032
-63,-212.0,-125.0,-10819.0,2493.0,25.0,-2662.0,251.700782756347,-273.746993924108,420.019364951937,527878346
24,103.0,-301.0,-10793.0,2608.0,50.0,-2763.0,248.353062574312,-277.997802147206,420.035253506602,527891328
-5,-61.0,17.0,-10769.0,2719.0,77.0,-2865.0,243.44617213102,-280.611356779708,420.031852402525,527901522
97,34.0,-113.0,-10741.0,2836.0,104.0,-2968.0,238.69777578348,-284.174786326806,420.061181159278,527909615
-131,-55.0,-151.0,-10684.0,3065.0,164.0,-3170.0,234.130062016515,-287.329540040274,420.083805796869,527925888
-137,37.0,-184.0,-10684.0,3065.0,164.0,-3170.0,231.206423269367,-289.207344939357,420.064265588038,527933108
2,-64.0,-100.0,-10622.0,3286.0,225.0,-3373.0,226.985944598906,-292.396481747999,420.081197043412,527945665
97,13.0,-67.0,-10622.0,3286.0,225.0,-3373.0,223.006637381969,-294.29038103647,420.135348451373,527952953
52,44.0,-82.0,-10558.0,3515.0,39.0,-3575.0,219.273907032464,-295.330296678917,420.152867783145,527965892
10,-25.0,-169.0,-10525.0,3630.0,75.0,-3672.0,216.929059420952,-296.564055360464,420.195457270652,527975474
-90,-168.0,-109.0,-10491.0,3739.0,111.0,-3771.0,213.53287446757,-297.497698878908,420.163067160355,527989285
-1,-31.0,2.0,-10454.0,3849.0,147.0,-3870.0,210.183460514099,-298.207019470115,420.223264006492,528002428
139,25.0,-62.0,-10416.0,3959.0,185.0,-3972.0,206.818208881439,-298.584312517947,420.281065019327,528010807
-8,-124.0,-67.0,-10340.0,4183.0,10.0,-4168.0,203.359716362236,-299.040637518847,420.312334932207,528029003
-8,-124.0,-67.0,-10301.0,4293.0,51.0,-4264.0,199.765786308424,-299.407746638705,420.319515143301,528035648
56,9.0,-146.0,-10259.0,4400.0,93.0,-4362.0,196.006937132902,-299.696187434469,420.324051557072,528048225
80,67.0,-119.0,-10175.0,4619.0,182.0,-4558.0,192.055531772896,-299.989803379327,420.342563032063,528064841
75,-45.0,-15.0,-10175.0,4619.0,182.0,-4558.0,186.508710988809,-300.156564370734,420.382221687361,528073631
-110,-57.0,-69.0,-10132.0,4728.0,229.0,-4652.0,183.643008672944,-300.291554152375,420.404929434817,528081472
-48,1.0,-171.0,-10042.0,4943.0,67.0,-4842.0,179.25848112462,-300.406359547666,420.413987629222,528097229
61,-63.0,-98.0,-9995.0,5049.0,115.0,-4939.0,173.285209601317,-300.498793353849,420.397446183644,528113585
59,-47.0,-83.0,-9898.0,5260.0,215.0,-5128.0,167.218364105231,-300.598673617392,420.383243557957,528129546
-32,71.0,-136.0,-9850.0,5366.0,10.0,-5220.0,161.090765462615,-300.632761499399,420.393156489139,528142145
-25,-46.0,-52.0,-9801.0,5471.0,64.0,-5312.0,158.002963592706,-300.6721620348,420.380074179452,528152250
-96,-31.0,-66.0,-9697.0,5682.0,174.0,-5497.0,151.795393225321,-300.683116364029,420.356269979556,528168294
-70,-30.0,-32.0,-9590.0,5885.0,28.0,-5680.0,144.003732346341,-300.703252852941,420.328949408441,528190200
86,67.0,-10.0,-9534.0,5987.0,85.0,-5771.0,139.322854656665,-300.699307101896,420.27769891406,528203826
86,67.0,-10.0,-9534.0,5987.0,85.0,-5771.0,136.19571168174,-300.699617314134,420.289600965547,528203826
86,67.0,-10.0,-9534.0,5987.0,85.0,-5771.0,131.499447718427,-300.701418799658,420.260384115645,528203826
42,163.0,-45.0,-9247.0,6491.0,132.0,-6215.0,128.364216242744,-300.696323340629,420.258935875432,528247094
42,163.0,-45.0,-9247.0,6491.0,132.0,-6215.0,123.656664292311,-300.694510955788,420.2338113991,528247094
107,60.0,13.0,-9186.0,6590.0,195.0,-6302.0,120.526959219675,-300.684471460336,420.243010823562,528255101
30,47.0,-86.0,-9186.0,6590.0,195.0,-6302.0,115.823390787922,-300.674251385382,420.193505004205,528263874
-105,154.0,-100.0,-9065.0,6788.0,71.0,-6473.0,109.548248464344,-300.661113390688,420.187423587635,528281131
-105,154.0,-100.0,-9003.0,6884.0,137.0,-6560.0,106.413377927512,-300.662570893794,420.166669843194,528287513
114,-18.0,-87.0,-8938.0,6980.0,203.0,-6646.0,101.704450938242,-300.654557290489,420.183670857486,528300344
13,3.0,-27.0,-8872.0,7075.0,13.0,-6729.0,98.564135392714,-300.646752548808,420.164774980437,528311055
115,-228.0,-122.0,-8809.0,7167.0,81.0,-6812.0,93.8643908165351,-300.64398680897,420.154405961034,528318885
115,-228.0,-122.0,-8742.0,7265.0,152.0,-6895.0,90.7243206386829,-300.635247672836,420.135551528591,528327066
-3,37.0,-120.0,-8675.0,7359.0,224.0,-6979.0,86.0248479890063,-300.627720426917,420.131850785658,528340244
-3,37.0,-120.0,-8606.0,7453.0,39.0,-7059.0,82.8860957854328,-300.626760638285,420.105978044587,528346447
55,-32.0,12.0,-8539.0,7541.0,109.0,-7140.0,78.1827466748365,-300.619151666487,420.109600749621,528362300
3,67.0,-21.0,-8398.0,7726.0,2.0,-7301.0,73.4759762749274,-300.61254794778,420.096436685015,528374970
34,-65.0,-88.0,-8398.0,7726.0,2.0,-7301.0,70.3418982968827,-300.612152249058,420.0689361584,528383281
217,-115.0,-197.0,-8328.0,7815.0,77.0,-7381.0,65.6428457271139,-300.610724431275,420.077495322482,528389676
-505,453.0,119.0,-8257.0,7906.0,152.0,-7457.0,62.5072032341747,-300.598845642077,420.080001239995,528403190
467,-259.0,-273.0,-8186.0,7992.0,229.0,-7537.0,57.8031820236519,-300.599166842403,420.080834614435,528411831
-445,405.0,185.0,-8110.0,8083.0,50.0,-7612.0,53.1001980240428,-300.596113879484,420.059257896469,528419972
-384,226.0,159.0,-7962.0,8254.0,207.0,-7765.0,48.4001487897151,-300.598844544687,420.035097251006,528438208
355,-94.0,-324.0,-7962.0,8254.0,207.0,-7765.0,45.2680668113987,-300.59181079893,420.057162387503,528444452
176,209.0,-282.0,-7811.0,8424.0,112.0,-7914.0,40.563429147129,-300.58432801138,420.062434599779,528459060
176,209.0,-282.0,-7735.0,8506.0,191.0,-7987.0,37.4338842061613,-300.588296999733,420.026149227006,528467337
301,167.0,-262.0,-7660.0,8586.0,14.0,-8057.0,31.1675003738514,-300.586899194526,420.01188098072,528476048
-161,281.0,66.0,-7516.0,8738.0,169.0,-8188.0,24.8996628257575,-300.580017616514,420.018068223016,528500811
70,91.0,-78.0,-7446.0,8810.0,242.0,-8249.0,20.1990330774619,-300.580142201802,420.024918415577,528508664
70,91.0,-78.0,-7378.0,8877.0,58.0,-8309.0,17.0680790587412,-300.580252014087,420.016326024243,528516919
-225,423.0,137.0,-7313.0,8940.0,127.0,-8367.0,12.3715636289169,-300.582198732733,420.009806946102,528525304
-219,533.0,161.0,-7251.0,8999.0,191.0,-8418.0,7.67026164494153,-300.578230691695,419.980676538889,528539006
-33,206.0,25.0,-7193.0,9056.0,253.0,-8465.0,4.53714598927746,-300.57519862801,419.992122681149,528552133
-219,330.0,50.0,-7138.0,9109.0,57.0,-8511.0,-0.159934236981016,-300.571972156635,420.007557992715,528564142
213,166.0,-99.0,-7085.0,9157.0,113.0,-8555.0,-4.85795865197931,-300.554262753103,419.975097932705,528572621
302,104.0,-123.0,-7036.0,9203.0,165.0,-8593.0,-9.55546762219366,-300.546232248128,419.946053704069,528581383
-344,460.0,209.0,-6992.0,9243.0,212.0,-8629.0,-14.2539995348287,-300.560497158829,419.946850445048,528594070
-450,624.0,233.0,-6911.0,9315.0,41.0,-8691.0,-17.3854629433334,-300.57061919922,419.967262860169,528608285
-450,624.0,233.0,-6878.0,9346.0,77.0,-8717.0,-22.0842496845455,-300.571835840689,419.969589060925,528616913
132,167.0,-117.0,-6846.0,9375.0,110.0,-8739.0,-26.7828301920899,-300.572249621346,419.979668364321,528628595
99,39.0,149.0,-6821.0,9397.0,139.0,-8760.0,-31.4811609749849,-300.571954120719,419.971943183647,528641692
-230,637.0,20.0,-6779.0,9433.0,183.0,-8792.0,-36.1805337850866,-300.576009082194,419.97917887639,528655371
47,520.0,-38.0,-6779.0,9433.0,183.0,-8792.0,-39.311205804007,-300.579683587491,419.988676663351,528663899
-45,151.0,172.0,-6764.0,9449.0,201.0,-8801.0,-44.0101895899497,-300.574718711987,420.017457592459,528672450
-379,-25.0,61.0,-6746.0,9470.0,223.0,-8811.0,-50.2759552121537,-300.57617779675,420.012147046939,528690604
-233,117.0,60.0,-6738.0,9477.0,232.0,-8818.0,-54.9759535206786,-300.581033232691,420.011280857384,528704258
-51,148.0,-39.0,-6732.0,9483.0,239.0,-8822.0,-59.6742153113552,-300.580459187768,420.012863110039,528712704
-294,74.0,51.0,-6728.0,9489.0,246.0,-8824.0,-62.8072847341777,-300.585586018665,420.002496028347,528720823
-226,24.0,-116.0,-6725.0,9494.0,251.0,-8825.0,-67.5060657244739,-300.584460740525,420.012730481797,528735513
-209,91.0,-202.0,-6722.0,9498.0,0.0,-8827.0,-70.6411444387876,-300.586303614339,420.014428697758,528742106
-280,75.0,69.0,-6720.0,9499.0,4.0,-8831.0,-75.3362553115954,-300.583425703884,420.044958446529,528752371
-240,285.0,-22.0,-6716.0,9502.0,6.0,-8833.0,-78.472708731316,-300.590316875506,420.041765919851,528760723
-286,-85.0,-46.0,-6715.0,9504.0,9.0,-8833.0,-83.1764349469691,-300.597843542024,420.020400812677,528777504
-342,98.0,-122.0,-6713.0,9505.0,10.0,-8835.0,-89.4400990738547,-300.601061228435,420.042580868304,528791478
-342,98.0,-122.0,-6712.0,9505.0,12.0,-8838.0,-92.5725109432003,-300.603297644678,420.07593470528,528798019
-354,102.0,-26.0,-6711.0,9506.0,13.0,-8839.0,-97.2828437406255,-300.601304546786,420.065667408514,528805917
-254,292.0,-47.0,-6711.0,9505.0,12.0,-8839.0,-100.419697375519,-300.606709221322,420.067488186739,528818126
-331,-41.0,32.0,-6710.0,9505.0,12.0,-8840.0,-105.120804596285,-300.610479355469,420.072545174274,528834128
-45,0.0,-85.0,-6708.0,9503.0,13.0,-8843.0,-109.821962773787,-300.617655702242,420.085945191721,528840412
-105,59.0,-61.0,-6706.0,9503.0,13.0,-8845.0,-112.952998879338,-300.621340705579,420.086965806783,528853946
-206,128.0,-63.0,-6706.0,9502.0,12.0,-8846.0,-117.663958525838,-300.620953924556,420.108090887712,528862773
23,159.0,-78.0,-6703.0,9498.0,10.0,-8849.0,-123.942600040615,-300.634550849924,420.128038098617,528879407
-44,-18.0,-7.0,-6702.0,9498.0,9.0,-8850.0,-128.647119150026,-300.648769609861,420.12825173634,528898476
-95,7.0,-108.0,-6702.0,9498.0,9.0,-8850.0,-134.92318988638,-300.655793790836,420.15322460898,528906883
-112,70.0,-17.0,-6701.0,9498.0,10.0,-8851.0,-138.062987491807,-300.662193683748,420.164746562382,528915394
59,139.0,-65.0,-6701.0,9497.0,9.0,-8853.0,-144.350486051415,-300.673107231389,420.194595785456,528931397
59,139.0,-65.0,-6700.0,9496.0,9.0,-8854.0,-147.48507086853,-300.688289195094,420.168409846298,528938397
212,-35.0,-142.0,-6699.0,9496.0,8.0,-8853.0,-152.203096057691,-300.703424950611,420.205457606902,528958441
-107,155.0,5.0,-6701.0,9498.0,9.0,-8852.0,-156.914114874928,-300.718573355057,420.249957373352,528967261
-214,57.0,-97.0,-6700.0,9497.0,10.0,-8854.0,-161.629711240041,-300.73356245721,420.234568749543,528976106
-26,89.0,-75.0,-6700.0,9497.0,10.0,-8854.0,-164.774542420124,-300.753061842855,420.26108446607,528983569
97,236.0,48.0,-6698.0,9496.0,9.0,-8856.0,-169.460114093193,-300.767019330104,420.282309830081,528996114
44,-225.0,-311.0,-6698.0,9496.0,7.0,-8854.0,-174.045158311228,-300.773741069661,420.30286937055,529012240
-180,40.0,154.0,-6699.0,9495.0,8.0,-8854.0,-178.488933339358,-300.772031578322,420.324982073965,529023948
-227,566.0,13.0,-6696.0,9498.0,9.0,-8855.0,-181.361328747707,-300.760396700794,420.323916704144,529032055
340,-352.0,-255.0,-6697.0,9493.0,9.0,-8859.0,-185.503766756923,-300.742792146219,420.350253220842,529044705
-361,416.0,241.0,-6695.0,9495.0,6.0,-8856.0,-189.444072220909,-300.721267879867,420.353334047057,529051298
341,-657.0,-195.0,-6696.0,9494.0,6.0,-8857.0,-193.163863291398,-300.707841481393,420.359528239508,529067561
-214,441.0,-100.0,-6696.0,9495.0,8.0,-8856.0,-196.641417172058,-300.676538570893,420.38552255975,529076152
-214,441.0,-100.0,-6696.0,9495.0,8.0,-8856.0,-199.878039209019,-300.644758659535,420.381216893979,529076152
125,-440.0,-58.0,-6696.0,9493.0,6.0,-8858.0,-202.8697824961,-300.604814311128,420.36566862479,529103174
-10,379.0,-62.0,-6696.0,9492.0,5.0,-8858.0,-205.600818952976,-300.563880336656,420.353262693034,529111819
103,-198.0,-112.0,-6695.0,9493.0,6.0,-8858.0,-208.072307034619,-300.508235895245,420.353653571275,529128110
109,-37.0,-368.0,-6695.0,9493.0,6.0,-8858.0,-210.278500327554,-300.457957757836,420.351318532218,529135638
-39,122.0,-158.0,-6695.0,9493.0,6.0,-8858.0,-212.220109389476,-300.426570731523,420.312368591287,529151897
114,-51.0,-51.0,-6695.0,9492.0,6.0,-8859.0,-213.891771780351,-300.371181379377,420.278615056736,529159918
84,-129.0,-168.0,-6694.0,9493.0,5.0,-8858.0,-214.853179743986,-300.320930249806,420.239732282078,529170873
-105,222.0,48.0,-6693.0,9492.0,5.0,-8860.0,-216.739217055243,-300.240157023311,420.200544348112,529186375
42,52.0,-40.0,-6693.0,9492.0,5.0,-8860.0,-217.533511565313,-300.155790111144,420.173497676673,529204251
109,-254.0,-260.0,-6693.0,9491.0,4.0,-8860.0,-218.12431699453,-300.135623869301,420.083605153118,529213062
-27,74.0,22.0,-6693.0,9491.0,4.0,-8860.0,-218.560929183223,-300.103960190485,419.928194007697,529229093
-137,367.0,125.0,-6693.0,9491.0,4.0,-8861.0,-218.912821858455,-300.091349632081,419.228524420617,529236590
-75,348.0,211.0,-6693.0,9491.0,4.0,-8861.0,-219.277396853768,-300.11067047735,418.313122855362,529257156
-118,7.0,98.0,-6693.0,9492.0,5.0,-8860.0,-219.419041266603,-300.130826557903,417.060708146314,529266007
-83,399.0,311.0,-6693.0,9492.0,5.0,-8860.0,-219.663071350557,-300.184143240382,414.735090647678,529283225
-144,263.0,157.0,-6692.0,9493.0,5.0,-8860.0,-219.834282755319,-300.252477731731,412.463471801531,529290620
-144,263.0,157.0,-6693.0,9492.0,4.0,-8859.0,-219.931685240152,-300.331551243508,409.782607671085,529298878
23,-332.0,-363.0,-6693.0,9492.0,4.0,-8859.0,-220.052812056492,-300.428848300864,407.740852686249,529307397
23,-332.0,-363.0,-6693.0,9492.0,4.0,-8859.0,-220.180968578195,-300.526227747773,404.240698133176,529307397
475,-369.0,-610.0,-6690.0,9491.0,3.0,-8862.0,-220.305561962684,-300.594497537933,400.243673696728,529350037
475,-369.0,-610.0,-6690.0,9491.0,3.0,-8862.0,-220.424823811039,-300.704816711175,395.737736009839,529350037
475,-369.0,-610.0,-6691.0,9490.0,2.0,-8862.0,-220.519806314487,-300.817002548861,390.749446898208,529358328
52,490.0,358.0,-6690.0,9490.0,3.0,-8862.0,-220.57662237819,-300.915266338907,387.215289939489,529367208
231,-120.0,139.0,-6689.0,9491.0,3.0,-8862.0,-220.661989647027,-300.96935274868,381.621381553291,529376105
332,106.0,63.0,-6688.0,9492.0,3.0,-8862.0,-220.706943304407,-301.028881301234,377.796032190866,529391578
445,-153.0,-460.0,-6688.0,9492.0,2.0,-8861.0,-220.753708511565,-301.08075171236,371.879094291427,529399506
445,-153.0,-460.0,-6690.0,9491.0,3.0,-8862.0,-220.787786804339,-301.105111598083,365.789192216403,529408454
393,68.0,-310.0,-6689.0,9492.0,2.0,-8861.0,-220.808179068799,-301.123588561919,361.655945853607,529419898
192,167.0,240.0,-6689.0,9492.0,2.0,-8861.0,-220.815317600657,-301.129792001443,355.390041049021,529435915
5,392.0,458.0,-6688.0,9491.0,3.0,-8863.0,-220.818129395892,-301.130220690752,351.200359758567,529443638
383,-34.0,-104.0,-6689.0,9493.0,2.0,-8860.0,-220.816730224301,-301.12440305162,344.847615231569,529452051
520,-71.0,-357.0,-6689.0,9490.0,3.0,-8863.0,-220.815098543687,-301.109120062551,340.546592619925,529460341
71,276.0,345.0,-6690.0,9492.0,3.0,-8860.0,-220.80521794626,-301.098110222284,334.051004903407,529477476
296,121.0,-311.0,-6690.0,9492.0,2.0,-8860.0,-220.79280964715,-301.077658878555,327.558535587609,529489203
156,129.0,135.0,-6692.0,9494.0,1.0,-8856.0,-220.779874014328,-301.055561669457,323.244458557079,529497655
33,73.0,-30.0,-6696.0,9492.0,255.0,-8852.0,-220.758933741988,-301.030456318251,312.368529350133,529515057
55,403.0,168.0,-6702.0,9489.0,249.0,-8846.0,-220.740249851659,-300.994468857263,305.788098000637,529523464
150,292.0,-18.0,-6728.0,9468.0,223.0,-8827.0,-220.710845075305,-300.954797545058,299.183068514883,529537843
-50,266.0,135.0,-6748.0,9453.0,203.0,-8811.0,-220.700578300974,-300.937561285661,292.682878375357,529554272
106,242.0,-86.0,-6772.0,9433.0,178.0,-8793.0,-220.680697280917,-300.917027747092,286.13155056694,529562513
-4,412.0,97.0,-6800.0,9409.0,148.0,-8771.0,-220.673125016136,-300.900590956663,279.528627301724,529570445
-26,341.0,111.0,-6834.0,9380.0,112.0,-8745.0,-220.64250505008,-300.861970891716,272.948228797621,529585743
156,230.0,-220.0,-6917.0,9305.0,23.0,-8682.0,-220.635829719042,-300.858305259697,266.388472817543,529598052
-131,377.0,303.0,-6917.0,9305.0,23.0,-8682.0,-220.611732422393,-300.825341261525,259.824243380322,529604990
-70,191.0,-36.0,-6966.0,9263.0,228.0,-8642.0,-220.617954828323,-300.815073662885,255.438374386806,529614236
175,317.0,-46.0,-7075.0,9160.0,109.0,-8556.0,-220.591373143243,-300.798539063065,248.86110853775,529634510
-114,243.0,-20.0,-7141.0,9099.0,40.0,-8502.0,-220.583629532311,-300.779986939181,240.093660538364,529640772
90,495.0,-232.0,-7285.0,8964.0,146.0,-8384.0,-220.561404516823,-300.759590621545,233.510539464958,529662377
34,187.0,-49.0,-7362.0,8887.0,63.0,-8318.0,-220.555978287455,-300.752443298815,226.92540371529,529670638
103,120.0,-150.0,-7527.0,8718.0,144.0,-8175.0,-220.560925065635,-300.749344528373,220.389310266639,529689502
-128,362.0,267.0,-7527.0,8718.0,144.0,-8175.0,-220.554057756215,-300.743725154671,213.817785880058,529695759
46,379.0,-233.0,-7698.0,8537.0,220.0,-8020.0,-220.536973354586,-300.726024148283,207.217643120008,529710930
46,379.0,-233.0,-7781.0,8445.0,129.0,-7939.0,-220.51553863382,-300.686667540953,202.803314702878,529719224
-137,223.0,205.0,-7868.0,8349.0,39.0,-7858.0,-220.497436836222,-300.674378642128,196.218933479012,529727582
-13,145.0,-21.0,-7955.0,8249.0,202.0,-7772.0,-220.500901924319,-300.678096208684,189.650799822634,529741264
-87,24.0,8.0,-8041.0,8150.0,111.0,-7684.0,-220.498607813978,-300.675975409031,183.086528446733,529750920
-87,24.0,8.0,-8126.0,8048.0,21.0,-7598.0,-220.506185606897,-300.685552990246,176.538994573876,529758825
-3,189.0,117.0,-8295.0,7840.0,97.0,-7416.0,-220.513442667768,-300.695700714743,169.980023546753,529776516
6,305.0,-16.0,-8295.0,7840.0,97.0,-7416.0,-220.525258759067,-300.704113750949,165.607500810971,529784259
-36,-55.0,-125.0,-8380.0,7734.0,10.0,-7324.0,-220.530917769104,-300.721293402875,159.037390428045,529796751
85,257.0,-106.0,-8463.0,7626.0,177.0,-7230.0,-220.537567895438,-300.731621262928,154.674450448442,529803489
147,-64.0,-224.0,-8544.0,7517.0,90.0,-7136.0,-220.541266435613,-300.73590893723,145.900806756191,529815650
32,-60.0,-90.0,-8707.0,7297.0,177.0,-6940.0,-220.54085150335,-300.734083523036,139.338672653914,529831847
130,226.0,-154.0,-8785.0,7183.0,93.0,-6844.0,-220.55904980155,-300.749786575665,134.952608793663,529844525
193,-83.0,-161.0,-8860.0,7071.0,12.0,-6747.0,-220.554266501602,-300.758674952741,128.386626028369,529850794
193,-83.0,-161.0,-8938.0,6956.0,187.0,-6646.0,-220.567180162339,-300.771497532178,124.015671367848,529858600
-192,41.0,142.0,-9089.0,6726.0,29.0,-6441.0,-220.557450937169,-300.766711022473,117.57036611859,529879592
196,136.0,-463.0,-9089.0,6726.0,29.0,-6441.0,-220.559057319019,-300.758405470931,111.397446130825,529886517
235,-46.0,-39.0,-9233.0,6487.0,130.0,-6237.0,-220.553331054305,-300.748627251441,105.495381686935,529898886
64,77.0,-150.0,-9306.0,6369.0,57.0,-6129.0,-220.552031928433,-300.721863580343,99.967527587752,529906391
-199,381.0,3.0,-9375.0,6254.0,241.0,-6021.0,-220.501470511335,-300.683153422474,94.8183815128038,529924062
123,-39.0,-133.0,-9442.0,6134.0,170.0,-5919.0,-220.467418381403,-300.635459612908,88.6229304234345,529931872
180,-36.0,-394.0,-9577.0,5883.0,28.0,-5702.0,-220.435893494462,-300.595241238375,84.482789457238,529948027
-109,0.0,25.0,-9577.0,5883.0,28.0,-5702.0,-220.41331057127,-300.534726756645,81.9839679444251,529955277
-10,84.0,-176.0,-9703.0,5640.0,151.0,-5486.0,-220.369329066355,-300.503716125863,78.6576873567681,529972162
51,-39.0,-43.0,-9764.0,5513.0,84.0,-5376.0,-220.309164568692,-300.422176923866,75.7734750709954,529980390
-3,-135.0,-38.0,-9827.0,5385.0,21.0,-5264.0,-220.286384707463,-300.390358517051,73.4312219339644,529993471
-60,45.0,-61.0,-9887.0,5261.0,216.0,-5151.0,-220.225360214592,-300.299200802629,71.5543852246365,530003289
-80,39.0,-106.0,-10001.0,5010.0,97.0,-4925.0,-220.203774135536,-300.25596342366,70.1480541895827,530019488
30,-63.0,-49.0,-10057.0,4880.0,38.0,-4811.0,-220.083110028149,-300.184826142648,68.7415202924566,530035262
-13,-16.0,-32.0,-10111.0,4750.0,238.0,-4697.0,-219.843310035033,-300.128454257641,67.9426777799184,530041456
-19,-32.0,-54.0,-10164.0,4621.0,183.0,-4583.0,-219.566252984343,-300.11862795864,67.5399684556927,530054509
-53,110.0,-129.0,-10265.0,4359.0,77.0,-4350.0,-218.96122614226,-300.10237268932,66.8505402581602,530066742
-12,-14.0,0.0,-10313.0,4228.0,27.0,-4233.0,-217.640929409095,-300.033487905668,66.42463290879,530083605
11,-77.0,-101.0,-10361.0,4096.0,234.0,-4116.0,-216.318180969678,-300.028759863442,66.1308794745675,530096160
-61,74.0,-104.0,-10450.0,3830.0,140.0,-3878.0,-214.666289050965,-300.014524982916,65.8816888037661,530110370
-61,74.0,-104.0,-10493.0,3697.0,96.0,-3760.0,-212.688451748121,-300.010481944538,65.6771005809828,530119310
-3,15.0,-42.0,-10535.0,3563.0,53.0,-3641.0,-210.342640793775,-299.99222900722,65.4896165654063,530130876
-25,-29.0,-127.0,-10576.0,3427.0,11.0,-3520.0,-207.669758505928,-300.043074549148,65.4040255380822,530143996
-95,79.0,-121.0,-10650.0,3156.0,187.0,-3280.0,-204.613116033162,-300.081082668003,65.293304161672,530157944
-4,19.0,-170.0,-10685.0,3020.0,150.0,-3161.0,-201.179096532016,-300.098365867993,65.2029034985599,530166673
53,-67.0,-161.0,-10685.0,3020.0,150.0,-3161.0,-198.689937710524,-300.164114378894,65.1341796067663,530175454
-71,53.0,-100.0,-10755.0,2745.0,82.0,-2913.0,-194.641867842354,-300.24257253856,65.0835997886711,530193004
-71,53.0,-100.0,-10786.0,2610.0,50.0,-2790.0,-190.205524305335,-300.268881593199,65.0117698802342,530199213
-86,97.0,-150.0,-10815.0,2474.0,19.0,-2669.0,-185.501352709373,-300.352858662018,64.9561513195173,530206855
32,-71.0,-64.0,-10844.0,2333.0,246.0,-2547.0,-180.544279376395,-300.505743952341,64.9157661185001,530224583
-133,37.0,43.0,-10899.0,2059.0,194.0,-2295.0,-171.946423288061,-300.565731295704,64.8813940703857,530238919
-92,42.0,-210.0,-10921.0,1922.0,168.0,-2173.0,-168.412613706621,-300.615134605564,64.847332026536,530255481
140,64.0,-58.0,-10944.0,1780.0,145.0,-2050.0,-163.066584951314,-300.675206589363,64.8418382236134,530264040
16,-138.0,-49.0,-10965.0,1638.0,123.0,-1924.0,-159.429989512932,-300.708278158034,64.8229129439477,530272128
44,-233.0,-287.0,-10985.0,1499.0,104.0,-1801.0,-153.965775950724,-300.773616736752,64.8362902651465,530287431
-160,159.0,14.0,-11005.0,1360.0,87.0,-1673.0,-148.450312753061,-300.78933081851,64.8143723218251,530293776
14,-136.0,-199.0,-11037.0,1080.0,56.0,-1422.0,-142.893328412067,-300.794618652937,64.8116458384163,530307524
56,-47.0,-245.0,-11050.0,939.0,42.0,-1297.0,-139.183166911981,-300.827054095086,64.8203437138548,530319793
47,-8.0,-20.0,-11063.0,795.0,30.0,-1172.0,-133.603931967804,-300.852081588283,64.8310069642467,530328835
-351,32.0,137.0,-11076.0,659.0,23.0,-1046.0,-127.996653065082,-300.851424256334,64.8227443213313,530342529
-138,103.0,-259.0,-11088.0,522.0,16.0,-920.0,-122.378075265866,-300.843828150363,64.8253224661022,530355636
96,-152.0,-177.0,-11093.0,379.0,7.0,-795.0,-118.634584264033,-300.884626829814,64.8566479470042,530363924
69,76.0,-212.0,-11099.0,242.0,1.0,-666.0,-113.006111601695,-300.876953879776,64.8477795635413,530371891
69,76.0,-212.0,-11099.0,242.0,1.0,-666.0,-105.493307885857,-300.851210393492,64.8403910476803,530371891
104,-128.0,-198.0,-11110.0,-322.0,251.0,-161.0,-101.728937049742,-300.837794198107,64.8543949539099,530414144
104,-128.0,-198.0,-11110.0,-322.0,251.0,-161.0,-96.1101419358254,-300.902543339918,64.9064016096508,530414144
48,-492.0,-145.0,-11110.0,-463.0,255.0,-34.0,-90.4634126527704,-300.862102535255,64.8674618118943,530422006
48,-492.0,-145.0,-11110.0,-596.0,5.0,93.0,-84.8208831439665,-300.845087535038,64.8818983025373,530430335
-257,131.0,460.0,-11104.0,-733.0,9.0,211.0,-81.058383538481,-300.852050796878,64.895465500611,530443396
204,-320.0,58.0,-11100.0,-866.0,16.0,327.0,-75.4175244431347,-300.854677362682,64.9041801392289,530457032
-140,239.0,499.0,-11096.0,-988.0,26.0,440.0,-71.6650788637881,-300.868100190021,64.9291697059673,530465530
48,-236.0,-173.0,-11083.0,-1216.0,44.0,651.0,-66.0264353037764,-300.834449967611,64.9123306817607,530478592
26,-301.0,29.0,-11083.0,-1216.0,44.0,651.0,-60.3743639631492,-300.830271411022,64.919515100705,530486107
87,-338.0,93.0,-11066.0,-1421.0,62.0,828.0,-54.7323542982396,-300.83103093494,64.9335017198075,530498688
258,-345.0,-230.0,-11066.0,-1421.0,62.0,828.0,-50.9807049402055,-300.82939781476,64.9462094753057,530505815
-117,94.0,476.0,-11060.0,-1512.0,74.0,916.0,-45.346990452741,-300.818019341323,64.9483527541448,530514253
-145,-58.0,158.0,-11044.0,-1672.0,93.0,1060.0,-37.8199647129555,-300.823262201422,64.9563375742746,530530795
-44,26.0,193.0,-11038.0,-1739.0,103.0,1122.0,-34.059430646211,-300.812576034903,64.956580490771,530541464
7,-179.0,-100.0,-11030.0,-1800.0,110.0,1177.0,-28.4304881882641,-300.812563125181,64.9600760576481,530554661
-65,-204.0,49.0,-11019.0,-1904.0,126.0,1271.0,-22.7986317017218,-300.814685495446,64.965569317042,530570909
135,-193.0,318.0,-11015.0,-1941.0,131.0,1309.0,-17.1555993347287,-300.807241840761,64.9695453698856,530579363
-268,77.0,224.0,-11011.0,-1971.0,136.0,1336.0,-11.5157137097451,-300.811519572359,64.9812358208482,530592901
-88,-24.0,152.0,-11007.0,-1995.0,137.0,1354.0,-5.88613712872716,-300.814185314191,64.989114087338,530602467
147,-59.0,-222.0,-11000.0,-2023.0,140.0,1379.0,-0.255477425936837,-300.811693295533,64.9912006447746,530618897
65,80.0,-340.0,-11000.0,-2023.0,140.0,1379.0,7.2641960183189,-300.763625730448,64.9870997769893,530627382
-151,215.0,-351.0,-10998.0,-2045.0,144.0,1401.0,12.8953166454447,-300.748277051399,64.9859470222777,530641872
96,57.0,-337.0,-10996.0,-2055.0,144.0,1406.0,18.524826160423,-300.749453079522,64.9820903196792,530655209
101,15.0,-360.0,-10996.0,-2060.0,145.0,1414.0,22.2807150965675,-300.76071435972,64.9790800199185,530667791
-127,236.0,-478.0,-10995.0,-2059.0,145.0,1415.0,31.6768189421914,-300.768759416941,64.9789632942928,530684811
-127,236.0,-478.0,-10993.0,-2061.0,144.0,1416.0,35.4305252129407,-300.767163494433,64.9791799298699,530691089
62,195.0,-525.0,-10992.0,-2065.0,144.0,1418.0,41.0626508057279,-300.774531205048,64.9833582231826,530703993
73,126.0,-415.0,-10991.0,-2066.0,144.0,1422.0,46.7007046329966,-300.791601447719,64.9831618616359,530720715
-80,184.0,-300.0,-10990.0,-2068.0,143.0,1424.0,54.2193157277259,-300.799658124797,64.9806674931705,530731839
-80,184.0,-300.0,-10990.0,-2068.0,143.0,1424.0,57.9750670230845,-300.800272068156,64.9713382060481,530738692
-19,271.0,-417.0,-10988.0,-2074.0,142.0,1429.0,63.6063608739897,-300.810468029895,64.9755831759852,530751165
37,134.0,-369.0,-10987.0,-2077.0,142.0,1432.0,67.3674637239464,-300.811396400682,64.975527153626,530759232
-12,62.0,-143.0,-10985.0,-2080.0,142.0,1437.0,73.0134167466276,-300.827357342518,64.9717947266887,530768017
-57,37.0,-62.0,-10984.0,-2082.0,142.0,1439.0,76.7715817394043,-300.829342986894,64.9657477311796,530784905
10,69.0,-103.0,-10980.0,-2086.0,139.0,1446.0,88.0372818520256,-300.828376334725,64.9377937563677,530808829
-48,21.0,-32.0,-10979.0,-2087.0,139.0,1449.0,97.4476840193188,-300.834136696311,64.9378615902638,530826273
-32,50.0,-79.0,-10976.0,-2089.0,137.0,1453.0,104.968520581552,-300.864502028321,64.9306788852999,530840382
-5,-29.0,-43.0,-10975.0,-2089.0,136.0,1455.0,110.603356128783,-300.838230907819,64.9038772860569,530857305
-50,63.0,-83.0,-10974.0,-2088.0,136.0,1457.0,114.36902199569,-300.859394277913,64.9013989390784,530866229
-38,50.0,-1.0,-10973.0,-2088.0,135.0,1460.0,120.014929912047,-300.850176460667,64.8876114649327,530874863
4,-30.0,22.0,-10973.0,-2088.0,135.0,1460.0,125.669813781145,-300.886510769294,64.9042364521183,530882942
-15,-8.0,-18.0,-10972.0,-2090.0,135.0,1463.0,129.4359918315,-300.899120459763,64.8871226861934,530895639
-10,-50.0,30.0,-10970.0,-2089.0,133.0,1466.0,136.951743218675,-300.876308671347,64.8382811415394,530910488
-18,136.0,-108.0,-10969.0,-2086.0,132.0,1466.0,142.602173456543,-300.885077376502,64.8459223812688,530921802
-18,136.0,-108.0,-10968.0,-2086.0,131.0,1468.0,148.270676373737,-300.926189950149,64.8634450242841,530930173
-28,74.0,-62.0,-10968.0,-2085.0,131.0,1469.0,152.034645473711,-300.923864125443,64.8344926216678,530946981
-25,-83.0,53.0,-10966.0,-2086.0,130.0,1472.0,157.678854114911,-300.932330321583,64.8071854161434,530955739
5,-69.0,30.0,-10966.0,-2085.0,129.0,1473.0,163.327675347147,-300.934558914766,64.7888127613235,530964329
-18,-69.0,-26.0,-10965.0,-2084.0,129.0,1474.0,167.054554428149,-300.954081882572,64.8127656375218,530972600
-16,-16.0,-86.0,-10964.0,-2080.0,128.0,1476.0,176.074177639656,-300.916834692249,64.7550308779502,530992226
-16,-16.0,-86.0,-10963.0,-2080.0,127.0,1479.0,181.190114643151,-300.883744292591,64.7652011387691,531000471
-15,-9.0,8.0,-10963.0,-2079.0,127.0,1481.0,184.461957643769,-300.832231461129,64.7690312755562,531018224
-30,-96.0,4.0,-10963.0,-2079.0,127.0,1481.0,189.100825274692,-300.781204655232,64.7698355889298,531026970
-16,-47.0,-49.0,-10962.0,-2076.0,126.0,1482.0,192.044555173829,-300.755067757806,64.7957989658094,531035180
-19,48.0,-17.0,-10961.0,-2076.0,125.0,1484.0,196.143768997733,-300.670717927408,64.7633380358634,531042729
-19,48.0,-17.0,-10961.0,-2073.0,124.0,1484.0,199.934324616915,-300.604757120404,64.8115970382314,531050999
-8,72.0,7.0,-10960.0,-2072.0,124.0,1490.0,203.360567778492,-300.532882750365,64.7988207579471,531077932
-11,-196.0,-8.0,-10960.0,-2072.0,124.0,1490.0,206.429606788687,-300.460811150533,64.8303349402796,531085820
-11,-196.0,-8.0,-10960.0,-2069.0,123.0,1490.0,209.110469504594,-300.376157508152,64.8360260128895,531091997
-13,-203.0,-24.0,-10960.0,-2068.0,123.0,1491.0,211.433107529952,-300.290421311221,64.8607857828164,531104850
-11,-159.0,-33.0,-10960.0,-2065.0,123.0,1494.0,213.382639526624,-300.222627011097,64.8762805324521,531121372
-19,99.0,-2.0,-10960.0,-2064.0,123.0,1495.0,214.469735486839,-300.147738520366,64.8944573848644,531129852
-5,-177.0,-16.0,-10960.0,-2063.0,123.0,1496.0,216.16724092197,-300.103617193204,64.9448849909937,531141034
-19,54.0,-1.0,-10959.0,-2061.0,123.0,1498.0,217.076893416905,-300.018705321134,64.9249832438366,531154187
-4,-142.0,-28.0,-10960.0,-2059.0,123.0,1500.0,217.920604114719,-299.860607595595,64.9308211154019,531170637
-14,-187.0,-16.0,-10960.0,-2057.0,123.0,1501.0,219.23061207574,-299.221332817001,64.9764590424421,531187546
-14,33.0,16.0,-10961.0,-2054.0,123.0,1504.0,220.949343520413,-298.163758047753,64.9876554064344,531206656
1,-174.0,-22.0,-10961.0,-2054.0,124.0,1506.0,223.242442884312,-296.549370617952,64.9990778912756,531215121
-31,68.0,-2.0,-10961.0,-2051.0,124.0,1509.0,225.415679352383,-294.927108127446,65.0188265782703,531231091
-1,-137.0,-14.0,-10961.0,-2050.0,124.0,1510.0,228.945230937702,-292.914793797314,65.0108858705807,531247469
-21,-29.0,-8.0,-10962.0,-2049.0,124.0,1511.0,230.991665111342,-290.479691188451,64.9943147950892,531256234
-20,-54.0,1.0,-10962.0,-2047.0,124.0,1513.0,234.458535370213,-288.617295474052,65.0022520064273,531264806
-15,-62.0,4.0,-10962.0,-2046.0,125.0,1514.0,238.379449202772,-285.454509536979,65.0133947619951,531276126
-16,-61.0,-28.0,-10963.0,-2043.0,125.0,1517.0,241.213101130476,-281.839459847132,65.0120239382218,531290402
-21,-64.0,-45.0,-10967.0,-2034.0,128.0,1526.0,247.281484817964,-277.838107043545,65.0040913537271,531302833
-21,-64.0,-45.0,-10967.0,-2032.0,129.0,1527.0,250.464375433027,-273.518472763685,65.0048071207915,531310833
-13,-54.0,-58.0,-10967.0,-2032.0,129.0,1530.0,255.343299823198,-270.492012983315,65.0106156302217,531319680
-34,-73.0,59.0,-10967.0,-2032.0,129.0,1530.0,260.286608126575,-265.761016161337,65.0105249615528,531328329
-16,-80.0,47.0,-10968.0,-2029.0,129.0,1533.0,265.240270478959,-260.818049156342,65.0023408980883,531346047
-16,-80.0,47.0,-10968.0,-2027.0,129.0,1533.0,270.190919058275,-255.697279503185,65.0082187960895,531352467
-9,-151.0,-91.0,-10969.0,-2024.0,130.0,1536.0,273.47778014241,-250.40848454429,65.0079075283751,531369220
-19,-11.0,70.0,-10969.0,-2024.0,130.0,1536.0,278.361623111535,-244.960983959995,65.0057629339403,531378043
-6,-136.0,-99.0,-10969.0,-2024.0,130.0,1538.0,283.176059692751,-241.254245140199,65.0020254259354,531385869
-6,-136.0,-99.0,-10969.0,-2024.0,130.0,1538.0,287.904991297594,-235.590046394101,64.9987980146396,531385869
4,-96.0,-109.0,-10970.0,-2018.0,131.0,1546.0,292.545609832549,-229.811401656642,65.0029127793939,531429571
4,-96.0,-109.0,-10970.0,-2018.0,131.0,1546.0,297.083784958799,-223.91545786716,65.0020036208827,531429571
-27,-75.0,94.0,-10970.0,-2018.0,131.0,1546.0,300.048871269254,-219.925019004257,65.0006092224585,531437516
-10,-97.0,-113.0,-10970.0,-2016.0,131.0,1547.0,304.410264555368,-211.807091861896,65.0015701015642,531444944
-21,-104.0,96.0,-10970.0,-2015.0,131.0,1549.0,308.653323614352,-207.680978233588,65.001031367079,531453465
-20,-39.0,76.0,-10971.0,-2012.0,132.0,1552.0,311.414024231559,-201.425278931144,65.001164778871,531470492
0,-209.0,-85.0,-10971.0,-2010.0,132.0,1552.0,315.451972391687,-197.205759412714,64.9997664682513,531479190
-34,-46.0,83.0,-10971.0,-2010.0,132.0,1552.0,319.366003167718,-190.80068047146,65.000939050132,531486895
-9,-132.0,-87.0,-10971.0,-2010.0,132.0,1554.0,323.154668959128,-184.313937779886,65.0011873041551,531497928
-20,-127.0,50.0,-10972.0,-2007.0,132.0,1557.0,325.608200664061,-177.744020993533,65.0008062014358,531515200
-12,-111.0,-67.0,-10972.0,-2005.0,132.0,1558.0,329.179569026787,-171.105664307285,65.0012126385902,531523264
-12,-111.0,-67.0,-10973.0,-2004.0,133.0,1559.0,332.612422742167,-166.640547929701,65.0001340690619,531531526
-12,-147.0,7.0,-10973.0,-2002.0,133.0,1561.0,334.826441868955,-159.885773738127,65.0001988064802,531547306
-9,-125.0,-38.0,-10973.0,-2001.0,133.0,1562.0,338.037081327231,-155.343184210614,64.9999004561333,531556737
-24,-65.0,0.0,-10973.0,-1999.0,133.0,1564.0,341.110419400786,-148.471902361956,65.0001306970644,531569901
-15,-176.0,-24.0,-10974.0,-1997.0,134.0,1566.0,344.044428189877,-141.54095310068,65.0001487116876,531578940
-16,-169.0,-4.0,-10974.0,-1997.0,134.0,1566.0,345.920846277234,-134.557122907813,64.9996848579039,531586956
-19,-205.0,-3.0,-10975.0,-1996.0,135.0,1568.0,348.617460145477,-127.520314095148,65.0002314638806,531602633
-19,-205.0,-3.0,-10975.0,-1993.0,135.0,1569.0,351.172345938795,-120.422626489163,65.0002962013179,531611059
-24,-43.0,-33.0,-10975.0,-1993.0,135.0,1571.0,353.584809793179,-115.664224094734,64.9997389013354,531619888
0,-186.0,11.0,-10976.0,-1991.0,136.0,1572.0,355.853152898769,-108.485455627891,64.9998503613201,531639814
-29,-88.0,-60.0,-10977.0,-1991.0,137.0,1574.0,357.975416785159,-101.263543645693,64.9998503613201,531646116
-7,-162.0,11.0,-10979.0,-1988.0,138.0,1575.0,359.307162118778,-94.0067007165396,64.9999150986781,531661158
-9,-199.0,20.0,-10980.0,-1987.0,139.0,1577.0,361.183517645124,-86.7052225546113,64.9996741639867,531670194
-26,-18.0,-71.0,-10980.0,-1986.0,139.0,1577.0,362.914186599191,-79.3683923317251,64.9997856239113,531679156
-6,-58.0,-72.0,-10980.0,-1985.0,139.0,1579.0,364.989149981246,-71.9982414888584,64.9994512442282,531694866
-7,-223.0,-2.0,-10982.0,-1983.0,141.0,1581.0,366.370941981332,-64.5996232608983,65.0002494787435,531714693
-7,-223.0,-2.0,-10982.0,-1983.0,141.0,1581.0,367.207793749106,-57.1780749365125,65.0001667264476,531714693
-38,-91.0,-118.0,-10982.0,-1986.0,143.0,1586.0,368.339954341404,-49.7295630224234,64.9993217698175,531731302
22,-446.0,-144.0,-10982.0,-1986.0,143.0,1588.0,369.614323844463,-42.2601124643095,64.9999618212671,531747605
-9,-316.0,-202.0,-10983.0,-1985.0,143.0,1589.0,370.393972612065,-32.2750304554185,64.9998323465401,531756436
49,-482.0,-171.0,-10986.0,-1980.0,145.0,1587.0,371.021408776319,-27.2732593886944,65.0000732812793,531772987
-5,-184.0,-74.0,-10987.0,-1976.0,145.0,1585.0,371.496753565234,-19.7638290101808,64.999684857252,531784036
-5,-184.0,-74.0,-10988.0,-1973.0,145.0,1582.0,371.729595555895,-14.7526849620167,64.9996381346712,531790628
-40,-377.0,-177.0,-10990.0,-1969.0,145.0,1578.0,371.951998115886,-7.22720258542308,65.0002314645246,531803201
-40,-377.0,-177.0,-10992.0,-1962.0,145.0,1570.0,372.021873811534,0.298266609493963,65.0001847416989,531811065
-118,-558.0,-121.0,-10995.0,-1955.0,146.0,1563.0,371.984822577878,7.82360926950265,64.9994619374616,531819541
152,-204.0,-360.0,-10995.0,-1942.0,143.0,1556.0,371.706226525334,15.3468281177723,64.99906282074,531835541
224,-256.0,-288.0,-11000.0,-1921.0,142.0,1538.0,371.319572283925,22.863144017581,65.0005478304155,531851227
-141,-302.0,-235.0,-11000.0,-1921.0,142.0,1538.0,370.976721486392,30.3696118785791,64.9998430397951,531858645
-224,-423.0,-41.0,-11004.0,-1905.0,140.0,1521.0,370.337872130034,37.86398634017,64.9997315799577,531867411
103,-84.0,233.0,-11010.0,-1863.0,136.0,1492.0,369.546277334767,42.8530520061914,65.0003068945037,531883749
103,-84.0,233.0,-11010.0,-1863.0,136.0,1492.0,368.933908137772,50.3204670797442,65.0001306972305,531890443
-112,-150.0,196.0,-11016.0,-1828.0,132.0,1458.0,367.891326752774,57.765143897751,64.9994726310339,531906996
-91,-118.0,-47.0,-11019.0,-1806.0,129.0,1441.0,366.697984088269,62.7163454028578,64.9998430397951,531915067
136,29.0,-327.0,-11020.0,-1785.0,125.0,1425.0,365.353852842912,70.1229528350669,65.0003536172923,531923033
-188,-293.0,234.0,-11025.0,-1763.0,124.0,1406.0,363.860041167568,77.4991536883994,65.0003536172923,531938689
21,-84.0,-311.0,-11030.0,-1721.0,118.0,1369.0,362.218243065687,84.8426098285829,64.9997889960014,531950982
-5,-20.0,-83.0,-11034.0,-1699.0,117.0,1352.0,361.040894452228,92.1546796299749,65.0003536177194,531962708
-119,-312.0,339.0,-11035.0,-1675.0,112.0,1334.0,359.151698730072,97.0072241419436,65.0001126824275,531971540
115,192.0,-295.0,-11039.0,-1655.0,111.0,1315.0,357.116089234082,104.251868935318,65.0000299303628,531980229
-138,-307.0,13.0,-11043.0,-1634.0,110.0,1295.0,355.677298861052,111.454328971219,64.999983207743,531994056
-138,-307.0,13.0,-11043.0,-1634.0,110.0,1295.0,353.398226629169,116.233173444678,65.0001413901986,532000329
-56,209.0,-201.0,-11046.0,-1610.0,107.0,1277.0,351.799189134184,120.986796056205,64.9997062444882,532007333
-47,-15.0,-110.0,-11053.0,-1564.0,104.0,1239.0,349.279162046945,130.430761757056,64.999900455869,532026589
-157,-228.0,-292.0,-11055.0,-1543.0,101.0,1219.0,346.616724893577,135.119605362588,65.0000946679467,532034439
-34,-72.0,23.0,-11062.0,-1495.0,97.0,1181.0,341.864130660753,146.729553907507,64.9994366020611,532053543
74,100.0,-70.0,-11066.0,-1474.0,96.0,1161.0,339.853469705306,153.614427761844,65.0000766533066,532061438
-163,-190.0,-150.0,-11072.0,-1427.0,93.0,1123.0,336.724071474454,158.167688412299,64.9997529669712,532079858
232,-97.0,-236.0,-11074.0,-1404.0,90.0,1104.0,334.559604319361,164.948368360278,65.0006519684215,532090925
83,187.0,-232.0,-11074.0,-1404.0,90.0,1104.0,330.049658623121,171.660959300374,65.0005692161812,532097217
-256,-197.0,-98.0,-11082.0,-1363.0,89.0,1061.0,326.508731833731,178.304388848704,65.0001988064676,532111266
-225,-337.0,-187.0,-11086.0,-1335.0,88.0,1043.0,324.075424004406,184.871918739481,64.9998464123071,532119893
95,21.0,-16.0,-11088.0,-1312.0,86.0,1026.0,320.312531585517,191.363785399565,64.99992916401,532135978
95,21.0,-16.0,-11091.0,-1292.0,85.0,1005.0,316.418904769608,195.651873570141,65.0002815583693,532142169
-41,-159.0,-296.0,-11094.0,-1273.0,84.0,985.0,312.396872575159,202.009581071574,65.0001988072649,532151750
48,-140.0,-105.0,-11099.0,-1248.0,84.0,962.0,308.248355093694,208.28655139679,64.9999758867827,532168223
94,317.0,60.0,-11101.0,-1222.0,82.0,944.0,303.969725904701,214.483348416065,65.0001807919238,532176921
-35,-85.0,-245.0,-11106.0,-1180.0,79.0,906.0,298.074654189454,224.606633568287,65.0006446460984,532197699
-35,-85.0,-245.0,-11109.0,-1159.0,78.0,885.0,293.509205074997,228.588378382273,65.0004217265456,532203963
38,35.0,-7.0,-11115.0,-1109.0,76.0,846.0,288.82530296273,234.478355650697,64.9999578720784,532222490
24,-66.0,-86.0,-11118.0,-1089.0,75.0,827.0,284.022741328189,242.184641455936,65.0001807918469,532230778
9,-83.0,-202.0,-11121.0,-1066.0,75.0,806.0,279.104060929306,247.846256879421,64.9995874640069,532244405
-42,-77.0,-27.0,-11124.0,-1045.0,74.0,785.0,272.370211216956,253.406409837137,64.9995227272542,532257575
-15,-47.0,-45.0,-11127.0,-1021.0,74.0,763.0,268.926978325702,257.057543215135,64.9998464123375,532265511
30,-108.0,-209.0,-11132.0,-978.0,72.0,724.0,263.722213915814,262.393518613243,65.0005472528123,532284082
30,-108.0,-209.0,-11132.0,-978.0,72.0,724.0,260.266757412981,267.490171420449,65.0074938331472,532290756
3,-27.0,-92.0,-11161.0,-900.0,91.0,674.0,251.712456324566,273.759909459455,65.0134399746403,532310434
-43,-11.0,-99.0,-11161.0,-900.0,91.0,674.0,248.327295596419,278.006612081437,65.0197204757937,532318887
-1,-53.0,-171.0,-11164.0,-878.0,90.0,653.0,243.315393950373,280.60528671605,65.0189671047887,532327179
52,73.0,-120.0,-11166.0,-855.0,90.0,634.0,240.009274387712,284.155575016691,65.0026781651639,532337780
-9,-11.0,-72.0,-11169.0,-832.0,90.0,613.0,233.516299235051,287.295794485013,64.9939944233305,532350528
-40,-126.0,-143.0,-11175.0,-790.0,90.0,570.0,230.350359536324,290.031831590711,64.9851484937278,532365466
1,5.0,-144.0,-11177.0,-767.0,90.0,551.0,224.186404772975,292.342614921181,64.9864606088366,532373596
-30,-160.0,-170.0,-11180.0,-746.0,90.0,532.0,221.201942247513,294.24079955101,64.9948654361078,532389380
-5,15.0,-140.0,-11183.0,-721.0,90.0,512.0,216.834816759585,295.255330340783,64.9509943587742,532395668
-5,15.0,-140.0,-11183.0,-721.0,90.0,512.0,213.9769622154,296.468445763253,64.9305381011933,532395668
-37,-142.0,-145.0,-11192.0,-635.0,91.0,430.0,209.766567745771,297.427557618176,64.953455343469,532438657
-37,-142.0,-145.0,-11192.0,-635.0,91.0,430.0,205.504207759273,297.940393041504,64.9564664697355,532438657
-37,-142.0,-145.0,-11192.0,-635.0,91.0,430.0,202.576235960161,298.504295453952,64.9024314039522,532438657
72,0.0,-44.0,-11195.0,-610.0,92.0,409.0,198.040507654374,298.973364841604,64.8840520465993,532450991
-64,-289.0,-117.0,-11199.0,-568.0,92.0,367.0,193.255491136356,299.374267256552,64.8632291419615,532466189
-134,-153.0,-84.0,-11201.0,-546.0,92.0,345.0,186.560362206648,299.702345542583,64.8559631562472,532475081
-1,1.0,-137.0,-11204.0,-524.0,93.0,326.0,183.09468467279,299.936811002897,64.8280792017159,532490518
128,119.0,-101.0,-11206.0,-499.0,94.0,306.0,177.826588666262,300.07802712824,64.8354101059486,532500196
62,-149.0,-104.0,-11209.0,-478.0,95.0,287.0,174.272530427586,300.268533607809,64.8210819103427,532506832
2,145.0,-23.0,-11212.0,-434.0,95.0,244.0,168.847824678566,300.398111843478,64.797757970221,532523012
-72,-152.0,-170.0,-11212.0,-415.0,95.0,222.0,163.390508854151,300.52940475344,64.8096582011661,532531393
-14,82.0,-98.0,-11214.0,-391.0,96.0,201.0,157.857464436216,300.602213763001,64.783959345383,532545156
-14,82.0,-98.0,-11217.0,-369.0,97.0,183.0,152.32422494064,300.668232832665,64.812700644961,532551429
227,302.0,-108.0,-11220.0,-325.0,98.0,141.0,146.748544613364,300.726131543731,64.7944811986671,532571486
-100,-279.0,-18.0,-11220.0,-305.0,97.0,116.0,141.153711992618,300.75639911706,64.7945114548318,532581143
-237,-84.0,-375.0,-11220.0,-305.0,97.0,116.0,137.416872291198,300.791603640475,64.8143541394655,532588712
84,78.0,-85.0,-11224.0,-283.0,100.0,96.0,131.80592961864,300.827008482372,64.8201045583007,532601231
-34,-208.0,46.0,-11227.0,-237.0,101.0,57.0,126.176778243444,300.840735826361,64.8169396499067,532616022
-184,64.0,-509.0,-11225.0,-217.0,99.0,34.0,120.54210958618,300.83033987227,64.8093616810931,532626583
244,260.0,-265.0,-11229.0,-196.0,103.0,11.0,116.794782556908,300.879342148442,64.8570079660418,532634408
99,-179.0,-109.0,-11229.0,-170.0,102.0,-6.0,111.157645970983,300.86767782398,64.8432999230351,532647492
99,-179.0,-109.0,-11232.0,-150.0,105.0,-28.0,105.511746091561,300.847215073376,64.8357214120217,532653724
-24,371.0,-48.0,-11231.0,-128.0,104.0,-48.0,99.8608629228958,300.833575568934,64.8626371618214,532669855
-72,-73.0,-651.0,-11231.0,-112.0,104.0,-70.0,96.1164257504141,300.89791501279,64.9016871442632,532678566
32,78.0,124.0,-11233.0,-90.0,105.0,-87.0,90.4784022919081,300.872726310294,64.8737065808688,532689775
229,231.0,-298.0,-11233.0,-54.0,106.0,-123.0,84.8306494732953,300.837394699716,64.8678932113265,532702343
-148,-359.0,-620.0,-11233.0,-54.0,106.0,-123.0,79.1839089166083,300.860807068699,64.9050111617905,532709686
-241,-675.0,-528.0,-11233.0,-20.0,106.0,-159.0,75.4204215794026,300.852581915454,64.9067624920901,532726097
-241,-675.0,-528.0,-11234.0,-5.0,107.0,-173.0,69.7854336519859,300.857712338614,64.9226348123287,532733854
110,188.0,10.0,-11237.0,11.0,110.0,-185.0,62.266487554842,300.830113940468,64.9231225713766,532750264
60,304.0,-117.0,-11235.0,36.0,109.0,-214.0,56.6172487145172,300.831834825126,64.9315583009006,532764574
60,304.0,-117.0,-11235.0,47.0,109.0,-224.0,52.8537873858416,300.833708404246,64.9390416531178,532772935
12,-54.0,-471.0,-11234.0,58.0,108.0,-237.0,47.2218506989371,300.818024808119,64.940825415532,532782525
-62,84.0,-349.0,-11235.0,68.0,110.0,-249.0,41.5887011608112,300.827147027455,64.9577598692937,532796221
-62,84.0,-349.0,-11235.0,76.0,110.0,-256.0,35.9445454655087,300.823184082113,64.9658308449135,532802478
145,176.0,-455.0,-11235.0,86.0,110.0,-268.0,30.3043457411335,300.804854313325,64.9579184451815,532822529
-231,-87.0,-465.0,-11234.0,91.0,109.0,-275.0,24.6744011216327,300.813818173062,64.9617309984833,532831089
-62,-42.0,-426.0,-11234.0,91.0,109.0,-275.0,20.9153810001714,300.80870757113,64.9662369207821,532838972
162,-118.0,-289.0,-11235.0,99.0,111.0,-281.0,15.2781667447515,300.816340695607,64.9749671265645,532851590
88,-52.0,-324.0,-11237.0,121.0,113.0,-297.0,9.64438807678215,300.80639969288,64.9749555973136,532866324
63,-104.0,-194.0,-11236.0,135.0,113.0,-310.0,0.25330252094111,300.801575639947,64.9821344802608,532874364
273,-144.0,-239.0,-11235.0,177.0,113.0,-350.0,-3.50558587091867,300.766586942235,64.9802825330051,532900129
73,-123.0,-118.0,-11233.0,205.0,113.0,-377.0,-9.14098856528187,300.737718710429,64.978006233361,532907047
-57,-188.0,-294.0,-11232.0,240.0,113.0,-413.0,-14.7718221634151,300.748633646567,64.985499135322,532915060
139,-130.0,-210.0,-11232.0,338.0,119.0,-495.0,-20.4033901240338,300.767200731643,64.9902217719091,532931615
503,63.0,66.0,-11232.0,338.0,119.0,-495.0,-26.0401472898465,300.766498029561,64.9862475222479,532939073
117,-217.0,-262.0,-11230.0,393.0,121.0,-543.0,-29.7966719022116,300.77043497763,64.9793129613853,532945373
117,-217.0,-262.0,-11230.0,393.0,121.0,-543.0,-33.5548747850362,300.774393536691,64.9853814984015,532945373
117,-217.0,-262.0,-11230.0,393.0,121.0,-543.0,-39.1879911191069,300.780923528591,64.9877896709949,532945373
166,-12.0,10.0,-11209.0,788.0,143.0,-904.0,-44.8215701840066,300.799425382669,64.9912822977507,532999716
166,-12.0,10.0,-11209.0,788.0,143.0,-904.0,-50.4599760402178,300.801168324736,64.987976727029,532999716
166,-12.0,10.0,-11209.0,788.0,143.0,-904.0,-54.217363193052,300.799670185639,64.9768747641085,532999716
11,-456.0,-297.0,-11192.0,997.0,159.0,-1100.0,-59.8555660454195,300.808115394437,64.97692932744,533014830
11,-456.0,-297.0,-11181.0,1116.0,170.0,-1205.0,-65.4889217699785,300.811453075194,64.9783174867558,533023270
282,-328.0,-209.0,-11168.0,1237.0,181.0,-1318.0,-71.1300194788189,300.831303402244,64.9769911023583,533031715
58,207.0,45.0,-11153.0,1361.0,194.0,-1433.0,-74.8903281961764,300.825021242201,64.9630073537358,533045648
58,207.0,45.0,-11153.0,1361.0,194.0,-1433.0,-80.5263260362594,300.830237783657,64.9576583143769,533051875
15,-408.0,-283.0,-11120.0,1622.0,227.0,-1670.0,-86.1594356702605,300.823161497439,64.9424752845998,533063532
114,-107.0,-286.0,-11081.0,1892.0,11.0,-1915.0,-91.8059469822791,300.841878889031,64.9418970882649,533081012
49,301.0,201.0,-11058.0,2028.0,34.0,-2041.0,-97.444770128264,300.843232353153,64.9431143397253,533095710
49,301.0,201.0,-11058.0,2028.0,34.0,-2041.0,-103.087582291795,300.858312030631,64.9346853220629,533101949
108,285.0,128.0,-11007.0,2303.0,83.0,-2292.0,-108.726888428014,300.843241146494,64.9098021965265,533116796
46,-175.0,-165.0,-10981.0,2443.0,112.0,-2419.0,-112.487670402506,300.856707072897,64.9066922656595,533127309
-71,-46.0,-195.0,-10950.0,2582.0,141.0,-2547.0,-118.132552653256,300.844403637505,64.8878956398218,533135195
-66,-162.0,-207.0,-10919.0,2721.0,172.0,-2674.0,-123.782608001375,300.87228225987,64.9008467643656,533148230
-50,81.0,99.0,-10853.0,3001.0,241.0,-2929.0,-129.436146168838,300.898204062321,64.9027554000087,533162259
113,105.0,-57.0,-10817.0,3140.0,21.0,-3056.0,-135.073247271591,300.869794408877,64.8496558227819,533170927
-64,-42.0,-272.0,-10779.0,3280.0,59.0,-3183.0,-142.602374354996,300.886743568055,64.8540599685805,533191348
-88,-21.0,-63.0,-10739.0,3418.0,98.0,-3310.0,-146.384179475787,300.932016736522,64.8671108208883,533197706
70,47.0,-67.0,-10658.0,3697.0,185.0,-3563.0,-153.907602034294,300.923562869811,64.8161204892299,533211393
-130,-112.0,-471.0,-10614.0,3835.0,230.0,-3688.0,-159.562990284468,300.934832694351,64.801509394294,533228653
-41,91.0,83.0,-10567.0,3971.0,19.0,-3815.0,-165.197910311141,300.943025951659,64.7986276005671,533236545
-40,7.0,-159.0,-10471.0,4246.0,118.0,-4065.0,-170.736635173312,300.952692355329,64.8008363495925,533252736
68,121.0,-205.0,-10471.0,4246.0,118.0,-4065.0,-176.07096536617,300.880121557139,64.7523801781788,533260064
-7,110.0,-114.0,-10371.0,4517.0,223.0,-4311.0,-181.195012589176,300.885524247556,64.7836117076213,533276886
-112,-157.0,-217.0,-10317.0,4652.0,22.0,-4434.0,-186.041509393773,300.804480058555,64.7664468826413,533285126
1,-52.0,-113.0,-10264.0,4787.0,80.0,-4556.0,-192.201609174611,300.781216092751,64.7951583997113,533298765
4,-23.0,28.0,-10151.0,5054.0,199.0,-4797.0,-194.808333002545,300.665926610333,64.7633893756014,533315441
4,-23.0,28.0,-10091.0,5184.0,3.0,-4918.0,-198.707458113314,300.616726907069,64.7946807419981,533323729
-108,49.0,-215.0,-10031.0,5317.0,67.0,-5038.0,-202.26182894184,300.529951705215,64.8012681235566,533332109
238,37.0,93.0,-9968.0,5447.0,131.0,-5157.0,-205.442565192317,300.476756007565,64.8154877697855,533345784
-151,147.0,-317.0,-9905.0,5577.0,197.0,-5275.0,-207.357687088924,300.399695640522,64.8259569146694,533358801
114,-32.0,25.0,-9839.0,5706.0,8.0,-5391.0,-209.92534418328,300.318831743777,64.8461490557276,533366910
114,-32.0,25.0,-9839.0,5706.0,8.0,-5391.0,-212.126890776774,300.270934311674,64.8721069995328,533366910
-21,-38.0,-275.0,-9495.0,6339.0,115.0,-5966.0,-213.94442541585,300.16670818549,64.8826854563508,533412574
-21,-38.0,-275.0,-9495.0,6339.0,115.0,-5966.0,-215.404902637316,300.138095418629,64.9202621333687,533412574
-283,102.0,-337.0,-9419.0,6461.0,190.0,-6079.0,-216.486211880549,300.058631758176,64.959957201264,533421351
47,-44.0,-12.0,-9419.0,6461.0,190.0,-6079.0,-217.282304672337,300.017343441204,65.0918918040338,533429799
91,-21.0,26.0,-9345.0,6586.0,14.0,-6191.0,-217.90793075655,299.989298012941,65.3061847626377,533437551
