ACC_X,ACC_Y,ACC_Z,QUAT_W,QUAT_X,QUAT_Y,QUAT_Z,X_pos,Y_pos,Z_pos,t
-316,275.0,-261.0,-9695.0,5909.0,80.0,-5571.0,-218.539747513515,299.977412650838,66.0496944797482,550748181
121,-208.0,-41.0,-9627.0,6037.0,151.0,-5684.0,-218.911013151527,300.025475259816,66.9295510869221,550756561
-108,-21.0,-267.0,-9557.0,6162.0,225.0,-5800.0,-219.171646393018,300.020530643789,68.0590994988794,550776563
-102,-65.0,-104.0,-9339.0,6537.0,198.0,-6135.0,-219.545294180898,300.051361279058,71.3067367331678,550796271
-117,164.0,-244.0,-9263.0,6658.0,19.0,-6245.0,-219.636593659294,300.026104874927,73.3827888667717,550813913
102,-87.0,69.0,-9188.0,6781.0,103.0,-6355.0,-219.795756199228,300.072586316303,76.7987691136947,550826425
-88,153.0,-232.0,-9108.0,6901.0,182.0,-6464.0,-219.84969619131,300.106588109893,78.747616043227,550833152
77,-35.0,4.0,-8948.0,7139.0,95.0,-6679.0,-219.924471399699,300.101514545042,81.8954998480789,550851596
135,197.0,49.0,-8867.0,7257.0,182.0,-6784.0,-219.992296532509,300.162078341878,86.7513691892215,550866731
82,-44.0,-233.0,-8784.0,7374.0,14.0,-6889.0,-220.058985434114,300.208680056306,90.8413667208802,550873232
-46,214.0,-17.0,-8611.0,7603.0,193.0,-7098.0,-220.120951498833,300.246501525906,95.3052708557954,550887235
-36,-100.0,-155.0,-8524.0,7716.0,27.0,-7197.0,-220.151651936838,300.272528915618,99.9844541031158,550895946
-155,63.0,-208.0,-8524.0,7716.0,27.0,-7197.0,-220.180253094954,300.325119264455,103.245435736997,550905579
87,135.0,60.0,-8438.0,7828.0,122.0,-7298.0,-220.234998354963,300.366328856271,108.283105512613,550917098
134,-40.0,-118.0,-8259.0,8050.0,58.0,-7495.0,-220.263049137394,300.3941580174,111.714528887896,550929633
94,244.0,-14.0,-8165.0,8158.0,154.0,-7594.0,-220.298610656917,300.430434565981,116.937546447444,550937448
-64,180.0,5.0,-8072.0,8265.0,251.0,-7690.0,-220.30735074973,300.433041751113,122.257225713911,550946201
-16,-49.0,-167.0,-7978.0,8371.0,95.0,-7785.0,-220.325900222497,300.483756464282,125.887281498226,550962326
-16,-49.0,-167.0,-7884.0,8475.0,196.0,-7878.0,-220.339419233603,300.492345604592,131.302920429689,550968634
-15,105.0,45.0,-7789.0,8576.0,38.0,-7968.0,-220.363916113692,300.519717586667,136.795887760601,550985499
-238,-27.0,-176.0,-7695.0,8671.0,132.0,-8055.0,-220.36283704794,300.512191206127,142.285053576252,550994038
-317,68.0,-62.0,-7603.0,8763.0,224.0,-8137.0,-220.364941605314,300.509781068368,145.967684891243,551002412
-315,-39.0,-45.0,-7517.0,8850.0,60.0,-8215.0,-220.382616657076,300.520073380594,151.525596457537,551017562
-132,265.0,2.0,-7436.0,8932.0,150.0,-8288.0,-220.382914351683,300.519472363154,157.094529613143,551023845
-132,265.0,2.0,-7358.0,9010.0,236.0,-8356.0,-220.391128189169,300.521450392511,160.817269156197,551030096
-268,-154.0,-178.0,-7139.0,9208.0,199.0,-8534.0,-220.389687585424,300.526240643126,166.414344829688,551058897
-268,-154.0,-178.0,-7139.0,9208.0,199.0,-8534.0,-220.391055021312,300.52881093848,172.035250690386,551058897
-435,275.0,7.0,-7139.0,9208.0,199.0,-8534.0,-220.384514619878,300.522210901992,175.756853687959,551066026
-148,161.0,177.0,-7023.0,9315.0,71.0,-8628.0,-220.388706836803,300.525105427132,181.362507789659,551078378
-136,153.0,-19.0,-7023.0,9315.0,71.0,-8628.0,-220.384069950222,300.518027288658,185.113387574728,551085447
-293,61.0,67.0,-6923.0,9401.0,172.0,-8704.0,-220.382921894193,300.525563957657,190.748870393899,551102148
-425,170.0,-6.0,-6882.0,9434.0,210.0,-8733.0,-220.379667834026,300.523378240458,196.371845563764,551110768
-280,64.0,-69.0,-6846.0,9464.0,248.0,-8761.0,-220.380549713191,300.512926074726,201.980821793786,551127373
-130,167.0,-173.0,-6818.0,9490.0,23.0,-8782.0,-220.380705376331,300.500100760147,207.588380803136,551134398
-232,120.0,-177.0,-6775.0,9525.0,65.0,-8813.0,-220.374522857182,300.505763955276,213.214595530984,551150536
-232,120.0,-177.0,-6760.0,9534.0,75.0,-8822.0,-220.356106452078,300.480147675814,218.829043558793,551158753
-66,255.0,128.0,-6754.0,9539.0,83.0,-8827.0,-220.345790858934,300.465577824423,224.448210919924,551172178
-8,414.0,4.0,-6753.0,9540.0,85.0,-8829.0,-220.359361173729,300.484334142097,230.06868603908,551182204
52,310.0,147.0,-6757.0,9539.0,84.0,-8827.0,-220.367070277335,300.495853233373,235.754373691079,551190250
-121,227.0,-6.0,-6778.0,9521.0,61.0,-8811.0,-220.368987132321,300.498215363873,241.388381107395,551207534
-117,334.0,47.0,-6778.0,9521.0,61.0,-8811.0,-220.379308434639,300.510342427192,245.141992357069,551215675
-78,241.0,118.0,-6826.0,9482.0,13.0,-8776.0,-220.385269911311,300.520922268817,252.670859308954,551228200
-152,340.0,92.0,-6897.0,9423.0,197.0,-8722.0,-220.383013895014,300.518097666841,258.306597613242,551247938
-143,435.0,87.0,-6897.0,9423.0,197.0,-8722.0,-220.400255982938,300.541105760929,262.092317040754,551256404
79,367.0,256.0,-6940.0,9384.0,148.0,-8688.0,-220.393400005654,300.53514163291,267.684379989338,551264017
-126,317.0,-111.0,-6988.0,9343.0,100.0,-8652.0,-220.403139603973,300.545289671056,273.345247006191,551276506
-117,267.0,34.0,-7102.0,9247.0,239.0,-8559.0,-220.401942968783,300.554370626623,278.976438598064,551291059
-48,267.0,-200.0,-7238.0,9122.0,97.0,-8448.0,-220.415486960743,300.562630277871,288.361584304473,551310770
-48,267.0,-200.0,-7238.0,9122.0,97.0,-8448.0,-220.422464261569,300.580383988407,292.148651331435,551317682
-36,234.0,92.0,-7392.0,8978.0,191.0,-8316.0,-220.427946439964,300.580726435308,299.652755374813,551330187
-77,228.0,-15.0,-7471.0,8903.0,107.0,-8245.0,-220.439415067128,300.599692192182,305.298379345085,551346330
24,171.0,129.0,-7553.0,8824.0,21.0,-8171.0,-220.445887993048,300.604589308952,310.946778221135,551354731
-18,140.0,-199.0,-7637.0,8739.0,188.0,-8093.0,-220.460493476824,300.624505649837,314.727524950395,551362561
46,145.0,101.0,-7810.0,8559.0,5.0,-7931.0,-220.464408113547,300.63636758813,320.333954009285,551378411
-84,194.0,-126.0,-7810.0,8559.0,5.0,-7931.0,-220.479751842347,300.65640533142,325.995805018832,551385608
81,18.0,36.0,-7982.0,8374.0,79.0,-7759.0,-220.489899701794,300.667626945568,331.678394034269,551402342
165,159.0,140.0,-8067.0,8279.0,244.0,-7672.0,-220.500009448969,300.685042092735,337.316289003325,551410628
-144,-6.0,-231.0,-8153.0,8181.0,153.0,-7582.0,-220.51585962249,300.705166054037,341.04414375945,551423723
28,88.0,76.0,-8237.0,8081.0,62.0,-7490.0,-220.533981898266,300.729250443469,346.711594813217,551433564
-30,-7.0,65.0,-8322.0,7978.0,225.0,-7396.0,-220.546507411379,300.754269404789,350.495817174742,551441512
-30,-7.0,65.0,-8406.0,7874.0,136.0,-7303.0,-220.567096396659,300.772643066691,356.196891049201,551449736
24,-89.0,-29.0,-8489.0,7771.0,48.0,-7206.0,-220.580676742391,300.802811528556,359.982504588321,551465600
-49,163.0,-34.0,-8571.0,7666.0,216.0,-7109.0,-220.609109026706,300.844155195268,365.59104780643,551471742
-164,229.0,-85.0,-8651.0,7560.0,130.0,-7011.0,-220.641717971525,300.886239276541,371.098008156935,551484793
100,-121.0,-124.0,-8810.0,7341.0,213.0,-6811.0,-220.667204037254,300.911421795446,376.430523438633,551497028
-41,199.0,-71.0,-8810.0,7341.0,213.0,-6811.0,-220.684218721718,300.931094543608,379.834229152003,551505821
-119,24.0,-219.0,-8888.0,7229.0,128.0,-6710.0,-220.704078361308,300.95893202097,384.739095135114,551513921
-281,-2.0,-302.0,-8965.0,7117.0,45.0,-6606.0,-220.717289615513,300.978207918938,387.833018271322,551526390
19,29.0,-34.0,-9112.0,6892.0,138.0,-6400.0,-220.723555133516,300.987003941868,392.197205475411,551540682
19,29.0,-34.0,-9184.0,6776.0,58.0,-6298.0,-220.724540612253,300.990616991309,396.315372901964,551549142
19,29.0,-34.0,-9184.0,6776.0,58.0,-6298.0,-220.717706016935,300.975638981326,398.867294140219,551549142
-133,-10.0,-242.0,-9327.0,6540.0,158.0,-6085.0,-220.708877982879,300.962955807314,401.260112333308,551574582
-133,-10.0,-242.0,-9327.0,6540.0,158.0,-6085.0,-220.698512540012,300.950585988938,404.495878160356,551574582
35,63.0,-38.0,-9465.0,6305.0,9.0,-5869.0,-220.68591679486,300.924587781227,406.468402833394,551588926
24,-152.0,-28.0,-9530.0,6184.0,191.0,-5760.0,-220.657970321533,300.884663339597,409.138664611276,551597518
-98,-251.0,-147.0,-9530.0,6184.0,191.0,-5760.0,-220.620427440734,300.8476351887,410.705051143532,551606256
10,120.0,-47.0,-9660.0,5941.0,49.0,-5539.0,-220.577072269608,300.762686714126,413.868743074789,551621185
148,206.0,-42.0,-9724.0,5819.0,236.0,-5426.0,-220.505476275622,300.688112052217,415.252787343605,551634345
30,144.0,-17.0,-9843.0,5571.0,101.0,-5202.0,-220.413881674298,300.542688309993,416.584975312455,551654373
-146,-178.0,62.0,-9901.0,5446.0,37.0,-5092.0,-220.286020389726,300.46662226596,417.348690056477,551662213
-34,256.0,-156.0,-9959.0,5320.0,229.0,-4975.0,-220.123325768989,300.327280482615,417.922426099899,551674983
227,256.0,-323.0,-10071.0,5066.0,107.0,-4744.0,-219.506094717444,300.263245103269,418.413185932624,551689217
-10,-194.0,-110.0,-10123.0,4938.0,48.0,-4630.0,-219.02836716851,300.19287547875,418.787969600506,551700698
26,147.0,-178.0,-10173.0,4808.0,245.0,-4518.0,-218.090870635276,300.152746686646,418.983319899669,551709198
-45,36.0,-107.0,-10223.0,4679.0,188.0,-4400.0,-216.395493595032,300.13295800507,419.256739127929,551723141
-43,-55.0,-53.0,-10273.0,4550.0,135.0,-4284.0,-215.34075411623,300.128685927372,419.460408169575,551736758
147,147.0,-313.0,-10321.0,4419.0,81.0,-4162.0,-213.486263354784,300.146952680175,419.66166389783,551745217
-14,-136.0,-16.0,-10369.0,4286.0,31.0,-4045.0,-212.059223684649,300.187937629198,419.721380887182,551753341
-158,-42.0,75.0,-10455.0,4020.0,187.0,-3809.0,-209.629805129009,300.229461590783,419.869048503742,551769712
-2,166.0,-184.0,-10455.0,4020.0,187.0,-3809.0,-206.839228865212,300.284006124351,420.018046469771,551775959
-11,-161.0,70.0,-10538.0,3755.0,94.0,-3567.0,-203.676286955522,300.351931526878,420.132121109759,551789939
35,36.0,-193.0,-10617.0,3484.0,8.0,-3325.0,-200.129568699232,300.429637526879,420.230397755271,551807355
-88,14.0,-92.0,-10617.0,3484.0,8.0,-3325.0,-194.829395584307,300.505062996359,420.295760933661,551815197
8,52.0,-175.0,-10686.0,3213.0,183.0,-3085.0,-190.417398381024,300.607636211695,420.371686501844,551831224
-236,-57.0,-51.0,-10752.0,2939.0,109.0,-2842.0,-184.060630779647,300.686063202024,420.463342404266,551847858
39,39.0,-81.0,-10752.0,2939.0,109.0,-2842.0,-180.731392621555,300.768082332571,420.459648852081,551856152
-67,71.0,-52.0,-10812.0,2666.0,41.0,-2593.0,-173.863742409821,300.856518546058,420.495608026055,551870078
-221,-53.0,-70.0,-10840.0,2526.0,10.0,-2471.0,-168.578719774011,300.902091748626,420.493936961222,551886828
15,181.0,-268.0,-10866.0,2387.0,236.0,-2348.0,-161.39558187675,300.935612463651,420.489764378314,551895358
-114,-22.0,93.0,-10891.0,2250.0,208.0,-2226.0,-157.751978929505,300.963702993499,420.474963691622,551903643
-161,-217.0,190.0,-10913.0,2112.0,180.0,-2102.0,-152.241912346546,300.977416711963,420.453945973854,551918582
259,212.0,-396.0,-10957.0,1832.0,133.0,-1849.0,-146.692047283885,300.994581302687,420.42214192689,551931083
-36,33.0,-164.0,-10978.0,1691.0,112.0,-1727.0,-141.126086440337,300.997607782268,420.442680209088,551938598
-275,-102.0,-146.0,-10994.0,1553.0,91.0,-1601.0,-137.404080353914,300.992403702449,420.411315111634,551950490
-19,27.0,58.0,-11010.0,1413.0,72.0,-1478.0,-131.805455687114,300.988721561659,420.374635273696,551958877
240,173.0,-38.0,-11025.0,1274.0,55.0,-1351.0,-126.18170528642,300.985968093026,420.362879970746,551972485
-193,-265.0,-188.0,-11039.0,1130.0,40.0,-1226.0,-122.42938292371,300.980031245161,420.329023150177,551985562
98,-176.0,-433.0,-11051.0,989.0,27.0,-1099.0,-116.798091297187,300.974074785225,420.325218009057,551993519
63,-74.0,-233.0,-11071.0,707.0,5.0,-848.0,-111.163779028615,300.96046086549,420.290098070082,552012261
63,-74.0,-233.0,-11071.0,707.0,5.0,-848.0,-105.527986376675,300.94895325994,420.252473252979,552018915
110,29.0,-174.0,-11085.0,424.0,245.0,-597.0,-101.770252696008,300.938292615628,420.26244122777,552031429
318,-59.0,-552.0,-11089.0,283.0,240.0,-470.0,-96.1238616645783,300.925048252129,420.223509753283,552039409
-295,71.0,357.0,-11091.0,141.0,235.0,-343.0,-90.4772430683032,300.921613626954,420.230964179886,552048106
82,221.0,23.0,-11095.0,0.0,234.0,-216.0,-84.8330871809337,300.90954406592,420.186496035963,552064208
239,178.0,-289.0,-11093.0,-283.0,234.0,36.0,-77.3160747773984,300.897969999024,420.174959587079,552079823
-222,-148.0,89.0,-11093.0,-283.0,234.0,36.0,-73.5539123264516,300.886471985454,420.147039886916,552087126
43,-87.0,-220.0,-11089.0,-423.0,236.0,161.0,-67.9077303416919,300.878888740169,420.118009406016,552095633
-46,-112.0,-19.0,-11080.0,-691.0,245.0,400.0,-62.266472392073,300.877880391748,420.12112981896,552111810
274,-198.0,-314.0,-11074.0,-820.0,252.0,514.0,-56.6229023537824,300.865842430534,420.120132087647,552124946
-160,-62.0,257.0,-11067.0,-943.0,4.0,624.0,-52.8645570375488,300.858062244251,420.094884975435,552134875
-166,-288.0,78.0,-11059.0,-1061.0,12.0,728.0,-47.2314612728608,300.857281684152,420.073735510269,552142770
-166,-288.0,78.0,-11050.0,-1171.0,20.0,826.0,-41.5895628818451,300.854371022738,420.066325567737,552150867
173,-161.0,-177.0,-11033.0,-1375.0,40.0,1006.0,-34.0651306368355,300.839835526913,420.082047395798,552172980
-276,-185.0,250.0,-11024.0,-1467.0,50.0,1088.0,-28.4299131104014,300.842494349631,420.040763989952,552186330
270,-243.0,-133.0,-11008.0,-1628.0,70.0,1231.0,-24.6747378523812,300.83853074455,420.016705949322,552198850
-119,23.0,335.0,-11008.0,-1628.0,70.0,1231.0,-17.1611658119155,300.832684422102,420.027272633468,552207591
-241,-24.0,361.0,-10992.0,-1761.0,86.0,1346.0,-11.5215284037178,300.830106304363,420.030558212722,552221845
-310,-22.0,329.0,-10992.0,-1761.0,86.0,1346.0,-7.76278060049335,300.831545284231,420.006583084625,552228041
-271,-204.0,261.0,-10980.0,-1865.0,102.0,1436.0,-2.12317026712077,300.83415609126,419.988940789121,552242713
-271,-204.0,261.0,-10977.0,-1903.0,109.0,1469.0,5.38495610325609,300.816199806368,419.960727932072,552251003
-224,132.0,357.0,-10972.0,-1936.0,113.0,1497.0,11.0129252229366,300.8094036417,419.959414849669,552269008
197,-273.0,-379.0,-10966.0,-1991.0,123.0,1543.0,16.6508315740336,300.812592106188,419.965814912895,552281621
-382,68.0,86.0,-10965.0,-2012.0,127.0,1562.0,22.2931131744451,300.814974125157,419.972009680503,552289307
120,-370.0,-279.0,-10962.0,-2029.0,130.0,1581.0,26.0479765295939,300.8163740606,419.967755571977,552298009
20,-377.0,-510.0,-10959.0,-2046.0,133.0,1597.0,31.6783587248303,300.824911851418,419.969306996555,552315133
-239,-311.0,-338.0,-10958.0,-2060.0,136.0,1610.0,37.3113913748499,300.826121820724,419.997006831918,552324648
41,-386.0,-455.0,-10953.0,-2081.0,137.0,1628.0,44.8296190931103,300.821510265942,420.000632810206,552339936
199,-365.0,-383.0,-10950.0,-2088.0,137.0,1635.0,50.4662619371722,300.832010822946,420.011644750203,552348753
-29,-396.0,-396.0,-10950.0,-2096.0,139.0,1642.0,54.2245948170288,300.82938440217,420.015845145288,552365119
-29,-396.0,-396.0,-10949.0,-2105.0,140.0,1650.0,59.8605448072297,300.838159456663,420.011540427024,552371395
26,-448.0,-436.0,-10946.0,-2112.0,140.0,1658.0,65.4931378774536,300.83949165,420.004224811649,552388696
39,-429.0,-354.0,-10946.0,-2112.0,140.0,1658.0,69.2536900296418,300.842745945474,420.028184875655,552397437
15,-448.0,-369.0,-10944.0,-2116.0,140.0,1662.0,74.8873585943997,300.842779284449,420.049994663971,552406104
-50,-314.0,-235.0,-10943.0,-2117.0,139.0,1661.0,80.5335342957013,300.846059028646,420.044242097618,552414277
-61,-204.0,-136.0,-10941.0,-2119.0,137.0,1660.0,86.1811121064757,300.85616372658,420.05254147899,552427051
-11,-254.0,-147.0,-10938.0,-2118.0,134.0,1655.0,91.8050190565209,300.860611132172,420.084862518942,552444276
-42,-173.0,-116.0,-10937.0,-2120.0,133.0,1652.0,99.3258780979499,300.86708543396,420.092189023359,552460943
-36,-207.0,-75.0,-10937.0,-2120.0,133.0,1652.0,104.978921153894,300.873445159885,420.110951820838,552468535
16,-245.0,-101.0,-10936.0,-2119.0,131.0,1651.0,108.746147600777,300.882241970509,420.103020515882,552476776
21,-199.0,-54.0,-10935.0,-2119.0,130.0,1648.0,114.386372715736,300.890637089728,420.127311669851,552485331
-6,-137.0,-46.0,-10934.0,-2119.0,128.0,1646.0,118.146267830039,300.900493583875,420.140669685903,552493347
-33,-72.0,-39.0,-10933.0,-2119.0,127.0,1641.0,121.908864692966,300.91151408581,420.166763369058,552512647
-33,-72.0,-39.0,-10932.0,-2120.0,126.0,1639.0,127.563451185728,300.924293764163,420.184928687875,552520180
-21,-220.0,-32.0,-10931.0,-2121.0,125.0,1638.0,133.214166937139,300.939702742151,420.204435763754,552528793
24,-139.0,-55.0,-10930.0,-2122.0,125.0,1637.0,140.753744364427,300.956629325046,420.230829206943,552547433
-63,-161.0,-27.0,-10929.0,-2121.0,124.0,1634.0,144.527227439168,300.975586277043,420.251781403899,552556014
0,-143.0,-43.0,-10929.0,-2123.0,123.0,1633.0,150.182822216362,300.998717705975,420.284918494988,552563837
-40,-130.0,1.0,-10927.0,-2124.0,121.0,1629.0,155.841847427945,301.023462279372,420.331830353759,552582366
-40,-130.0,1.0,-10927.0,-2124.0,121.0,1627.0,161.510548656403,301.051799730588,420.355897136924,552590812
42,-112.0,-71.0,-10926.0,-2126.0,121.0,1627.0,167.129856724605,301.079048276572,420.373980452271,552599601
-81,-208.0,0.0,-10926.0,-2126.0,120.0,1624.0,170.812697427645,301.087793783889,420.39357473198,552608867
85,-84.0,-63.0,-10926.0,-2128.0,120.0,1623.0,176.174160415273,301.094607171366,420.428163778105,552623314
-85,-155.0,38.0,-10925.0,-2128.0,119.0,1620.0,181.309659860829,301.080994769531,420.460721668452,552636771
58,-98.0,-70.0,-10925.0,-2131.0,119.0,1618.0,186.176158813753,301.057162292186,420.500203273855,552650264
70,-145.0,-90.0,-10924.0,-2132.0,118.0,1617.0,190.750451409763,301.033890598766,420.508207704177,552659085
-99,-121.0,45.0,-10924.0,-2132.0,118.0,1617.0,193.624814281576,300.99575182932,420.497044437773,552666813
86,-179.0,-83.0,-10923.0,-2134.0,118.0,1616.0,197.651782525214,300.963464488955,420.516692640465,552679496
-105,-77.0,57.0,-10923.0,-2135.0,117.0,1614.0,201.331595090022,300.90869678714,420.525751353565,552686756
70,-108.0,-77.0,-10923.0,-2137.0,117.0,1610.0,204.654502331207,300.85130925148,420.503029545524,552703063
-105,-84.0,65.0,-10922.0,-2139.0,117.0,1609.0,207.609654996964,300.783565738748,420.4818685287,552713755
60,-77.0,-86.0,-10922.0,-2141.0,117.0,1608.0,210.186655297145,300.712036342559,420.459898312666,552726617
49,-60.0,-82.0,-10922.0,-2143.0,116.0,1605.0,212.387534446272,300.624846617218,420.43987886992,552741140
-79,-123.0,53.0,-10922.0,-2143.0,116.0,1603.0,214.192243010947,300.537958445843,420.388177594894,552749998
-63,-75.0,46.0,-10922.0,-2143.0,115.0,1600.0,215.608136545028,300.440530159537,420.321087982671,552766422
-54,-2.0,23.0,-10921.0,-2143.0,115.0,1598.0,216.679207225927,300.336485012025,420.29530590865,552775806
-54,-2.0,23.0,-10921.0,-2143.0,115.0,1595.0,217.254596763743,300.208272700817,420.270416288691,552782234
-27,-54.0,7.0,-10921.0,-2146.0,114.0,1592.0,218.080577749667,300.057543790872,420.254603574445,552798956
0,-139.0,-27.0,-10921.0,-2146.0,114.0,1592.0,218.99441018235,299.70451447881,420.18979615894,552807872
-25,-121.0,-8.0,-10920.0,-2147.0,114.0,1591.0,220.115161352296,299.123020574437,420.165703710481,552816032
13,-130.0,-24.0,-10920.0,-2149.0,114.0,1589.0,221.017936579007,298.260561735419,420.15132382469,552828498
-64,-23.0,17.0,-10920.0,-2151.0,113.0,1585.0,223.968204601481,296.609355187716,420.107923923994,552848244
57,-134.0,-46.0,-10919.0,-2154.0,113.0,1584.0,226.266602990018,294.965419098248,420.069973416627,552856744
-86,-64.0,41.0,-10919.0,-2157.0,113.0,1582.0,228.977561394799,292.94144508878,420.064649002637,552871071
104,-91.0,-77.0,-10919.0,-2157.0,112.0,1579.0,232.128048731403,290.512661701452,420.058625496448,552883572
112,-139.0,-87.0,-10918.0,-2160.0,112.0,1576.0,237.034667578109,286.586852266393,420.024915060964,552902899
112,-139.0,-87.0,-10918.0,-2162.0,112.0,1575.0,241.225325391756,283.105915512526,420.014186698505,552911468
-138,-24.0,78.0,-10918.0,-2162.0,112.0,1573.0,245.742024220499,277.847173488245,420.016777388939,552927282
120,-207.0,-92.0,-10917.0,-2164.0,112.0,1572.0,250.473342889041,273.528068376673,420.021911436287,552935745
-157,57.0,78.0,-10917.0,-2166.0,111.0,1571.0,255.345363891601,270.498095994427,420.016873779702,552943966
-157,57.0,78.0,-10917.0,-2167.0,111.0,1569.0,258.630665850975,265.760959752302,420.022632924997,552952208
83,-140.0,-77.0,-10916.0,-2172.0,111.0,1566.0,263.58678779513,260.824865376691,420.016486503634,552982806
83,-140.0,-77.0,-10916.0,-2172.0,111.0,1566.0,268.54488712399,257.424565753337,420.010202592015,552982806
83,-140.0,-77.0,-10915.0,-2173.0,110.0,1563.0,273.4761731578,250.406607799843,420.004968453531,552991402
-105,-37.0,61.0,-10916.0,-2174.0,111.0,1563.0,278.357587676317,246.794282122495,420.005781660112,553000095
59,-65.0,-59.0,-10916.0,-2175.0,111.0,1560.0,281.577213869785,241.256321509483,420.007267800488,553016776
59,-65.0,-59.0,-10916.0,-2178.0,111.0,1559.0,286.337515667748,235.592614687488,420.006883278052,553023083
42,-121.0,-54.0,-10917.0,-2177.0,111.0,1557.0,291.007618810317,231.751797557503,420.004179097289,553036019
15,-130.0,-37.0,-10916.0,-2180.0,112.0,1557.0,295.583235997639,225.891500725471,420.000611140738,553047543
-35,23.0,-6.0,-10917.0,-2180.0,112.0,1555.0,300.049958449338,219.925078842879,419.999549653178,553056599
0,-126.0,-25.0,-10917.0,-2183.0,112.0,1552.0,304.407973085644,213.852247255228,420.003433773438,553071141
-20,11.0,-8.0,-10917.0,-2183.0,112.0,1552.0,307.249450871798,209.751136534859,420.001193976969,553077412
14,-78.0,-23.0,-10916.0,-2185.0,112.0,1549.0,310.038236063617,203.521179180399,419.998361747439,553091969
-47,9.0,-15.0,-10916.0,-2187.0,112.0,1548.0,314.11819260943,199.319663317372,419.998796924321,553100621
25,-81.0,-34.0,-10917.0,-2188.0,112.0,1547.0,318.075063072038,192.942399806494,420.000451492646,553112768
-65,31.0,-4.0,-10916.0,-2189.0,112.0,1546.0,320.642668632731,188.644892362889,420.000364207589,553120132
-84,94.0,-5.0,-10916.0,-2189.0,112.0,1546.0,324.386646139858,182.131954885814,419.998108909314,553128591
-98,52.0,0.0,-10918.0,-2191.0,113.0,1542.0,326.813214668137,175.540371726327,419.997901377297,553145820
87,-140.0,-42.0,-10917.0,-2193.0,113.0,1542.0,330.337920993029,168.876767838644,419.998900218339,553153912
87,-140.0,-42.0,-10918.0,-2194.0,113.0,1539.0,333.727374117598,164.395182445827,420.000900043041,553162551
93,-97.0,-56.0,-10918.0,-2196.0,114.0,1539.0,335.911865440866,157.61748301693,420.003146762713,553170039
-120,71.0,-7.0,-10919.0,-2196.0,115.0,1537.0,339.07540024009,153.061529592749,420.00168687136,553182046
74,-172.0,-39.0,-10921.0,-2198.0,116.0,1535.0,342.102523716979,146.170587510037,420.000987519301,553199591
-109,105.0,-6.0,-10921.0,-2198.0,116.0,1535.0,344.042733573365,139.220291548218,420.001280388662,553208418
82,-216.0,-32.0,-10921.0,-2200.0,117.0,1534.0,347.734126362413,132.214552266079,420.003426561755,553216628
-111,153.0,-15.0,-10922.0,-2202.0,118.0,1531.0,350.337065782123,125.155780477649,420.002261694292,553232048
-101,129.0,-32.0,-10923.0,-2204.0,119.0,1530.0,352.796331719437,118.046143052265,420.000731851892,553240820
-91,116.0,-25.0,-10924.0,-2206.0,120.0,1528.0,355.851884879647,108.488331740137,419.999982227121,553262078
53,-112.0,-5.0,-10924.0,-2206.0,120.0,1528.0,357.282316341969,101.265508068345,420.001966670392,553269236
30,-72.0,-8.0,-10926.0,-2208.0,122.0,1525.0,359.948565258691,94.0034912624315,420.001835532919,553281725
26,-47.0,-23.0,-10927.0,-2208.0,122.0,1523.0,361.777192292467,86.7018779017323,420.001389694158,553298219
-36,4.0,-41.0,-10928.0,-2211.0,123.0,1523.0,362.913289719158,76.9165513599139,420.002777481534,553306988
-6,-89.0,-22.0,-10929.0,-2212.0,125.0,1521.0,365.465096660864,69.5390013706658,420.001177690589,553324181
-19,75.0,-45.0,-10931.0,-2212.0,126.0,1519.0,366.797030204195,59.6556333276606,419.999344062026,553337373
-16,-51.0,-38.0,-10931.0,-2213.0,127.0,1519.0,367.977892584224,52.2118191759853,420.000296928707,553345658
-26,6.0,-41.0,-10933.0,-2215.0,129.0,1517.0,369.009577081953,47.2396234782643,420.002646344067,553362408
5,-43.0,-47.0,-10934.0,-2215.0,129.0,1517.0,369.614045459777,39.7655677801079,419.999962549306,553370647
-46,60.0,-48.0,-10942.0,-2213.0,136.0,1517.0,370.392314748602,34.7747955896379,419.999285028757,553382665
20,-88.0,-50.0,-10943.0,-2212.0,137.0,1513.0,370.827887765573,27.2746196452255,420.003142454238,553391341
-17,6.0,-156.0,-10946.0,-2207.0,137.0,1506.0,371.354776397974,19.7648285912897,420.001077146867,553400124
31,212.0,-252.0,-10948.0,-2202.0,138.0,1497.0,371.728659146229,14.7513092303662,419.999142974615,553417029
37,220.0,-284.0,-10951.0,-2192.0,137.0,1488.0,371.95082716951,4.71848232998524,420.001188606639,553429519
33,195.0,-197.0,-10955.0,-2179.0,137.0,1476.0,372.02123958632,-0.296779971321736,420.002829906867,553436071
-115,175.0,-218.0,-10959.0,-2163.0,136.0,1465.0,371.939647942424,-7.82435135675303,420.001857364556,553446568
-209,77.0,-276.0,-10966.0,-2117.0,129.0,1419.0,371.704849053447,-17.8527281024573,419.998850105156,553462807
-56,186.0,-101.0,-10971.0,-2089.0,126.0,1392.0,371.317829894942,-22.8618455803653,419.999518864066,553476127
-56,186.0,-101.0,-10975.0,-2054.0,119.0,1360.0,370.976470505347,-30.3699647853649,420.002030011901,553482342
-210,174.0,-221.0,-10982.0,-2016.0,116.0,1328.0,370.336653434878,-37.8621554969998,420.000338438604,553498315
-210,174.0,-221.0,-10982.0,-2016.0,116.0,1328.0,369.545223043165,-45.342236647429,419.999295944422,553498315
-461,359.0,-100.0,-10998.0,-1878.0,94.0,1200.0,368.602177789409,-50.3187869647595,420.001625682767,553524484
536,-150.0,-240.0,-10998.0,-1878.0,94.0,1200.0,367.89078564997,-57.7649325293328,420.000876059089,553530772
-326,258.0,-108.0,-11005.0,-1823.0,87.0,1153.0,366.69665479751,-65.1887751417873,419.999064262699,553537888
-221,10.0,53.0,-11011.0,-1760.0,78.0,1098.0,365.352228836194,-70.1232464378278,420.0024561722,553546199
141,-165.0,-69.0,-11026.0,-1619.0,61.0,972.0,364.374536424817,-77.4981343259122,420.001544817149,553562516
-287,63.0,22.0,-11026.0,-1619.0,61.0,972.0,362.781640720342,-82.3984156377703,420.000167944452,553569699
99,-179.0,108.0,-11033.0,-1541.0,52.0,900.0,361.636648314174,-89.7211639863297,420.002547953467,553575954
-92,147.0,-164.0,-11045.0,-1371.0,32.0,744.0,359.797763067534,-97.0066774764401,420.002314119162,553593592
214,-279.0,160.0,-11052.0,-1275.0,23.0,660.0,357.810343136296,-101.842348399385,419.99947950759,553602199
224,-373.0,17.0,-11058.0,-1176.0,14.0,571.0,355.676147315311,-109.060257186872,419.999733021019,553618558
224,-373.0,17.0,-11065.0,-1075.0,6.0,479.0,353.397087195533,-116.232798683354,420.002132708986,553624695
81,-117.0,-66.0,-11070.0,-970.0,255.0,384.0,350.973838374626,-123.358235666105,420.000806108939,553637760
-116,159.0,-287.0,-11075.0,-861.0,248.0,286.0,348.407096774031,-130.432467576255,420.000998434527,553649604
153,-150.0,5.0,-11078.0,-753.0,241.0,186.0,346.615647900629,-137.454081377674,420.000613783332,553657960
172,-248.0,-88.0,-11082.0,-532.0,232.0,-8.0,343.810916694854,-144.421050470169,420.001748058408,553672279
253,-357.0,-64.0,-11083.0,-419.0,229.0,-112.0,340.866568542533,-151.325767542445,420.001282541333,553684718
253,-357.0,-64.0,-11083.0,-306.0,227.0,-214.0,337.781895065286,-155.895995806422,419.999590967188,553692527
-295,176.0,-108.0,-11082.0,-191.0,226.0,-317.0,334.558557709621,-162.697038357506,419.999652154842,553701011
346,-344.0,-85.0,-11081.0,-78.0,227.0,-421.0,331.19946248222,-171.659460019522,420.001374322938,553720194
-408,370.0,-169.0,-11073.0,155.0,230.0,-626.0,327.704569917264,-176.095794821824,420.001536054844,553732532
267,-319.0,-29.0,-11073.0,155.0,230.0,-626.0,324.07424433066,-182.691128729429,419.9999668558,553740047
28,255.0,-361.0,-11061.0,387.0,237.0,-835.0,320.312663159238,-189.208030762018,419.999024905073,553756668
-107,-372.0,283.0,-11056.0,503.0,244.0,-940.0,316.418198815404,-195.650912871739,420.001404916768,553764514
91,409.0,-540.0,-11047.0,620.0,250.0,-1043.0,313.751637964894,-202.010939651054,420.000624699104,553775204
-138,392.0,-430.0,-11039.0,737.0,2.0,-1145.0,308.246421751252,-208.289190931555,420.001282542009,553788491
-157,317.0,-183.0,-11017.0,973.0,20.0,-1355.0,303.969278398504,-214.482850767707,419.999501338172,553804673
-157,317.0,-183.0,-11006.0,1084.0,32.0,-1459.0,299.568745962898,-220.586339129294,419.999389878408,553813135
-189,173.0,-107.0,-10992.0,1204.0,44.0,-1562.0,295.04404814694,-228.587250061387,420.001324050953,553826389
140,168.0,-429.0,-10963.0,1438.0,72.0,-1772.0,288.825333286285,-234.477614584519,420.00082794008,553844241
-113,-249.0,142.0,-10930.0,1668.0,104.0,-1977.0,284.022711420076,-242.183728139742,420.001039944398,553861218
94,-303.0,-62.0,-10930.0,1668.0,104.0,-1977.0,279.103346193556,-247.846191974149,420.001162319123,553868751
16,122.0,-230.0,-10912.0,1786.0,122.0,-2080.0,274.070962967868,-253.408503348858,420.000281556639,553881678
-43,-84.0,-203.0,-10872.0,2020.0,161.0,-2288.0,267.194188678154,-258.857703337091,420.000008364786,553900331
63,-51.0,-181.0,-10851.0,2133.0,182.0,-2390.0,261.987223839698,-264.120213594205,420.011396426338,553908908
68,62.0,-115.0,-10829.0,2248.0,203.0,-2492.0,258.52906172831,-269.105115188174,420.021831126754,553916836
-108,-59.0,124.0,-10806.0,2364.0,227.0,-2595.0,253.394262953104,-272.241335474029,420.018474460504,553929311
-75,-208.0,-102.0,-10756.0,2595.0,21.0,-2800.0,248.353232574089,-276.626074004557,420.034635112559,553943338
-40,121.0,-234.0,-10730.0,2708.0,47.0,-2901.0,243.446088601812,-280.611260498695,420.030916763962,553952030
-43,39.0,-14.0,-10703.0,2823.0,75.0,-3003.0,238.697988784418,-284.174578904688,420.071508091853,553964132
-116,-69.0,-130.0,-10674.0,2939.0,105.0,-3105.0,234.130914641552,-288.290161891169,420.072273898934,553977892
-141,45.0,-203.0,-10615.0,3166.0,165.0,-3305.0,229.776286467198,-290.074401373196,420.083526841604,553991953
-59,-35.0,-136.0,-10583.0,3276.0,196.0,-3406.0,225.631257627716,-292.395988243072,420.080150913888,554000749
84,-30.0,-91.0,-10583.0,3276.0,196.0,-3406.0,223.006332228324,-293.711494640473,420.135457983448,554009733
58,107.0,-61.0,-10550.0,3390.0,229.0,-3507.0,219.273350675714,-295.330533314353,420.15350269446,554017833
75,-80.0,-141.0,-10518.0,3505.0,8.0,-3607.0,216.928846746111,-296.193828347856,420.194325750232,554027334
-208,121.0,-207.0,-10450.0,3731.0,81.0,-3802.0,213.533180884997,-297.210666566049,420.161880701159,554041357
-159,-99.0,-144.0,-10450.0,3731.0,81.0,-3802.0,211.302301659841,-297.988267286805,420.234094225254,554050005
-31,80.0,-88.0,-10413.0,3842.0,117.0,-3901.0,207.950261984588,-298.584469805429,420.246085639555,554058470
138,-75.0,0.0,-10336.0,4064.0,195.0,-4101.0,204.526628768686,-298.900521413182,420.284408411627,554072784
8,-106.0,-61.0,-10299.0,4175.0,236.0,-4198.0,198.528026280729,-299.514610812631,420.337470347514,554090354
-4,-99.0,-80.0,-10219.0,4393.0,64.0,-4389.0,196.007739972338,-299.776047297644,420.323503669434,554107195
86,125.0,-186.0,-10175.0,4503.0,107.0,-4488.0,192.055475513267,-299.922116212566,420.342519731117,554115287
86,125.0,-186.0,-10175.0,4503.0,107.0,-4488.0,189.316173901583,-300.105399577063,420.401089126923,554121953
59,-66.0,1.0,-10089.0,4723.0,199.0,-4680.0,185.457473715844,-300.204325597702,420.379554541696,554134504
-70,35.0,-120.0,-10046.0,4831.0,246.0,-4772.0,182.193466199815,-300.291609585408,420.389555243098,554142078
-80,-61.0,-111.0,-10000.0,4939.0,37.0,-4866.0,177.773891449335,-300.442374895839,420.386235548248,554153950
-153,126.0,-176.0,-9952.0,5045.0,85.0,-4962.0,173.284616022191,-300.498596181357,420.397739144419,554162343
20,107.0,-62.0,-9903.0,5152.0,134.0,-5058.0,168.743524400953,-300.565331260586,420.403866505214,554175923
89,-53.0,-58.0,-9855.0,5257.0,185.0,-5153.0,165.694240989621,-300.609275982023,420.374336255807,554189818
-29,58.0,-136.0,-9805.0,5363.0,236.0,-5244.0,161.090866520726,-300.632950097293,420.365501304728,554198299
1,-51.0,-105.0,-9757.0,5468.0,34.0,-5335.0,156.452571169007,-300.667604905361,420.380956509879,554206504
-9,134.0,-161.0,-9653.0,5680.0,144.0,-5519.0,151.794525181707,-300.683486878442,420.333280987156,554223525
-53,-31.0,-56.0,-9653.0,5680.0,144.0,-5519.0,147.122883745087,-300.698293497755,420.304617474021,554229794
-117,139.0,-162.0,-9544.0,5883.0,253.0,-5702.0,144.003590876004,-300.699420222934,420.328975102069,554243804
91,-18.0,-124.0,-9489.0,5984.0,55.0,-5793.0,139.323225640132,-300.699477965108,420.302837771459,554252465
21,84.0,42.0,-9433.0,6088.0,114.0,-5882.0,134.632446441362,-300.697111550626,420.272676698261,554268724
-73,58.0,-97.0,-9376.0,6192.0,175.0,-5970.0,129.930614851865,-300.69792944194,420.265990473534,554278064
-73,58.0,-97.0,-9320.0,6293.0,235.0,-6058.0,125.223947195175,-300.695457984653,420.250565643186,554284898
2,137.0,-99.0,-9201.0,6490.0,102.0,-6235.0,122.094653908902,-300.685432013501,420.242085625273,554301551
137,142.0,-2.0,-9201.0,6490.0,102.0,-6235.0,115.823178332012,-300.676959971815,420.193812251304,554310569
-18,93.0,-7.0,-9079.0,6689.0,229.0,-6407.0,111.116728096607,-300.67009699792,420.194834443753,554324806
-74,141.0,-91.0,-8955.0,6885.0,105.0,-6577.0,107.982031872125,-300.661570616199,420.176256500486,554341830
-115,219.0,-160.0,-8955.0,6885.0,105.0,-6577.0,101.704270376042,-300.65481486843,420.183682774064,554350543
174,-81.0,-167.0,-8891.0,6980.0,172.0,-6663.0,96.9960038080474,-300.646166169074,420.146927133757,554359010
-74,110.0,3.0,-8760.0,7169.0,50.0,-6829.0,92.2948970114991,-300.643045653241,420.152998585947,554373325
-186,246.0,-68.0,-8694.0,7266.0,121.0,-6911.0,87.5925476067607,-300.631448913214,420.132976093536,554386213
-186,246.0,-68.0,-8627.0,7361.0,193.0,-6994.0,82.8860731397748,-300.627615875633,420.106719712153,554394081
-121,306.0,-112.0,-8490.0,7545.0,79.0,-7156.0,78.182376410082,-300.618220952598,420.111558075321,554414049
26,-62.0,-26.0,-8490.0,7545.0,79.0,-7156.0,75.0414837819777,-300.612871514002,420.096612099612,554421139
38,-91.0,2.0,-8350.0,7727.0,226.0,-7315.0,70.3406041865991,-300.611461920487,420.069041072748,554433469
69,67.0,-120.0,-8350.0,7727.0,226.0,-7315.0,65.6426802908056,-300.61111913114,420.078379351737,554440519
189,-22.0,-237.0,-8279.0,7819.0,46.0,-7394.0,60.9383282997103,-300.599192086433,420.079712022273,554449013
121,-26.0,-188.0,-8135.0,7996.0,197.0,-7548.0,57.8024062777309,-300.598021379598,420.080021504114,554467066
50,-181.0,7.0,-8062.0,8085.0,19.0,-7625.0,53.100384524051,-300.597375711582,420.059420973201,554479660
122,-253.0,-10.0,-7988.0,8171.0,97.0,-7702.0,48.4015372028604,-300.599816286641,420.043126857134,554485921
122,-253.0,-10.0,-7913.0,8258.0,175.0,-7775.0,43.6998787760073,-300.58694952965,420.068333164654,554494464
-38,-175.0,-47.0,-7760.0,8430.0,81.0,-7924.0,38.9977799415191,-300.5858493583,420.064105630025,554512276
-75,287.0,-138.0,-7760.0,8430.0,81.0,-7924.0,35.8676930810814,-300.587985122135,420.027063099474,554519912
118,244.0,-102.0,-7686.0,8511.0,161.0,-7996.0,31.1679580596384,-300.586631232964,420.009522259097,554529361
-112,209.0,69.0,-7535.0,8672.0,65.0,-8136.0,26.4644926936578,-300.581034710477,420.013743653775,554543481
296,-40.0,-86.0,-7462.0,8749.0,142.0,-8199.0,23.331859991694,-300.579543043718,420.021097347152,554551937
-185,367.0,-35.0,-7392.0,8820.0,216.0,-8260.0,18.6332551084953,-300.580347153091,420.018214438776,554568001
-185,367.0,-35.0,-7324.0,8888.0,33.0,-8321.0,15.5044041376798,-300.581472513622,420.013986104219,554574204
-76,151.0,38.0,-7324.0,8888.0,33.0,-8321.0,10.803900333331,-300.581139535762,419.999530850109,554580466
228,282.0,-121.0,-7192.0,9014.0,169.0,-8431.0,7.67098731071278,-300.578417095417,419.982255601357,554592435
374,-112.0,-166.0,-7192.0,9014.0,169.0,-8431.0,2.9712650640885,-300.573782533757,419.99336038548,554601358
-412,562.0,175.0,-7133.0,9071.0,232.0,-8480.0,-0.160054671728447,-300.572655681257,420.008241278695,554609881
199,49.0,-115.0,-7022.0,9178.0,96.0,-8569.0,-3.29022294627567,-300.554667856864,419.992061622706,554624048
32,351.0,-18.0,-6971.0,9224.0,149.0,-8610.0,-7.98909494329836,-300.546019232567,419.953662504572,554636512
32,351.0,-18.0,-6925.0,9265.0,199.0,-8647.0,-12.6877043810333,-300.554551521664,419.941398946139,554644257
138,312.0,-86.0,-6881.0,9305.0,244.0,-8679.0,-17.3858129533059,-300.56834799674,419.965593315352,554655557
138,312.0,-86.0,-6843.0,9340.0,30.0,-8709.0,-20.5188933207489,-300.57103559016,419.96953948673,554663827
-220,175.0,215.0,-6806.0,9372.0,69.0,-8738.0,-25.2172548862047,-300.572835526099,419.978519251433,554677213
4,422.0,-139.0,-6774.0,9403.0,104.0,-8759.0,-29.9153561233593,-300.572532270731,419.973333585681,554690347
-123,663.0,-18.0,-6719.0,9450.0,160.0,-8800.0,-36.1802419555564,-300.576684917098,419.975840003244,554707564
205,331.0,-143.0,-6702.0,9465.0,181.0,-8814.0,-40.8773093871978,-300.578476649611,420.001298492051,554717942
-109,327.0,227.0,-6684.0,9482.0,200.0,-8826.0,-45.5764541168529,-300.574294224929,420.015403910446,554730473
108,184.0,-115.0,-6663.0,9505.0,225.0,-8839.0,-50.2765498556233,-300.578528838867,420.00516854736,554744450
-364,128.0,-2.0,-6654.0,9513.0,234.0,-8844.0,-54.9748428910882,-300.581067074244,420.011028131059,554753392
-203,173.0,-42.0,-6647.0,9517.0,241.0,-8851.0,-58.1059251885346,-300.58039453828,420.012071198448,554762045
20,107.0,-16.0,-6647.0,9517.0,241.0,-8851.0,-64.3728949049947,-300.585594409351,420.002514161856,554770093
-154,5.0,-33.0,-6639.0,9529.0,253.0,-8855.0,-67.5060271899942,-300.584495196535,420.00959916735,554788351
-526,58.0,-52.0,-6637.0,9536.0,3.0,-8854.0,-72.2069924432888,-300.586085284491,420.025998603499,554796983
-526,58.0,-52.0,-6634.0,9539.0,7.0,-8855.0,-76.906819953222,-300.583681070546,420.044153321248,554805143
-153,102.0,-76.0,-6631.0,9539.0,10.0,-8860.0,-80.0431329674951,-300.589559387345,420.036287796669,554821132
-81,202.0,-2.0,-6628.0,9540.0,12.0,-8862.0,-84.7472641105984,-300.602605557838,420.034856764765,554827416
-336,-159.0,-52.0,-6627.0,9541.0,11.0,-8862.0,-91.0052624376958,-300.603242582092,420.061919534762,554841067
-270,19.0,-140.0,-6624.0,9544.0,17.0,-8866.0,-95.7131484437222,-300.600993667864,420.068144836458,554871162
-270,19.0,-140.0,-6624.0,9544.0,17.0,-8866.0,-100.419746048711,-300.609607227412,420.071506011544,554871162
-352,7.0,35.0,-6623.0,9543.0,16.0,-8868.0,-108.256612473037,-300.616008939324,420.087972932738,554883717
-328,46.0,-55.0,-6622.0,9542.0,16.0,-8868.0,-111.387556340638,-300.621029297495,420.087751597775,554900733
-173,325.0,25.0,-6621.0,9542.0,17.0,-8871.0,-117.665722968879,-300.621216022853,420.111665030082,554909697
-184,85.0,-62.0,-6618.0,9540.0,17.0,-8875.0,-122.375084244072,-300.631038406971,420.118599896427,554925063
-159,-39.0,-26.0,-6617.0,9539.0,16.0,-8876.0,-125.513053975524,-300.639920639351,420.128370737038,554936130
-159,-39.0,-26.0,-6616.0,9537.0,15.0,-8879.0,-130.215520265092,-300.65245511719,420.128971048614,554944647
30,76.0,-30.0,-6614.0,9536.0,15.0,-8880.0,-134.921637852366,-300.656515239533,420.15185927489,554961923
-42,146.0,-147.0,-6614.0,9536.0,15.0,-8880.0,-139.635577735415,-300.662025672331,420.163990528024,554969630
-238,46.0,31.0,-6614.0,9536.0,15.0,-8880.0,-144.349500495929,-300.674969755432,420.193908059423,554984934
-3,65.0,-53.0,-6614.0,9534.0,14.0,-8883.0,-149.057164241391,-300.688480063858,420.197646209927,554993645
17,124.0,-85.0,-6612.0,9532.0,13.0,-8884.0,-153.770898969511,-300.703503518438,420.204794683019,555005727
25,63.0,33.0,-6612.0,9532.0,13.0,-8885.0,-156.914100444305,-300.717931959996,420.250045240204,555014425
-29,-8.0,-64.0,-6612.0,9533.0,13.0,-8883.0,-161.629102904918,-300.733294851226,420.266983197984,555028000
-29,-8.0,-64.0,-6613.0,9535.0,14.0,-8881.0,-164.775418320288,-300.75284783915,420.260998219898,555034398
-418,112.0,119.0,-6612.0,9534.0,14.0,-8883.0,-169.459407840209,-300.767170539537,420.282254562643,555042124
46,2.0,-211.0,-6612.0,9534.0,14.0,-8883.0,-172.528110553797,-300.773400838642,420.282303693009,555050997
-214,64.0,177.0,-6610.0,9532.0,13.0,-8887.0,-177.024737888881,-300.772387136529,420.295708790816,555067373
-93,-109.0,-210.0,-6611.0,9533.0,12.0,-8883.0,-181.360775129314,-300.761101014033,420.341031741709,555077157
-87,-117.0,-54.0,-6612.0,9532.0,12.0,-8884.0,-184.143790959296,-300.748695314178,420.361892049157,555090342
-267,470.0,132.0,-6609.0,9536.0,14.0,-8883.0,-188.151991855906,-300.737444830553,420.355181827666,555098655
312,-119.0,-133.0,-6609.0,9532.0,14.0,-8888.0,-190.709740243119,-300.713954417546,420.359338826137,555106710
-388,618.0,153.0,-6608.0,9533.0,13.0,-8887.0,-194.349339054751,-300.685231483231,420.359637933525,555122192
100,-521.0,-23.0,-6610.0,9533.0,12.0,-8884.0,-198.824711757039,-300.652600831691,420.359800451995,555128331
409,-429.0,-264.0,-6608.0,9536.0,14.0,-8884.0,-201.903548755697,-300.615803326637,420.365118825041,555146143
409,-429.0,-264.0,-6609.0,9532.0,15.0,-8888.0,-203.807431891904,-300.579123061124,420.38118286061,555154618
-9,-211.0,18.0,-6608.0,9534.0,13.0,-8886.0,-206.453472728686,-300.540689308138,420.341713672332,555170542
-63,42.0,100.0,-6609.0,9531.0,12.0,-8886.0,-208.835766758882,-300.507871795896,420.332160678422,555176776
-255,79.0,364.0,-6609.0,9532.0,13.0,-8887.0,-210.278167502358,-300.457202638878,420.352420528369,555190092
246,68.0,-473.0,-6609.0,9534.0,13.0,-8885.0,-212.220185163648,-300.426932671219,420.311123226776,555202709
-337,177.0,334.0,-6609.0,9534.0,13.0,-8885.0,-213.892703525828,-300.357539017978,420.277297016698,555211916
105,-51.0,-287.0,-6609.0,9534.0,13.0,-8885.0,-215.289422456781,-300.321241238837,420.238110175169,555219938
175,-147.0,-287.0,-6609.0,9533.0,13.0,-8886.0,-216.422831717894,-300.239735784975,420.200935421532,555235643
-149,109.0,85.0,-6608.0,9532.0,12.0,-8887.0,-217.534463984454,-300.169855338448,420.172870417392,555252998
169,-201.0,-438.0,-6608.0,9532.0,12.0,-8887.0,-218.125844701262,-300.134196423398,420.119064884453,555261603
5,-26.0,-99.0,-6607.0,9532.0,11.0,-8887.0,-218.561797220979,-300.095824764877,419.814797947568,555273468
-178,418.0,352.0,-6607.0,9532.0,11.0,-8887.0,-218.913085100397,-300.09476373482,419.226995044534,555290398
113,-191.0,-374.0,-6607.0,9532.0,11.0,-8887.0,-219.197391750625,-300.104345527524,418.312051756914,555298611
-67,418.0,177.0,-6607.0,9532.0,11.0,-8887.0,-219.351073610134,-300.130841759449,417.51825641461,555306570
-67,418.0,177.0,-6607.0,9532.0,11.0,-8887.0,-219.542634839099,-300.166813148188,416.013828085924,555315556
98,-257.0,-371.0,-6607.0,9532.0,11.0,-8887.0,-219.720988085096,-300.225941189819,413.27396966032,555331044
70,-142.0,-396.0,-6607.0,9533.0,11.0,-8886.0,-219.974420711148,-300.363960571977,409.78142948656,555357754
70,-142.0,-396.0,-6608.0,9533.0,11.0,-8885.0,-220.095758404315,-300.462077464002,406.621147309542,555365937
35,-65.0,-195.0,-6608.0,9532.0,11.0,-8886.0,-220.225068007302,-300.5247008154,402.966234750708,555373322
-187,386.0,440.0,-6608.0,9532.0,11.0,-8886.0,-220.346658191945,-300.628657163122,400.244212658254,555381735
334,-433.0,-605.0,-6606.0,9532.0,11.0,-8887.0,-220.461208088365,-300.778008295637,394.122567076805,555398744
207,175.0,-217.0,-6606.0,9532.0,11.0,-8887.0,-220.549161022969,-300.851249001844,389.00777889189,555406806
187,180.0,400.0,-6606.0,9530.0,9.0,-8888.0,-220.636399136832,-300.945037527637,383.504016428088,555426168
50,25.0,57.0,-6606.0,9530.0,9.0,-8888.0,-220.706230777602,-301.012042653028,377.795432010363,555432490
278,302.0,-51.0,-6604.0,9531.0,9.0,-8888.0,-220.753214858899,-301.064268279657,373.872130931903,555447209
278,302.0,-51.0,-6604.0,9531.0,10.0,-8889.0,-220.778426646789,-301.104781218837,367.833853388051,555455578
420,-177.0,-277.0,-6604.0,9531.0,10.0,-8889.0,-220.801684947138,-301.117507017581,361.655457858818,555463968
252,-147.0,158.0,-6605.0,9531.0,10.0,-8889.0,-220.811981558636,-301.129163215161,357.478766759631,555479273
415,69.0,-237.0,-6605.0,9531.0,10.0,-8888.0,-220.817377339481,-301.129897674137,351.201379128122,555490462
607,-150.0,-481.0,-6604.0,9532.0,9.0,-8887.0,-220.816286159428,-301.124554237298,344.848025125957,555498932
166,282.0,190.0,-6604.0,9531.0,11.0,-8890.0,-220.809702870471,-301.110784117735,338.38997718505,555507006
172,186.0,147.0,-6604.0,9534.0,9.0,-8885.0,-220.797495074598,-301.090353430267,334.05006379835,555522888
612,-248.0,-442.0,-6604.0,9533.0,9.0,-8886.0,-220.791377639603,-301.068603569148,327.558544646121,555535324
324,32.0,-323.0,-6604.0,9533.0,9.0,-8886.0,-220.77014216501,-301.039989729353,316.71751340612,555555648
224,190.0,-52.0,-6608.0,9534.0,8.0,-8882.0,-220.74723193355,-301.017777571588,310.169202993458,555564127
2,201.0,8.0,-6614.0,9531.0,4.0,-8876.0,-220.73032497499,-300.985898037676,303.587106073135,555577818
-72,457.0,233.0,-6624.0,9526.0,252.0,-8868.0,-220.704713860239,-300.95174682447,297.029519561775,555590868
97,291.0,75.0,-6637.0,9517.0,239.0,-8857.0,-220.690502837413,-300.938151188915,290.489870654023,555598800
76,261.0,11.0,-6677.0,9481.0,197.0,-8830.0,-220.682316153726,-300.917912911068,283.936655084669,555618061
76,261.0,11.0,-6703.0,9459.0,168.0,-8810.0,-220.673543171496,-300.883370523138,279.52601413776,555624702
23,301.0,89.0,-6735.0,9432.0,135.0,-8786.0,-220.64183576014,-300.861500700163,272.946720813679,555637300
-89,417.0,155.0,-6771.0,9398.0,95.0,-8759.0,-220.635949602283,-300.858720754727,266.387463289267,555645056
194,339.0,-117.0,-6813.0,9360.0,49.0,-8728.0,-220.609209656638,-300.825030151669,259.824438951671,555653504
-109,184.0,48.0,-6861.0,9320.0,0.0,-8690.0,-220.618281353423,-300.814800057912,255.438716800503,555669632
-109,184.0,48.0,-6913.0,9274.0,203.0,-8651.0,-220.591807832089,-300.793741703934,248.860103510104,555675816
-134,293.0,81.0,-6968.0,9222.0,142.0,-8608.0,-220.583584415156,-300.786055883437,242.276413865057,555685458
-74,440.0,103.0,-7030.0,9163.0,75.0,-8560.0,-220.577685300029,-300.770104057045,237.891405240399,555701363
-152,104.0,258.0,-7100.0,9099.0,3.0,-8502.0,-220.564442988587,-300.760710603788,233.509663990557,555709777
-3,318.0,-32.0,-7173.0,9031.0,184.0,-8444.0,-220.556506524578,-300.737859454621,226.925207874576,555718001
18,183.0,-62.0,-7247.0,8957.0,102.0,-8381.0,-220.562522168899,-300.749951520113,220.390402960109,555730871
18,183.0,-62.0,-7329.0,8875.0,17.0,-8313.0,-220.553746434346,-300.742322572224,213.815928075318,555737141
7,267.0,-7.0,-7496.0,8705.0,94.0,-8166.0,-220.536041869154,-300.717243003836,207.215398586257,555755775
-199,176.0,174.0,-7583.0,8612.0,4.0,-8091.0,-220.506535036015,-300.687531784344,200.620477922988,555764131
67,240.0,-234.0,-7666.0,8521.0,168.0,-8013.0,-220.494879297826,-300.668624347529,194.049500593772,555777813
22,-26.0,-105.0,-7753.0,8427.0,78.0,-7932.0,-220.493014634588,-300.666081677457,187.475392056049,555791040
25,66.0,-186.0,-7840.0,8327.0,241.0,-7849.0,-220.495776158942,-300.672114111908,180.914879263008,555799180
-96,87.0,96.0,-7927.0,8228.0,148.0,-7762.0,-220.50480840465,-300.68392689376,174.365745712122,555809992
56,-39.0,-390.0,-8099.0,8025.0,223.0,-7587.0,-220.514146263293,-300.696156373489,167.804314885918,555825189
43,218.0,-99.0,-8183.0,7921.0,132.0,-7497.0,-220.520726070472,-300.705380585189,161.242279233615,555837867
43,218.0,-99.0,-8268.0,7817.0,44.0,-7406.0,-220.528709173395,-300.718785522061,154.674662996143,555845670
68,220.0,-164.0,-8353.0,7709.0,212.0,-7313.0,-220.529629459141,-300.740540596295,150.302503464567,555862708
140,87.0,-86.0,-8434.0,7601.0,122.0,-7219.0,-220.553222528415,-300.750952909636,143.726882602662,555874006
16,107.0,-72.0,-8601.0,7383.0,207.0,-7022.0,-220.558917222195,-300.748466048165,134.951863534492,555886637
128,166.0,-234.0,-8681.0,7270.0,123.0,-6926.0,-220.554544116686,-300.771281817621,128.38514614903,555902698
173,130.0,-78.0,-8760.0,7156.0,41.0,-6829.0,-220.5807818121,-300.791304955253,119.68352745928,555911357
83,-49.0,-206.0,-8916.0,6928.0,137.0,-6632.0,-220.563830776796,-300.766327803271,115.476242615148,555925737
-305,6.0,253.0,-8987.0,6811.0,56.0,-6536.0,-220.571376098592,-300.744182082997,109.371445544248,555935242
77,154.0,-368.0,-8987.0,6811.0,56.0,-6536.0,-220.546935208715,-300.749937310833,103.611715415892,555942326
-41,-77.0,-150.0,-9138.0,6574.0,157.0,-6328.0,-220.527187101404,-300.722503881028,98.2101914413385,555959034
-41,-77.0,-150.0,-9211.0,6459.0,83.0,-6222.0,-220.522039751644,-300.682798249899,94.8174815418719,555967107
-280,435.0,15.0,-9279.0,6343.0,9.0,-6118.0,-220.493185133214,-300.635893477869,90.0854387624678,555980361
-280,435.0,15.0,-9348.0,6218.0,192.0,-6016.0,-220.459512136097,-300.595113463862,85.813698336894,555986584
85,-70.0,-99.0,-9486.0,5972.0,49.0,-5800.0,-220.412750338638,-300.565948314019,81.9831088043208,556005754
-64,-85.0,141.0,-9549.0,5852.0,236.0,-5694.0,-220.369230328813,-300.502992560988,79.7075333824168,556014545
-147,185.0,-27.0,-9549.0,5852.0,236.0,-5694.0,-220.331990589162,-300.421452125304,76.6616052866444,556022135
-59,131.0,-102.0,-9677.0,5600.0,101.0,-5477.0,-220.302452182939,-300.390107566377,74.1693195459805,556035361
16,-157.0,-35.0,-9740.0,5474.0,37.0,-5366.0,-220.225662816586,-300.309568498397,71.5549496619321,556050748
-39,17.0,-28.0,-9800.0,5351.0,231.0,-5254.0,-220.203520532488,-300.280631992688,70.1487626087768,556062223
-92,89.0,-97.0,-9917.0,5098.0,108.0,-5030.0,-220.120762438793,-300.202481160018,69.0416900658395,556076147
-29,156.0,-176.0,-9917.0,5098.0,108.0,-5030.0,-220.029936781311,-300.149631115008,68.1884620560204,556082428
35,-82.0,-89.0,-10029.0,4839.0,248.0,-4805.0,-219.567093747617,-300.115367076559,67.5411705022786,556096423
8,-51.0,-56.0,-10083.0,4710.0,192.0,-4691.0,-219.194820204348,-300.117409247058,67.1968954222058,556104882
-17,-37.0,-35.0,-10083.0,4710.0,192.0,-4691.0,-218.372801693388,-300.056214112874,66.6892371707434,556113572
-38,50.0,-117.0,-10187.0,4449.0,84.0,-4460.0,-217.231887614868,-300.032744444564,66.3215048938721,556131397
-38,50.0,-117.0,-10237.0,4317.0,33.0,-4344.0,-216.318389655294,-300.022817657742,66.1293687270471,556137702
-9,-18.0,-38.0,-10332.0,4052.0,190.0,-4110.0,-214.666891866362,-300.01291473792,65.8800748711951,556154213
-32,66.0,-148.0,-10332.0,4052.0,190.0,-4110.0,-212.688060245792,-300.01043773444,65.6780914235302,556162679
-61,104.0,-126.0,-10377.0,3919.0,142.0,-3992.0,-211.165037718577,-299.991784777975,65.5426660069338,556170646
-13,-34.0,-141.0,-10465.0,3651.0,53.0,-3756.0,-208.59428165777,-300.043598670856,65.4326618436161,556186510
19,-49.0,-132.0,-10506.0,3515.0,10.0,-3636.0,-205.669401980789,-300.067500829539,65.3255703094816,556194244
-22,-50.0,-141.0,-10506.0,3515.0,10.0,-3636.0,-202.374791825955,-300.107610993483,65.2609069160071,556202963
-46,73.0,-186.0,-10583.0,3244.0,185.0,-3399.0,-199.95112498719,-300.12882934031,65.1413749632188,556219702
32,-55.0,-178.0,-10620.0,3107.0,147.0,-3280.0,-196.03104966512,-300.219675512925,65.0987079333936,556232654
-4,-37.0,-1.0,-10658.0,2969.0,111.0,-3156.0,-191.726751363884,-300.259060147034,65.017866973793,556239019
-54,-31.0,-141.0,-10724.0,2699.0,43.0,-2913.0,-187.110060643921,-300.352108741165,64.9763275430121,556257402
-86,58.0,-143.0,-10755.0,2560.0,11.0,-2792.0,-182.216523467196,-300.427475649141,64.9186221217645,556265751
78,-107.0,-73.0,-10787.0,2419.0,237.0,-2667.0,-177.165255135043,-300.534663595366,64.9166501451018,556279379
78,-107.0,-73.0,-10816.0,2282.0,209.0,-2542.0,-171.946322838129,-300.578859061555,64.8624695888201,556285634
-181,44.0,-3.0,-10842.0,2146.0,182.0,-2421.0,-166.638683402637,-300.614607932645,64.8587558669205,556300884
-162,52.0,-243.0,-10867.0,2006.0,157.0,-2300.0,-161.254426605572,-300.683663513265,64.8278883562507,556312481
161,-17.0,-169.0,-10891.0,1863.0,132.0,-2175.0,-155.793735342108,-300.727767547539,64.8226422214714,556320420
56,-21.0,8.0,-10914.0,1723.0,110.0,-2051.0,-152.137306466971,-300.78324588754,64.8347393269224,556333834
60,-251.0,-225.0,-10935.0,1586.0,90.0,-1928.0,-146.593919281203,-300.79461552694,64.8082526798759,556340617
-77,-70.0,-173.0,-10990.0,1166.0,37.0,-1553.0,-139.182966670386,-300.826040358455,64.8199943595536,556365039
62,-177.0,-277.0,-11006.0,1023.0,23.0,-1429.0,-133.603388143707,-300.853378310371,64.8318443136499,556376035
35,95.0,-55.0,-11006.0,1023.0,23.0,-1429.0,-127.994958674341,-300.855767697467,64.823703593832,556382348
80,-63.0,-325.0,-11034.0,746.0,1.0,-1174.0,-122.377749150615,-300.844403760233,64.8255162031832,556396542
-310,111.0,36.0,-11044.0,606.0,246.0,-1049.0,-116.761964982184,-300.883832762851,64.8605961649456,556405205
-5,76.0,-325.0,-11053.0,459.0,238.0,-926.0,-111.125298116712,-300.865893545794,64.845057466259,556421723
-5,76.0,-325.0,-11060.0,318.0,231.0,-800.0,-107.371430137585,-300.849654119248,64.8345503750188,556427956
231,140.0,-278.0,-11070.0,181.0,229.0,-672.0,-101.727926559568,-300.854588298378,64.8546572169815,556438103
-351,148.0,-298.0,-11077.0,-104.0,224.0,-422.0,-96.1094170532106,-300.900668255952,64.9065490707243,556454714
2,-79.0,-221.0,-11077.0,-104.0,224.0,-422.0,-90.4629914008911,-300.862009099164,64.8801572617066,556462986
132,214.0,-76.0,-11078.0,-245.0,223.0,-296.0,-86.6974389897865,-300.837886279435,64.8735891784623,556470657
51,-485.0,-225.0,-11078.0,-388.0,224.0,-170.0,-81.0585025409517,-300.850992022302,64.8948219437146,556483177
-38,19.0,-133.0,-11079.0,-523.0,230.0,-42.0,-77.2957894578653,-300.854409349486,64.9042911826646,556489459
316,-396.0,-192.0,-11073.0,-795.0,240.0,195.0,-71.6651807068498,-300.871686662436,64.9293370215038,556508123
316,-396.0,-192.0,-11070.0,-920.0,249.0,310.0,-66.0265102487574,-300.83536536771,64.9145845495843,556516956
-103,115.0,379.0,-11070.0,-920.0,249.0,310.0,-62.2568788015041,-300.830027865687,64.9184768032811,556524079
0,-106.0,98.0,-11059.0,-1154.0,10.0,522.0,-56.6130124420852,-300.834449769206,64.9281965673661,556537298
72,-500.0,-108.0,-11054.0,-1261.0,21.0,621.0,-52.8557278737977,-300.83627634879,64.945251428839,556545317
-100,-69.0,299.0,-11054.0,-1261.0,21.0,621.0,-47.227980525641,-300.815295689658,64.9450351844409,556553957
265,-491.0,-236.0,-11040.0,-1458.0,40.0,795.0,-41.5872253235445,-300.821514950344,64.9496599499188,556566988
-231,246.0,436.0,-11032.0,-1545.0,50.0,876.0,-35.9377372259427,-300.821289228576,64.9539939417533,556580340
12,-103.0,21.0,-11025.0,-1625.0,59.0,946.0,-30.3072129186024,-300.82126495647,64.9613873284537,556593705
-56,131.0,395.0,-11020.0,-1695.0,69.0,1011.0,-26.5560107054837,-300.813594405737,64.9634291337784,556602218
16,-96.0,24.0,-11012.0,-1759.0,76.0,1068.0,-20.9170859714822,-300.813878145123,64.9675997898298,556610384
-51,-254.0,-101.0,-11001.0,-1870.0,93.0,1167.0,-15.27466949574,-300.80567414036,64.9697305563845,556628640
160,-60.0,250.0,-11001.0,-1870.0,93.0,1167.0,-11.516593070736,-300.811219573314,64.9801499856852,556634943
5,-313.0,227.0,-10997.0,-1912.0,99.0,1206.0,-5.88689855853231,-300.813306025558,64.9898826630323,556641779
-235,1.0,129.0,-10990.0,-1970.0,108.0,1259.0,-2.13447788975316,-300.817360198201,64.9924914366701,556658055
-182,-73.0,206.0,-10986.0,-1990.0,109.0,1275.0,3.506472093203,-300.799238415175,64.9869819633537,556666376
151,-162.0,-108.0,-10986.0,-1990.0,109.0,1275.0,7.26437818555009,-300.755152086069,64.9877493747616,556673708
-61,73.0,-260.0,-10982.0,-2014.0,112.0,1300.0,12.894968651656,-300.749508617466,64.9861232904309,556689817
-61,73.0,-260.0,-10981.0,-2025.0,114.0,1310.0,18.5241238778834,-300.750375209394,64.9813428261571,556697701
-111,160.0,-339.0,-10979.0,-2036.0,115.0,1316.0,24.1617441079885,-300.759857666982,64.9790216609455,556706456
131,8.0,-413.0,-10977.0,-2043.0,115.0,1321.0,29.7972609179492,-300.761684474742,64.9786593146527,556723099
43,75.0,-359.0,-10977.0,-2045.0,116.0,1325.0,35.4301155712458,-300.760713218667,64.979020771042,556729378
-146,161.0,-340.0,-10977.0,-2045.0,116.0,1328.0,41.0625889495506,-300.778560615874,64.983612792085,556742689
-146,161.0,-340.0,-10977.0,-2045.0,116.0,1328.0,46.7005341705304,-300.785540619953,64.9839109639417,556742689
98,157.0,-529.0,-10973.0,-2051.0,114.0,1332.0,52.342142314326,-300.798387167375,64.9809330534444,556773828
-83,241.0,-347.0,-10973.0,-2050.0,114.0,1333.0,57.9750023944522,-300.801229975728,64.9727276930838,556781549
-88,240.0,-391.0,-10972.0,-2051.0,113.0,1336.0,63.606927882113,-300.811368434955,64.9771849609935,556789753
-47,207.0,-376.0,-10969.0,-2053.0,111.0,1338.0,69.2495874896433,-300.820809106153,64.9763249400919,556806765
4,266.0,-403.0,-10968.0,-2058.0,111.0,1344.0,74.8938060775308,-300.82687933951,64.9685130606913,556815641
-37,21.0,-136.0,-10968.0,-2060.0,112.0,1347.0,80.5253914667316,-300.835368699902,64.9620459603461,556829538
-62,24.0,-49.0,-10966.0,-2064.0,112.0,1351.0,86.1579616911732,-300.827500422666,64.9345047295099,556839157
-28,56.0,-103.0,-10963.0,-2066.0,109.0,1355.0,93.6851014086321,-300.837533614757,64.9353848217195,556856378
-16,86.0,-70.0,-10962.0,-2066.0,109.0,1357.0,99.3293040052689,-300.838303247758,64.945313609991,556873022
-48,30.0,-127.0,-10961.0,-2069.0,109.0,1361.0,103.090220525923,-300.865097946356,64.9301701516462,556879323
-28,4.0,-45.0,-10960.0,-2070.0,108.0,1363.0,108.724646252644,-300.837194185847,64.9065903958343,556892867
22,-96.0,28.0,-10957.0,-2072.0,106.0,1367.0,116.254167399906,-300.858840734243,64.8970683026802,556905606
14,25.0,-128.0,-10957.0,-2072.0,106.0,1367.0,121.893921050614,-300.850194548483,64.892459713615,556914559
-50,36.0,-69.0,-10955.0,-2071.0,105.0,1371.0,127.554585049957,-300.897831625301,64.9043706013536,556929349
-50,36.0,-69.0,-10953.0,-2072.0,104.0,1374.0,131.314269212985,-300.901195051559,64.8879072124749,556937663
4,6.0,-141.0,-10953.0,-2072.0,104.0,1374.0,135.075614888357,-300.877340052522,64.8550918419822,556946358
-8,-2.0,47.0,-10952.0,-2073.0,104.0,1377.0,140.711991324204,-300.870799058197,64.8374316313576,556956138
-2,-69.0,-40.0,-10952.0,-2073.0,104.0,1377.0,146.382270654541,-300.913446846625,64.8553709559542,556964953
-21,-1.0,-16.0,-10950.0,-2072.0,102.0,1379.0,150.157415383497,-300.939641614119,64.8529017508795,556976815
-5,79.0,-144.0,-10949.0,-2069.0,100.0,1380.0,155.793401758016,-300.927234886143,64.8125332066118,556994298
-17,-48.0,-35.0,-10949.0,-2070.0,100.0,1382.0,161.445648766496,-300.934918267764,64.7943684973969,557003226
-10,-17.0,-43.0,-10947.0,-2069.0,99.0,1386.0,167.05471795994,-300.953712505828,64.7993514387695,557019815
-10,-17.0,-43.0,-10947.0,-2068.0,99.0,1386.0,172.542475144836,-300.964347650738,64.7918194593879,557027553
-3,-88.0,42.0,-10947.0,-2066.0,99.0,1387.0,176.074912491058,-300.88299783039,64.7547166513592,557036318
-14,-63.0,-42.0,-10946.0,-2064.0,98.0,1389.0,181.19070374767,-300.883362674407,64.7798472478797,557048421
-17,-77.0,-38.0,-10947.0,-2062.0,98.0,1389.0,184.461684276323,-300.831418669602,64.7677884826631,557057622
-15,105.0,-37.0,-10946.0,-2063.0,97.0,1392.0,189.098337477782,-300.78151409408,64.770539922681,557066161
-1,-155.0,-52.0,-10946.0,-2063.0,97.0,1392.0,192.043808555407,-300.755255513125,64.7737846242635,557074103
-13,59.0,-53.0,-10944.0,-2062.0,96.0,1395.0,196.142095508021,-300.639828055847,64.7628333842704,557090064
-13,59.0,-53.0,-10944.0,-2059.0,95.0,1395.0,199.934920064955,-300.603978245824,64.8124931526824,557098487
-6,-127.0,-25.0,-10943.0,-2058.0,95.0,1397.0,203.361045633538,-300.492769157293,64.7979079761909,557107103
-14,-76.0,-45.0,-10942.0,-2057.0,94.0,1400.0,206.42953299518,-300.460960906326,64.8297748246792,557126025
-11,-176.0,8.0,-10942.0,-2057.0,94.0,1400.0,209.110280948407,-300.37435128093,64.8359917427033,557134360
-25,61.0,-12.0,-10943.0,-2056.0,94.0,1401.0,211.4328745664,-300.291619450864,64.8490064640028,557143083
-15,105.0,-19.0,-10941.0,-2053.0,93.0,1404.0,212.776981651261,-300.223252133312,64.8788400739228,557159494
-15,105.0,-19.0,-10941.0,-2052.0,93.0,1405.0,214.956980600565,-300.146314425032,64.9121405496681,557167909
-7,-185.0,-15.0,-10941.0,-2049.0,92.0,1408.0,215.81033406791,-300.094225869445,64.9431323097494,557187747
-16,99.0,-13.0,-10941.0,-2049.0,93.0,1410.0,217.486110115549,-299.880205065849,64.9257687787354,557196446
-10,-60.0,-26.0,-10942.0,-2044.0,93.0,1413.0,220.733665715099,-298.168851663292,64.984445811246,557235270
-4,0.0,-31.0,-10942.0,-2042.0,94.0,1418.0,223.783195161781,-296.048261387592,64.996842655501,557255312
-17,-149.0,5.0,-10942.0,-2042.0,94.0,1418.0,226.122955629014,-294.923775176865,65.0109802100237,557264309
-17,5.0,-11.0,-10943.0,-2038.0,94.0,1421.0,228.865794912173,-292.918055769474,65.0138784049898,557278605
-6,-150.0,-4.0,-10943.0,-2038.0,94.0,1421.0,232.035216532498,-290.490459882997,64.9988380114988,557284812
-18,-42.0,-34.0,-10943.0,-2035.0,94.0,1422.0,234.40467824011,-287.615760266073,64.9984961533594,557299709
-18,-42.0,-34.0,-10944.0,-2034.0,94.0,1424.0,239.739282650295,-284.298870115588,65.01269918758,557308070
-18,-42.0,-34.0,-10944.0,-2034.0,94.0,1424.0,242.662198203763,-281.84313304983,65.0172990172618,557308070
-8,-127.0,-50.0,-10944.0,-2032.0,95.0,1427.0,247.259218459249,-277.840577128017,65.0020141662404,557333489
-20,-10.0,41.0,-10944.0,-2030.0,95.0,1427.0,252.055415151726,-273.516487981329,64.999389100149,557340405
-8,-142.0,-73.0,-10945.0,-2027.0,95.0,1430.0,256.966899858081,-268.936661711561,65.0052504128316,557357564
-29,11.0,58.0,-10945.0,-2027.0,95.0,1432.0,260.272089922943,-264.133091107214,65.0102351168765,557366303
4,-124.0,-93.0,-10945.0,-2025.0,95.0,1433.0,265.236131899662,-259.128282925947,65.0035470307642,557380050
4,-124.0,-93.0,-10945.0,-2025.0,95.0,1433.0,270.179290773119,-255.690980611744,64.9971175594359,557386276
-28,-77.0,90.0,-10946.0,-2022.0,96.0,1435.0,275.100442013144,-250.406285813801,65.0040053193155,557397623
0,-140.0,-106.0,-10946.0,-2021.0,96.0,1438.0,279.967585499386,-244.961857371698,65.0034968577364,557415317
-34,-18.0,84.0,-10946.0,-2020.0,96.0,1439.0,284.761846886112,-239.381084678864,65.0041893448206,557423238
3,-190.0,-103.0,-10947.0,-2018.0,97.0,1442.0,291.007218068146,-231.746539042986,64.999645853633,557438879
-35,-14.0,83.0,-10947.0,-2015.0,97.0,1445.0,295.578752040385,-225.892001781186,64.9999096826648,557456134
-3,-168.0,-113.0,-10947.0,-2013.0,97.0,1446.0,298.570179356872,-219.926909760608,65.0001696393984,557468567
-30,-39.0,92.0,-10947.0,-2013.0,97.0,1446.0,302.964878753796,-215.887773988558,64.9997175539766,557476012
-22,-72.0,94.0,-10948.0,-2013.0,97.0,1447.0,305.834478483568,-209.749594974013,65.0005450240904,557484039
-4,-124.0,-101.0,-10948.0,-2010.0,97.0,1448.0,310.039234249014,-205.604824927697,64.9995424380522,557492545
-27,-63.0,76.0,-10948.0,-2010.0,98.0,1450.0,314.12026860339,-199.31728448424,65.0019703308771,557500646
-14,-91.0,-100.0,-10949.0,-2007.0,98.0,1453.0,316.771314753319,-192.945872644743,64.9999319718069,557517976
-1,-114.0,-84.0,-10949.0,-2007.0,98.0,1453.0,320.641352909737,-186.486341844611,64.9999392878409,557525224
-21,-44.0,47.0,-10949.0,-2005.0,98.0,1454.0,324.389531324268,-182.133404381593,65.0015757305271,557534748
-28,-48.0,34.0,-10949.0,-2003.0,98.0,1456.0,326.813750622353,-175.539224323727,65.0009610135526,557549721
-28,-48.0,34.0,-10949.0,-2002.0,98.0,1458.0,330.3381041763,-168.876849368072,65.0007561059621,557558085
-19,-49.0,13.0,-10950.0,-2001.0,99.0,1460.0,333.728462322212,-164.396878162951,65.0008101502704,557566711
-21,-85.0,0.0,-10950.0,-2000.0,99.0,1461.0,336.982811274667,-155.343429197359,65.0007060125523,557580599
-13,-134.0,-30.0,-10950.0,-1997.0,99.0,1464.0,340.101186597009,-148.473185041966,64.9999725144261,557598134
-11,-134.0,-16.0,-10951.0,-1997.0,99.0,1466.0,343.081921493674,-143.859474921597,65.0002314642655,557606942
-17,-120.0,-33.0,-10951.0,-1995.0,99.0,1466.0,344.991704876394,-136.890727432188,65.0006953192108,557615960
-17,-116.0,3.0,-10959.0,-1975.0,106.0,1487.0,347.735278391714,-129.869612645795,65.0004256769721,557629977
-19,-90.0,-43.0,-10959.0,-1975.0,106.0,1487.0,350.336707780657,-122.794987454117,65.0001380187294,557636248
-14,-178.0,31.0,-10960.0,-1973.0,107.0,1489.0,352.796732157798,-118.047530735151,64.9999798361046,557650560
-17,-21.0,-76.0,-10960.0,-1970.0,107.0,1490.0,354.357502767591,-110.88313022005,65.0003969687214,557661160
-15,-230.0,35.0,-10960.0,-1970.0,107.0,1492.0,356.576607042594,-106.082520894499,64.9998683760616,557669648
-2,-171.0,17.0,-10960.0,-1968.0,107.0,1493.0,357.975498138413,-98.8506310451045,64.9998036387082,557682891
-2,-171.0,17.0,-10960.0,-1968.0,107.0,1495.0,359.94901547925,-91.5767924831984,65.0004436912226,557689187
-14,-209.0,29.0,-10962.0,-1965.0,108.0,1497.0,361.777086432331,-86.7058258903061,65.0001093109833,557705895
-15,-129.0,27.0,-10962.0,-1965.0,108.0,1497.0,362.91387136795,-79.3705035359734,64.9999150987116,557715072
-8,-108.0,-77.0,-10963.0,-1963.0,109.0,1499.0,364.494926148648,-71.9991228328605,65.0002207710291,557727278
-15,-211.0,27.0,-10963.0,-1962.0,109.0,1501.0,365.926966611673,-64.5981283610305,64.9997101934632,557735816
-22,-67.0,-87.0,-10963.0,-1962.0,109.0,1501.0,367.207967798888,-59.6542987804468,64.9999150986719,557744753
-13,-243.0,20.0,-10965.0,-1961.0,111.0,1503.0,368.33989327316,-52.2156169271841,64.9997208866513,557761405
-27,-29.0,-75.0,-10966.0,-1959.0,112.0,1504.0,369.010636480704,-44.7507778486533,65.0001560335934,557769902
-27,-29.0,-75.0,-10966.0,-1959.0,112.0,1504.0,369.890819714282,-37.2711297618351,64.9999798361046,557776940
-25,-370.0,-116.0,-10966.0,-1960.0,113.0,1508.0,370.619761426705,-29.7745715807475,64.9994979668681,557793501
-6,-382.0,-236.0,-10965.0,-1964.0,113.0,1513.0,371.197228228587,-22.2687183826843,64.9998970838781,557802051
2,-510.0,-143.0,-10966.0,-1964.0,114.0,1516.0,371.73025617869,-14.7509250966644,65.0004363691422,557818971
-116,-123.0,-29.0,-10967.0,-1961.0,115.0,1515.0,371.952870561919,-7.22811138745794,65.0007600575468,557832107
-116,-123.0,-29.0,-10968.0,-1960.0,116.0,1515.0,372.015675945113,0.298415727787169,65.0004363692817,557838334
10,-522.0,-133.0,-10969.0,-1956.0,116.0,1514.0,371.985207193327,7.82347043961681,65.0001487118124,557846188
110,-547.0,-288.0,-10971.0,-1950.0,116.0,1509.0,371.801181304522,15.346838934118,65.00080678046,557867181
-43,-403.0,-202.0,-10971.0,-1950.0,116.0,1509.0,371.464994505283,20.3583261719948,65.0003429243593,557875173
-61,-443.0,-315.0,-10973.0,-1944.0,116.0,1501.0,371.157406132275,27.8678390437275,65.0002601719228,557881568
-201,-396.0,68.0,-10978.0,-1937.0,118.0,1494.0,370.337913262523,35.3667559983228,65.0006592897019,557894944
233,-359.0,-232.0,-10978.0,-1915.0,113.0,1479.0,369.827043695532,42.8528164056026,65.0009649628082,557911631
-97,-258.0,57.0,-10981.0,-1903.0,113.0,1471.0,368.934295194408,50.3200636363956,65.0003896469208,557922146
-132,-358.0,-261.0,-10985.0,-1890.0,112.0,1455.0,367.891563311824,57.7662119698553,64.9997783024955,557934851
-267,-171.0,137.0,-10989.0,-1871.0,111.0,1439.0,366.698288669119,62.7166990381633,65.0002421569428,557941113
69,-85.0,238.0,-10994.0,-1831.0,106.0,1409.0,365.354330408003,70.1224391908092,65.0004363699064,557957676
-30,-94.0,-9.0,-10994.0,-1831.0,106.0,1409.0,364.375340142381,77.4988790571015,64.9997602878929,557966247
10,-331.0,-162.0,-10995.0,-1816.0,103.0,1392.0,362.783073862037,82.3996555392248,65.0001126824275,557977386
-130,-135.0,213.0,-11000.0,-1795.0,102.0,1376.0,361.04089607949,89.7234815358257,65.0006412751341,557983661
113,42.0,-226.0,-11004.0,-1751.0,96.0,1342.0,359.79868972713,97.006735951008,65.0001594050298,557997706
83,8.0,55.0,-11008.0,-1730.0,94.0,1323.0,357.812468660759,104.252085639957,64.999983207981,558006405
34,-69.0,-309.0,-11009.0,-1710.0,91.0,1306.0,355.677728392902,109.060586546605,65.0010223781272,558023434
-136,-330.0,290.0,-11017.0,-1666.0,87.0,1271.0,352.606975348276,118.613863321074,65.0002708653487,558039290
66,-48.0,-280.0,-11019.0,-1641.0,84.0,1252.0,350.974591331039,125.722759906368,65.0002421575008,558046943
86,147.0,-214.0,-11019.0,-1641.0,84.0,1252.0,348.408324876322,132.779346632991,64.9999004558353,558055593
-37,-270.0,-35.0,-11023.0,-1622.0,84.0,1234.0,345.698562526236,137.453649144397,65.000076653114,558064050
-17,234.0,-259.0,-11029.0,-1576.0,79.0,1196.0,342.846449504231,144.420645990349,65.0008641965576,558078343
17,90.0,103.0,-11034.0,-1552.0,78.0,1176.0,340.867890095842,151.325428328999,65.000058638344,558090932
-143,-106.0,-276.0,-11036.0,-1531.0,76.0,1159.0,337.783166395365,155.896091527536,65.0003643102975,558101254
-143,-106.0,-276.0,-11040.0,-1509.0,74.0,1139.0,335.648470957155,162.698621195807,65.0002528505277,558109495
-12,-102.0,41.0,-11043.0,-1485.0,72.0,1120.0,332.335607002691,167.192844117618,65.0006339528942,558118211
17,96.0,-4.0,-11049.0,-1441.0,69.0,1080.0,327.705358477677,176.096049852816,65.0009683331899,558138486
-125,-91.0,-183.0,-11049.0,-1441.0,69.0,1080.0,325.29914252325,182.689752341058,65.000968332901,558145974
93,78.0,49.0,-11053.0,-1417.0,68.0,1061.0,320.313096767004,189.209840332663,65.0002815583693,558154488
235,-116.0,-253.0,-11058.0,-1371.0,64.0,1024.0,317.731794303383,195.651442422091,65.0004110332501,558166775
-234,-302.0,-113.0,-11062.0,-1351.0,64.0,1001.0,313.753403864984,199.89870418662,65.0004217260073,558181497
1,244.0,88.0,-11065.0,-1327.0,63.0,982.0,309.645292234297,206.206125087818,65.0005044783034,558194619
306,-20.0,-214.0,-11068.0,-1299.0,60.0,964.0,305.40919917963,212.428675688157,65.0009216109886,558202613
48,24.0,-10.0,-11072.0,-1260.0,57.0,926.0,301.048713536721,218.56377565374,65.0005331859143,558219100
-159,-85.0,-286.0,-11078.0,-1237.0,58.0,904.0,298.074990856169,224.606977845463,65.0004397409301,558229687
91,-75.0,-110.0,-11080.0,-1211.0,57.0,883.0,291.96236817375,230.561597741025,65.0005044785742,558242387
91,-75.0,-110.0,-11083.0,-1185.0,55.0,865.0,288.82601496084,236.420808137976,65.0006159382994,558250098
85,315.0,37.0,-11085.0,-1166.0,54.0,848.0,284.023972775414,240.272237500717,65.0003102662881,558258662
-98,-212.0,-120.0,-11089.0,-1145.0,54.0,827.0,280.756306277753,245.969457229005,65.0005331861424,558274640
13,91.0,-141.0,-11092.0,-1120.0,53.0,807.0,275.760981019887,251.566594589298,65.0005044783034,558281261
27,91.0,2.0,-11097.0,-1072.0,51.0,768.0,268.926920388023,257.05789900477,65.000662660889,558298993
-48,-173.0,-139.0,-11100.0,-1053.0,51.0,749.0,263.722606329962,262.393909050316,65.0001807917168,558307582
-28,-57.0,-187.0,-11100.0,-1053.0,51.0,749.0,260.270206473395,267.483887571647,65.0044191436744,558316427
-33,-55.0,-20.0,-11106.0,-1007.0,50.0,706.0,253.466984400001,273.759563451461,65.011661041954,558336715
-54,-63.0,-135.0,-11109.0,-985.0,49.0,686.0,248.450876706982,278.006111488058,65.0186614892373,558343124
33,-126.0,-207.0,-11144.0,-925.0,76.0,662.0,243.521039068809,280.600717323781,65.0203379447869,558360980
33,-126.0,-207.0,-11166.0,-892.0,94.0,651.0,238.676529746108,284.155485063337,65.0020988735277,558369008
-55,-68.0,-82.0,-11187.0,-859.0,109.0,640.0,235.488213200939,288.242679594572,64.9909308897912,558382768
-60,-179.0,-128.0,-11189.0,-838.0,109.0,620.0,229.287348033957,290.834173229718,64.9927316090932,558396137
16,-69.0,-165.0,-11192.0,-815.0,109.0,600.0,224.797539652337,293.001488718901,64.9849552342038,558404458
-56,-171.0,-89.0,-11197.0,-771.0,109.0,559.0,220.46508098302,294.758443446828,64.9971918124386,558423154
-64,-34.0,-59.0,-11200.0,-749.0,109.0,536.0,214.875855480651,296.077941948773,64.9372905059999,558435671
-20,-104.0,-148.0,-11205.0,-705.0,110.0,497.0,209.407101449323,297.396052092539,64.9532213002498,558449622
-29,-118.0,-189.0,-11207.0,-683.0,110.0,478.0,205.232776239339,298.13052905339,64.9577786416025,558458199
4,30.0,-108.0,-11207.0,-683.0,110.0,478.0,202.3507248051,298.647245546276,64.9047471163635,558466653
38,10.0,-111.0,-11212.0,-636.0,110.0,437.0,197.866791671153,298.951204727336,64.8986158843326,558484598
38,10.0,-111.0,-11214.0,-617.0,110.0,416.0,193.120586953961,299.345802277804,64.8890011218912,558491008
-49,-97.0,-122.0,-11219.0,-573.0,111.0,374.0,189.819340317838,299.554130041704,64.8754920171438,558507453
-12,-115.0,-101.0,-11219.0,-573.0,111.0,374.0,184.748246418768,299.837089814815,64.8428150678877,558516346
58,2.0,-45.0,-11221.0,-549.0,112.0,355.0,181.27675048995,300.042713767368,64.8143104763082,558524329
-53,-316.0,-140.0,-11223.0,-526.0,112.0,333.0,174.224296073333,300.248541772883,64.8325775282678,558536801
-124,-88.0,-163.0,-11227.0,-485.0,113.0,291.0,170.617090679725,300.338085492218,64.8046610884861,558547534
-159,-146.0,-57.0,-11227.0,-485.0,113.0,291.0,165.181041670214,300.467236682822,64.8055565048557,558556234
26,51.0,-161.0,-11229.0,-461.0,113.0,271.0,161.529330395863,300.544487241995,64.7929382542148,558564677
59,-151.0,-141.0,-11233.0,-416.0,114.0,232.0,157.835171142469,300.61276812302,64.7845222751564,558578932
-51,60.0,-122.0,-11233.0,-416.0,114.0,232.0,152.308554910018,300.675437133861,64.8128058708851,558585085
-9,121.0,1.0,-11236.0,-374.0,115.0,187.0,146.737275002692,300.731993647731,64.8058749526888,558599201
-9,121.0,1.0,-11236.0,-374.0,115.0,187.0,143.004018024967,300.762037561897,64.7950608011742,558599201
0,-193.0,-60.0,-11242.0,-308.0,118.0,128.0,137.408148992708,300.79583884693,64.805259371047,558630049
0,-193.0,-60.0,-11242.0,-308.0,118.0,128.0,131.799529622383,300.829829302811,64.820595487855,558630049
204,332.0,-50.0,-11243.0,-283.0,118.0,108.0,124.299997031915,300.844138596021,64.8103050594254,558642727
-232,-97.0,-393.0,-11244.0,-245.0,118.0,62.0,120.540310070868,300.841902933903,64.8216231711379,558659370
-199,-253.0,114.0,-11248.0,-220.0,122.0,42.0,114.91971000154,300.879307416466,64.8567867425713,558668020
148,183.0,-163.0,-11248.0,-220.0,122.0,42.0,111.154948969752,300.854221273022,64.8426287632777,558675499
148,183.0,-163.0,-11249.0,-196.0,122.0,25.0,105.5101452693,300.849192629964,64.8360125622596,558681830
-223,57.0,-443.0,-11250.0,-158.0,122.0,-22.0,99.8603692092165,300.834901713989,64.838860342393,558700256
-346,-386.0,234.0,-11252.0,-133.0,124.0,-43.0,96.1163780219156,300.899062571759,64.9025495691127,558708842
259,348.0,-313.0,-11254.0,-111.0,125.0,-61.0,90.4788588780233,300.850754696146,64.8733953229131,558717754
12,277.0,-108.0,-11256.0,-89.0,127.0,-83.0,84.8282549176397,300.836724043219,64.8767627164982,558731804
-237,-469.0,-229.0,-11255.0,-70.0,127.0,-104.0,79.1822265204902,300.861250711872,64.8998402498711,558744931
-44,20.0,-612.0,-11254.0,-52.0,126.0,-126.0,75.4186070464054,300.861034363219,64.9070829720931,558756908
190,171.0,-386.0,-11258.0,-31.0,130.0,-141.0,69.7850377310945,300.861380796287,64.9231801271347,558765264
-128,-312.0,-608.0,-11257.0,-12.0,129.0,-159.0,66.0333327320437,300.827855366802,64.9144714400415,558773067
-94,82.0,-5.0,-11258.0,3.0,129.0,-178.0,60.3831387308713,300.831635267971,64.9284090480172,558785837
90,193.0,-361.0,-11259.0,22.0,131.0,-196.0,54.7336792286736,300.832854128958,64.935647980359,558792398
130,365.0,-249.0,-11259.0,53.0,132.0,-225.0,49.1023432223809,300.832826614683,64.9424608634397,558808883
100,166.0,-30.0,-11259.0,68.0,132.0,-240.0,45.3442138088723,300.813735386996,64.945132184273,558821096
-91,-198.0,-756.0,-11259.0,68.0,132.0,-240.0,39.7086649036237,300.828461627998,64.961340581716,558828046
-166,13.0,-274.0,-11259.0,92.0,133.0,-267.0,34.0667248491056,300.817223987174,64.9615881125011,558840526
7,-41.0,-555.0,-11258.0,103.0,132.0,-277.0,26.552657777131,300.813525812192,64.9619055400033,558856861
-127,-18.0,-73.0,-11258.0,114.0,132.0,-290.0,20.9149756562301,300.803559422285,64.9647708656981,558865282
122,213.0,-451.0,-11257.0,131.0,133.0,-307.0,17.1578458030149,300.813506305447,64.972454258279,558882882
122,213.0,-451.0,-11257.0,137.0,133.0,-311.0,11.5201944236646,300.81305494194,64.975894237304,558889264
-219,-47.0,-481.0,-11256.0,140.0,132.0,-319.0,2.13183211366716,300.800925864271,64.9828194150227,558906057
263,94.0,-81.0,-11258.0,156.0,134.0,-331.0,-3.50509259453563,300.765562329765,64.979917616356,558922465
160,-68.0,-148.0,-11260.0,167.0,136.0,-338.0,-9.14086697493672,300.740251027493,64.9762986456207,558935329
71,-58.0,-319.0,-11260.0,179.0,137.0,-349.0,-14.7713442720472,300.746259698904,64.9846357692682,558945573
64,-92.0,-174.0,-11259.0,194.0,137.0,-364.0,-18.5270227974176,300.769598804211,64.9894294085356,558954202
281,-172.0,-240.0,-11258.0,241.0,138.0,-406.0,-24.1609856950104,300.767020710536,64.9868688451941,558970648
290,62.0,-155.0,-11258.0,241.0,138.0,-406.0,-29.7969495666472,300.769563632947,64.9807790031215,558977655
31,-171.0,-134.0,-11256.0,272.0,138.0,-437.0,-35.433471810546,300.774726353057,64.9859771204859,558983806
-68,-162.0,-295.0,-11253.0,358.0,141.0,-516.0,-39.1869987861295,300.773879047511,64.9875622726283,558998369
-68,-162.0,-295.0,-11253.0,358.0,141.0,-516.0,-44.8210723633933,300.792182012333,64.9898690409122,558998369
385,-20.0,-159.0,-11251.0,469.0,147.0,-612.0,-48.5805861851856,300.802177050075,64.9877970480582,559019315
122,-239.0,-243.0,-11251.0,469.0,147.0,-612.0,-54.2174703098939,300.80180028082,64.9769154418829,559026891
156,114.0,27.0,-11242.0,608.0,152.0,-744.0,-59.8561424767715,300.810384475346,64.9778527816096,559039607
412,61.0,174.0,-11240.0,694.0,160.0,-818.0,-65.4894542412833,300.818852841787,64.9814289920911,559055192
279,-181.0,-331.0,-11227.0,880.0,173.0,-988.0,-71.1308281472193,300.828144812955,64.9785924925282,559071064
138,-86.0,-40.0,-11217.0,991.0,181.0,-1092.0,-76.7681667770796,300.830402099654,64.9646360361358,559081655
6,-414.0,-405.0,-11217.0,991.0,181.0,-1092.0,-82.4052850869869,300.829741773301,64.9515140442339,559087893
297,-226.0,-159.0,-11196.0,1222.0,204.0,-1303.0,-88.040762101523,300.825589932819,64.9395806384486,559102588
297,-226.0,-159.0,-11182.0,1346.0,217.0,-1418.0,-91.8063793262669,300.840136541923,64.9410486734576,559110978
-30,-235.0,-253.0,-11166.0,1474.0,233.0,-1536.0,-97.4457485037067,300.842245759147,64.9419757878568,559119653
-52,-148.0,-336.0,-11150.0,1607.0,251.0,-1657.0,-103.087694655375,300.857856085973,64.9342784663398,559133384
-52,-148.0,-336.0,-11150.0,1607.0,251.0,-1657.0,-106.84676657355,300.843562830672,64.9161532314085,559133384
-119,-335.0,-401.0,-11087.0,2014.0,57.0,-2031.0,-112.487280494741,300.846487539549,64.9068063672047,559159393
55,278.0,301.0,-11087.0,2014.0,57.0,-2031.0,-118.132371024149,300.853795602288,64.8876102816321,559167989
43,-126.0,-216.0,-11063.0,2152.0,81.0,-2158.0,-121.894309181629,300.872910296832,64.8973327218879,559175736
-111,-243.0,-426.0,-11037.0,2290.0,107.0,-2283.0,-127.554677926768,300.899312525248,64.9033867867333,559188261
107,-91.0,-113.0,-11010.0,2428.0,135.0,-2411.0,-133.197068877934,300.89746121307,64.8707592327237,559194839
-124,-127.0,-371.0,-10949.0,2708.0,196.0,-2667.0,-136.947886732717,300.860142132983,64.8368645542848,559211264
-21,-188.0,-184.0,-10918.0,2848.0,230.0,-2795.0,-142.602295727255,300.906681248123,64.8537075108957,559222550
-21,-188.0,-184.0,-10918.0,2848.0,230.0,-2795.0,-148.274237611528,300.932204878343,64.8666609634605,559229298
146,130.0,81.0,-10847.0,3125.0,44.0,-3050.0,-152.033025373635,300.9163807663,64.8269348711017,559241811
-41,-220.0,-368.0,-10809.0,3265.0,82.0,-3179.0,-159.563271889937,300.939068506992,64.802029417713,559249472
-35,-6.0,-159.0,-10770.0,3404.0,121.0,-3306.0,-165.19696836587,300.936303568716,64.798214874481,559266600
94,124.0,62.0,-10730.0,3543.0,163.0,-3432.0,-168.909251392261,300.969516394935,64.8126550735273,559274432
-39,-127.0,-239.0,-10644.0,3818.0,251.0,-3685.0,-176.070399598446,300.904586768351,64.7511394803616,559290347
89,196.0,232.0,-10644.0,3818.0,251.0,-3685.0,-181.194436445934,300.892280985296,64.7837171946358,559297712
-119,-100.0,-428.0,-10598.0,3956.0,42.0,-3812.0,-184.459259127875,300.833272557789,64.7725633425783,559307540
-64,-95.0,-204.0,-10502.0,4229.0,139.0,-4061.0,-189.100038156928,300.783152568172,64.775554183419,559324596
-64,-95.0,-204.0,-10454.0,4367.0,193.0,-4185.0,-193.442293381007,300.741400540333,64.763914875533,559330803
-72,-172.0,-149.0,-10402.0,4501.0,246.0,-4309.0,-196.144360481529,300.641863558223,64.7668122113828,559347546
-157,-182.0,-281.0,-10350.0,4635.0,45.0,-4432.0,-199.937944234958,300.608159079913,64.8174761183162,559356104
90,102.0,90.0,-10298.0,4771.0,104.0,-4553.0,-203.356724197436,300.529530477257,64.8005745511043,559364127
-43,-22.0,-232.0,-10240.0,4903.0,160.0,-4675.0,-206.425312802681,300.457389954687,64.8242600262184,559378877
111,64.0,-110.0,-10184.0,5036.0,222.0,-4797.0,-208.253667767016,300.343968584187,64.8389191511337,559385154
-44,47.0,-134.0,-10064.0,5298.0,89.0,-5037.0,-211.43756584294,300.296243605377,64.8652263209689,559401966
-42,-93.0,2.0,-10002.0,5430.0,153.0,-5155.0,-213.379331066897,300.21797211287,64.8769201130859,559411092
230,-73.0,67.0,-9938.0,5559.0,219.0,-5274.0,-215.405489027975,300.120131418863,64.9351654053835,559427369
-223,132.0,-176.0,-9739.0,5942.0,170.0,-5626.0,-217.04011267107,300.020253379392,64.9788233401379,559455088
-74,235.0,-174.0,-9670.0,6069.0,242.0,-5739.0,-217.910138729601,299.993849865795,65.3176639420294,559466045
