ACC_X,ACC_Y,ACC_Z,QUAT_W,QUAT_X,QUAT_Y,QUAT_Z,X_pos,Y_pos,Z_pos,t
-90,191.0,-95.0,-8688.0,7770.0,160.0,-7111.0,-218.542712868743,299.984000971943,66.0400690807397,672568591
15,45.0,34.0,-8601.0,7881.0,252.0,-7211.0,-218.914114086478,300.024897609833,67.274512507919,672576036
-82,-189.0,-291.0,-8515.0,7990.0,93.0,-7312.0,-219.09110465456,300.018374730725,68.0531859968531,672593152
239,251.0,298.0,-8427.0,8098.0,192.0,-7413.0,-219.326196821067,300.049085385057,69.5493391687586,672604308
8,-54.0,-341.0,-8241.0,8312.0,131.0,-7612.0,-219.500584806556,300.054641833463,71.3130726882821,672616688
-76,25.0,-154.0,-8241.0,8312.0,131.0,-7612.0,-219.602517975378,300.023738684441,73.3817231708209,672623629
-61,52.0,-203.0,-8053.0,8519.0,76.0,-7805.0,-219.730414224926,300.058051274771,75.8997921488424,672639778
-61,52.0,-203.0,-7959.0,8620.0,178.0,-7899.0,-219.826798185255,300.07749684229,78.7457558260605,672647929
23,-47.0,55.0,-7865.0,8719.0,22.0,-7989.0,-219.911514187125,300.127746717484,81.8994354153719,672664519
-163,84.0,-244.0,-7770.0,8812.0,118.0,-8076.0,-219.947458120296,300.119714629675,85.4868146207208,672671040
-316,238.0,162.0,-7592.0,8985.0,49.0,-8239.0,-219.997949728856,300.174126546687,88.0723652297761,672687310
-397,16.0,49.0,-7510.0,9064.0,139.0,-8312.0,-220.067227642488,300.211981559677,92.2706313078871,672696053
-193,-76.0,-137.0,-7510.0,9064.0,139.0,-8312.0,-220.13989947961,300.276120047543,96.8217477286493,672703630
42,144.0,-88.0,-7432.0,9140.0,226.0,-8380.0,-220.171493992212,300.303916141581,101.593934238296,672716209
-236,52.0,-171.0,-7280.0,9273.0,124.0,-8506.0,-220.226907953352,300.363444440653,106.596893541437,672727312
-447,263.0,215.0,-7213.0,9331.0,193.0,-8560.0,-220.263140739331,300.394644670929,113.450834618047,672744342
-281,46.0,-65.0,-7097.0,9435.0,65.0,-8655.0,-220.287732448825,300.4318122157,120.479225278869,672758592
-238,150.0,-138.0,-7044.0,9479.0,120.0,-8695.0,-220.326707828195,300.455663612681,125.886625185651,672772487
-427,141.0,-22.0,-6956.0,9549.0,206.0,-8761.0,-220.339369069833,300.490168212208,131.300885964049,672791193
-344,150.0,68.0,-6921.0,9578.0,244.0,-8789.0,-220.376375970269,300.518863792412,136.795993981323,672799288
-204,146.0,-64.0,-6892.0,9603.0,19.0,-8810.0,-220.374588545287,300.513405493841,142.287088966473,672812376
-204,146.0,-64.0,-6869.0,9621.0,43.0,-8827.0,-220.37320314791,300.529296216411,147.840842216169,672818682
-143,151.0,-63.0,-6850.0,9635.0,60.0,-8840.0,-220.380425732841,300.516330559647,153.396781689676,672835069
-263,153.0,22.0,-6837.0,9643.0,69.0,-8849.0,-220.382828693753,300.51532300001,157.095757218379,672843383
-95,168.0,164.0,-6832.0,9648.0,75.0,-8853.0,-220.383455378562,300.52046186129,162.666369428542,672854564
-130,371.0,55.0,-6831.0,9648.0,75.0,-8853.0,-220.388468036573,300.526793755945,166.41467879738,672862007
18,259.0,155.0,-6837.0,9645.0,74.0,-8850.0,-220.390846919396,300.532675139366,172.033644561421,672870573
-31,236.0,33.0,-6863.0,9625.0,46.0,-8830.0,-220.387248681739,300.534738064074,177.647184510105,672887244
-134,395.0,61.0,-6885.0,9607.0,21.0,-8813.0,-220.38128209066,300.520681441709,183.241875959853,672895893
-18,163.0,67.0,-6915.0,9583.0,246.0,-8790.0,-220.377742052507,300.516520897975,188.854364944894,672909812
-18,163.0,67.0,-6949.0,9556.0,211.0,-8764.0,-220.383662072482,300.517974578059,194.484730888792,672919383
-227,464.0,-59.0,-7038.0,9485.0,123.0,-8697.0,-220.388183044175,300.522634149826,200.099955428113,672935745
268,301.0,356.0,-7038.0,9485.0,123.0,-8697.0,-220.385182860298,300.520803564646,205.735368551192,672944147
-187,356.0,-101.0,-7143.0,9396.0,10.0,-8612.0,-220.374770229587,300.506761652981,211.357286261353,672958174
-209,286.0,-64.0,-7206.0,9343.0,201.0,-8560.0,-220.355371120839,300.479900087519,216.950262201526,672971507
160,347.0,322.0,-7274.0,9285.0,131.0,-8504.0,-220.354794042876,300.470202890924,220.689552543067,672981863
-26,322.0,-141.0,-7347.0,9219.0,53.0,-8443.0,-220.352279898536,300.475684850268,224.444940321699,672989772
-26,322.0,-141.0,-7425.0,9149.0,227.0,-8378.0,-220.357771038643,300.476766653732,230.068877903827,672998249
-127,395.0,-16.0,-7503.0,9076.0,142.0,-8307.0,-220.366712494689,300.50242622199,235.754309711793,673011540
-153,236.0,-41.0,-7584.0,9001.0,55.0,-8234.0,-220.36891633385,300.498622265814,241.390652499328,673024681
-60,225.0,196.0,-7667.0,8923.0,223.0,-8156.0,-220.377119501186,300.509556506242,246.998775584779,673033302
38,111.0,-51.0,-7752.0,8841.0,133.0,-8077.0,-220.385082659474,300.523041490255,252.671453336681,673045198
61,142.0,97.0,-7839.0,8754.0,40.0,-7994.0,-220.383308380391,300.520585980701,256.402754588614,673053029
0,151.0,-81.0,-7926.0,8664.0,203.0,-7910.0,-220.395399908872,300.535490955894,262.090010882196,673065462
-129,130.0,-45.0,-8012.0,8573.0,110.0,-7825.0,-220.394147550274,300.534034967057,265.807881400871,673072574
87,128.0,176.0,-8183.0,8390.0,181.0,-7646.0,-220.401951702332,300.545658868697,273.342597810267,673088685
137,190.0,125.0,-8268.0,8293.0,88.0,-7554.0,-220.402520649627,300.544949176475,278.978506256422,673097295
-48,-33.0,-144.0,-8353.0,8193.0,251.0,-7462.0,-220.414846449106,300.566743207384,282.764073154543,673108063
13,152.0,15.0,-8438.0,8093.0,158.0,-7366.0,-220.41570479871,300.563179102012,288.365236479922,673120623
13,152.0,15.0,-8521.0,7991.0,66.0,-7271.0,-220.427700582049,300.580543950115,294.026162616414,673128496
-35,-136.0,-100.0,-8602.0,7890.0,232.0,-7174.0,-220.4269380303,300.580259488333,297.768053386479,673145628
-12,229.0,-53.0,-8683.0,7787.0,143.0,-7076.0,-220.435101649069,300.596725364687,305.300260119967,673153394
111,-70.0,-41.0,-8922.0,7465.0,132.0,-6774.0,-220.451199594805,300.620609696783,312.838844263314,673176921
-127,250.0,-43.0,-8922.0,7465.0,132.0,-6774.0,-220.462585401716,300.627861903052,318.460249800311,673185492
-55,-124.0,-162.0,-9000.0,7356.0,48.0,-6673.0,-220.472769363683,300.643511891858,324.112728137755,673194119
-246,-14.0,-260.0,-9150.0,7136.0,136.0,-6464.0,-220.482987549115,300.660005707615,327.881543814561,673208363
195,56.0,97.0,-9150.0,7136.0,136.0,-6464.0,-220.496801424629,300.674771530384,333.55699736508,673214617
-151,-47.0,-119.0,-9295.0,6911.0,227.0,-6252.0,-220.509554460569,300.694428852082,339.184646545315,673230908
-151,-47.0,-119.0,-9367.0,6795.0,147.0,-6145.0,-220.526109646484,300.715492642652,344.826630173595,673239020
-102,35.0,-181.0,-9436.0,6679.0,67.0,-6037.0,-220.54666185916,300.743518207378,350.496351480026,673254857
49,103.0,-1.0,-9505.0,6564.0,246.0,-5928.0,-220.574837158845,300.781938824051,358.09924869245,673267384
14,-120.0,-4.0,-9572.0,6446.0,169.0,-5818.0,-220.598926681902,300.81554392697,361.864998146705,673275111
-52,-283.0,-77.0,-9636.0,6329.0,95.0,-5710.0,-220.620454990335,300.860922027765,367.449723359432,673283883
-55,171.0,-19.0,-9766.0,6089.0,206.0,-5487.0,-220.649794041854,300.8861684741,372.894475814222,673296500
155,216.0,-43.0,-9829.0,5967.0,134.0,-5373.0,-220.674945037429,300.931609960255,378.140331785156,673310574
19,66.0,-84.0,-9889.0,5844.0,65.0,-5261.0,-220.704129695406,300.958245697144,384.738586411906,673323681
-5,34.0,41.0,-10005.0,5599.0,186.0,-5035.0,-220.71512376235,300.977933867727,387.833043522673,673339790
-173,-168.0,100.0,-10063.0,5476.0,122.0,-4918.0,-220.72552113669,300.985540344158,397.611076874293,673348072
-33,-171.0,-37.0,-10223.0,5097.0,188.0,-4569.0,-220.704700130654,300.958519342073,403.464747762215,673379589
-206,-94.0,48.0,-10322.0,4842.0,70.0,-4336.0,-220.69408897979,300.935958238805,405.496236401983,673397177
-71,37.0,-22.0,-10322.0,4842.0,70.0,-4336.0,-220.66812170765,300.912169030363,408.291283873727,673404714
7,-56.0,-65.0,-10372.0,4714.0,15.0,-4217.0,-220.633450935031,300.846637525902,410.705806147525,673411006
-140,-48.0,82.0,-10550.0,4193.0,58.0,-3739.0,-220.591522221932,300.784298770422,412.743890729565,673446870
-140,-48.0,82.0,-10550.0,4193.0,58.0,-3739.0,-220.543991921003,300.713557589077,414.383112696494,673446870
-14,135.0,-175.0,-10550.0,4193.0,58.0,-3739.0,-220.463511411821,300.633405812589,415.983842051199,673454505
-67,-108.0,97.0,-10591.0,4063.0,10.0,-3617.0,-220.383299912183,300.542152347351,416.586045773821,673467101
62,-104.0,-46.0,-10632.0,3931.0,218.0,-3494.0,-220.286125310037,300.466513659867,417.349578779692,673473940
-91,95.0,-42.0,-10708.0,3663.0,127.0,-3251.0,-220.00943032225,300.358512427651,417.734954024052,673490299
-91,95.0,-42.0,-10742.0,3528.0,83.0,-3130.0,-219.704013107592,300.262560915741,418.267628461118,673498745
7,112.0,-157.0,-10776.0,3394.0,42.0,-3009.0,-219.027882351151,300.209278364467,418.550653684358,673509199
36,94.0,-99.0,-10776.0,3394.0,42.0,-3009.0,-218.090255890185,300.164390175568,418.88747749771,673515381
-170,-157.0,-1.0,-10840.0,3124.0,220.0,-2761.0,-217.311597299169,300.140700522534,419.159022897247,673529583
3,190.0,-79.0,-10870.0,2989.0,183.0,-2636.0,-215.885166089727,300.130480090013,419.402388602872,673538218
46,44.0,-190.0,-10898.0,2852.0,147.0,-2511.0,-214.140334991823,300.140546029781,419.592049127944,673554440
46,44.0,-190.0,-10926.0,2713.0,115.0,-2390.0,-212.788962406871,300.175453417078,419.722621545374,673560702
-202,-51.0,-65.0,-10951.0,2576.0,82.0,-2265.0,-210.481973295359,300.20854003659,419.862766414332,673570227
-97,0.0,88.0,-10997.0,2303.0,23.0,-2016.0,-207.813218622467,300.246246057965,419.979731084935,673586967
-183,-203.0,235.0,-10997.0,2303.0,23.0,-2016.0,-204.772738827695,300.304872416339,420.092472729265,673595887
316,189.0,-426.0,-11018.0,2165.0,251.0,-1887.0,-201.355088234251,300.377495746976,420.145666625225,673603847
-103,12.0,-93.0,-11040.0,2025.0,227.0,-1763.0,-198.865057852225,300.429468000622,420.220987556545,673616324
-229,-127.0,-189.0,-11057.0,1886.0,203.0,-1637.0,-194.829136254218,300.50466300536,420.298200569726,673622855
-86,-11.0,-31.0,-11088.0,1610.0,159.0,-1386.0,-190.417617160037,300.607357823673,420.372197260771,673641271
-86,-11.0,-31.0,-11102.0,1471.0,139.0,-1259.0,-185.690665750013,300.660189122587,420.427947511407,673649541
-183,-195.0,-153.0,-11116.0,1329.0,123.0,-1133.0,-180.731587824268,300.740158095867,420.460239426405,673662750
7,-16.0,-378.0,-11126.0,1189.0,107.0,-1005.0,-175.601225493894,300.815802360349,420.479007753839,673676265
-147,-21.0,82.0,-11137.0,1050.0,93.0,-880.0,-170.354306219821,300.873487990333,420.482640507489,673685769
116,-126.0,-281.0,-11151.0,769.0,69.0,-627.0,-166.794005703314,300.912874363004,420.482909999263,673698855
98,66.0,-138.0,-11151.0,769.0,69.0,-627.0,-161.395284563261,300.942670756587,420.503068875148,673706192
241,-58.0,-448.0,-11160.0,487.0,53.0,-373.0,-155.921571033745,300.964519780419,420.498030062473,673718494
28,-262.0,-424.0,-11161.0,345.0,45.0,-244.0,-150.397544710169,300.988788686682,420.468068616768,673733684
170,287.0,-57.0,-11162.0,206.0,40.0,-117.0,-144.841233523704,300.996127306146,420.443499681251,673741568
170,287.0,-57.0,-11161.0,64.0,38.0,9.0,-139.266884694553,300.993299741264,420.410114492633,673749939
-10,-62.0,-132.0,-11149.0,-348.0,37.0,381.0,-131.805432542379,300.988668708732,420.376506047084,673777217
-10,-62.0,-132.0,-11149.0,-348.0,37.0,381.0,-128.056154171702,300.986435931742,420.371060913698,673777217
-142,-162.0,125.0,-11143.0,-477.0,41.0,498.0,-122.429221030505,300.980222598531,420.330291685263,673795797
288,-69.0,-363.0,-11136.0,-603.0,45.0,611.0,-114.91744776303,300.970409791611,420.324277566128,673803943
-75,-91.0,188.0,-11130.0,-723.0,52.0,719.0,-111.163343645914,300.957947051733,420.289977143163,673816410
249,37.0,-121.0,-11111.0,-945.0,64.0,917.0,-105.526517915813,300.944644388628,420.254465709725,673830362
-328,49.0,494.0,-11102.0,-1047.0,71.0,1008.0,-99.8894141767519,300.938483852701,420.268202705592,673841240
-328,49.0,494.0,-11093.0,-1142.0,79.0,1093.0,-96.1238136241864,300.924440727824,420.224710012669,673849474
64,-96.0,-71.0,-11093.0,-1142.0,79.0,1093.0,-90.4768324407209,301.019638196595,420.229930572313,673856712
-268,-164.0,255.0,-11075.0,-1312.0,95.0,1245.0,-84.8329740845049,300.909603171326,420.186052020306,673869104
10,-11.0,193.0,-11068.0,-1385.0,103.0,1310.0,-81.0746024235255,300.901636956433,420.166002986805,673884797
-316,6.0,449.0,-11060.0,-1453.0,110.0,1369.0,-75.4341305375679,300.888787796002,420.155238779694,673893540
-336,53.0,384.0,-11052.0,-1512.0,116.0,1420.0,-69.7906008975813,300.878412188447,420.134397718259,673904224
243,-165.0,-67.0,-11046.0,-1564.0,123.0,1466.0,-64.1489497980408,300.877638860112,420.119079439426,673916760
-328,-164.0,313.0,-11040.0,-1608.0,129.0,1505.0,-58.5021840778659,300.868398034726,420.119037884968,673923316
243,-59.0,-24.0,-11033.0,-1674.0,137.0,1561.0,-52.8643542422997,300.862513747375,420.095855781371,673939491
-194,112.0,298.0,-11029.0,-1704.0,141.0,1586.0,-47.2313986137789,300.856882555255,420.074100751285,673947958
-405,54.0,61.0,-11028.0,-1726.0,147.0,1607.0,-41.5892568079436,300.853928931975,420.069930660527,673965055
146,-404.0,-335.0,-11024.0,-1748.0,149.0,1627.0,-37.8283648088361,300.840532887649,420.083386657985,673971315
146,-404.0,-335.0,-11023.0,-1763.0,152.0,1643.0,-32.1889466192052,300.842487283354,420.057687541112,673979347
1,-303.0,-469.0,-11019.0,-1794.0,157.0,1668.0,-28.4299477496394,300.843193752364,420.039316568134,673997522
-236,-296.0,-326.0,-11019.0,-1794.0,157.0,1668.0,-22.798561887168,300.835939808276,420.017996501997,674005489
-8,-323.0,-425.0,-11016.0,-1804.0,157.0,1678.0,-17.1616243882086,300.830850937858,420.027184923183,674017950
188,-347.0,-389.0,-11012.0,-1818.0,157.0,1693.0,-11.522490971192,300.829771361321,420.022771384139,674029344
33,-422.0,-454.0,-11010.0,-1827.0,159.0,1701.0,-0.249244375625199,300.834038690172,419.974195311032,674046714
58,-419.0,-429.0,-11008.0,-1836.0,159.0,1711.0,7.26060093280337,300.808925244184,419.959689165517,674067266
29,-377.0,-326.0,-11005.0,-1840.0,158.0,1715.0,11.0125505310541,300.810932324127,419.955539223946,674073977
-5,-360.0,-265.0,-11003.0,-1842.0,157.0,1715.0,16.650934165293,300.81226793754,419.968008348108,674082222
-54,-336.0,-209.0,-11002.0,-1843.0,155.0,1714.0,20.413197092481,300.814073115923,419.971686919986,674093212
-32,-158.0,-142.0,-11002.0,-1845.0,155.0,1712.0,26.0482603265791,300.818624798831,419.967723750933,674108372
3,-195.0,-128.0,-11000.0,-1844.0,153.0,1709.0,31.6786131912448,300.825020654863,419.972744917182,674114649
-58,-107.0,-63.0,-10998.0,-1845.0,151.0,1706.0,35.43176469968,300.826886358337,419.994306924821,674129142
-55,-155.0,-71.0,-10997.0,-1845.0,150.0,1705.0,41.0686900244276,300.821746212382,420.012552889506,674137964
-1,-181.0,-95.0,-10997.0,-1844.0,149.0,1703.0,48.587416585923,300.830726550465,420.006707144999,674150397
46,-200.0,-75.0,-10995.0,-1845.0,146.0,1698.0,56.1020275670251,300.829902306717,420.015641066071,674169775
20,-127.0,-74.0,-10994.0,-1846.0,146.0,1696.0,59.8603824002532,300.839290491177,420.012770079514,674177549
-83,-96.0,-13.0,-10994.0,-1846.0,146.0,1696.0,65.4934083797139,300.840734188762,420.004740325928,674186502
-30,-179.0,-18.0,-10993.0,-1846.0,145.0,1693.0,71.1312666656012,300.843018429789,420.028488190196,674204424
-39,-147.0,14.0,-10992.0,-1846.0,143.0,1691.0,74.8876438476367,300.844544550018,420.048375621307,674214489
33,-45.0,-57.0,-10991.0,-1847.0,142.0,1689.0,80.5348604554165,300.845720751286,420.042836971057,674222466
-92,-117.0,10.0,-10990.0,-1849.0,141.0,1685.0,86.1811507387544,300.854936633609,420.052593608738,674239141
0,-62.0,-54.0,-10989.0,-1850.0,140.0,1684.0,91.804835890338,300.861301024669,420.084345258823,674247693
14,-108.0,-32.0,-10989.0,-1850.0,140.0,1684.0,97.4472005388258,300.867491290717,420.094130361642,674255564
-10,-63.0,10.0,-10987.0,-1852.0,139.0,1682.0,103.095299183047,300.87181856487,420.110370817663,674271052
-65,-41.0,3.0,-10987.0,-1852.0,138.0,1679.0,108.746293859503,300.882646643725,420.102269730647,674281914
-65,-41.0,3.0,-10987.0,-1854.0,138.0,1678.0,114.386216277587,300.891311202268,420.139335843539,674290197
-11,-67.0,-19.0,-10986.0,-1854.0,137.0,1675.0,120.025712485209,300.910437155527,420.148360135789,674306823
15,-124.0,-4.0,-10986.0,-1856.0,137.0,1674.0,125.679699717857,300.919611633594,420.180801285167,674319349
-39,-10.0,-11.0,-10988.0,-1850.0,138.0,1678.0,131.328194369442,300.927529247767,420.187914229991,674326048
6,-86.0,-34.0,-10996.0,-1831.0,146.0,1696.0,135.101865819238,300.94379439145,420.221417043312,674343955
-55,-103.0,13.0,-10996.0,-1832.0,145.0,1695.0,140.752905013268,300.956401083329,420.23118935744,674351916
-55,-103.0,13.0,-10996.0,-1832.0,145.0,1695.0,146.407091945871,300.975779992278,420.251971019411,674358710
52,-46.0,-52.0,-10996.0,-1834.0,145.0,1691.0,150.182214236022,300.999613476963,420.283836161828,674371311
57,-23.0,-57.0,-10996.0,-1835.0,145.0,1689.0,155.841544182687,301.023465594474,420.331250315571,674379285
72,-47.0,-76.0,-10995.0,-1837.0,144.0,1688.0,161.510093397836,301.063390825941,420.35551955735,674396950
-114,-115.0,51.0,-10995.0,-1839.0,144.0,1687.0,167.129384182427,301.084437307022,420.387127155753,674408802
-120,-84.0,65.0,-10995.0,-1839.0,144.0,1685.0,172.622711101224,301.094824662279,420.413767139016,674415170
95,-112.0,-90.0,-10994.0,-1842.0,143.0,1681.0,177.916747015383,301.094770112272,420.428277404923,674429546
-128,-45.0,78.0,-10994.0,-1845.0,143.0,1680.0,182.964790152693,301.080490632436,420.475369644129,674438491
116,-108.0,-109.0,-10994.0,-1845.0,143.0,1678.0,187.733434172904,301.057424580093,420.497266830714,674455173
116,-108.0,-109.0,-10994.0,-1847.0,143.0,1678.0,190.751398132454,301.03458672785,420.50771722511,674461470
-151,-32.0,95.0,-10993.0,-1848.0,143.0,1676.0,195.002647502314,300.995613490085,420.527153368787,674471325
110,-64.0,-97.0,-10993.0,-1850.0,142.0,1673.0,197.652187425991,300.947081459494,420.518098173412,674488363
-135,-50.0,89.0,-10993.0,-1850.0,142.0,1673.0,201.332201480653,300.908822839177,420.525450272262,674497323
90,-48.0,-97.0,-10993.0,-1852.0,142.0,1671.0,204.653205443858,300.851728614801,420.521548548141,674506000
-128,7.0,81.0,-10993.0,-1854.0,142.0,1669.0,206.66576095914,300.784314262925,420.508977796257,674513576
-102,23.0,67.0,-10993.0,-1855.0,142.0,1668.0,209.371552363942,300.737353991708,420.491172247865,674521839
-102,23.0,67.0,-10993.0,-1856.0,142.0,1666.0,210.961453350803,300.658438827359,420.459614150973,674530385
-79,16.0,56.0,-10993.0,-1857.0,142.0,1665.0,213.033007874744,300.594729907595,420.417180778014,674541835
38,-93.0,-55.0,-10992.0,-1860.0,142.0,1664.0,214.709529955712,300.469028406803,420.350253932865,674557591
14,-82.0,-41.0,-10992.0,-1862.0,141.0,1661.0,215.997286232558,300.373228750599,420.304766938042,674570110
-14,-31.0,-22.0,-10992.0,-1863.0,141.0,1659.0,216.994801836854,300.231766063896,420.282120907021,674586323
-5,-72.0,1.0,-10991.0,-1865.0,141.0,1658.0,217.878348264119,299.981705975338,420.265869388694,674594796
18,-87.0,-19.0,-10991.0,-1865.0,140.0,1656.0,218.840627048391,299.720959337694,420.201870805556,674606133
18,-87.0,-19.0,-10991.0,-1868.0,140.0,1655.0,219.5851494798,299.135270214406,420.176905468055,674612618
43,-103.0,-31.0,-10991.0,-1868.0,140.0,1653.0,220.923188605881,298.595810104494,420.141104759501,674626245
-94,-56.0,41.0,-10990.0,-1872.0,140.0,1650.0,222.587935734695,297.084366398383,420.139296316098,674642565
-94,-56.0,41.0,-10990.0,-1873.0,140.0,1649.0,224.630090737545,296.106891652543,420.10898663537,674650920
-124,8.0,48.0,-10990.0,-1874.0,139.0,1648.0,227.988651556352,293.665606684205,420.06912505142,674667486
106,-116.0,-69.0,-10989.0,-1876.0,139.0,1646.0,229.948751864947,291.371347138592,420.061348696204,674674175
99,-129.0,-73.0,-10990.0,-1877.0,140.0,1645.0,233.252796671381,288.652461191397,420.059789889944,674682375
-135,109.0,55.0,-10989.0,-1880.0,139.0,1642.0,237.013623112339,285.478087731054,420.029862406654,674699620
110,-154.0,-73.0,-10989.0,-1880.0,139.0,1642.0,241.210188076204,281.852872349821,420.015301782526,674707669
-137,113.0,51.0,-10989.0,-1883.0,139.0,1640.0,245.732170658244,279.220624915404,420.012236196824,674720300
-133,97.0,52.0,-10990.0,-1883.0,139.0,1637.0,250.465924738561,275.001728504036,420.018481453186,674731249
100,-158.0,-69.0,-10989.0,-1885.0,139.0,1637.0,253.704631815315,270.499485705254,420.018270541118,674739988
97,-104.0,-55.0,-10989.0,-1886.0,139.0,1634.0,260.277195150322,264.138177115514,420.019537545701,674756544
76,-59.0,-59.0,-10990.0,-1888.0,140.0,1632.0,265.235469076339,260.824581958404,420.016709421694,674771878
-105,66.0,22.0,-10991.0,-1890.0,140.0,1630.0,270.190350243956,253.953072751813,420.012235402486,674780389
53,-65.0,-47.0,-10991.0,-1890.0,141.0,1629.0,276.73588676466,248.607995802904,420.00693075001,674789280
-83,92.0,12.0,-10992.0,-1892.0,141.0,1627.0,279.971270364433,243.115192825567,420.008669942925,674808690
28,-91.0,-29.0,-10993.0,-1893.0,142.0,1624.0,284.759117867302,237.492750253717,420.010003554833,674821151
-59,106.0,-2.0,-10994.0,-1896.0,143.0,1623.0,291.005682951363,231.751965676657,420.006193697999,674828611
-7,-13.0,-25.0,-10995.0,-1896.0,144.0,1621.0,295.582023739466,225.891135407173,420.001731627598,674846105
-14,-3.0,-15.0,-10995.0,-1898.0,145.0,1620.0,298.572359862007,221.924255654386,420.001070347197,674854049
-14,-3.0,-15.0,-10995.0,-1898.0,145.0,1620.0,301.514888243633,215.888804670555,420.0036475934,674854049
-14,-3.0,-15.0,-10995.0,-1898.0,145.0,1620.0,305.834581689225,211.806936174778,420.002470015669,674854049
16,-64.0,-35.0,-10997.0,-1903.0,146.0,1615.0,308.649072677461,205.607271105394,420.002581760021,674891507
16,-64.0,-35.0,-10997.0,-1903.0,146.0,1615.0,312.771702979485,201.424777176443,420.000437971142,674891507
-54,93.0,-30.0,-10998.0,-1903.0,147.0,1613.0,315.451535108392,197.202156055793,419.998657006697,674900225
23,-41.0,-33.0,-10998.0,-1903.0,147.0,1613.0,319.365007588719,190.799046991729,420.001869868755,674908209
-79,74.0,-34.0,-10999.0,-1906.0,148.0,1610.0,321.905240805583,184.312272406996,420.001094147839,674926360
62,-18.0,-35.0,-11000.0,-1906.0,149.0,1610.0,325.606667031584,179.942423303096,419.998423607328,674934948
-89,86.0,-44.0,-11001.0,-1908.0,150.0,1609.0,328.00158798945,173.326873369018,420.001020099216,674943028
-89,86.0,-44.0,-11002.0,-1909.0,151.0,1607.0,331.481968836288,168.877816931155,419.999861848011,674951412
64,-115.0,-26.0,-11002.0,-1909.0,151.0,1607.0,333.726739978881,162.144323537742,419.999090395278,674962938
64,-115.0,-26.0,-11003.0,-1910.0,152.0,1605.0,336.98142326848,157.617522964264,420.000535069778,674971570
61,-142.0,-29.0,-11005.0,-1911.0,153.0,1603.0,340.099717642835,150.771767287974,420.000655292595,674989201
58,-136.0,-17.0,-11005.0,-1911.0,153.0,1603.0,343.080467687201,143.860637960101,419.999955940595,674997935
-84,163.0,-69.0,-11006.0,-1914.0,154.0,1603.0,344.989245827428,136.890703071673,419.999641239509,675005879
54,-99.0,-4.0,-11007.0,-1913.0,155.0,1601.0,347.734030839772,129.868807025881,420.000784277546,675019115
-79,139.0,-64.0,-11009.0,-1916.0,157.0,1599.0,350.33730897043,122.791425385356,420.000074009105,675030779
17,-11.0,0.0,-11010.0,-1917.0,158.0,1599.0,353.584081556452,115.665549498418,420.000428066378,675048267
-61,81.0,-71.0,-11011.0,-1917.0,159.0,1597.0,355.851877984268,108.488485004112,419.99982049566,675056368
12,-26.0,-26.0,-11012.0,-1919.0,160.0,1596.0,357.974091104475,101.265948644123,419.99982049552,675068832
-9,73.0,-142.0,-11014.0,-1917.0,161.0,1592.0,359.307091674136,94.0040289523283,420.00119736843,675075410
53,146.0,-213.0,-11019.0,-1908.0,163.0,1577.0,361.184681253266,86.7023541022966,420.000751529547,675093618
53,146.0,-213.0,-11022.0,-1899.0,162.0,1569.0,362.913885822259,81.815202289537,419.999851089531,675101937
42,315.0,-295.0,-11022.0,-1899.0,162.0,1569.0,363.983321805317,74.4623335447571,420.001136180752,675108883
-43,211.0,-241.0,-11030.0,-1870.0,162.0,1546.0,365.46503346205,67.070940734194,420.000589797957,675121799
-182,127.0,-230.0,-11034.0,-1850.0,160.0,1527.0,366.797286937204,62.1293406512494,419.99982049552,675129363
-120,167.0,-324.0,-11034.0,-1850.0,160.0,1527.0,367.978470769863,54.6971291427194,420.001339422279,675138050
230,179.0,-411.0,-11043.0,-1799.0,154.0,1476.0,368.683283423443,47.2386561767303,420.001359100556,675158281
27,263.0,-378.0,-11047.0,-1766.0,149.0,1444.0,369.890378972384,39.766013787401,420.00119736864,675164487
-253,207.0,-87.0,-11060.0,-1685.0,141.0,1373.0,370.61917694819,29.7776694155343,420.000185468954,675185804
77,171.0,-221.0,-11065.0,-1640.0,135.0,1333.0,371.196033173502,24.7731416119969,419.99966967988,675193781
77,171.0,-221.0,-11069.0,-1592.0,128.0,1286.0,371.620809502477,17.2593558244452,420.001673801886,675202069
104,168.0,-217.0,-11075.0,-1538.0,121.0,1239.0,371.820159076596,9.73660662703621,420.001035637259,675212410
-116,-172.0,192.0,-11081.0,-1477.0,113.0,1184.0,371.991739845773,4.71952658896106,419.999831411517,675225361
-125,147.0,-158.0,-11089.0,-1411.0,107.0,1125.0,372.021351450176,-2.80429981381923,419.999781139699,675233287
102,-301.0,138.0,-11104.0,-1261.0,92.0,988.0,371.877871692075,-10.3324713657401,420.001481476536,675249947
-155,425.0,-327.0,-11113.0,-1181.0,86.0,913.0,371.592995379732,-17.8525615288232,420.001431204383,675263603
-144,177.0,-49.0,-11119.0,-1093.0,77.0,834.0,371.318350963087,-25.3674233997171,420.000226978855,675273045
192,-158.0,-70.0,-11127.0,-998.0,71.0,750.0,370.566623762802,-32.8699594169923,420.000004059247,675280859
-135,-47.0,71.0,-11134.0,-901.0,64.0,660.0,370.089760697763,-40.358742712503,420.001734990518,675298351
-205,170.0,-173.0,-11140.0,-799.0,58.0,569.0,368.933828484358,-47.8316265653653,420.001573258743,675306370
152,-150.0,-73.0,-11146.0,-695.0,53.0,474.0,367.890678131646,-55.2871662165007,419.999761461576,675318838
-133,78.0,59.0,-11151.0,-588.0,49.0,375.0,367.111468021527,-62.7175330411086,420.000146112991,675325423
-68,-3.0,-149.0,-11159.0,-372.0,43.0,177.0,365.817406755962,-67.6583246583257,420.001411526958,675343911
-68,-3.0,-149.0,-11161.0,-261.0,41.0,79.0,364.374290632142,-75.0435410594988,420.001522986273,675352145
-61,129.0,-144.0,-11163.0,-149.0,40.0,-25.0,362.781871275462,-82.398010809187,420.000399626575,675365291
-61,129.0,-144.0,-11164.0,-35.0,41.0,-128.0,361.637082847806,-89.7220696890912,420.001249795557,675371474
120,-213.0,-21.0,-11163.0,77.0,42.0,-232.0,359.797528450497,-97.006519168442,420.001522986903,675387156
-132,225.0,-250.0,-11160.0,308.0,49.0,-439.0,357.810121352422,-101.843366882918,420.000764599716,675399625
-28,-300.0,100.0,-11160.0,308.0,49.0,-439.0,355.676466820712,-109.061132368428,420.000268488796,675407412
54,68.0,-316.0,-11157.0,421.0,53.0,-543.0,353.39748576941,-116.233399109244,420.000683734135,675419929
175,240.0,-368.0,-11153.0,534.0,59.0,-645.0,350.974294480398,-123.357608349655,420.00092633183,675427392
19,247.0,-275.0,-11142.0,766.0,75.0,-858.0,349.278669914564,-130.432754069558,420.000137350642,675443594
19,247.0,-275.0,-11133.0,883.0,83.0,-964.0,346.616347022629,-135.118979542408,420.001341577653,675451966
69,-221.0,-112.0,-11133.0,883.0,83.0,-964.0,344.7621999841,-139.782692506423,420.000845466046,675458968
14,64.0,-244.0,-11124.0,999.0,92.0,-1070.0,341.863612973083,-146.729008267227,420.000460814457,675468507
47,-314.0,100.0,-11103.0,1233.0,116.0,-1281.0,339.853642260282,-151.326092549154,420.001129573507,675482914
-145,332.0,-275.0,-11092.0,1345.0,130.0,-1387.0,337.782480737547,-158.169703809843,420.000764600248,675491312
39,289.0,-339.0,-11082.0,1460.0,147.0,-1491.0,334.559171079593,-164.949529079416,420.000117672416,675500000
70,237.0,-374.0,-11067.0,1578.0,161.0,-1598.0,331.19922367367,-169.431609527026,420.001068386412,675513943
70,237.0,-374.0,-11067.0,1578.0,161.0,-1598.0,328.884490880546,-176.096458370948,420.001514224661,675520210
111,-197.0,-49.0,-11038.0,1806.0,196.0,-1805.0,324.074626112801,-182.690490948868,420.000806109433,675532020
-14,-78.0,-82.0,-11021.0,1922.0,215.0,-1909.0,321.581173462434,-189.207397410159,420.00096784194,675549332
53,-1.0,-106.0,-11004.0,2039.0,236.0,-2014.0,317.731467184024,-193.511460621295,420.001352492543,675557209
53,-1.0,-106.0,-10985.0,2155.0,2.0,-2120.0,315.092371623788,-199.900482065199,420.000117672565,675563446
-23,-155.0,-77.0,-10966.0,2266.0,24.0,-2223.0,311.027712886686,-204.112107349724,420.00072524334,675576111
94,158.0,-199.0,-10944.0,2381.0,46.0,-2327.0,306.834572867149,-210.362936287973,420.001352493451,675586859
-76,-75.0,139.0,-10923.0,2495.0,72.0,-2430.0,302.516014688684,-216.527421808502,420.001109895441,675594985
-11,87.0,-102.0,-10900.0,2611.0,98.0,-2535.0,298.074910964892,-222.601455252163,420.000482645843,675610013
-80,-91.0,-95.0,-10852.0,2837.0,152.0,-2740.0,293.509567604597,-230.5611951775,419.999875074463,675622515
23,111.0,-239.0,-10827.0,2949.0,181.0,-2842.0,288.825527911334,-234.477581166549,420.000836703668,675630741
31,-85.0,29.0,-10827.0,2949.0,181.0,-2842.0,284.022394914431,-240.273238582614,420.001190760822,675639347
-134,-4.0,-144.0,-10772.0,3179.0,243.0,-3047.0,279.102822714623,-245.970982980206,420.000705565228,675659458
-118,13.0,-159.0,-10712.0,3399.0,50.0,-3251.0,274.071245745585,-253.408392815348,420.000432373288,675671925
109,11.0,-36.0,-10681.0,3512.0,84.0,-3353.0,268.926028700699,-258.857686160286,420.000320913903,675687636
63,10.0,-66.0,-10650.0,3625.0,121.0,-3454.0,263.723090689077,-264.120202849097,420.001076990872,675695982
-48,42.0,-165.0,-10617.0,3740.0,158.0,-3554.0,258.55888444967,-269.103842974116,420.010664433528,675704078
-34,-153.0,-112.0,-10513.0,4067.0,16.0,-3853.0,253.484514866623,-272.237101326842,420.025375140003,675731533
-34,-153.0,-112.0,-10513.0,4067.0,16.0,-3853.0,248.538547635949,-276.622125459577,420.022269562191,675731533
39,-54.0,50.0,-10474.0,4179.0,56.0,-3955.0,245.326311778351,-280.596929788527,420.036642012976,675740396
21,82.0,-99.0,-10438.0,4289.0,99.0,-4054.0,240.648104989242,-284.158819798567,420.033479561714,675756397
21,82.0,-99.0,-10399.0,4399.0,141.0,-4150.0,236.15421376961,-286.301139726725,420.070328731026,675762566
-111,-95.0,-8.0,-10360.0,4505.0,184.0,-4248.0,231.866935992969,-290.864363493974,420.063318081874,675775079
71,45.0,-57.0,-10277.0,4720.0,18.0,-4446.0,225.232142611291,-293.673067082939,420.080295793637,675794024
-31,151.0,-135.0,-10234.0,4831.0,66.0,-4543.0,220.420524809254,-295.287867454848,420.147912314571,675809574
-96,-83.0,-35.0,-10148.0,5045.0,163.0,-4732.0,218.184484896838,-296.523932213289,420.152745242039,675822035
-71,56.0,-156.0,-10148.0,5045.0,163.0,-4732.0,214.963088517318,-297.446078561455,420.211914340607,675829129
-4,155.0,-68.0,-10054.0,5255.0,7.0,-4927.0,210.733579156593,-298.358855753782,420.238680774101,675845688
75,-13.0,-39.0,-10007.0,5358.0,58.0,-5023.0,207.515841286038,-298.710893327233,420.247894300311,675855814
12,13.0,-72.0,-9959.0,5462.0,110.0,-5117.0,205.313531121549,-299.001384698018,420.280083472096,675868253
-19,47.0,-114.0,-9861.0,5671.0,220.0,-5303.0,201.900604490799,-299.36598303639,420.319028652206,675882373
-21,157.0,-110.0,-9810.0,5775.0,21.0,-5396.0,198.315998373421,-299.658247065196,420.31533104167,675890907
-25,38.0,-74.0,-9810.0,5775.0,21.0,-5396.0,195.830308947932,-299.882540505694,420.325891555984,675899781
-104,26.0,-73.0,-9704.0,5977.0,134.0,-5581.0,191.923140923505,-300.008301846303,420.346674113922,675913997
-73,59.0,-150.0,-9650.0,6077.0,191.0,-5674.0,187.816009583875,-300.170016605152,420.38192746601,675923612
159,75.0,-101.0,-9596.0,6178.0,252.0,-5765.0,185.000157266268,-300.298930173133,420.411481602548,675931444
40,29.0,0.0,-9540.0,6281.0,57.0,-5855.0,179.198607786368,-300.40911930599,420.408000067112,675948470
-221,105.0,-64.0,-9484.0,6381.0,119.0,-5944.0,176.236186250018,-300.474002394515,420.404578323341,675956291
-39,61.0,-91.0,-9427.0,6478.0,181.0,-6034.0,171.742031268476,-300.546797097453,420.383107088645,675968890
35,189.0,14.0,-9368.0,6576.0,243.0,-6124.0,167.192116884277,-300.598372345733,420.381759356256,675975091
61,53.0,54.0,-9308.0,6674.0,51.0,-6212.0,164.139609027796,-300.637946631552,420.385408592881,675985432
88,-63.0,-95.0,-9189.0,6870.0,183.0,-6385.0,159.532943349615,-300.665293225426,420.356284580502,676002227
-164,114.0,5.0,-9189.0,6870.0,183.0,-6385.0,154.886612715332,-300.686754028435,420.342906271007,676009586
-128,181.0,-103.0,-9063.0,7058.0,61.0,-6560.0,150.228298463647,-300.696137565912,420.351344341779,676022003
117,-71.0,-181.0,-9063.0,7058.0,61.0,-6560.0,147.114690116655,-300.704413901062,420.303890619544,676028918
55,13.0,-34.0,-8998.0,7154.0,129.0,-6645.0,142.438743380183,-300.702872537924,420.294613943264,676037691
106,-83.0,-46.0,-8934.0,7246.0,197.0,-6729.0,139.31736684972,-300.705034855248,420.30112576961,676049671
13,-72.0,-54.0,-8803.0,7434.0,85.0,-6897.0,134.627109290449,-300.701271021656,420.273679340014,676064011
22,-12.0,-75.0,-8736.0,7525.0,158.0,-6981.0,129.927036736774,-300.699545614391,420.264433329511,676076663
-24,40.0,-62.0,-8668.0,7616.0,230.0,-7063.0,126.792796667552,-300.695775072105,420.251142425568,676084399
-24,40.0,-62.0,-8600.0,7703.0,45.0,-7143.0,122.093710349896,-300.687694209324,420.239750234754,676092771
51,-47.0,21.0,-8530.0,7794.0,121.0,-7225.0,117.385763554041,-300.681418764389,420.210344554165,676101563
-57,83.0,-69.0,-8459.0,7885.0,197.0,-7306.0,112.68769734319,-300.67233937661,420.199126324802,676118685
153,-170.0,-148.0,-8389.0,7971.0,18.0,-7386.0,109.546044222466,-300.661478289259,420.187823276292,676124940
-429,432.0,77.0,-8245.0,8145.0,172.0,-7543.0,104.842116360457,-300.659400550865,420.178679271951,676141934
492,-341.0,-205.0,-8245.0,8145.0,172.0,-7543.0,100.135769532223,-300.652780744141,420.173791386542,676150450
471,-359.0,-153.0,-8096.0,8316.0,73.0,-7696.0,95.4321027301553,-300.643766103132,420.139788485418,676164418
385,-221.0,-266.0,-7945.0,8486.0,236.0,-7848.0,90.7248236960356,-300.638428122643,420.135706513691,676183505
385,-221.0,-266.0,-7945.0,8486.0,236.0,-7848.0,86.0243828287044,-300.62791104589,420.12858699541,676183505
-221,94.0,221.0,-7794.0,8645.0,141.0,-7997.0,81.3188926767021,-300.626689418063,420.114488807522,676201137
271,140.0,-221.0,-7794.0,8645.0,141.0,-7997.0,78.1819160687661,-300.617502554912,420.104283050873,676208803
109,209.0,-94.0,-7646.0,8800.0,44.0,-8133.0,70.3411062274901,-300.609994315114,420.079037190192,676228219
-263,382.0,13.0,-7578.0,8869.0,119.0,-8196.0,60.9391431431541,-300.601039359429,420.086901487417,676236092
193,42.0,-46.0,-7319.0,9118.0,140.0,-8423.0,56.2340766200306,-300.595105512713,420.074772129918,676274116
193,42.0,-46.0,-7319.0,9118.0,140.0,-8423.0,51.5343109141514,-300.596185678296,420.035190643561,676274116
166,70.0,-42.0,-7207.0,9224.0,5.0,-8515.0,45.2694508301873,-300.591215812213,420.046636607054,676291063
-365,405.0,182.0,-7207.0,9224.0,5.0,-8515.0,42.1314424281562,-300.584505074228,420.063380214705,676299944
290,107.0,-143.0,-7156.0,9270.0,60.0,-8558.0,37.4334641200351,-300.588366531407,420.034889987683,676308007
325,-11.0,-88.0,-7109.0,9311.0,110.0,-8596.0,32.7345193721446,-300.586745848792,420.017840536536,676320533
340,-66.0,-60.0,-7026.0,9385.0,199.0,-8662.0,28.0341697281066,-300.58227284213,420.012022758698,676337219
-334,585.0,147.0,-6989.0,9418.0,239.0,-8690.0,23.33229166312,-300.57867109909,420.021551189937,676345725
-334,585.0,147.0,-6956.0,9448.0,18.0,-8714.0,20.1999787571599,-300.580243817424,420.020428730274,676354058
117,70.0,-16.0,-6927.0,9472.0,48.0,-8737.0,15.5039344203025,-300.58131705371,420.015407551318,676367137
117,70.0,-16.0,-6900.0,9494.0,76.0,-8757.0,10.8032836775921,-300.580708051166,420.001058711939,676373340
-241,472.0,99.0,-6881.0,9511.0,97.0,-8772.0,7.67012372108366,-300.577534223957,419.981062295354,676389083
-43,525.0,52.0,-6851.0,9539.0,132.0,-8794.0,2.97125795927958,-300.573063809831,419.998957609345,676401851
5,112.0,135.0,-6851.0,9539.0,132.0,-8794.0,-0.159454068331095,-300.570222742937,420.002206644613,676409551
-222,255.0,-69.0,-6841.0,9550.0,144.0,-8799.0,-4.85784462585263,-300.546690671055,419.975518253468,676421976
-365,-36.0,73.0,-6833.0,9558.0,153.0,-8805.0,-9.55452895212188,-300.546948952245,419.946042243937,676428778
-75,137.0,-5.0,-6821.0,9570.0,168.0,-8814.0,-14.2539982013325,-300.560469040665,419.947911402615,676444815
-75,137.0,-5.0,-6818.0,9576.0,174.0,-8815.0,-18.9512734002454,-300.571179341726,419.970078321445,676453837
-333,94.0,86.0,-6815.0,9581.0,179.0,-8815.0,-23.6510330490734,-300.571666465947,419.970776947423,676464442
-168,56.0,-148.0,-6811.0,9584.0,183.0,-8818.0,-28.3493326783633,-300.571783139585,419.976676892274,676477218
-262,168.0,81.0,-6808.0,9586.0,186.0,-8821.0,-31.4810579079693,-300.57102606717,419.973486190006,676485180
-298,146.0,37.0,-6805.0,9588.0,188.0,-8823.0,-36.1814931719533,-300.577506017703,419.976880384574,676502539
-406,105.0,-39.0,-6805.0,9588.0,188.0,-8823.0,-40.8777318091122,-300.579808906237,419.998962812776,676510074
-503,-14.0,76.0,-6804.0,9590.0,191.0,-8824.0,-45.5765885312361,-300.575585072679,420.016878294669,676516598
-325,-31.0,-80.0,-6801.0,9591.0,194.0,-8828.0,-48.7097923094646,-300.57747182348,420.011112295714,676534372
-347,99.0,-6.0,-6800.0,9591.0,194.0,-8827.0,-53.4103659164076,-300.581749674164,420.003543736941,676542940
-388,27.0,31.0,-6800.0,9591.0,193.0,-8828.0,-56.542926915098,-300.578787582343,420.01823614651,676551727
-315,21.0,-100.0,-6800.0,9591.0,193.0,-8828.0,-61.2416818849008,-300.582022903984,420.009284615981,676559542
-43,45.0,-76.0,-6796.0,9589.0,194.0,-8833.0,-65.9389385368074,-300.584885083974,420.013486678623,676575384
-43,45.0,-76.0,-6796.0,9588.0,193.0,-8834.0,-70.6411289733001,-300.586237806887,420.003125278233,676583877
-178,90.0,-53.0,-6795.0,9587.0,193.0,-8835.0,-73.7730393236443,-300.583970142641,420.038872037725,676595209
-178,90.0,-53.0,-6794.0,9586.0,191.0,-8837.0,-78.4739971344035,-300.585786056638,420.041824622018,676603871
-3,194.0,-11.0,-6792.0,9584.0,190.0,-8838.0,-83.1772441724398,-300.596792698771,420.022517544688,676617176
-38,5.0,-53.0,-6792.0,9584.0,190.0,-8839.0,-87.8788458594613,-300.601946872511,420.043238614317,676630916
-161,-38.0,-21.0,-6792.0,9584.0,190.0,-8839.0,-92.57394805318,-300.600022705647,420.075089230549,676639783
-122,175.0,-43.0,-6791.0,9583.0,189.0,-8840.0,-97.2838782439748,-300.604220193881,420.073018830019,676659492
71,104.0,-57.0,-6790.0,9581.0,188.0,-8842.0,-101.985929041206,-300.609428992786,420.066665459291,676665836
-32,92.0,50.0,-6789.0,9580.0,187.0,-8842.0,-106.689099540191,-300.610401106362,420.07985785179,676679233
156,-51.0,-66.0,-6789.0,9580.0,187.0,-8842.0,-111.388594113409,-300.618817050498,420.078400780166,676687543
-55,121.0,-46.0,-6790.0,9583.0,188.0,-8840.0,-116.094172843641,-300.619793740918,420.101930409646,676704041
-124,-1.0,-172.0,-6790.0,9583.0,188.0,-8840.0,-119.235599105217,-300.627288879281,420.108940277832,676711186
-59,99.0,-31.0,-6789.0,9581.0,189.0,-8843.0,-123.943181873832,-300.633340933718,420.131753375249,676720736
260,-15.0,-83.0,-6789.0,9580.0,187.0,-8843.0,-128.646752740431,-300.646958947135,420.125220624479,676736127
260,-15.0,-83.0,-6790.0,9580.0,187.0,-8842.0,-131.783009924764,-300.653003102054,420.141784402399,676744564
44,-238.0,-270.0,-6790.0,9582.0,189.0,-8842.0,-136.491219683958,-300.66277484116,420.159861595625,676753057
-160,491.0,-12.0,-6787.0,9582.0,189.0,-8844.0,-141.202993629567,-300.66432936649,420.164689447956,676766683
373,-361.0,-185.0,-6787.0,9582.0,187.0,-8842.0,-147.484125276186,-300.688839845011,420.169519685042,676784215
-279,203.0,239.0,-6791.0,9577.0,188.0,-8845.0,-152.202462856515,-300.70454649578,420.204549850771,676792845
-376,632.0,98.0,-6785.0,9583.0,187.0,-8842.0,-156.913762757896,-300.718431707513,420.250525260867,676809455
190,-135.0,-271.0,-6789.0,9580.0,190.0,-8846.0,-161.629400273112,-300.74232772244,420.268270300646,676815800
-248,431.0,23.0,-6786.0,9582.0,187.0,-8844.0,-166.3405334624,-300.75327952926,420.270495093694,676828834
108,-450.0,-52.0,-6789.0,9578.0,187.0,-8845.0,-170.998799204962,-300.768813377469,420.282153958843,676836773
55,371.0,-144.0,-6787.0,9580.0,187.0,-8844.0,-177.024440280634,-300.77215634548,420.30686106693,676855378
-15,-39.0,-174.0,-6786.0,9581.0,188.0,-8845.0,-179.939705941931,-300.766012040078,420.340552330409,676868505
-15,-39.0,-174.0,-6787.0,9582.0,189.0,-8844.0,-182.761365741838,-300.755386815843,420.33603098482,676874691
-103,45.0,18.0,-6787.0,9582.0,189.0,-8844.0,-186.837632219813,-300.742991709436,420.356141391249,676882460
-108,187.0,-6.0,-6787.0,9580.0,189.0,-8846.0,-190.710652898674,-300.720197607765,420.354184839026,676891660
-144,350.0,195.0,-6787.0,9580.0,189.0,-8846.0,-193.162716043708,-300.708961360628,420.370053047839,676900956
65,-211.0,-166.0,-6786.0,9580.0,188.0,-8847.0,-196.639335654532,-300.677026771787,420.385130035903,676913271
-114,140.0,15.0,-6785.0,9580.0,187.0,-8846.0,-198.824087214135,-300.645389483634,420.359877008085,676930828
-51,314.0,101.0,-6785.0,9579.0,187.0,-8847.0,-201.903950995475,-300.615623857691,420.36552381439,676939549
-25,-108.0,-5.0,-6785.0,9579.0,187.0,-8847.0,-204.719451300744,-300.57820276522,420.369363164394,676947851
64,-107.0,-191.0,-6783.0,9579.0,186.0,-8847.0,-206.453724087098,-300.54082628603,420.340523588603,676964273
-102,349.0,151.0,-6783.0,9580.0,186.0,-8846.0,-208.836789815174,-300.507038451473,420.331834793992,676973135
103,-192.0,-313.0,-6783.0,9580.0,186.0,-8846.0,-210.959026752624,-300.455447196464,420.330805121971,676985242
6,213.0,71.0,-6783.0,9580.0,186.0,-8846.0,-212.810363252741,-300.407235325537,420.319995317376,676993806
-183,215.0,321.0,-6783.0,9580.0,186.0,-8846.0,-213.892617340683,-300.357535130717,420.276898298534,677002489
-21,299.0,193.0,-6783.0,9580.0,186.0,-8846.0,-215.70104547591,-300.301465149631,420.238934027632,677017918
-191,423.0,378.0,-6783.0,9581.0,185.0,-8845.0,-216.739457339614,-300.218589793615,420.201128722428,677026293
-36,-170.0,-147.0,-6783.0,9580.0,186.0,-8846.0,-217.755315902463,-300.152961751911,420.071313029077,677043505
96,-451.0,-417.0,-6782.0,9580.0,185.0,-8847.0,-218.289141315042,-300.115019669805,419.807462822675,677055535
58,340.0,406.0,-6781.0,9579.0,185.0,-8848.0,-218.688740638312,-300.10294992725,418.991591316973,677072146
19,178.0,141.0,-6781.0,9579.0,185.0,-8848.0,-219.02698547865,-300.119176531141,418.316951293766,677081188
444,-560.0,-549.0,-6782.0,9577.0,185.0,-8849.0,-219.291634574669,-300.130156717277,417.061225927641,677089832
160,189.0,353.0,-6782.0,9577.0,185.0,-8850.0,-219.438135414566,-300.168114153269,416.002310080256,677106045
160,189.0,353.0,-6779.0,9578.0,184.0,-8850.0,-219.633478222358,-300.204343130252,414.035347064019,677113374
294,-44.0,-445.0,-6780.0,9578.0,185.0,-8851.0,-219.813781701358,-300.274805517952,412.478211237978,677125036
71,545.0,406.0,-6779.0,9578.0,183.0,-8849.0,-219.91247191136,-300.358073972224,409.790212388309,677133863
453,-254.0,-389.0,-6782.0,9577.0,184.0,-8849.0,-220.052249717691,-300.421249440849,406.614764483277,677142656
233,50.0,193.0,-6782.0,9577.0,184.0,-8849.0,-220.189247422722,-300.519881179218,404.233346631365,677151077
564,-38.0,-488.0,-6780.0,9577.0,184.0,-8850.0,-220.273202660888,-300.626088811237,400.242044855635,677166469
564,-38.0,-488.0,-6780.0,9579.0,184.0,-8848.0,-220.399066914546,-300.735339251088,395.739925878798,677174945
8,369.0,434.0,-6781.0,9579.0,185.0,-8849.0,-220.501590858772,-300.84521380297,390.750855052039,677183539
437,25.0,-269.0,-6781.0,9580.0,185.0,-8847.0,-220.591732724217,-300.939750060229,385.374492311686,677204238
282,-97.0,-78.0,-6781.0,9580.0,185.0,-8847.0,-220.67473157046,-300.990262058717,379.722033322434,677212045
132,127.0,209.0,-6780.0,9582.0,186.0,-8846.0,-220.728589287258,-301.045058419811,373.867396032368,677228390
56,222.0,37.0,-6782.0,9583.0,185.0,-8843.0,-220.758485859655,-301.091940041076,369.860386173403,677236370
56,222.0,37.0,-6787.0,9581.0,182.0,-8839.0,-220.787978226045,-301.114982989965,363.723364517653,677244649
-39,295.0,33.0,-6793.0,9578.0,176.0,-8833.0,-220.807160802991,-301.124722442467,359.576919090158,677253181
107,362.0,146.0,-6803.0,9569.0,166.0,-8826.0,-220.813444049397,-301.128498281396,351.199664578613,677264057
42,251.0,31.0,-6819.0,9557.0,150.0,-8814.0,-220.815141319596,-301.122759910042,346.969330539521,677276754
42,251.0,31.0,-6839.0,9542.0,130.0,-8798.0,-220.812123353654,-301.107679877661,340.544602861119,677284651
39,259.0,51.0,-6862.0,9523.0,104.0,-8779.0,-220.804098480764,-301.096079230185,334.055104354208,677301882
60,386.0,83.0,-6890.0,9499.0,73.0,-8758.0,-220.792900723118,-301.077783071636,327.565468539434,677309765
-18,373.0,198.0,-6964.0,9434.0,250.0,-8703.0,-220.776359197651,-301.047021335836,321.071946416934,677325711
-49,316.0,226.0,-7009.0,9397.0,203.0,-8667.0,-220.760071589975,-301.028305522946,312.366699360038,677341873
-104,252.0,82.0,-7057.0,9356.0,152.0,-8627.0,-220.73459324508,-300.994239564298,305.795264728701,677350077
-112,290.0,65.0,-7166.0,9256.0,31.0,-8539.0,-220.710543446695,-300.956403073014,299.186758367051,677364403
276,371.0,-61.0,-7166.0,9256.0,31.0,-8539.0,-220.705018330325,-300.946369117274,294.865862595284,677371351
-177,72.0,325.0,-7306.0,9131.0,144.0,-8425.0,-220.681291779128,-300.925338718703,290.48152242275,677388022
-177,72.0,325.0,-7376.0,9063.0,65.0,-8364.0,-220.680879691597,-300.909090084617,283.937156397467,677395966
32,306.0,-66.0,-7453.0,8988.0,237.0,-8296.0,-220.659275274949,-300.885738704097,277.316785741372,677404517
91,73.0,-197.0,-7535.0,8905.0,150.0,-8226.0,-220.6428209133,-300.862797877722,270.783623121939,677418025
15,212.0,10.0,-7618.0,8822.0,60.0,-8151.0,-220.624268182324,-300.831606177426,264.177522045532,677431083
-218,166.0,272.0,-7704.0,8735.0,225.0,-8072.0,-220.616170641668,-300.830994205994,257.647506836331,677439548
74,239.0,-205.0,-7789.0,8644.0,134.0,-7995.0,-220.591448666129,-300.796275574172,253.220218856262,677451314
-128,464.0,281.0,-7959.0,8460.0,206.0,-7830.0,-220.590451621773,-300.795671922398,244.484489421305,677465279
21,-90.0,-119.0,-7959.0,8460.0,206.0,-7830.0,-220.576988433437,-300.782019568941,240.093422553082,677472253
-77,4.0,114.0,-8131.0,8265.0,20.0,-7655.0,-220.560729655634,-300.758922314255,233.509098224587,677486493
58,-51.0,-380.0,-8301.0,8063.0,93.0,-7476.0,-220.546472414775,-300.739480991211,224.750790712545,677503534
9,108.0,58.0,-8384.0,7962.0,2.0,-7384.0,-220.561678545436,-300.751005205179,220.391919285083,677514511
-88,-14.0,-86.0,-8384.0,7962.0,2.0,-7384.0,-220.553744167879,-300.748892966725,213.818325981491,677520753
-115,-139.0,12.0,-8469.0,7857.0,170.0,-7290.0,-220.53710718508,-300.727466205739,209.40874697917,677527012
62,238.0,-117.0,-8632.0,7644.0,248.0,-7101.0,-220.505485759304,-300.683591158294,200.61799510269,677543476
-295,142.0,151.0,-8713.0,7537.0,162.0,-7003.0,-220.494970937981,-300.669001173134,194.049540043196,677560002
-295,142.0,151.0,-8795.0,7428.0,76.0,-6902.0,-220.492903255282,-300.6661816617,187.477063819925,677566286
-295,142.0,151.0,-8795.0,7428.0,76.0,-6902.0,-220.500080400522,-300.672245150333,183.089747893081,677566286
169,160.0,-38.0,-8947.0,7205.0,163.0,-6707.0,-220.507881528043,-300.688621216865,176.539856797047,677592030
-280,85.0,4.0,-9025.0,7092.0,81.0,-6604.0,-220.514492893213,-300.696684918223,172.171816121837,677600642
-304,41.0,296.0,-9103.0,6980.0,0.0,-6498.0,-220.525910815568,-300.712450581625,165.608206789185,677608559
81,151.0,-332.0,-9175.0,6865.0,176.0,-6398.0,-220.532680293042,-300.722941091026,159.040175150488,677621025
266,16.0,-184.0,-9245.0,6748.0,96.0,-6298.0,-220.538785433618,-300.731518104863,152.475574704416,677627298
-51,-65.0,-98.0,-9391.0,6514.0,199.0,-6082.0,-220.54226106749,-300.73600563396,145.898610365351,677644023
-212,-111.0,75.0,-9459.0,6401.0,125.0,-5974.0,-220.549999641347,-300.746054254313,137.154307735466,677652984
-212,-111.0,75.0,-9459.0,6401.0,125.0,-5974.0,-220.566940478025,-300.772934356293,132.777666672895,677652984
-82,-49.0,196.0,-9722.0,5915.0,93.0,-5542.0,-220.574991688963,-300.770987872208,124.015312504381,677692990
-82,-49.0,196.0,-9722.0,5915.0,93.0,-5542.0,-220.558039280399,-300.764996317093,117.568145087637,677692990
-55,123.0,-69.0,-9784.0,5793.0,26.0,-5434.0,-220.558766719427,-300.777474178027,111.396774535462,677709983
51,-22.0,-79.0,-9907.0,5541.0,148.0,-5210.0,-220.547875151345,-300.749707457951,103.61155604556,677725209
11,-168.0,-14.0,-9966.0,5419.0,85.0,-5096.0,-220.528418727123,-300.72292382869,98.209460856207,677733824
-45,32.0,-6.0,-9966.0,5419.0,85.0,-5096.0,-220.522070641304,-300.681966488474,94.8168341964501,677742503
-15,142.0,-164.0,-10079.0,5170.0,217.0,-4868.0,-220.493109118353,-300.634437274691,90.0842230579267,677761652
17,-57.0,-20.0,-10134.0,5041.0,158.0,-4753.0,-220.435531194508,-300.578821003351,84.4832245085487,677768903
11,-56.0,-57.0,-10240.0,4784.0,43.0,-4522.0,-220.370402766797,-300.506942371343,79.7085758297012,677785369
-10,46.0,-177.0,-10289.0,4656.0,242.0,-4406.0,-220.33406129281,-300.455120319735,76.6633645674542,677794358
-28,62.0,-96.0,-10339.0,4526.0,188.0,-4289.0,-220.301802832898,-300.390441973897,74.1694886561472,677811187
41,-110.0,-182.0,-10434.0,4264.0,86.0,-4053.0,-220.239617674984,-300.307867240804,71.5540800965018,677828950
-30,82.0,-125.0,-10479.0,4133.0,36.0,-3934.0,-220.205987380418,-300.258017972152,70.1479470533514,677836931
-52,104.0,-90.0,-10564.0,3870.0,197.0,-3694.0,-220.142424547419,-300.209640863684,69.0407175148425,677853861
-20,13.0,-120.0,-10564.0,3870.0,197.0,-3694.0,-220.024567399142,-300.134752145326,68.1859582260065,677861647
-23,-15.0,-113.0,-10646.0,3602.0,109.0,-3452.0,-219.70064424812,-300.101893352926,67.5251755317063,677877026
-23,-15.0,-113.0,-10683.0,3467.0,66.0,-3331.0,-219.187052969816,-300.101262485586,67.0199118772971,677886018
-53,104.0,-156.0,-10718.0,3333.0,25.0,-3210.0,-218.358734855222,-300.04440319568,66.5508235726485,677897337
91,-69.0,-116.0,-10753.0,3197.0,242.0,-3091.0,-217.23168917399,-300.034488918963,66.228319067886,677913443
-12,-41.0,9.0,-10787.0,3060.0,204.0,-2967.0,-216.316920022658,-300.02096127275,66.0470491384452,677921163
-56,8.0,-101.0,-10821.0,2924.0,169.0,-2841.0,-214.664976904491,-300.009046288922,65.8140287176032,677929517
-83,94.0,-140.0,-10880.0,2655.0,102.0,-2596.0,-212.686884926024,-300.005731731106,65.6221539144567,677945868
87,-112.0,-69.0,-10908.0,2516.0,71.0,-2472.0,-210.340926286315,-299.990548584855,65.4979560682755,677957334
87,-112.0,-69.0,-10908.0,2516.0,71.0,-2472.0,-208.594076080731,-300.017869028155,65.4005005835355,677964439
-64,11.0,23.0,-10961.0,2243.0,14.0,-2219.0,-205.66691521156,-300.078130251533,65.2958916407316,677977234
-185,96.0,19.0,-10983.0,2107.0,243.0,-2097.0,-202.374967524379,-300.10528530607,65.2377653303623,677985941
37,-42.0,-148.0,-11005.0,1966.0,218.0,-1973.0,-199.952254770596,-300.128616283373,65.1235448133764,677994682
61,-26.0,21.0,-11025.0,1825.0,193.0,-1846.0,-196.028050669702,-300.18664027547,65.0832551575551,678011353
49,-222.0,-217.0,-11044.0,1687.0,172.0,-1722.0,-191.724619203818,-300.259687525103,65.0414225788547,678020758
49,-222.0,-217.0,-11062.0,1551.0,153.0,-1594.0,-187.109365220608,-300.332866377963,64.9912740983163,678027104
-224,284.0,126.0,-11079.0,1412.0,135.0,-1465.0,-183.868895633476,-300.377420924121,64.9319897968858,678035165
42,-141.0,-225.0,-11093.0,1272.0,117.0,-1341.0,-178.853387756194,-300.507056952853,64.9168512951539,678052571
28,123.0,-48.0,-11105.0,1131.0,100.0,-1216.0,-173.698641968754,-300.552568866813,64.8760651775723,678060495
100,-65.0,-329.0,-11117.0,989.0,87.0,-1090.0,-168.411277799984,-300.614875950946,64.8428278290839,678072994
-298,128.0,48.0,-11137.0,716.0,66.0,-833.0,-163.067066093968,-300.676380372666,64.8394945552936,678083693
-257,98.0,40.0,-11142.0,573.0,54.0,-707.0,-157.613356922198,-300.707972228275,64.8207545399775,678093549
255,162.0,-292.0,-11148.0,428.0,47.0,-584.0,-153.965707552601,-300.773758415443,64.8352939741991,678110798
255,162.0,-292.0,-11152.0,291.0,41.0,-454.0,-148.449396693225,-300.77761581823,64.8108684658092,678117068
-352,138.0,-284.0,-11156.0,153.0,39.0,-325.0,-142.893581510999,-300.796391527195,64.8084627330629,678129870
122,-142.0,28.0,-11156.0,12.0,34.0,-198.0,-139.183028620914,-300.82690153734,64.8202933857959,678137685
122,-142.0,28.0,-11156.0,-130.0,34.0,-75.0,-133.602877808328,-300.852587908896,64.8290406600422,678146045
56,-480.0,-222.0,-11153.0,-272.0,33.0,53.0,-127.995910773046,-300.856003867866,64.8278087154152,678164424
-21,43.0,-139.0,-11150.0,-411.0,36.0,181.0,-124.255069728065,-300.845194916637,64.8174433246939,678170781
-27,-160.0,-91.0,-11140.0,-681.0,45.0,427.0,-118.633233608759,-300.869198156799,64.8578311857897,678184605
317,-384.0,-178.0,-11134.0,-812.0,52.0,543.0,-113.006655996713,-300.87767301318,64.8465314779856,678193983
-97,144.0,375.0,-11134.0,-812.0,52.0,543.0,-107.371389526396,-300.85413187203,64.8402184227988,678203084
-239,334.0,140.0,-11118.0,-1051.0,68.0,761.0,-101.72874339156,-300.838013565358,64.8566625526487,678220337
-239,334.0,140.0,-11110.0,-1161.0,78.0,868.0,-96.1092804047941,-300.900240435234,64.9003207810531,678226518
260,-465.0,-228.0,-11101.0,-1267.0,87.0,958.0,-92.3503430650529,-300.859294756802,64.8773096302704,678242963
77,-124.0,226.0,-11090.0,-1366.0,95.0,1046.0,-86.6964633658941,-300.845133445874,64.8829854743938,678251493
46,-343.0,-27.0,-11072.0,-1541.0,115.0,1208.0,-79.1766198250748,-300.853028301734,64.8992182258243,678265799
-60,160.0,408.0,-11064.0,-1616.0,125.0,1278.0,-73.5426815659112,-300.870316395681,64.9249995264746,678282467
0,-49.0,51.0,-11056.0,-1682.0,134.0,1340.0,-67.9089675670364,-300.855829493695,64.917651254928,678290979
22,31.0,204.0,-11047.0,-1743.0,140.0,1395.0,-62.2559729740249,-300.819274111571,64.9178434166307,678299152
163,-21.0,258.0,-11041.0,-1798.0,149.0,1446.0,-58.4932328763191,-300.833322918404,64.9325865617323,678314417
14,-271.0,237.0,-11035.0,-1847.0,156.0,1488.0,-52.8554663282617,-300.835477565426,64.9448031584248,678320693
-239,-6.0,127.0,-11025.0,-1911.0,166.0,1553.0,-45.3471624299201,-300.815083826715,64.9497168927142,678334501
57,-50.0,-61.0,-11020.0,-1934.0,167.0,1570.0,-39.7026869332465,-300.819649519985,64.9509350665532,678346699
115,101.0,-338.0,-11016.0,-1951.0,167.0,1583.0,-35.9372407760713,-300.816504194957,64.9565105365726,678362926
-59,138.0,-350.0,-11014.0,-1963.0,169.0,1596.0,-30.3069608802965,-300.819968171955,64.9615243903091,678369218
-129,188.0,-281.0,-11012.0,-1974.0,171.0,1609.0,-26.5558907729203,-300.811202605046,64.9619086301938,678382778
43,55.0,-282.0,-11011.0,-1985.0,173.0,1618.0,-20.9168276199808,-300.814565064828,64.9670086168928,678391334
131,50.0,-390.0,-11009.0,-1994.0,173.0,1623.0,-17.1552298849795,-300.806505426597,64.9700426109151,678399610
27,116.0,-312.0,-11008.0,-1998.0,173.0,1627.0,-9.64068495271511,-300.812723048536,64.9818058252769,678410237
-128,247.0,-465.0,-11008.0,-1998.0,174.0,1630.0,-5.88718211957232,-300.815510066126,64.9903791443009,678422884
-100,342.0,-546.0,-11005.0,-2000.0,172.0,1635.0,-0.255000428206626,-300.820016059118,64.992126098813,678437545
16,233.0,-509.0,-11004.0,-2004.0,172.0,1636.0,5.38419163305527,-300.780208948053,64.9878718070696,678446216
22,192.0,-363.0,-11003.0,-2005.0,171.0,1637.0,9.14328679250769,-300.751426320946,64.986714680853,678454861
-48,261.0,-391.0,-11002.0,-2006.0,171.0,1639.0,14.7705442594507,-300.745243591788,64.9817424488833,678466495
-62,291.0,-362.0,-11001.0,-2006.0,171.0,1641.0,22.2806614101667,-300.754539568312,64.9795884883616,678483598
21,50.0,-194.0,-11000.0,-2008.0,170.0,1643.0,27.9215366940872,-300.762346270866,64.9791257916864,678492215
-25,16.0,-93.0,-10998.0,-2016.0,170.0,1651.0,31.676077324752,-300.765238414801,64.9778090669524,678509270
-25,16.0,-93.0,-10997.0,-2017.0,170.0,1652.0,37.3048587149025,-300.777469420112,64.98452719273,678516810
-53,78.0,-100.0,-10995.0,-2018.0,169.0,1655.0,42.9419209195382,-300.776755720584,64.9825870510339,678525253
-6,84.0,-192.0,-10994.0,-2018.0,168.0,1655.0,48.581922515207,-300.788312804951,64.9839050584417,678537394
8,81.0,-150.0,-10992.0,-2022.0,167.0,1659.0,54.2194381212774,-300.796223161591,64.9752674450888,678546025
-24,29.0,-27.0,-10991.0,-2022.0,166.0,1661.0,59.8518601226164,-300.79890785841,64.9754910869775,678562388
-9,-85.0,54.0,-10990.0,-2025.0,167.0,1664.0,63.6068753139249,-300.817220408093,64.9770854561894,678574966
-10,67.0,-26.0,-10989.0,-2024.0,166.0,1665.0,69.2490583526728,-300.820378083193,64.9747339672608,678581982
9,-29.0,-47.0,-10988.0,-2024.0,165.0,1669.0,74.8938265748156,-300.825697626866,64.9692831810606,678590334
-12,55.0,-150.0,-10986.0,-2023.0,164.0,1672.0,80.5251135873525,-300.828072728756,64.962123871352,678609074
-12,55.0,-150.0,-10985.0,-2024.0,163.0,1672.0,84.2830857301627,-300.825695857782,64.9483311423585,678616440
-14,70.0,-22.0,-10984.0,-2026.0,163.0,1675.0,89.9209118148403,-300.831724489729,64.9352453220877,678624798
-13,-56.0,-1.0,-10984.0,-2026.0,163.0,1675.0,95.5660988205065,-300.835792343782,64.9340493725169,678633725
-34,12.0,21.0,-10983.0,-2023.0,161.0,1677.0,99.3280112503572,-300.851635270942,64.9442220584629,678650832
-18,67.0,-65.0,-10981.0,-2022.0,160.0,1679.0,106.846196649027,-300.849309148393,64.9180671717611,678658842
2,23.0,-84.0,-10980.0,-2021.0,159.0,1681.0,112.484051094962,-300.851387901934,64.9026857439228,678675218
-4,0.0,-46.0,-10979.0,-2021.0,158.0,1684.0,120.014665628278,-300.849164750862,64.8871306308959,678691043
-4,4.0,-11.0,-10978.0,-2021.0,158.0,1686.0,125.668946408613,-300.885447998365,64.9042317221727,678698957
-16,-90.0,5.0,-10977.0,-2018.0,157.0,1685.0,131.313697957573,-300.899230257298,64.8966397005699,678714366
-18,91.0,-40.0,-10976.0,-2015.0,155.0,1688.0,136.953018418126,-300.879110222424,64.8396227201266,678726685
-19,98.0,-13.0,-10975.0,-2016.0,155.0,1690.0,142.600973387954,-300.882855850194,64.8449198025347,678737587
-20,-92.0,-31.0,-10974.0,-2014.0,154.0,1692.0,146.381391095224,-300.924250722754,64.8614729819569,678746225
-18,-118.0,16.0,-10973.0,-2014.0,154.0,1694.0,152.035451315345,-300.925163066729,64.8359716515214,678762757
-18,-118.0,16.0,-10973.0,-2011.0,153.0,1694.0,157.679699213105,-300.941316159899,64.8087773951503,678769014
-20,96.0,-36.0,-10972.0,-2010.0,153.0,1696.0,163.325975151127,-300.931310110995,64.7885479388398,678782544
-15,-137.0,4.0,-10970.0,-2008.0,151.0,1701.0,172.541519306619,-300.939950724382,64.792444535543,678805132
-18,66.0,6.0,-10970.0,-2008.0,151.0,1701.0,177.798479180104,-300.868200547665,64.7453845685744,678813429
-27,145.0,-11.0,-10970.0,-2006.0,151.0,1704.0,182.847794641561,-300.883362749156,64.7742471075577,678829037
-27,145.0,-11.0,-10970.0,-2003.0,150.0,1704.0,187.588568232969,-300.779498054927,64.7583254505947,678837439
-5,-180.0,-20.0,-10970.0,-2003.0,151.0,1706.0,192.043786432331,-300.756525978047,64.7963891409758,678854811
-19,135.0,-15.0,-10970.0,-2001.0,150.0,1707.0,196.143320769247,-300.640538047927,64.7637291311602,678865814
0,-187.0,-7.0,-10970.0,-2001.0,151.0,1710.0,199.932616518295,-300.60399350252,64.8108626643381,678872084
-20,-84.0,-11.0,-10970.0,-1998.0,150.0,1713.0,203.359175264055,-300.5321181354,64.7974105397932,678886613
-17,18.0,-8.0,-10970.0,-1996.0,150.0,1713.0,206.429545725714,-300.459179299968,64.8288230111594,678895417
-4,-87.0,-20.0,-10970.0,-1996.0,150.0,1713.0,208.25515506445,-300.374853254052,64.8343058338199,678904204
-6,-2.0,-16.0,-10970.0,-1994.0,151.0,1716.0,210.699129259533,-300.313799646062,64.8397180693768,678919103
-17,-89.0,-1.0,-10970.0,-1994.0,151.0,1718.0,212.126641234086,-300.269053891965,64.8713231093608,678929116
-17,-89.0,-1.0,-10971.0,-1993.0,151.0,1719.0,213.944521235219,-300.166774189901,64.8833293353643,678937341
-11,-159.0,7.0,-10971.0,-1991.0,152.0,1721.0,215.401646790573,-300.123068308577,64.934450579462,678954913
-22,-66.0,8.0,-10971.0,-1990.0,152.0,1722.0,216.501026817796,-300.041777414163,64.9415777996317,678962565
-15,-43.0,-21.0,-10972.0,-1988.0,152.0,1723.0,217.407984714419,-299.93858908987,64.9262838396081,678975036
-2,-54.0,13.0,-10972.0,-1988.0,152.0,1726.0,218.023437722056,-299.678706726899,64.9428344408022,678981759
-2,-54.0,13.0,-10972.0,-1988.0,152.0,1726.0,219.477815291212,-299.227351555649,64.9713300450953,678981759
-11,-109.0,-61.0,-10973.0,-1982.0,153.0,1730.0,220.357285333932,-298.759215631528,64.9836152095553,679020945
-11,-109.0,-61.0,-10973.0,-1982.0,153.0,1730.0,221.930645224119,-297.814915178402,64.985319909093,679020945
-27,9.0,52.0,-10973.0,-1980.0,153.0,1731.0,223.172675320941,-296.550676692709,64.9970720674874,679029269
-27,9.0,52.0,-10973.0,-1980.0,153.0,1733.0,225.359939511711,-295.507712918983,65.0103921266085,679037774
-5,-85.0,-90.0,-10974.0,-1977.0,154.0,1736.0,227.94993730041,-292.917421092106,65.0144713776201,679055315
-28,-48.0,78.0,-10974.0,-1977.0,154.0,1736.0,230.964972537102,-290.488569692669,65.0027539886263,679063321
-9,-54.0,-92.0,-10974.0,-1976.0,154.0,1737.0,234.434777335298,-288.620559491278,65.0020417313791,679070921
-3,-121.0,-103.0,-10974.0,-1973.0,154.0,1740.0,239.75939260695,-283.092769382362,65.0159070778601,679087591
-1,-152.0,-100.0,-10975.0,-1971.0,155.0,1743.0,247.269578380178,-276.428879697572,65.0010932348513,679107426
-33,30.0,97.0,-10975.0,-1969.0,155.0,1744.0,252.065844660855,-273.517061767767,65.0040880836716,679121911
-33,30.0,97.0,-10975.0,-1968.0,155.0,1746.0,256.976759330048,-268.935150357674,65.0079007762006,679128205
-27,-13.0,98.0,-10976.0,-1966.0,156.0,1749.0,261.93171578981,-264.132198195087,65.0075261848031,679145255
-25,-58.0,104.0,-10976.0,-1963.0,156.0,1749.0,265.237993668228,-259.128848260006,65.0008342629692,679158034
-29,-51.0,97.0,-10976.0,-1963.0,156.0,1752.0,271.830780500778,-253.949237112414,65.0027892728668,679171215
-7,-87.0,-100.0,-10976.0,-1961.0,156.0,1752.0,276.733917031135,-246.792636769037,65.0052510282265,679185049
-9,-67.0,-85.0,-10976.0,-1961.0,156.0,1754.0,283.176074167698,-241.255233618362,65.0065732725266,679193942
-17,-24.0,51.0,-10977.0,-1959.0,156.0,1755.0,287.907052735667,-235.592117296633,65.0037517836523,679203018
-32,-27.0,48.0,-10977.0,-1956.0,157.0,1758.0,291.009967699849,-229.810609912922,65.003105945077,679221249
-32,-27.0,48.0,-10977.0,-1955.0,157.0,1759.0,295.581621850187,-225.893820912028,65.0025750090268,679227683
-16,-19.0,19.0,-10978.0,-1954.0,157.0,1761.0,298.571831489959,-219.925629222692,64.9997170257116,679235760
-24,-93.0,16.0,-10978.0,-1951.0,157.0,1761.0,302.96741146906,-213.85331482101,65.0010843150435,679252980
-1,-115.0,-41.0,-10978.0,-1951.0,158.0,1763.0,307.251608473506,-207.68047286012,64.9997293351122,679260874
-6,-91.0,-7.0,-10979.0,-1949.0,158.0,1764.0,311.413467184118,-201.423832459081,65.0005934060783,679273651
-21,-45.0,-35.0,-10986.0,-1932.0,164.0,1782.0,320.642223039271,-184.315149605922,65.0016224530597,679300864
-24,-138.0,23.0,-10986.0,-1927.0,165.0,1785.0,329.179473316081,-171.105306182813,65.00034629562,679326228
-7,-198.0,20.0,-10986.0,-1927.0,165.0,1787.0,332.613453941014,-164.396058128944,65.0002241422629,679343777
-3,-155.0,23.0,-10987.0,-1925.0,166.0,1790.0,336.982624189777,-157.618576874921,65.0006125669033,679356858
-18,-170.0,26.0,-10988.0,-1923.0,166.0,1791.0,340.100621176,-150.771680152748,65.0003896466307,679372682
-8,-83.0,-73.0,-10988.0,-1922.0,166.0,1792.0,343.082452458064,-141.541594103127,65.0004076614317,679381133
-13,-83.0,-80.0,-10990.0,-1919.0,168.0,1794.0,345.921339095695,-134.557356207282,65.0001380187189,679397880
-26,-152.0,39.0,-10991.0,-1919.0,169.0,1796.0,348.618436549243,-129.869700524633,65.0004436911662,679406550
-14,-74.0,-83.0,-10991.0,-1919.0,169.0,1796.0,351.173017271668,-122.794673736799,65.0005551514101,679414098
-12,-174.0,27.0,-10992.0,-1917.0,170.0,1796.0,352.797151650814,-115.664183761705,65.0000912961228,679423363
-19,-234.0,21.0,-10994.0,-1915.0,171.0,1798.0,355.114203644282,-110.882429616598,65.0002207710125,679437833
-26,5.0,-76.0,-10994.0,-1916.0,172.0,1801.0,356.576870194222,-103.675917766136,65.000666611397,679446644
-31,-193.0,1.0,-10994.0,-1916.0,172.0,1801.0,358.649301746833,-98.8500944993016,65.0002494787073,679455347
-15,-361.0,-70.0,-10993.0,-1920.0,173.0,1807.0,359.949315837885,-91.5773983380707,65.0005084288639,679469510
-47,-330.0,-124.0,-10993.0,-1920.0,173.0,1807.0,361.77734828541,-84.2632563983025,65.0000912960863,679475725
16,-433.0,-142.0,-10994.0,-1918.0,174.0,1809.0,363.456823276726,-79.3700338206444,64.9999150986602,679486994
-11,-301.0,-211.0,-10996.0,-1914.0,175.0,1807.0,364.989278835315,-71.9982669067822,65.0003322311582,679496115
-36,-137.0,-113.0,-10996.0,-1914.0,175.0,1807.0,365.926956726926,-67.0677037440487,65.0002207710291,679505298
-4,-101.0,-110.0,-10998.0,-1908.0,175.0,1803.0,367.20819038577,-59.6549371867337,64.9999618213201,679520302
-4,-101.0,-110.0,-10998.0,-1908.0,175.0,1803.0,367.979849533124,-52.2150709738649,64.999850361367,679526834
-90,-358.0,-238.0,-11001.0,-1899.0,175.0,1794.0,369.321236507025,-44.7506235530453,64.9999618212671,679542314
-147,-338.0,30.0,-11005.0,-1871.0,171.0,1773.0,370.15082895457,-34.7728624172944,65.000026559046,679567834
-147,-338.0,30.0,-11005.0,-1871.0,171.0,1773.0,370.620140112942,-29.7745517784071,64.9990988500973,679567834
-102,-404.0,-9.0,-11009.0,-1862.0,172.0,1764.0,371.196894056568,-22.2697502025538,64.9998790691384,679580402
-102,-404.0,-9.0,-11013.0,-1849.0,171.0,1750.0,371.621680454118,-17.2585036337142,65.0000085440502,679588324
-174,-322.0,-223.0,-11016.0,-1831.0,170.0,1734.0,371.894394086677,-9.73601881082867,64.999961821393,679596908
167,67.0,173.0,-11020.0,-1809.0,167.0,1720.0,372.01543091443,-2.21209415361232,65.0000192370329,679613546
-46,-46.0,-12.0,-11022.0,-1790.0,164.0,1703.0,371.98453374212,5.31601703966527,64.9994439230526,679623014
-23,-290.0,-146.0,-11030.0,-1755.0,161.0,1670.0,371.801150158143,12.8407767680856,64.9999905292111,679637119
-141,-126.0,233.0,-11030.0,-1755.0,161.0,1670.0,371.464545845768,20.3581527467864,64.9999905291575,679645723
69,72.0,65.0,-11034.0,-1710.0,154.0,1636.0,370.976709516551,27.8669238697207,64.9995086601243,679661970
69,72.0,65.0,-11039.0,-1690.0,153.0,1617.0,370.567280022653,35.3669955537202,64.9997495946076,679668303
31,-89.0,-326.0,-11041.0,-1670.0,150.0,1599.0,369.826382254932,40.3601506774464,65.0000372518732,679684942
58,26.0,-276.0,-11048.0,-1625.0,146.0,1564.0,368.603050964838,52.8046917315218,65.0000192373253,679701897
91,144.0,-261.0,-11052.0,-1601.0,143.0,1545.0,367.509799534064,60.2420875615955,65.0002421570657,679710099
91,144.0,-261.0,-11052.0,-1601.0,143.0,1545.0,366.266524550872,65.1846832476523,64.9995660764638,679716924
-45,-248.0,-22.0,-11060.0,-1557.0,140.0,1508.0,364.873040530961,72.584427382246,64.9993251422943,679730068
-155,-177.0,-14.0,-11063.0,-1535.0,138.0,1489.0,363.859841230568,79.9520631990734,64.9999077775535,679737772
41,89.0,119.0,-11071.0,-1491.0,134.0,1451.0,362.217596995139,87.2871406552348,64.9996127989811,679758078
-56,-6.0,-226.0,-11071.0,-1491.0,134.0,1451.0,360.428015816226,94.5822634531865,64.9993251423111,679765335
-143,-123.0,-306.0,-11078.0,-1445.0,131.0,1412.0,357.811534332726,101.841142286587,64.9991022227973,679777892
29,83.0,-40.0,-11082.0,-1421.0,130.0,1392.0,355.677463267931,109.060038923896,64.999983207981,679794075
-254,-217.0,-126.0,-11086.0,-1401.0,128.0,1372.0,354.174223149132,116.232129322175,64.9996308135878,679802271
88,139.0,69.0,-11090.0,-1377.0,127.0,1353.0,351.799453996383,123.357543859245,64.9996595216815,679812473
243,-121.0,-250.0,-11092.0,-1353.0,125.0,1334.0,349.278919049225,128.081359308736,64.9996415071994,679824999
37,133.0,-191.0,-11100.0,-1312.0,122.0,1293.0,346.617222292699,137.454085391655,65.0003175884054,679839831
-270,-240.0,-151.0,-11104.0,-1287.0,122.0,1274.0,343.811653166527,144.420024381429,65.0000299309608,679848478
-12,256.0,127.0,-11107.0,-1259.0,120.0,1256.0,340.867244812699,151.325236626812,64.9992710994744,679857284
49,73.0,1.0,-11111.0,-1240.0,119.0,1237.0,337.782988682537,155.89502744231,64.9996415072165,679874297
-40,-170.0,-345.0,-11113.0,-1221.0,117.0,1216.0,334.559110803615,162.697968346563,65.0002528513227,679880620
-216,-177.0,129.0,-11121.0,-1173.0,115.0,1174.0,332.335004965098,169.43191361146,64.999882441611,679897225
86,-80.0,-116.0,-11121.0,-1173.0,115.0,1174.0,327.704447463887,178.303622180859,65.0001988065611,679906014
87,302.0,63.0,-11126.0,-1127.0,113.0,1138.0,324.075488450096,182.690124070164,65.0002815587393,679920202
46,-138.0,-279.0,-11126.0,-1127.0,113.0,1138.0,321.580752456615,187.045282264645,65.0000873467616,679926436
-103,-187.0,-108.0,-11134.0,-1082.0,111.0,1096.0,317.731421888864,193.511955053287,64.9999939012437,679937873
8,60.0,-142.0,-11138.0,-1057.0,111.0,1078.0,313.753584876405,199.89740980893,64.9999758866514,679946797
10,43.0,-96.0,-11141.0,-1035.0,110.0,1057.0,311.027416201205,206.20630281617,65.000615938759,679963485
10,43.0,-96.0,-11144.0,-1015.0,110.0,1038.0,306.833696477323,212.42807090677,64.999975887098,679969728
7,-37.0,-196.0,-11148.0,-992.0,110.0,1017.0,302.516928779305,216.526248492436,64.9992998077596,679982380
7,-37.0,-196.0,-11152.0,-970.0,110.0,995.0,299.567952232503,222.603882717405,65.0003282812037,679990097
-10,25.0,-67.0,-11155.0,-948.0,109.0,975.0,295.043468552765,226.603867989313,64.9997169381621,680000805
-47,-63.0,-104.0,-11158.0,-926.0,108.0,954.0,290.401269070118,234.477555801237,64.9993178219122,680016285
20,-65.0,-200.0,-11164.0,-881.0,108.0,914.0,285.637345773823,238.351875130701,64.9996522010503,680028715
-9,24.0,-42.0,-11164.0,-881.0,108.0,914.0,280.755319582768,244.083196754722,64.9998464123063,680036443
-57,-139.0,-131.0,-11170.0,-838.0,107.0,874.0,275.761030848511,251.566228982559,65.0001807918469,680053355
7,-28.0,-162.0,-11173.0,-814.0,107.0,853.0,268.927045476759,257.05719623267,65.0001988065611,680063427
57,83.0,-119.0,-11177.0,-792.0,107.0,833.0,263.721166499402,262.393943962978,65.000481386607,680075956
-31,-12.0,-67.0,-11183.0,-748.0,108.0,790.0,260.257018244993,267.491581127908,65.0072888036334,680090107
-36,-121.0,-144.0,-11189.0,-704.0,108.0,751.0,249.892769547577,275.22150540309,65.0160515586334,680107278
1,15.0,-140.0,-11192.0,-682.0,108.0,732.0,246.470712610234,279.334731233653,65.0233035034803,680124234
1,15.0,-140.0,-11195.0,-658.0,108.0,712.0,241.384192801736,281.835751349043,65.0060308160347,680130538
-12,56.0,-38.0,-11197.0,-635.0,108.0,691.0,238.037198564405,285.252998197659,64.9905388088637,680138996
50,24.0,-105.0,-11199.0,-616.0,108.0,670.0,233.08505504454,287.309316752135,64.9976515146463,680147652
-59,-75.0,-139.0,-11202.0,-594.0,108.0,649.0,228.242023522361,290.859949382116,64.9829305410614,680164047
-9,-130.0,-108.0,-11205.0,-572.0,109.0,629.0,223.535867444541,293.044449056534,64.9975089557116,680176626
62,55.0,-45.0,-11210.0,-525.0,109.0,588.0,218.962988643679,294.25773091147,64.9699864736765,680187283
64,135.0,-121.0,-11210.0,-525.0,109.0,588.0,215.969260685878,295.707176308924,64.9343279786939,680195928
-161,-128.0,-53.0,-11215.0,-484.0,110.0,544.0,210.162913757008,296.860572101877,64.9576936574985,680212648
-161,-128.0,-53.0,-11217.0,-461.0,111.0,525.0,207.257576855369,297.729765198714,64.9596572937023,680218943
137,63.0,-101.0,-11220.0,-437.0,112.0,506.0,202.822936138942,298.346141000001,64.9001970315656,680231400
137,63.0,-101.0,-11223.0,-416.0,113.0,485.0,198.230266806185,298.855916899459,64.8853535890429,680239657
137,63.0,-101.0,-11223.0,-416.0,113.0,485.0,193.399966738373,299.161453477143,64.8785906714836,680239657
-157,-256.0,-115.0,-11230.0,-328.0,114.0,400.0,188.371042051887,299.637401718174,64.8746625219324,680278827
-157,-256.0,-115.0,-11230.0,-328.0,114.0,400.0,183.176834926574,299.808152083625,64.8256925535202,680278827
-19,-99.0,-67.0,-11230.0,-328.0,114.0,400.0,177.890542596061,300.039994671161,64.8373824599343,680286620
210,387.0,-73.0,-11235.0,-283.0,116.0,362.0,172.51719728991,300.290458786472,64.8151228239254,680303380
-123,-283.0,-24.0,-11237.0,-265.0,116.0,338.0,167.06758543598,300.428960464973,64.8054526363135,680318066
-231,-220.0,99.0,-11237.0,-244.0,116.0,315.0,161.583384335949,300.531040529074,64.7912280839269,680324332
369,264.0,-100.0,-11242.0,-196.0,119.0,279.0,156.036454567179,300.625362592575,64.7897970119703,680341334
369,264.0,-100.0,-11244.0,-177.0,119.0,255.0,150.489661513792,300.695724648029,64.8141419490757,680349566
-364,-366.0,211.0,-11244.0,-158.0,119.0,232.0,144.888298921068,300.734363950949,64.7932499005713,680365503
245,336.0,-279.0,-11247.0,-133.0,120.0,211.0,137.426157223293,300.769079345539,64.8043746183686,680377919
15,37.0,-16.0,-11251.0,-88.0,124.0,172.0,131.812678868332,300.824996265111,64.8201582954652,680393093
-212,-460.0,-235.0,-11251.0,-70.0,124.0,151.0,128.055526760784,300.836971439397,64.8211916921178,680404040
-56,-42.0,-636.0,-11252.0,-51.0,123.0,130.0,124.307798423164,300.833766013767,64.8105644693506,680411960
-56,-42.0,-636.0,-11252.0,-51.0,123.0,130.0,118.670472888247,300.83931816563,64.8428310346679,680418494
54,142.0,154.0,-11255.0,-11.0,126.0,97.0,113.046731233274,300.879933113393,64.8504972125227,680431010
187,299.0,-328.0,-11256.0,4.0,127.0,78.0,109.277327505605,300.847176013406,64.839601933835,680438739
90,254.0,-300.0,-11257.0,23.0,128.0,60.0,103.632684831279,300.834044096206,64.8333743670558,680456558
-245,-657.0,-541.0,-11256.0,36.0,127.0,42.0,94.2416176183534,300.898737485975,64.9022158599988,680464412
-62,-158.0,-753.0,-11259.0,68.0,129.0,16.0,90.4789288424794,300.872298174077,64.8727744010861,680482292
-62,-158.0,-753.0,-11257.0,78.0,128.0,0.0,84.831054934514,300.84298651348,64.8758707511683,680490320
55,326.0,-108.0,-11258.0,103.0,129.0,-21.0,79.1855683385977,300.864232977859,64.9056209626027,680507804
8,-20.0,-553.0,-11258.0,103.0,129.0,-21.0,73.5385177529757,300.854875931008,64.9160827030559,680515573
-125,4.0,-94.0,-11258.0,113.0,129.0,-35.0,67.9112658323293,300.856498604156,64.9177278749149,680528105
-55,122.0,-354.0,-11258.0,124.0,129.0,-45.0,64.1472893015651,300.827131736078,64.9184964993517,680534933
92,-99.0,-362.0,-11258.0,136.0,130.0,-55.0,60.3836064842436,300.838796498863,64.9286439855649,680547773
-142,98.0,-346.0,-11258.0,136.0,130.0,-55.0,54.7349413007706,300.832967025616,64.9360356877685,680556473
-239,-33.0,-454.0,-11257.0,139.0,129.0,-64.0,49.1024356884637,300.832637237536,64.9383116182271,680564480
-58,-43.0,-419.0,-11257.0,145.0,129.0,-70.0,45.3433632329988,300.813968161656,64.9439440806429,680576966
171,-71.0,-260.0,-11260.0,155.0,131.0,-76.0,39.7083283306276,300.827190566759,64.96152815084,680583539
181,-36.0,-144.0,-11261.0,166.0,133.0,-83.0,35.9442756178492,300.825769770722,64.964606377207,680591418
63,-70.0,-173.0,-11261.0,194.0,134.0,-109.0,30.3049946139455,300.806023217867,64.9582411624649,680611438
63,-70.0,-173.0,-11261.0,194.0,134.0,-109.0,24.6742071816625,300.812928638906,64.9591113649217,680618240
225,127.0,-121.0,-11261.0,215.0,134.0,-128.0,20.9149887656024,300.806565026861,64.9702755218474,680624548
299,73.0,-152.0,-11260.0,273.0,135.0,-182.0,15.2774303234427,300.818098602843,64.9755433005042,680638533
44,-132.0,-128.0,-11259.0,310.0,136.0,-220.0,9.64398008900658,300.814198303161,64.9767691318777,680648137
173,-91.0,-172.0,-11260.0,359.0,139.0,-261.0,4.00793625886277,300.795619151251,64.9779417235895,680664874
384,47.0,-142.0,-11262.0,414.0,143.0,-305.0,-1.62671747509795,300.790899423851,64.979528122116,680674316
112,-217.0,-242.0,-11257.0,538.0,147.0,-423.0,-7.26105059821845,300.743067611831,64.9794874241736,680688247
159,125.0,34.0,-11257.0,538.0,147.0,-423.0,-12.8948772856906,300.752904911809,64.9841671275469,680696911
439,125.0,174.0,-11249.0,786.0,164.0,-646.0,-22.2816659051678,300.769729437362,64.9877362257003,680719778
256,-183.0,-338.0,-11249.0,786.0,164.0,-646.0,-27.9191538740035,300.774535571623,64.983841607987,680725957
267,186.0,-74.0,-11237.0,987.0,178.0,-832.0,-33.5554871435934,300.769108791951,64.9871610614427,680744743
279,402.0,111.0,-11228.0,1099.0,188.0,-936.0,-39.1879767532903,300.775758101344,64.987785204179,680753286
279,402.0,111.0,-11220.0,1218.0,201.0,-1044.0,-44.8208332055909,300.791401317466,64.9878314244824,680761342
-48,-153.0,-206.0,-11209.0,1342.0,214.0,-1159.0,-50.4599737408644,300.800418152729,64.9867688102817,680774495
54,-320.0,-275.0,-11182.0,1597.0,246.0,-1395.0,-54.2176746980105,300.801995693334,64.974324790302,680788300
-31,-102.0,-323.0,-11167.0,1730.0,10.0,-1516.0,-61.7315754620295,300.811931978231,64.978231573613,680800709
180,278.0,275.0,-11150.0,1864.0,31.0,-1639.0,-67.3703804104548,300.817094665867,64.981179377113,680809403
58,295.0,297.0,-11129.0,1998.0,51.0,-1764.0,-71.1313244499284,300.82832950187,64.9786086879181,680823442
44,-150.0,-234.0,-11109.0,2136.0,76.0,-1891.0,-76.7681514552608,300.830719959378,64.964592706027,680836953
-111,-204.0,-393.0,-11086.0,2274.0,101.0,-2018.0,-82.4056669059026,300.824444971361,64.9508407514876,680845434
97,328.0,199.0,-11063.0,2412.0,129.0,-2144.0,-88.0418056102965,300.826926552813,64.9395896058751,680853560
-94,-75.0,-322.0,-11008.0,2687.0,188.0,-2400.0,-91.8057389117298,300.84125401988,64.9417092841454,680870031
4,222.0,79.0,-11008.0,2687.0,188.0,-2400.0,-97.4448482049502,300.84222669127,64.9416963767895,680876212
-25,-161.0,-186.0,-10950.0,2969.0,2.0,-2657.0,-103.086468019532,300.857019736729,64.9344288131454,680890263
-71,31.0,19.0,-10917.0,3107.0,37.0,-2784.0,-106.845869280884,300.845228219147,64.916416732783,680898856
-50,-131.0,-335.0,-10917.0,3107.0,37.0,-2784.0,-112.487428619192,300.846517339879,64.9077662756994,680907690
-107,-12.0,-167.0,-10771.0,3662.0,199.0,-3296.0,-127.555335940569,300.897261419403,64.90290262549,680938940
-21,-163.0,-203.0,-10771.0,3662.0,199.0,-3296.0,-131.315693320107,300.897911263871,64.8863372813591,680947602
-112,-64.0,-450.0,-10643.0,4073.0,82.0,-3678.0,-138.825442749616,300.874187829967,64.8377426278188,680970069
-80,39.0,105.0,-10598.0,4210.0,131.0,-3803.0,-144.493514780825,300.905402164879,64.8604651422904,680979625
-75,-49.0,-153.0,-10598.0,4210.0,131.0,-3803.0,-150.157793909853,300.939497483403,64.8481927012158,680986956
-49,-206.0,-91.0,-10504.0,4482.0,237.0,-4053.0,-153.908561918666,300.922841862082,64.8159636242997,681003773
19,146.0,-57.0,-10453.0,4616.0,35.0,-4177.0,-159.56216688065,300.93756538427,64.8007972781698,681012015
19,146.0,-57.0,-10453.0,4616.0,35.0,-4177.0,-165.197109203493,300.935705168018,64.7976552346664,681018797
119,71.0,81.0,-10351.0,4884.0,151.0,-4423.0,-170.736043432613,300.968364738124,64.811725872192,681031384
68,25.0,-137.0,-10295.0,5016.0,209.0,-4546.0,-174.315861708607,300.930055121699,64.7696924965598,681041966
68,25.0,-137.0,-10241.0,5149.0,16.0,-4669.0,-179.504203410641,300.876069935341,64.7743864721957,681050486
-2,-12.0,64.0,-10182.0,5279.0,77.0,-4790.0,-184.459047109189,300.855476440544,64.7718399683792,681066756
-89,148.0,-163.0,-10124.0,5409.0,142.0,-4910.0,-187.586857891013,300.784613562638,64.7610231813321,681073005
218,-10.0,108.0,-10063.0,5540.0,208.0,-5029.0,-192.04055259272,300.78069436894,64.7822841992808,681086221
-189,159.0,-246.0,-10001.0,5669.0,19.0,-5149.0,-196.144591062355,300.66567880568,64.7680479766063,681094197
-146,6.0,-106.0,-9937.0,5798.0,88.0,-5268.0,-199.936586369779,300.616899425924,64.7939670821674,681104816
-232,177.0,-144.0,-9872.0,5923.0,157.0,-5385.0,-202.262288293061,300.530421445361,64.8016085632729,681119395
238,-225.0,108.0,-9739.0,6177.0,47.0,-5617.0,-205.442290023233,300.47686880343,64.8232709441378,681131949
18,-86.0,-197.0,-9670.0,6300.0,123.0,-5735.0,-208.25177644783,300.368678200586,64.8308888196946,681139493
-318,140.0,-304.0,-9598.0,6424.0,198.0,-5848.0,-210.700993265463,300.296453945537,64.8557053628502,681156434
93,-108.0,47.0,-9526.0,6547.0,20.0,-5963.0,-212.775510676893,300.247157882286,64.8732016269395,681167746
-137,208.0,-344.0,-9379.0,6790.0,180.0,-6186.0,-214.957573047443,300.13691394289,64.9181824762886,681180272
7,-49.0,-28.0,-9304.0,6911.0,9.0,-6298.0,-216.163328231466,300.10046028221,64.9505643395977,681196207
-131,243.0,-184.0,-9225.0,7028.0,90.0,-6407.0,-217.281528933907,300.01778602123,65.0904057043851,681204312
-32,65.0,-49.0,-9147.0,7146.0,176.0,-6516.0,-217.907741456229,299.989541461308,65.4480610380629,681219260
