ACC_X,ACC_Y,ACC_Z,QUAT_W,QUAT_X,QUAT_Y,QUAT_Z,X_pos,Y_pos,Z_pos,t
25,-10.0,99.0,-9969.0,5405.0,97.0,-5130.0,-218.25140000432,299.980919285734,66.0400284290633,498562541
223,6.0,92.0,-9906.0,5535.0,163.0,-5249.0,-218.806385321936,300.015919417673,66.92742381384,498580421
84,-19.0,14.0,-9840.0,5664.0,229.0,-5366.0,-219.093195452707,300.016915117698,68.0525643342633,498588292
-35,-99.0,-89.0,-9774.0,5792.0,42.0,-5483.0,-219.327250848656,300.037723109692,69.0142602296604,498600832
-271,195.0,-212.0,-9706.0,5920.0,112.0,-5599.0,-219.453695496912,300.05278430254,70.6946048623744,498607061
-271,195.0,-212.0,-9639.0,6048.0,185.0,-5713.0,-219.572580086825,300.032061042114,72.6353992813416,498615019
-37,-71.0,-267.0,-9497.0,6299.0,77.0,-5940.0,-219.641016687854,300.045892155051,74.1876997013634,498634967
186,34.0,93.0,-9497.0,6299.0,77.0,-5940.0,-219.771863034408,300.069468673977,76.795675155979,498642204
-311,150.0,-308.0,-9349.0,6547.0,231.0,-6164.0,-219.86326308507,300.102880368112,79.7822716171451,498654734
31,-122.0,-10.0,-9349.0,6547.0,231.0,-6164.0,-219.908529283836,300.102801806322,83.0235241655571,498661879
69,-101.0,61.0,-9197.0,6791.0,136.0,-6384.0,-219.979945862833,300.152979013212,85.4858853502349,498678706
38,-59.0,-4.0,-9118.0,6911.0,218.0,-6494.0,-220.019966263221,300.201937406632,89.4454381672063,498688879
38,-59.0,-4.0,-9038.0,7030.0,44.0,-6601.0,-220.080836963134,300.213916918214,93.769724015995,498695152
6,11.0,-14.0,-8957.0,7148.0,131.0,-6708.0,-220.139422069052,300.270730697981,96.820469781168,498707598
6,11.0,-14.0,-8874.0,7265.0,216.0,-6814.0,-220.170300862475,300.303467030712,101.593362941189,498715400
216,87.0,32.0,-8706.0,7497.0,137.0,-7022.0,-220.226921938831,300.362249722925,108.280237349717,498732873
-23,58.0,-226.0,-8706.0,7497.0,137.0,-7022.0,-220.264860765724,300.395480563258,113.45119111055,498740672
-111,205.0,189.0,-8443.0,7834.0,158.0,-7330.0,-220.286518859104,300.408408061856,120.47871250928,498764011
-169,-150.0,-374.0,-8355.0,7947.0,255.0,-7428.0,-220.324821795361,300.455356862947,125.886222435908,498772709
133,338.0,150.0,-8263.0,8056.0,94.0,-7526.0,-220.337175300832,300.49039655444,131.299908907296,498788979
-95,-194.0,-265.0,-8169.0,8164.0,191.0,-7626.0,-220.363190470954,300.518996351158,136.795797273249,498801577
-95,-194.0,-265.0,-8169.0,8164.0,191.0,-7626.0,-220.363075188808,300.498460496946,142.28690820459,498801577
-100,97.0,-145.0,-7886.0,8481.0,233.0,-7910.0,-220.389217568183,300.529829819051,149.675227902319,498827118
-100,97.0,-145.0,-7791.0,8581.0,75.0,-8000.0,-220.389675054726,300.528943169246,155.240549283311,498835554
-87,188.0,-43.0,-7695.0,8677.0,171.0,-8088.0,-220.391539437919,300.519288686309,160.814949663198,498849033
-294,89.0,39.0,-7515.0,8856.0,100.0,-8250.0,-220.389283628243,300.527150675642,166.417097644027,498862968
-235,72.0,-119.0,-7432.0,8938.0,190.0,-8323.0,-220.385278893734,300.522006127369,175.757115367091,498879653
-60,341.0,20.0,-7352.0,9017.0,21.0,-8392.0,-220.390909076568,300.527353193014,181.362657654218,498890694
-90,242.0,-3.0,-7273.0,9089.0,100.0,-8457.0,-220.384625481063,300.518533077765,186.970842121361,498903595
-378,58.0,-57.0,-7130.0,9217.0,244.0,-8572.0,-220.381916981183,300.525308843409,190.748906069393,498918249
-378,58.0,-57.0,-7068.0,9274.0,56.0,-8623.0,-220.381836693703,300.524663100851,196.373308445282,498926457
-372,78.0,-221.0,-7012.0,9325.0,118.0,-8668.0,-220.389266112211,300.511346015956,200.100437448905,498934988
-213,232.0,28.0,-7012.0,9325.0,118.0,-8668.0,-220.387484642826,300.515048140956,205.73777226024,498942209
-173,-76.0,-164.0,-6910.0,9412.0,222.0,-8746.0,-220.375442174687,300.506752241348,211.358787389779,498957910
-385,115.0,57.0,-6830.0,9477.0,44.0,-8804.0,-220.355772681613,300.481811883221,216.950761459575,498974408
-284,40.0,-102.0,-6830.0,9477.0,44.0,-8804.0,-220.349747861266,300.464613074657,222.551701962852,498982931
-258,96.0,24.0,-6776.0,9523.0,102.0,-8844.0,-220.358187495894,300.482733702703,230.068948139588,498997595
-92,139.0,-190.0,-6776.0,9523.0,102.0,-8844.0,-220.357533875637,300.482094127168,233.861250719151,499003915
-70,137.0,-18.0,-6741.0,9549.0,131.0,-8867.0,-220.372434538434,300.498943793168,237.618772191502,499015121
-227,107.0,65.0,-6735.0,9553.0,137.0,-8872.0,-220.37573532734,300.507417296444,243.278156220187,499023559
-129,140.0,60.0,-6735.0,9553.0,137.0,-8872.0,-220.376916001644,300.505165812465,246.995910148723,499032294
-120,391.0,110.0,-6738.0,9553.0,138.0,-8872.0,-220.384284224884,300.521756735448,252.669558519649,499046753
15,200.0,61.0,-6746.0,9546.0,130.0,-8866.0,-220.382639975051,300.517336045152,256.398605960753,499059477
-65,335.0,-44.0,-6761.0,9534.0,115.0,-8855.0,-220.395659826493,300.541032781665,262.092162654691,499067402
-126,283.0,106.0,-6782.0,9516.0,92.0,-8838.0,-220.394333654499,300.534036990514,265.808972324836,499077893
-126,283.0,106.0,-6811.0,9493.0,63.0,-8818.0,-220.402658437534,300.544633544709,271.465014435745,499086063
-111,349.0,-85.0,-6844.0,9465.0,28.0,-8793.0,-220.400414270044,300.542328637158,277.071391962002,499099396
-111,349.0,-85.0,-6884.0,9432.0,245.0,-8763.0,-220.414991633902,300.563213721034,280.882214484622,499105657
-88,381.0,29.0,-6930.0,9394.0,198.0,-8729.0,-220.416342219148,300.562703996292,286.494771086906,499121521
71,239.0,4.0,-6978.0,9351.0,147.0,-8692.0,-220.422892149164,300.580316854216,292.14887458485,499129824
-124,295.0,-231.0,-7033.0,9305.0,90.0,-8648.0,-220.428283808199,300.580813584687,297.769715515043,499140170
69,177.0,277.0,-7095.0,9253.0,27.0,-8598.0,-220.435314159666,300.596612718375,303.41653922209,499152708
-47,332.0,-186.0,-7233.0,9128.0,139.0,-8486.0,-220.443917253958,300.604649275809,309.058074345774,499166450
-35,233.0,-94.0,-7311.0,9057.0,60.0,-8421.0,-220.456755449231,300.619660221516,314.726721797754,499174997
-225,443.0,-96.0,-7389.0,8983.0,232.0,-8353.0,-220.463804792025,300.630532022647,320.33570530987,499191306
9,162.0,194.0,-7470.0,8907.0,147.0,-8281.0,-220.479462705798,300.651128034019,325.996540123992,499201402
35,31.0,-58.0,-7638.0,8744.0,228.0,-8128.0,-220.489615515479,300.667743148655,329.783733241309,499215603
61,-21.0,-60.0,-7725.0,8655.0,136.0,-8048.0,-220.500051388954,300.684934971696,337.316696706604,499224158
70,251.0,19.0,-7725.0,8655.0,136.0,-8048.0,-220.515613383035,300.705668184497,341.044541632734,499232986
-120,230.0,-132.0,-7899.0,8472.0,209.0,-7880.0,-220.533416601422,300.729487247836,346.71066161921,499247207
91,184.0,231.0,-7899.0,8472.0,209.0,-7880.0,-220.551838558562,300.753600523308,350.496352525145,499253789
-80,220.0,7.0,-7985.0,8380.0,118.0,-7793.0,-220.5671530048,300.772972212268,356.198646175701,499260811
-155,-199.0,-359.0,-8156.0,8187.0,191.0,-7615.0,-220.589479199804,300.802661047127,361.865086099034,499281269
-178,-91.0,-296.0,-8242.0,8086.0,99.0,-7524.0,-220.609503494652,300.844465964522,367.447914052465,499289122
106,184.0,199.0,-8327.0,7984.0,7.0,-7429.0,-220.649835442646,300.886476977842,372.895480692599,499302920
-149,88.0,-138.0,-8411.0,7879.0,173.0,-7336.0,-220.667500053604,300.919916470758,378.140754060359,499309596
75,160.0,34.0,-8576.0,7672.0,252.0,-7143.0,-220.69932431637,300.958409273149,384.739317906401,499325825
-59,137.0,-111.0,-8657.0,7567.0,165.0,-7044.0,-220.717473651592,300.978206752209,389.322839772899,499337495
-26,-164.0,-187.0,-8736.0,7458.0,78.0,-6945.0,-220.725799879761,300.989560693434,393.594170765267,499350651
45,141.0,62.0,-8896.0,7237.0,165.0,-6742.0,-220.722103582384,300.98193270985,398.864817394086,499364529
-224,121.0,-246.0,-8973.0,7125.0,80.0,-6639.0,-220.708603593796,300.958215922764,402.380765499784,499381633
25,-103.0,-122.0,-9048.0,7015.0,0.0,-6536.0,-220.693793329135,300.943394455969,404.496267931734,499389434
177,134.0,127.0,-9195.0,6786.0,93.0,-6327.0,-220.678095982693,300.912688886731,407.393784205144,499405911
116,10.0,42.0,-9195.0,6786.0,93.0,-6327.0,-220.646162226763,300.884492589751,409.138832584133,499413440
73,-1.0,-64.0,-9268.0,6670.0,15.0,-6219.0,-220.62009538511,300.847182383171,411.426111679399,499421811
-196,-17.0,-288.0,-9338.0,6551.0,193.0,-6114.0,-220.576992038293,300.784373352603,413.327465461061,499430169
71,246.0,-62.0,-9408.0,6434.0,117.0,-6005.0,-220.524321459122,300.713809929402,414.837534167796,499444855
47,296.0,-146.0,-9476.0,6316.0,43.0,-5898.0,-220.484584788688,300.633095326297,415.63273823773,499450982
-40,142.0,1.0,-9607.0,6076.0,153.0,-5678.0,-220.414156001619,300.542244622168,416.585703092636,499469081
-40,142.0,1.0,-9672.0,5953.0,83.0,-5569.0,-220.285441469517,300.466839490541,417.351656069183,499477156
6,221.0,-272.0,-9736.0,5831.0,13.0,-5456.0,-220.00895266115,300.358867093708,417.919774972927,499492647
-99,-236.0,-192.0,-9856.0,5584.0,134.0,-5232.0,-219.281321031695,300.210196184998,418.548307914913,499506030
94,344.0,-101.0,-9856.0,5584.0,134.0,-5232.0,-218.431693241503,300.17766135166,418.890802111744,499513562
-149,-169.0,60.0,-9974.0,5334.0,7.0,-5005.0,-217.310643155598,300.141286952664,419.158761914364,499526359
167,177.0,-211.0,-10032.0,5208.0,202.0,-4889.0,-215.885145407205,300.129149594545,419.403928295466,499542642
45,-77.0,-209.0,-10087.0,5080.0,141.0,-4774.0,-214.141552122937,300.139969622139,419.590583110331,499555221
42,9.0,-87.0,-10139.0,4951.0,80.0,-4658.0,-212.058226371931,300.174755925669,419.722951352333,499562380
28,92.0,-174.0,-10239.0,4694.0,220.0,-4428.0,-209.630529554494,300.207710252234,419.864231223101,499578414
-106,-202.0,74.0,-10290.0,4565.0,168.0,-4311.0,-206.840465429545,300.264546473751,419.979679646436,499588922
148,186.0,-339.0,-10339.0,4434.0,114.0,-4190.0,-203.675757345555,300.328998285813,420.131672150717,499602262
37,211.0,-260.0,-10386.0,4302.0,62.0,-4073.0,-201.355271652276,300.404679953308,420.194352623309,499608646
-178,29.0,36.0,-10473.0,4037.0,218.0,-3837.0,-197.565014768414,300.4560904572,420.260673330166,499625347
-49,67.0,-136.0,-10516.0,3906.0,172.0,-3716.0,-193.403004612224,300.529629146664,420.327791528648,499634221
38,-131.0,-111.0,-10516.0,3906.0,172.0,-3716.0,-190.418008748683,300.606643166117,420.372601502394,499641996
6,-119.0,-166.0,-10598.0,3639.0,82.0,-3472.0,-185.691303422907,300.68620748484,420.428186382721,499657768
103,0.0,-117.0,-10636.0,3502.0,39.0,-3352.0,-180.732720533944,300.739866068524,420.461059141485,499665947
-66,-17.0,-189.0,-10672.0,3367.0,253.0,-3231.0,-175.603070730179,300.816203318166,420.479988563244,499674558
42,-78.0,-28.0,-10706.0,3231.0,213.0,-3111.0,-170.354826308668,300.887937194023,420.48291630714,499690568
-102,-45.0,-123.0,-10739.0,3095.0,175.0,-2989.0,-165.002482145285,300.921989641984,420.482113946794,499703492
-76,-82.0,-7.0,-10803.0,2823.0,104.0,-2742.0,-159.576999697223,300.953885070821,420.475939009844,499714252
46,-46.0,-67.0,-10803.0,2823.0,104.0,-2742.0,-154.08405819473,300.976738237503,420.473230822526,499722993
-126,-194.0,-57.0,-10862.0,2546.0,39.0,-2495.0,-148.547278341036,300.989181865792,420.422888374539,499739699
-72,133.0,-253.0,-10888.0,2407.0,8.0,-2372.0,-141.127176499969,300.997117229901,420.419376650621,499752320
-18,-126.0,30.0,-10935.0,2133.0,208.0,-2125.0,-135.538281407716,300.992240167096,420.410780247686,499768888
-18,-126.0,30.0,-10959.0,1993.0,184.0,-1998.0,-131.805281120193,300.989761583662,420.374677567536,499777041
112,123.0,-138.0,-10980.0,1852.0,160.0,-1872.0,-126.181810435126,300.986218908192,420.363499235166,499785361
15,56.0,-236.0,-11000.0,1712.0,139.0,-1749.0,-120.551488089679,300.980845149183,420.328214745971,499799019
15,56.0,-236.0,-11000.0,1712.0,139.0,-1749.0,-116.798594141107,300.969823824464,420.325506592046,499805232
-101,-211.0,-109.0,-11032.0,1434.0,98.0,-1499.0,-107.407724956442,300.949640510968,420.288586745241,499821582
-116,-24.0,-28.0,-11062.0,1151.0,66.0,-1246.0,-101.77041513883,300.938694480621,420.26191647747,499841775
-116,-24.0,-28.0,-11074.0,1011.0,52.0,-1119.0,-96.1236764592171,300.924866450203,420.200017290284,499848080
-11,-33.0,27.0,-11093.0,730.0,28.0,-868.0,-88.5934514469604,300.919272622737,420.2179881847,499868460
-339,69.0,349.0,-11107.0,446.0,11.0,-616.0,-81.0744221929336,300.901656122853,420.173986817626,499885146
335,-24.0,-590.0,-11107.0,446.0,11.0,-616.0,-75.4334482574194,300.888483813601,420.1467370717,499895966
-373,-34.0,422.0,-11114.0,163.0,1.0,-361.0,-69.7897584106419,300.878909393374,420.132520913977,499908427
333,-8.0,-617.0,-11118.0,24.0,0.0,-235.0,-64.1487381192302,300.877590960183,420.119526010079,499916817
78,-62.0,-324.0,-11118.0,-119.0,255.0,-109.0,-58.5023074547352,300.868391058558,420.120446241776,499925553
-181,-146.0,89.0,-11117.0,-259.0,0.0,17.0,-54.7445129192727,300.861153205303,420.108717757683,499942121
-181,-146.0,89.0,-11114.0,-398.0,1.0,142.0,-49.1099895373509,300.856238603111,420.079146547475,499948276
-105,-134.0,33.0,-11105.0,-664.0,10.0,380.0,-43.4685659211096,300.859549891638,420.068512203869,499965400
283,-54.0,-303.0,-11105.0,-664.0,10.0,380.0,-39.7108198586583,300.843634980094,420.076534312303,499974058
-30,-210.0,149.0,-11099.0,-792.0,16.0,494.0,-34.0654394807741,300.841665737453,420.076487441081,499982380
-267,-35.0,331.0,-11084.0,-1030.0,32.0,706.0,-28.4300109133966,300.842246215058,420.038838106363,499996387
-257,-109.0,411.0,-11076.0,-1139.0,40.0,804.0,-22.7985105619784,300.83773034394,420.015359911135,500008894
-257,-109.0,411.0,-11068.0,-1242.0,49.0,896.0,-17.1603532017772,300.833234035021,420.02883876256,500017167
-257,-109.0,411.0,-11068.0,-1242.0,49.0,896.0,-11.5220047917132,300.829975430864,420.022438642884,500017167
-103,-134.0,133.0,-11051.0,-1430.0,68.0,1063.0,-7.76483122622681,300.831333518502,420.00677089874,500045148
144,-78.0,102.0,-11044.0,-1513.0,78.0,1136.0,-0.249124976035908,300.83556151967,419.992963123707,500051473
-323,64.0,495.0,-11027.0,-1657.0,95.0,1264.0,3.50475957061298,300.827606623277,419.965419397146,500065489
97,-146.0,72.0,-11027.0,-1657.0,95.0,1264.0,9.13568762871204,300.807275964106,419.956284189515,500074103
-3,-102.0,148.0,-11015.0,-1771.0,111.0,1363.0,14.7731171704391,300.811991278162,419.957154547695,500090210
-3,-102.0,148.0,-11009.0,-1818.0,117.0,1404.0,20.4132033464905,300.81398274177,419.972351729828,500096534
-9,-180.0,86.0,-11004.0,-1855.0,122.0,1437.0,24.1718266980012,300.816402375692,419.964671558407,500106109
312,-305.0,-29.0,-11004.0,-1855.0,122.0,1437.0,29.8030434768166,300.821276177927,419.968484429758,500113527
181,-280.0,-331.0,-10998.0,-1916.0,133.0,1488.0,33.5538362306836,300.827399196351,419.983841822617,500131350
-239,-40.0,-93.0,-10997.0,-1940.0,138.0,1510.0,39.1892102053913,300.82311024984,420.007914042717,500139331
235,-340.0,-365.0,-10994.0,-1961.0,142.0,1530.0,44.8286514614848,300.825619609503,419.999337273803,500152250
-91,-322.0,-164.0,-10992.0,-1978.0,145.0,1547.0,50.4659507421009,300.832365356409,420.010045137736,500162558
120,-418.0,-541.0,-10990.0,-1994.0,148.0,1562.0,56.1016314000362,300.829778400424,420.014067525403,500170896
-276,-264.0,-287.0,-10986.0,-2020.0,151.0,1584.0,61.7398285656032,300.838722479992,420.008973030308,500187103
140,-360.0,-333.0,-10983.0,-2026.0,151.0,1591.0,67.3735425924823,300.841921198439,420.015853007367,500200558
140,-360.0,-333.0,-10981.0,-2034.0,151.0,1599.0,73.0078673273568,300.839622028139,420.046018532943,500206785
55,-350.0,-341.0,-10981.0,-2034.0,151.0,1599.0,76.7701030015822,300.844456922915,420.054938316875,500213910
-168,-400.0,-391.0,-10979.0,-2053.0,155.0,1617.0,84.3000404623121,300.855015623799,420.04720727047,500235317
5,-455.0,-420.0,-10979.0,-2053.0,155.0,1617.0,88.0526372956316,300.861886948385,420.053120662842,500242905
55,-383.0,-363.0,-10976.0,-2057.0,153.0,1621.0,93.6859444053208,300.861007590778,420.089948505458,500255474
-6,-440.0,-310.0,-10975.0,-2060.0,153.0,1622.0,99.3274969101385,300.866740335045,420.092307541987,500262675
-53,-217.0,-118.0,-10972.0,-2062.0,151.0,1619.0,103.096516854728,300.873294747648,420.110736300484,500279159
-14,-128.0,-103.0,-10971.0,-2061.0,149.0,1615.0,108.746737876557,300.881995165775,420.103247821247,500289560
-14,-128.0,-103.0,-10970.0,-2062.0,148.0,1615.0,114.386025243972,300.894410427922,420.139597374072,500297052
-30,-272.0,-128.0,-10969.0,-2062.0,147.0,1612.0,120.026011080964,300.902403212601,420.147201777275,500314124
13,-274.0,-141.0,-10968.0,-2062.0,146.0,1612.0,123.792851622805,300.915297008856,420.176990582469,500322713
-24,-243.0,-101.0,-10968.0,-2061.0,145.0,1609.0,131.328436442664,300.933670121987,420.187386149401,500330883
49,-217.0,-94.0,-10965.0,-2061.0,142.0,1604.0,138.868726831233,300.948088724415,420.213437780632,500349128
-56,-206.0,-47.0,-10964.0,-2062.0,141.0,1603.0,144.526963303427,300.967047341806,420.250960607274,500362666
-23,-86.0,-56.0,-10964.0,-2061.0,140.0,1600.0,150.182997602992,300.994223208891,420.284240277273,500371022
48,-122.0,-76.0,-10962.0,-2063.0,138.0,1598.0,153.951893856043,301.023045707527,420.315750269801,500387525
-35,-215.0,-1.0,-10962.0,-2063.0,138.0,1598.0,159.619352898407,301.03989853023,420.340397458445,500394570
70,-150.0,-76.0,-10961.0,-2064.0,137.0,1596.0,163.393119934538,301.070418033592,420.359092554714,500400822
-84,-189.0,0.0,-10961.0,-2064.0,137.0,1594.0,168.980187470754,301.084355753458,420.385923729279,500410889
-75,-126.0,10.0,-10960.0,-2065.0,136.0,1592.0,172.622629739499,301.094403994136,420.411561321529,500418978
47,-157.0,-51.0,-10959.0,-2067.0,135.0,1590.0,177.915607623811,301.095038889731,420.454337357062,500436890
-60,-108.0,25.0,-10959.0,-2067.0,135.0,1590.0,182.96434048744,301.081376730639,420.459738523371,500444246
73,-153.0,-74.0,-10958.0,-2070.0,134.0,1587.0,186.174662425554,301.058059548406,420.50120213312,500456846
35,-107.0,-80.0,-10958.0,-2070.0,134.0,1587.0,190.750359614239,301.034543676443,420.508778139826,500464538
-97,-165.0,35.0,-10956.0,-2071.0,132.0,1583.0,193.624310741667,300.978118783532,420.526123193544,500477298
-73,-135.0,55.0,-10956.0,-2073.0,132.0,1582.0,198.918315290936,300.928209368424,420.541750739742,500493531
-94,-135.0,49.0,-10955.0,-2073.0,131.0,1580.0,202.483735267002,300.891084745578,420.537467702509,500499797
38,-134.0,-80.0,-10954.0,-2076.0,131.0,1580.0,204.654812661664,300.835204141511,420.502664377209,500513239
-95,-109.0,37.0,-10954.0,-2076.0,131.0,1578.0,207.609436509272,300.783506209914,420.48308062814,500521599
50,-148.0,-55.0,-10953.0,-2078.0,130.0,1577.0,209.371972888755,300.711873808092,420.492328219224,500530110
25,-119.0,-46.0,-10953.0,-2079.0,129.0,1574.0,211.69726632629,300.658707012855,420.462265304183,500540820
-68,-24.0,39.0,-10953.0,-2080.0,129.0,1572.0,213.632789788139,300.565935233714,420.38984497659,500553348
5,-97.0,-41.0,-10952.0,-2082.0,129.0,1569.0,215.181343572337,300.469229607512,420.348169137228,500567942
-39,-99.0,19.0,-10952.0,-2084.0,129.0,1568.0,216.355313336422,300.371801242199,420.296105968606,500576584
-9,-83.0,-20.0,-10952.0,-2085.0,128.0,1567.0,217.582833851258,300.084822595503,420.265402891928,500592841
-6,-161.0,-7.0,-10951.0,-2087.0,128.0,1563.0,218.842521162721,299.71978244679,420.22162908044,500608574
-36,-45.0,-1.0,-10951.0,-2089.0,128.0,1561.0,219.587045743246,299.133989125,420.175079733415,500616737
43,-68.0,-41.0,-10957.0,-2075.0,132.0,1572.0,220.923175734807,298.273888115498,420.140861136418,500634410
-92,-98.0,25.0,-10956.0,-2078.0,132.0,1571.0,222.587436465748,297.515607525332,420.151557727555,500642550
56,-108.0,-50.0,-10956.0,-2081.0,132.0,1569.0,224.630446063662,296.106868723088,420.110901557427,500657722
-114,-82.0,61.0,-10955.0,-2082.0,131.0,1566.0,227.082926679865,294.337980622552,420.076325465935,500669234
-114,-82.0,61.0,-10955.0,-2084.0,131.0,1566.0,228.943647255512,292.945809154886,420.068894034076,500677758
84,-135.0,-75.0,-10955.0,-2084.0,131.0,1563.0,232.100326228372,290.516992215593,420.057619548228,500686112
-130,15.0,77.0,-10955.0,-2087.0,131.0,1562.0,235.707136749131,287.64764931146,420.043697381964,500699800
-130,15.0,77.0,-10955.0,-2087.0,131.0,1562.0,239.769484140583,284.316017089254,420.020545672164,500706075
-141,-4.0,86.0,-10954.0,-2089.0,130.0,1559.0,242.687740962374,280.557199993755,420.015026430015,500721953
-141,-4.0,86.0,-10954.0,-2089.0,130.0,1559.0,247.291696774159,276.441317976618,420.013702912957,500721953
123,-144.0,-99.0,-10954.0,-2093.0,130.0,1555.0,252.079083448698,273.529015275237,420.017826895929,500748127
-146,-31.0,88.0,-10954.0,-2093.0,130.0,1555.0,256.979801497746,267.36752427675,420.016158338471,500754370
98,-98.0,-91.0,-10954.0,-2096.0,130.0,1552.0,261.929118278414,264.139286572356,420.014051554277,500769645
98,-98.0,-91.0,-10953.0,-2096.0,130.0,1549.0,266.890626016551,257.426671313946,420.01343929415,500778157
80,-129.0,-81.0,-10953.0,-2099.0,130.0,1549.0,273.473370424193,250.40684077553,420.00542546096,500794424
-98,82.0,48.0,-10952.0,-2101.0,129.0,1546.0,278.35655625199,244.962196472081,420.005495545222,500813037
44,-140.0,-54.0,-10953.0,-2101.0,130.0,1543.0,284.758299859721,239.383538883704,420.011884862021,500821384
-58,30.0,32.0,-10953.0,-2103.0,130.0,1543.0,289.460820979705,231.752624803602,420.007839170979,500829478
30,-141.0,-37.0,-10953.0,-2104.0,129.0,1541.0,294.068246248176,225.891948285679,420.001272805092,500845796
-21,-85.0,-1.0,-10952.0,-2107.0,129.0,1538.0,298.572615245456,219.924660430902,420.000036628936,500862360
-29,8.0,-17.0,-10952.0,-2109.0,129.0,1536.0,302.966131383873,215.888666592084,420.004961175382,500870318
13,-77.0,-18.0,-10955.0,-2104.0,132.0,1541.0,305.834579467651,209.749885887202,420.00666211098,500880497
-79,-16.0,9.0,-10961.0,-2093.0,137.0,1552.0,312.771551133194,201.425563203113,420.001574630323,500901497
-79,-16.0,9.0,-10962.0,-2093.0,137.0,1550.0,315.45239966514,195.077591075636,419.998410133754,500907664
-93,-12.0,16.0,-10961.0,-2096.0,137.0,1549.0,319.36563025796,190.799418994594,420.001024192912,500923188
-98,10.0,20.0,-10962.0,-2096.0,137.0,1546.0,323.152302610385,184.31327245554,420.001557525414,500931675
74,-85.0,-58.0,-10962.0,-2098.0,138.0,1546.0,325.60700280051,179.942608861564,419.997925349415,500942587
74,-85.0,-58.0,-10962.0,-2099.0,138.0,1544.0,329.177100624237,173.326654136008,419.99669500049,500948944
86,-159.0,-61.0,-10963.0,-2101.0,138.0,1544.0,331.482849958425,166.641745732383,419.999365736714,500962018
96,-175.0,-51.0,-10963.0,-2101.0,138.0,1541.0,334.82798020228,159.884305910902,419.998937426911,500970372
-135,157.0,24.0,-10963.0,-2104.0,139.0,1539.0,338.036102342053,155.343224985122,420.000482645378,500987119
104,-213.0,-47.0,-10963.0,-2104.0,139.0,1539.0,341.107754633632,148.476091136143,420.000725243239,500994975
-127,135.0,10.0,-10964.0,-2107.0,140.0,1536.0,344.042829781574,139.220481148906,420.002344713918,501007226
-110,64.0,7.0,-10965.0,-2108.0,141.0,1535.0,346.835309513172,134.556105685583,420.002252932215,501016214
-116,76.0,8.0,-10966.0,-2110.0,142.0,1534.0,349.485824937554,127.513625339716,420.000723090012,501033737
71,-83.0,-32.0,-10966.0,-2111.0,142.0,1531.0,351.172174291321,120.422188955713,420.002676939286,501042192
71,-83.0,-32.0,-10967.0,-2112.0,143.0,1531.0,353.583837856513,115.665626140994,420.002169912838,501049395
68,-127.0,-24.0,-10967.0,-2113.0,143.0,1529.0,355.11119475021,108.488468249603,420.000224824619,501057803
-87,104.0,-4.0,-10968.0,-2116.0,144.0,1529.0,357.282440040381,103.677452362694,420.00196667131,501066714
-70,105.0,-15.0,-10969.0,-2117.0,145.0,1527.0,359.307205704831,94.0034019199242,420.002958893697,501087261
-55,84.0,-25.0,-10969.0,-2117.0,145.0,1527.0,361.184826271312,89.1392129523783,420.000467422186,501095158
12,-95.0,-24.0,-10970.0,-2117.0,146.0,1524.0,362.352897986429,81.815966334686,420.002158996545,501102818
-28,42.0,-31.0,-10972.0,-2119.0,147.0,1523.0,363.983163629631,74.461372202535,420.002908620172,501119262
-25,6.0,-30.0,-10972.0,-2120.0,148.0,1522.0,365.465273647167,69.5379760901421,420.00185521186,501127920
-18,19.0,-18.0,-10973.0,-2121.0,149.0,1521.0,366.36911607774,62.1284142396048,420.00107499282,501136809
-10,-49.0,-33.0,-10974.0,-2123.0,150.0,1519.0,367.601043490496,57.1776059271353,420.003293271304,501147886
-45,55.0,-42.0,-10975.0,-2123.0,150.0,1519.0,368.683298260765,49.7267457425833,420.002958891789,501160667
-45,55.0,-42.0,-10976.0,-2124.0,151.0,1518.0,369.613988825726,42.2582791835036,420.000275096427,501168839
20,-28.0,-33.0,-10977.0,-2126.0,152.0,1517.0,370.149476156589,34.7753846914682,420.002635429294,501177580
34,-21.0,-27.0,-10977.0,-2126.0,153.0,1515.0,371.019772019272,27.2740331552517,420.002888941984,501194062
30,-28.0,-25.0,-10979.0,-2128.0,155.0,1513.0,371.620148769899,17.2593251377388,420.002311966042,501209871
-69,87.0,-77.0,-10980.0,-2129.0,156.0,1514.0,371.894011894349,9.73645479683561,420.003557700036,501217786
-78,114.0,-81.0,-10981.0,-2129.0,157.0,1511.0,372.015435489946,-0.297225664541031,420.002231100223,501235674
35,-52.0,-158.0,-10984.0,-2129.0,158.0,1507.0,371.939680114946,-7.82331151129886,420.002484613259,501250775
-97,304.0,-318.0,-10986.0,-2128.0,160.0,1502.0,371.799142695278,-15.3464773488787,420.001015959642,501264428
27,175.0,-259.0,-10991.0,-2120.0,160.0,1488.0,371.463670840292,-22.8625808515536,420.003345697088,501277326
82,223.0,-252.0,-10991.0,-2120.0,160.0,1488.0,370.976447464317,-27.8685435344666,420.002484613537,501285911
7,253.0,-245.0,-10993.0,-2110.0,160.0,1479.0,370.566079384827,-35.3679930602928,419.999892599419,501293690
44,116.0,-185.0,-10996.0,-2099.0,160.0,1471.0,369.825242279651,-40.3583818229787,420.002272609805,501306192
113,148.0,-365.0,-11004.0,-2060.0,156.0,1438.0,368.60205095439,-50.3192196233918,420.001857365758,501320989
113,148.0,-365.0,-11008.0,-2038.0,153.0,1414.0,367.890931549326,-57.7653982551478,420.001330661062,501329218
33,192.0,-234.0,-11012.0,-2011.0,150.0,1389.0,366.696763542211,-62.7173428197862,420.000165791174,501340444
215,249.0,-457.0,-11016.0,-1979.0,144.0,1358.0,365.352306428072,-70.1232613302904,420.00086514374,501354111
215,249.0,-457.0,-11022.0,-1941.0,140.0,1326.0,363.859679295849,-77.4974052025425,420.002749043442,501360363
123,-83.0,-183.0,-11033.0,-1854.0,127.0,1250.0,362.218009725112,-87.2833847550641,420.002172066331,501376960
-388,307.0,-87.0,-11033.0,-1854.0,127.0,1250.0,360.427288009159,-92.1538734242145,420.000288166852,501385388
521,-232.0,-148.0,-11037.0,-1807.0,120.0,1204.0,358.488622320596,-99.4267414166099,420.000157028801,501396660
274,-101.0,-153.0,-11049.0,-1685.0,102.0,1093.0,356.403244137388,-106.660448151197,420.002364392418,501409253
-250,-78.0,171.0,-11056.0,-1618.0,95.0,1034.0,354.933386221208,-113.845836658503,420.00062254623,501417041
-168,-28.0,23.0,-11063.0,-1545.0,86.0,968.0,352.606294567548,-118.611439167644,419.999580051508,501434189
125,-300.0,227.0,-11070.0,-1469.0,77.0,897.0,350.974019942961,-125.721848245384,420.002314120219,501442194
125,-300.0,227.0,-11077.0,-1380.0,67.0,818.0,348.407328473551,-130.432236945317,420.001210438892,501448991
-187,359.0,-224.0,-11083.0,-1292.0,57.0,739.0,346.615880976321,-137.453099557771,419.999883837163,501458649
168,-343.0,75.0,-11090.0,-1194.0,48.0,650.0,343.811322802235,-142.104235985497,420.001767737287,501475168
-73,8.0,-122.0,-11096.0,-1092.0,40.0,559.0,340.86674589117,-149.030207970974,420.002233254307,501483588
-179,10.0,-65.0,-11103.0,-988.0,33.0,464.0,337.781801324227,-155.895952542244,420.000167944473,501491387
170,-186.0,6.0,-11112.0,-773.0,19.0,265.0,334.558181672002,-162.698177521294,420.001494546178,501510542
-158,-2.0,17.0,-11114.0,-666.0,14.0,168.0,332.334361403434,-167.194380154978,420.001859518624,501520732
-158,-2.0,17.0,-11117.0,-554.0,9.0,70.0,328.884929461789,-173.882258090599,420.000441136249,501529003
168,-220.0,-121.0,-11119.0,-441.0,7.0,-34.0,325.298919783557,-180.50060906217,420.001363407975,501537594
-229,51.0,-112.0,-11120.0,-326.0,4.0,-137.0,322.83542875054,-187.044223262116,420.002082438107,501551728
-229,51.0,-112.0,-11120.0,-326.0,4.0,-137.0,319.028799298463,-191.365430898889,420.001109894545,501558047
-213,51.0,-140.0,-11119.0,-101.0,4.0,-344.0,315.092313475736,-197.779768424383,419.999955940432,501573852
268,-262.0,-151.0,-11116.0,17.0,4.0,-446.0,311.027101887538,-204.112417406839,420.001728380625,501581728
271,-199.0,-144.0,-11113.0,130.0,6.0,-551.0,308.245992692093,-210.363037496026,420.001394001682,501592019
-276,86.0,-59.0,-11109.0,245.0,10.0,-652.0,303.969598473957,-216.526836908458,420.000371185846,501604800
150,-105.0,-82.0,-11098.0,478.0,20.0,-864.0,299.568400511428,-222.602469613444,419.999955940408,501618988
-42,116.0,-232.0,-11089.0,597.0,25.0,-969.0,295.04402020509,-228.587798642108,420.001678108533,501627649
103,222.0,-409.0,-11089.0,597.0,25.0,-969.0,290.399805496989,-232.525235827524,420.001839840247,501636296
-131,-358.0,204.0,-11082.0,711.0,33.0,-1070.0,287.237756981693,-238.352922461731,420.000290319775,501644143
-87,402.0,-448.0,-11061.0,946.0,51.0,-1281.0,282.394840053106,-244.081863322222,420.001201676395,501660266
69,-375.0,88.0,-11036.0,1176.0,73.0,-1490.0,277.439409771802,-249.711286029833,420.001374323268,501677110
164,149.0,-314.0,-11036.0,1176.0,73.0,-1490.0,272.367776109253,-255.23918963696,420.001313135895,501685354
-216,36.0,29.0,-11009.0,1411.0,101.0,-1701.0,267.193937838089,-260.638142072496,419.999794208441,501699179
-28,-11.0,-142.0,-11009.0,1411.0,101.0,-1701.0,261.992061945351,-264.120026436943,420.00628649707,501705503
1,68.0,-209.0,-10978.0,1641.0,132.0,-1905.0,253.446132935326,-272.239270520345,420.015281966019,501724540
40,148.0,-220.0,-10942.0,1874.0,169.0,-2114.0,248.454936025777,-276.623518871488,420.024004263663,501740698
40,148.0,-220.0,-10942.0,1874.0,169.0,-2114.0,245.205434471984,-280.602182103672,420.032625209803,501747497
-37,-150.0,-133.0,-10902.0,2103.0,210.0,-2322.0,238.92819548906,-284.168476387101,420.058463983982,501761204
-37,-150.0,-133.0,-10879.0,2218.0,230.0,-2424.0,234.428233200717,-287.316036623889,420.078337263748,501769120
-65,-43.0,30.0,-10833.0,2451.0,22.0,-2632.0,231.547151085366,-290.058955105975,420.05165399229,501789035
52,32.0,-313.0,-10833.0,2451.0,22.0,-2632.0,227.407855352583,-292.378698146608,420.084615267005,501796303
-68,-218.0,-118.0,-10783.0,2678.0,73.0,-2835.0,223.509790954073,-294.279126462219,420.098941578094,501808852
105,-30.0,-43.0,-10757.0,2791.0,101.0,-2937.0,217.57086259429,-296.544949751788,420.155579833176,501824425
-119,-71.0,-133.0,-10701.0,3023.0,160.0,-3141.0,214.258290784075,-297.470372867899,420.184882520316,501843041
-119,-71.0,-133.0,-10671.0,3135.0,190.0,-3242.0,211.004362357523,-297.968616573525,420.235615507887,501849294
99,-8.0,-80.0,-10640.0,3245.0,221.0,-3343.0,207.722153748602,-298.730548536456,420.246814042746,501862376
95,63.0,-29.0,-10575.0,3472.0,32.0,-3546.0,204.353428587643,-299.150848551897,420.311071284297,501878785
61,54.0,-79.0,-10542.0,3588.0,68.0,-3644.0,200.846739031425,-299.492564339833,420.296790888138,501887105
-124,-145.0,-103.0,-10509.0,3699.0,105.0,-3742.0,197.171612123542,-299.758445091823,420.31418263282,501904031
-124,-145.0,-103.0,-10473.0,3809.0,141.0,-3841.0,193.313667120548,-299.967331700422,420.356078649414,501910403
18,-12.0,-46.0,-10397.0,4030.0,218.0,-4042.0,189.25786576995,-300.138681819699,420.38179321326,501927036
118,-2.0,-28.0,-10397.0,4030.0,218.0,-4042.0,183.603346006034,-300.275119797685,420.413525312768,501935795
-5,-124.0,-44.0,-10320.0,4253.0,44.0,-4237.0,180.700378353958,-300.352775713723,420.408307105116,501950181
-5,-124.0,-44.0,-10320.0,4253.0,44.0,-4237.0,176.261146356622,-300.45879777579,420.402175503,501950181
28,-37.0,-122.0,-10197.0,4577.0,174.0,-4531.0,173.263155047409,-300.53517984976,420.398127315931,501979867
28,-37.0,-122.0,-10197.0,4577.0,174.0,-4531.0,168.727828543495,-300.574501993835,420.403747653038,501979867
69,-51.0,-1.0,-10153.0,4688.0,220.0,-4627.0,164.149341161356,-300.617021639001,420.373294119552,501988299
-85,-30.0,-79.0,-10110.0,4796.0,11.0,-4720.0,161.080535226965,-300.651411478003,420.364096842649,502001916
-56,-36.0,-146.0,-10065.0,4904.0,58.0,-4814.0,156.445041173996,-300.671906520566,420.380854775597,502014963
37,-58.0,-99.0,-10018.0,5009.0,105.0,-4911.0,151.789478365598,-300.699976837183,420.309509034405,502022892
67,-67.0,-56.0,-9824.0,5430.0,53.0,-5287.0,139.320981212878,-300.703646871868,420.30134892898,502061014
0,-91.0,-60.0,-9773.0,5537.0,107.0,-5380.0,134.630164001835,-300.700487650622,420.272717207624,502068556
-45,85.0,-100.0,-9722.0,5642.0,162.0,-5473.0,129.928645751644,-300.699310562806,420.264531532442,502077173
-71,-63.0,-59.0,-9668.0,5746.0,217.0,-5565.0,125.222107410998,-300.695440196427,420.23534610388,502093328
-71,-63.0,-59.0,-9614.0,5846.0,16.0,-5656.0,120.527483643683,-300.685984983238,420.242338006037,502099619
-71,-63.0,-59.0,-9614.0,5846.0,16.0,-5656.0,117.385868309831,-300.677821756008,420.210450732568,502099619
-141,-78.0,-237.0,-9391.0,6255.0,252.0,-6015.0,111.1162365646,-300.66950574875,420.194815056581,502148339
-141,-78.0,-237.0,-9391.0,6255.0,252.0,-6015.0,107.981003003568,-300.661617374249,420.17620143984,502148339
-141,-78.0,-237.0,-9391.0,6255.0,252.0,-6015.0,104.841854537275,-300.6592286299,420.177844203474,502148339
-4,-42.0,-226.0,-9334.0,6353.0,57.0,-6104.0,100.135446924109,-300.652613338551,420.174104565699,502154762
25,146.0,-65.0,-9213.0,6550.0,180.0,-6280.0,95.4312338953197,-300.645977684048,420.13807815979,502169848
0,58.0,-41.0,-9153.0,6649.0,244.0,-6367.0,90.7253553034558,-300.639321301671,420.136246253115,502178627
-224,65.0,0.0,-9093.0,6749.0,54.0,-6451.0,86.0252233547674,-300.627670055613,420.129247625961,502194981
-224,65.0,0.0,-9029.0,6846.0,120.0,-6538.0,81.319129060811,-300.627086849073,420.115523129968,502201221
148,-24.0,-125.0,-8900.0,7038.0,253.0,-6708.0,76.6113871600214,-300.616260632628,420.105366788816,502219140
-95,222.0,46.0,-8835.0,7130.0,63.0,-6792.0,71.9086992954291,-300.61033540534,420.078828629089,502227804
-21,37.0,-16.0,-8835.0,7130.0,63.0,-6792.0,67.2092317403727,-300.610423893108,420.073239840083,502236563
163,-285.0,-124.0,-8703.0,7321.0,205.0,-6957.0,62.5062728076595,-300.598617157228,420.080083375147,502250895
29,-40.0,-109.0,-8636.0,7414.0,21.0,-7041.0,57.8026637226551,-300.599061721463,420.079801985934,502263592
-100,267.0,-88.0,-8566.0,7506.0,91.0,-7121.0,53.0998838690938,-300.595737426477,420.06396008968,502274488
45,-38.0,-1.0,-8498.0,7594.0,162.0,-7201.0,49.9675676152599,-300.599251244247,420.034989258082,502282449
49,-52.0,-101.0,-8427.0,7687.0,236.0,-7282.0,45.2692673320459,-300.58787852372,420.059265705422,502297435
-152,135.0,-27.0,-8286.0,7867.0,132.0,-7441.0,40.5645466620965,-300.585361087067,420.063305351586,502309782
233,-60.0,-227.0,-8286.0,7867.0,132.0,-7441.0,35.8678188830642,-300.588759251633,420.024933958209,502317258
-477,392.0,96.0,-8213.0,7957.0,207.0,-7516.0,32.7348709484701,-300.587737845398,420.018064956594,502325729
237,-25.0,-201.0,-8065.0,8132.0,105.0,-7673.0,28.0343330255367,-300.580640426442,420.012000095501,502346038
-226,32.0,132.0,-7991.0,8217.0,182.0,-7747.0,23.3323305961471,-300.579172654519,420.02092485799,502352384
239,56.0,-313.0,-7916.0,8302.0,6.0,-7824.0,18.6333946647396,-300.580653981945,420.018463570694,502365689
108,238.0,-248.0,-7838.0,8390.0,87.0,-7897.0,13.9380181921606,-300.581383302382,420.013812797868,502374051
-210,-42.0,162.0,-7763.0,8470.0,166.0,-7971.0,10.8033816963281,-300.579037682079,419.984947080065,502381949
253,227.0,-206.0,-7612.0,8630.0,70.0,-8113.0,6.10400735073025,-300.57655034961,419.990940522349,502400511
-261,320.0,218.0,-7612.0,8630.0,70.0,-8113.0,2.97187152140342,-300.573031254785,420.003457636245,502406820
8,102.0,-69.0,-7469.0,8779.0,221.0,-8240.0,-1.72518736025034,-300.564654156634,420.006627007567,502421341
8,102.0,-69.0,-7399.0,8848.0,38.0,-8302.0,-6.42337735482082,-300.544822666769,419.956837348514,502429834
-196,316.0,111.0,-7331.0,8914.0,109.0,-8361.0,-11.1210432930178,-300.555127000146,419.940962718246,502446129
-284,524.0,198.0,-7267.0,8976.0,176.0,-8414.0,-17.3856539038902,-300.567681043417,419.960911392214,502452452
297,-124.0,-138.0,-7151.0,9088.0,45.0,-8511.0,-22.0847086439175,-300.571791856719,419.970374408378,502470106
-207,369.0,95.0,-7096.0,9140.0,103.0,-8555.0,-25.217345416079,-300.572087471122,419.976072131597,502479870
103,250.0,-47.0,-7044.0,9187.0,158.0,-8597.0,-29.914667843242,-300.572306028291,419.976190378387,502488723
227,229.0,-100.0,-6997.0,9230.0,208.0,-8635.0,-34.6128221648767,-300.574134817886,419.978752272653,502502606
227,229.0,-100.0,-6997.0,9230.0,208.0,-8635.0,-39.3113528412453,-300.57732906402,419.976973383937,502508867
-285,339.0,212.0,-6953.0,9270.0,254.0,-8668.0,-44.0101996513474,-300.575632837943,420.00258381194,502515668
-377,335.0,255.0,-6843.0,9370.0,115.0,-8751.0,-47.1422928131845,-300.573524730019,420.013380424355,502542219
-377,335.0,255.0,-6843.0,9370.0,115.0,-8751.0,-51.8433808563976,-300.578219065689,420.001666570672,502542219
123,233.0,-161.0,-6814.0,9394.0,145.0,-8773.0,-56.5423353370297,-300.578456662416,420.008851416212,502555210
-214,694.0,9.0,-6767.0,9435.0,194.0,-8808.0,-59.6737907814777,-300.582869097141,420.014275305894,502569260
76,-96.0,107.0,-6749.0,9450.0,213.0,-8822.0,-64.3733127386488,-300.585341975139,420.011143855685,502577960
108,471.0,-80.0,-6749.0,9450.0,213.0,-8822.0,-69.0749608709606,-300.585902921953,420.002170264098,502586333
-384,-1.0,52.0,-6727.0,9475.0,240.0,-8835.0,-73.7721118113219,-300.583830721425,420.043700797559,502603494
-203,154.0,-161.0,-6720.0,9483.0,250.0,-8840.0,-78.4735568445632,-300.590815694406,420.041518710841,502616700
-230,104.0,25.0,-6712.0,9489.0,2.0,-8846.0,-83.1776781821752,-300.592134770492,420.020507745368,502625147
-63,151.0,-9.0,-6703.0,9501.0,14.0,-8851.0,-87.8792162580209,-300.599850766476,420.044602723069,502641394
-208,45.0,-134.0,-6703.0,9501.0,14.0,-8851.0,-92.574223126166,-300.602880638597,420.076638598172,502648573
-620,39.0,40.0,-6701.0,9506.0,20.0,-8851.0,-97.135153926718,-300.600594425358,420.066816563282,502655024
-263,10.0,39.0,-6694.0,9510.0,26.0,-8858.0,-100.420422082289,-300.606170898318,420.068368114712,502673267
-309,-54.0,-39.0,-6692.0,9512.0,28.0,-8859.0,-105.121686143753,-300.611055213054,420.078059811351,502682111
-309,-54.0,-39.0,-6691.0,9513.0,30.0,-8859.0,-109.821808119021,-300.618350143441,420.082541593892,502690799
-524,-34.0,75.0,-6690.0,9515.0,32.0,-8860.0,-112.953886092022,-300.621375964606,420.088611210012,502704017
-524,-34.0,75.0,-6689.0,9515.0,34.0,-8862.0,-117.664426562942,-300.624588290875,420.110955044041,502710158
-238,251.0,-60.0,-6686.0,9516.0,35.0,-8864.0,-122.374488678894,-300.633374200305,420.118362690576,502730413
-394,64.0,-5.0,-6686.0,9515.0,34.0,-8865.0,-127.078712161003,-300.640174481904,420.12665972353,502739371
-299,-176.0,-93.0,-6686.0,9515.0,34.0,-8865.0,-131.783256999201,-300.653004511099,420.140768685559,502747383
-120,153.0,-7.0,-6683.0,9513.0,35.0,-8870.0,-136.492127307985,-300.661742361917,420.161716476276,502763345
-120,153.0,-7.0,-6682.0,9512.0,34.0,-8871.0,-141.203720725722,-300.663692508561,420.166235688413,502771650
-232,121.0,-28.0,-6681.0,9511.0,33.0,-8872.0,-144.349030305748,-300.675409589092,420.19413593487,502780734
-154,80.0,40.0,-6678.0,9508.0,31.0,-8876.0,-149.057111053498,-300.695908835516,420.197385966067,502800078
21,-36.0,8.0,-6678.0,9508.0,31.0,-8876.0,-153.770329930056,-300.703872405894,420.193623423534,502806341
-43,-10.0,9.0,-6677.0,9508.0,31.0,-8877.0,-158.488513094965,-300.717704617293,420.231080583029,502820512
-73,80.0,-133.0,-6677.0,9508.0,31.0,-8877.0,-164.774949109405,-300.746275081794,420.261184703785,502829132
-22,10.0,-16.0,-6675.0,9505.0,29.0,-8879.0,-172.528234356053,-300.770459745977,420.282087050645,502852214
53,115.0,-84.0,-6675.0,9504.0,28.0,-8880.0,-177.02470693334,-300.771431825908,420.296194039715,502862105
-113,120.0,27.0,-6675.0,9506.0,29.0,-8878.0,-181.361197717109,-300.759737051022,420.324091023817,502878969
-92,-6.0,-60.0,-6675.0,9506.0,29.0,-8878.0,-185.503823509919,-300.743138118157,420.34882662801,502888547
1,58.0,-127.0,-6674.0,9505.0,29.0,-8881.0,-190.711229053883,-300.71357003442,420.35330525879,502908865
434,37.0,-188.0,-6672.0,9504.0,28.0,-8883.0,-194.349780333085,-300.685156268946,420.358173133065,502915932
-285,100.0,194.0,-6674.0,9504.0,28.0,-8880.0,-197.747443010031,-300.664449873755,420.382539297262,502928602
21,-195.0,-287.0,-6674.0,9504.0,28.0,-8880.0,-199.877291725585,-300.62998733075,420.380892716766,502937738
-150,-31.0,89.0,-6672.0,9505.0,30.0,-8882.0,-202.868792090297,-300.605418580588,420.368093135303,502951918
325,-280.0,-317.0,-6672.0,9505.0,30.0,-8882.0,-205.600244347558,-300.564586272686,420.353672763498,502958098
-391,515.0,214.0,-6672.0,9506.0,28.0,-8880.0,-207.278857678206,-300.523612064783,420.356225659915,502972731
-391,515.0,214.0,-6676.0,9501.0,29.0,-8883.0,-209.570231075255,-300.495337366526,420.329182368087,502981012
-272,347.0,184.0,-6671.0,9507.0,28.0,-8880.0,-211.603437813495,-300.439264795147,420.304058839384,502992730
-272,347.0,184.0,-6671.0,9507.0,28.0,-8880.0,-212.809628003735,-300.407978329348,420.319801457188,502999529
395,-423.0,-403.0,-6671.0,9505.0,29.0,-8882.0,-213.892507468987,-300.357334846246,420.278256015848,503012104
-281,686.0,-15.0,-6675.0,9503.0,29.0,-8883.0,-215.290283322948,-300.300467811101,420.238416163798,503020119
157,-151.0,-161.0,-6672.0,9504.0,28.0,-8882.0,-216.739802097593,-300.239956549427,420.199935882579,503038027
-204,235.0,299.0,-6673.0,9505.0,29.0,-8882.0,-217.292414324001,-300.171371690491,420.194637788099,503045978
189,-19.0,-459.0,-6672.0,9505.0,30.0,-8883.0,-217.949887597975,-300.150181216742,420.073581069418,503055477
-282,143.0,279.0,-6672.0,9506.0,29.0,-8881.0,-218.287443005443,-300.11710196418,419.924864900434,503069905
23,31.0,81.0,-6673.0,9504.0,30.0,-8883.0,-218.685669934091,-300.096344403877,419.47922591953,503078665
6,92.0,-45.0,-6673.0,9504.0,30.0,-8883.0,-219.021125295155,-300.101055637959,418.660362574623,503088008
-147,209.0,114.0,-6671.0,9504.0,29.0,-8883.0,-219.285821466566,-300.121949009419,417.51980154154,503102971
-147,209.0,114.0,-6671.0,9504.0,28.0,-8883.0,-219.492798113653,-300.166775406979,416.013339245191,503111323
-33,168.0,92.0,-6671.0,9503.0,28.0,-8884.0,-219.677919640884,-300.203931134343,414.74017009393,503120127
-71,240.0,58.0,-6671.0,9503.0,28.0,-8884.0,-219.796831896101,-300.27699845257,412.470871534876,503132038
-73,222.0,162.0,-6671.0,9504.0,28.0,-8883.0,-219.944985170128,-300.328914515876,409.786377242659,503148477
71,-268.0,-321.0,-6671.0,9504.0,28.0,-8883.0,-220.075534720264,-300.424841851105,407.739536962172,503156381
56,140.0,-135.0,-6671.0,9505.0,28.0,-8882.0,-220.163176124003,-300.523673361123,404.238105663841,503164778
-105,351.0,236.0,-6671.0,9505.0,28.0,-8882.0,-220.290560029669,-300.591657107529,400.245540444075,503173101
-54,-134.0,-82.0,-6671.0,9505.0,28.0,-8882.0,-220.4134732329,-300.701172478208,397.281105547145,503190171
38,180.0,7.0,-6671.0,9504.0,28.0,-8883.0,-220.511582145159,-300.813596112402,392.459273542044,503201923
-121,375.0,328.0,-6670.0,9505.0,27.0,-8882.0,-220.570100565335,-300.881072990033,387.217073089661,503210492
-66,74.0,-73.0,-6671.0,9504.0,28.0,-8882.0,-220.655594529438,-300.992297563807,381.618757747302,503219266
-160,520.0,448.0,-6671.0,9504.0,28.0,-8882.0,-220.717066273946,-301.028333808839,375.846799089484,503236729
-24,369.0,210.0,-6670.0,9503.0,26.0,-8883.0,-220.763809500077,-301.0789695196,369.864421372124,503244850
201,-227.0,-173.0,-6669.0,9504.0,26.0,-8884.0,-220.792782363536,-301.116324218745,363.723099254217,503260455
443,-125.0,-456.0,-6670.0,9501.0,26.0,-8885.0,-220.811228130535,-301.127208347143,357.480458401206,503272297
224,281.0,212.0,-6669.0,9502.0,25.0,-8884.0,-220.816344993309,-301.127959100036,351.199834416514,503280738
303,-344.0,-103.0,-6670.0,9502.0,27.0,-8885.0,-220.815108736608,-301.121939605453,344.844387812061,503297177
246,298.0,215.0,-6667.0,9503.0,26.0,-8886.0,-220.811158190045,-301.107976189456,338.391022733849,503304626
226,214.0,66.0,-6668.0,9502.0,27.0,-8887.0,-220.804469032666,-301.087870939479,334.051694591481,503312802
398,-65.0,-386.0,-6670.0,9501.0,26.0,-8885.0,-220.792396175792,-301.067572158724,327.561229272812,503329796
204,-36.0,252.0,-6669.0,9502.0,25.0,-8884.0,-220.776381121402,-301.05525659979,321.075729734086,503342092
141,253.0,322.0,-6669.0,9502.0,25.0,-8884.0,-220.75802308616,-301.030223201823,314.557792234821,503349440
39,376.0,415.0,-6669.0,9504.0,26.0,-8883.0,-220.739589687312,-300.99461252346,307.978349220132,503366224
302,38.0,-2.0,-6669.0,9503.0,27.0,-8884.0,-220.720757719364,-300.971087394217,301.374183419361,503374598
85,305.0,314.0,-6670.0,9505.0,27.0,-8882.0,-220.698678740062,-300.937958065535,292.680755406264,503391352
241,-92.0,2.0,-6668.0,9504.0,27.0,-8883.0,-220.679471655162,-300.916957358221,286.128729561663,503399575
304,98.0,-322.0,-6670.0,9506.0,27.0,-8881.0,-220.672479727921,-300.88468503649,279.526578503848,503411700
58,142.0,-92.0,-6679.0,9502.0,19.0,-8871.0,-220.64116118971,-300.860786744998,272.947698987183,503429076
2,243.0,-2.0,-6679.0,9502.0,19.0,-8871.0,-220.63549750193,-300.859364386311,266.387099271458,503437677
-6,452.0,210.0,-6689.0,9497.0,9.0,-8862.0,-220.608361099133,-300.825889012734,259.824023689644,503445579
135,262.0,-1.0,-6703.0,9485.0,252.0,-8852.0,-220.616839837227,-300.813910107952,255.437022400214,503458040
-31,289.0,140.0,-6722.0,9469.0,232.0,-8838.0,-220.590600302204,-300.793858911885,248.860766363478,503464422
32,264.0,67.0,-6772.0,9427.0,178.0,-8800.0,-220.589795879882,-300.787845250507,244.4832472361,503482662
68,291.0,32.0,-6805.0,9399.0,144.0,-8775.0,-220.577275475364,-300.782744164686,237.892313848597,503490911
-71,437.0,194.0,-6805.0,9399.0,144.0,-8775.0,-220.564724127975,-300.770913530169,231.34302237955,503498729
193,249.0,-215.0,-6886.0,9325.0,56.0,-8714.0,-220.546882436862,-300.739536254079,224.752835484594,503511418
-145,317.0,203.0,-6935.0,9285.0,6.0,-8675.0,-220.55265364473,-300.748665574311,220.389044499433,503527005
-104,248.0,34.0,-7043.0,9184.0,146.0,-8590.0,-220.552995751613,-300.748124350791,213.817921237628,503539409
280,439.0,-137.0,-7043.0,9184.0,146.0,-8590.0,-220.538024519632,-300.726764617247,209.410474575042,503547166
280,439.0,-137.0,-7107.0,9124.0,77.0,-8539.0,-220.515633508483,-300.697428735417,202.802361272398,503553432
-146,126.0,121.0,-7179.0,9059.0,5.0,-8481.0,-220.496853577333,-300.673583299531,196.217427191021,503566532
-95,187.0,126.0,-7250.0,8990.0,185.0,-8422.0,-220.504049243945,-300.677231283999,191.853778789516,503574522
-95,187.0,126.0,-7325.0,8915.0,102.0,-8357.0,-220.499168431653,-300.675984264485,185.283275633474,503582673
76,121.0,-194.0,-7490.0,8748.0,184.0,-8216.0,-220.505140232532,-300.685386892785,178.728544154407,503602022
85,162.0,-146.0,-7490.0,8748.0,184.0,-8216.0,-220.514526019179,-300.69868932597,172.172236478028,503608386
27,-143.0,-43.0,-7663.0,8568.0,4.0,-8062.0,-220.525812087727,-300.712567856071,165.607109484662,503622833
80,94.0,-169.0,-7745.0,8477.0,168.0,-7983.0,-220.530021534343,-300.719819367534,159.036343981073,503631412
-54,7.0,51.0,-7832.0,8382.0,78.0,-7901.0,-220.528393174504,-300.730819249561,154.673976696954,503647845
-35,160.0,-3.0,-7920.0,8282.0,241.0,-7817.0,-220.545329021729,-300.735271309677,148.102066420388,503654131
-75,118.0,205.0,-8092.0,8083.0,60.0,-7642.0,-220.551720214497,-300.732714089318,141.517261010209,503671887
-12,11.0,-232.0,-8178.0,7979.0,225.0,-7553.0,-220.558952218168,-300.759521855683,134.952773612049,503680421
-39,173.0,-81.0,-8261.0,7876.0,135.0,-7462.0,-220.566204435366,-300.782229298565,126.204216060982,503696597
-39,173.0,-81.0,-8347.0,7772.0,48.0,-7370.0,-220.581024724518,-300.791384230321,119.683545609024,503703345
40,127.0,-127.0,-8431.0,7663.0,215.0,-7276.0,-220.562948804782,-300.76547558979,115.474921908778,503716238
112,199.0,-21.0,-8512.0,7555.0,127.0,-7182.0,-220.571126106492,-300.744345976951,109.371426906423,503724059
-238,89.0,-46.0,-8676.0,7336.0,214.0,-6987.0,-220.547016799347,-300.738315697657,103.612089457216,503743072
-177,-95.0,65.0,-8676.0,7336.0,214.0,-6987.0,-220.527731971894,-300.716372954881,98.2092875983389,503749948
108,71.0,-189.0,-8831.0,7111.0,47.0,-6795.0,-220.500849014405,-300.686929591886,93.2099577411911,503762548
-200,127.0,-86.0,-8909.0,6996.0,222.0,-6695.0,-220.468571364741,-300.637535530797,87.2045199556055,503778787
-336,-7.0,285.0,-8989.0,6882.0,142.0,-6589.0,-220.424206671939,-300.579304617619,84.483750085125,503787214
-24,107.0,-157.0,-9063.0,6767.0,64.0,-6489.0,-220.388548449682,-300.505807207938,80.8068582183816,503797668
259,91.0,-350.0,-9133.0,6648.0,241.0,-6391.0,-220.360082033813,-300.491609966949,77.6293254103426,503810881
-148,-253.0,-8.0,-9281.0,6410.0,89.0,-6179.0,-220.303159666368,-300.411661827007,73.4309802542476,503826187
-294,332.0,47.0,-9418.0,6176.0,202.0,-5968.0,-220.224897726919,-300.308273623551,72.1103038241635,503842307
115,-29.0,-220.0,-9485.0,6050.0,128.0,-5863.0,-220.20495825577,-300.258499549995,70.1489748661357,503858774
-21,-156.0,140.0,-9554.0,5925.0,58.0,-5753.0,-220.142329287393,-300.194740220855,69.0426287930758,503865328
-146,116.0,-12.0,-9681.0,5683.0,180.0,-5537.0,-219.827670789432,-300.110121475036,67.7127844610083,503881767
47,57.0,-167.0,-9743.0,5556.0,113.0,-5428.0,-219.389040848514,-300.106256814661,67.1773119489893,503897963
32,-123.0,14.0,-9867.0,5304.0,243.0,-5203.0,-218.358695676275,-300.044287480625,66.5496088466588,503911650
-44,176.0,-194.0,-10039.0,4924.0,65.0,-4863.0,-217.230921624029,-300.035047991097,66.2293779762089,503942414
-44,176.0,-194.0,-10039.0,4924.0,65.0,-4863.0,-215.803872402927,-300.012645563359,65.961942436146,503942414
8,-31.0,-99.0,-10039.0,4924.0,65.0,-4863.0,-214.044329449966,-300.009786246633,65.7505054714326,503949531
11,-45.0,-61.0,-10148.0,4666.0,209.0,-4635.0,-212.68620053641,-300.003431735061,65.5601738485514,503962092
-14,-4.0,-107.0,-10148.0,4666.0,209.0,-4635.0,-209.48490467835,-300.001972159669,65.4525495535121,503969466
-38,41.0,-112.0,-10249.0,4405.0,102.0,-4403.0,-207.667656025951,-300.045159528819,65.3725567106459,503986211
-7,6.0,-73.0,-10299.0,4274.0,51.0,-4286.0,-204.613351425793,-300.079110010798,65.2672664769999,503994136
-7,6.0,-73.0,-10347.0,4142.0,2.0,-4170.0,-202.37571570933,-300.098983657988,65.1830679692478,504004177
42,-134.0,-166.0,-10347.0,4142.0,2.0,-4170.0,-198.691614565548,-300.128629529001,65.1239391128562,504011009
-64,119.0,-109.0,-10438.0,3877.0,162.0,-3931.0,-196.031211759373,-300.219882949123,65.0851548955932,504026256
-49,24.0,-108.0,-10482.0,3744.0,118.0,-3813.0,-191.726923563853,-300.26888186834,65.0067438036846,504034201
-10,16.0,17.0,-10524.0,3610.0,74.0,-3694.0,-187.109094061829,-300.331629178737,64.9683781030435,504049823
-18,-27.0,-108.0,-10565.0,3475.0,32.0,-3573.0,-182.218033312748,-300.401369596488,64.9323084647521,504055946
-51,12.0,-97.0,-10604.0,3338.0,247.0,-3452.0,-178.853009439699,-300.506588759722,64.9159301775416,504065737
-72,77.0,-152.0,-10677.0,3067.0,170.0,-3214.0,-173.700318002132,-300.552974707078,64.8781935379456,504082329
79,-54.0,-139.0,-10712.0,2929.0,134.0,-3092.0,-170.18118369827,-300.594309243887,64.84442371337,504090823
12,-68.0,-83.0,-10712.0,2929.0,134.0,-3092.0,-164.861900758997,-300.675968700459,64.853311658737,504098307
-64,-27.0,-60.0,-10779.0,2657.0,67.0,-2844.0,-159.429910925043,-300.691610711381,64.8215516457706,504111594
-64,35.0,-104.0,-10779.0,2657.0,67.0,-2844.0,-155.794583640612,-300.745853187762,64.8345792657763,504118952
71,-46.0,-155.0,-10838.0,2381.0,6.0,-2601.0,-150.297102399425,-300.789329975433,64.8276195706493,504131972
-35,2.0,-28.0,-10867.0,2241.0,234.0,-2474.0,-142.893576583801,-300.794521017999,64.8101569050684,504148254
-165,43.0,40.0,-10894.0,2105.0,208.0,-2349.0,-139.183854763901,-300.826825631026,64.8201925243449,504154513
0,-57.0,-151.0,-10917.0,1969.0,182.0,-2227.0,-133.604106558554,-300.85373483445,64.8311019544027,504167672
145,-28.0,-211.0,-10940.0,1827.0,159.0,-2105.0,-127.995887609158,-300.856616673065,64.8230203626459,504175662
145,-28.0,-211.0,-10962.0,1685.0,136.0,-1978.0,-122.377129810498,-300.843225546214,64.8244050740743,504183685
24,-218.0,-143.0,-10983.0,1546.0,116.0,-1854.0,-116.762733898907,-300.884745056247,64.860827995846,504201263
-220,265.0,142.0,-11021.0,1269.0,82.0,-1600.0,-111.12557443864,-300.865532289377,64.8443034885079,504214166
-123,19.0,-126.0,-11036.0,1129.0,66.0,-1477.0,-105.4934561957,-300.851248467145,64.8394677253922,504222097
28,136.0,-138.0,-11050.0,988.0,51.0,-1352.0,-101.729088294899,-300.854571587185,64.8545012517494,504239415
168,-259.0,-282.0,-11063.0,845.0,40.0,-1227.0,-96.1093860466989,-300.900571180344,64.9065055689809,504250704
-220,186.0,-42.0,-11075.0,705.0,29.0,-1099.0,-92.3499042323565,-300.861588805744,64.8668050767792,504257003
-299,83.0,133.0,-11093.0,428.0,12.0,-846.0,-84.8198955607352,-300.843885441532,64.8825733284169,504271141
-66,178.0,-346.0,-11093.0,428.0,12.0,-846.0,-79.1755890039863,-300.851784360412,64.8981938295731,504279889
-120,-13.0,69.0,-11105.0,143.0,1.0,-594.0,-73.5416530553652,-300.872038087353,64.9257845591277,504296123
-343,-47.0,-62.0,-11112.0,5.0,1.0,-466.0,-67.9087768795325,-300.836522516587,64.9181092413881,504308576
126,-238.0,61.0,-11112.0,-136.0,254.0,-337.0,-60.3744018753677,-300.829837404498,64.9183536281223,504319864
125,287.0,-64.0,-11114.0,-279.0,255.0,-216.0,-56.6138943445793,-300.830855144695,64.932321500039,504328740
17,-180.0,-154.0,-11111.0,-561.0,5.0,38.0,-50.9801138388581,-300.833963588201,64.9458208759378,504345086
17,-180.0,-154.0,-11110.0,-696.0,12.0,167.0,-45.3466055191382,-300.814650539606,64.9475657835023,504351709
-121,-155.0,193.0,-11105.0,-832.0,18.0,286.0,-41.5878162749558,-300.817981991235,64.9555324465405,504364352
284,-412.0,-286.0,-11098.0,-966.0,25.0,402.0,-35.9376309774241,-300.81311579433,64.954510371008,504372226
3,-91.0,224.0,-11094.0,-1090.0,36.0,517.0,-30.3072675433652,-300.821807147211,64.9613005384595,504383896
-118,-6.0,116.0,-11085.0,-1208.0,44.0,622.0,-24.6781133532743,-300.813354683876,64.9660384101984,504399422
-222,259.0,381.0,-11071.0,-1426.0,67.0,823.0,-19.0372574631859,-300.806558126929,64.9666039717835,504412021
173,-225.0,10.0,-11060.0,-1527.0,76.0,910.0,-13.3936703544287,-300.815047167733,64.9790282083016,504427548
-3,-252.0,-43.0,-11054.0,-1620.0,90.0,999.0,-7.76379936031968,-300.813293632967,64.9861359901371,504435746
55,-274.0,-32.0,-11045.0,-1706.0,100.0,1076.0,-2.13493073756887,-300.81406923022,64.9893486231898,504446332
-47,108.0,337.0,-11037.0,-1783.0,110.0,1146.0,1.6250032435925,-300.792722380041,64.987039224182,504458857
-16,-8.0,188.0,-11031.0,-1852.0,121.0,1209.0,7.26453698312292,-300.762810643933,64.9866509402347,504465129
-30,-44.0,199.0,-11016.0,-1970.0,138.0,1317.0,12.8945606276095,-300.750294942729,64.9866632084401,504481487
153,-2.0,174.0,-11016.0,-1970.0,138.0,1317.0,16.6467542569949,-300.751139981855,64.9845617211934,504490276
65,-329.0,284.0,-11010.0,-2021.0,146.0,1362.0,22.2800689485522,-300.754284346225,64.9788966410709,504498200
65,-329.0,284.0,-11010.0,-2021.0,146.0,1362.0,27.9217330013674,-300.759458169581,64.9774078256467,504498200
132,-87.0,-71.0,-10996.0,-2116.0,160.0,1449.0,33.5548202842721,-300.766402512242,64.9758933963803,504524374
132,-87.0,-71.0,-10992.0,-2134.0,161.0,1463.0,39.1854358099886,-300.778764363655,64.9848592626863,504533004
-22,96.0,-320.0,-10990.0,-2146.0,163.0,1475.0,42.9426269220947,-300.787651601952,64.9857581467356,504549213
-126,188.0,-341.0,-10988.0,-2158.0,165.0,1487.0,48.5822307254706,-300.798349279393,64.9853710364426,504555486
12,59.0,-283.0,-10987.0,-2168.0,167.0,1497.0,54.2194892808098,-300.801309267991,64.9769248461142,504568641
122,40.0,-378.0,-10985.0,-2179.0,168.0,1504.0,59.8520663436833,-300.800572079143,64.9742303451128,504576693
66,40.0,-354.0,-10984.0,-2183.0,168.0,1508.0,63.6069758690653,-300.818061754871,64.9770091365111,504587625
-145,190.0,-327.0,-10984.0,-2184.0,169.0,1512.0,69.2489254727437,-300.822020694204,64.9728666078534,504595538
-100,294.0,-535.0,-10982.0,-2186.0,168.0,1514.0,73.013113797336,-300.826121259556,64.9718198667344,504608482
-100,294.0,-535.0,-10981.0,-2187.0,167.0,1515.0,78.6475578791366,-300.830652699719,64.9629399487156,504614753
35,123.0,-358.0,-10979.0,-2193.0,167.0,1518.0,84.2833937187257,-300.833535451154,64.9488559204013,504632595
-71,202.0,-394.0,-10979.0,-2194.0,167.0,1521.0,88.0377258186142,-300.83016778981,64.9384775287318,504644660
-71,202.0,-394.0,-10979.0,-2194.0,167.0,1521.0,93.6852948918702,-300.833943901667,64.9350060380943,504651515
-70,233.0,-357.0,-10977.0,-2194.0,166.0,1521.0,97.4481577861392,-300.837143441577,64.9375488620092,504657782
27,90.0,-238.0,-10974.0,-2203.0,166.0,1529.0,103.08971565822,-300.860226852434,64.940379733452,504672082
18,32.0,-172.0,-10974.0,-2206.0,166.0,1533.0,108.723049118791,-300.848408612897,64.9171365849848,504681007
-5,-5.0,-101.0,-10974.0,-2206.0,166.0,1533.0,112.482831295909,-300.849561668462,64.9002505011005,504689491
5,85.0,-165.0,-10972.0,-2208.0,165.0,1538.0,120.015367308319,-300.848828441331,64.8883910091387,504706860
5,40.0,-200.0,-10970.0,-2210.0,164.0,1540.0,125.669674988759,-300.886516447388,64.9046168840706,504720637
-19,143.0,-112.0,-10969.0,-2212.0,164.0,1542.0,131.31368522584,-300.90018476324,64.8724417571258,504729576
-18,-21.0,-16.0,-10966.0,-2215.0,163.0,1548.0,138.827682774777,-300.862931515507,64.8374988942046,504746434
-9,-18.0,30.0,-10965.0,-2216.0,162.0,1550.0,142.602150940587,-300.900275867539,64.8473251242435,504759181
4,-4.0,-85.0,-10964.0,-2215.0,161.0,1551.0,148.271114429549,-300.927685438938,64.8673453660397,504769836
-11,9.0,-77.0,-10963.0,-2215.0,160.0,1553.0,153.910851725869,-300.927222366417,64.8225183135293,504778598
-16,67.0,-86.0,-10961.0,-2215.0,159.0,1557.0,159.56571389934,-300.933753408338,64.799002834636,504794706
-8,-23.0,-117.0,-10961.0,-2215.0,159.0,1557.0,165.196021021369,-300.932297933096,64.7880255592883,504801492
-5,54.0,9.0,-10959.0,-2215.0,158.0,1561.0,168.905605813095,-300.969607235396,64.8130153335149,504813884
-12,-127.0,20.0,-10958.0,-2215.0,157.0,1563.0,176.074143089628,-300.916775645062,64.7544995159735,504821594
-16,-133.0,-19.0,-10957.0,-2212.0,156.0,1563.0,179.502073493746,-300.883665090751,64.7656703416295,504834316
-24,49.0,-13.0,-10956.0,-2212.0,155.0,1565.0,184.461670382403,-300.856248807685,64.7687711632059,504843082
-13,67.0,-94.0,-10955.0,-2211.0,154.0,1566.0,187.588370625272,-300.780592127439,64.7585630128542,504858597
-1,-13.0,-34.0,-10954.0,-2212.0,154.0,1569.0,192.043511691159,-300.785329013399,64.7932325912423,504866772
-1,-13.0,-34.0,-10953.0,-2211.0,153.0,1569.0,194.811647959126,-300.669614194218,64.7631605677771,504874837
-4,-24.0,-12.0,-10952.0,-2208.0,151.0,1572.0,198.702447786044,-300.608360075014,64.7838451533746,504892280
-18,-104.0,26.0,-10952.0,-2207.0,152.0,1573.0,203.360344437617,-300.532294031699,64.7986028097089,504904403
-19,-83.0,-14.0,-10951.0,-2206.0,151.0,1574.0,206.429155776112,-299.609421578367,64.828191372642,504912939
-13,105.0,-43.0,-10950.0,-2206.0,150.0,1577.0,209.110328349085,-300.341657507939,64.8362739614694,504921771
-21,71.0,-14.0,-10950.0,-2202.0,150.0,1579.0,211.434353158906,-300.289896920839,64.861115954684,504941521
-19,107.0,-47.0,-10950.0,-2202.0,150.0,1579.0,213.382463025155,-300.193236391145,64.8776554512945,504949622
-24,105.0,-34.0,-10949.0,-2199.0,148.0,1580.0,214.958258361876,-300.133097743907,64.9127871861568,504965650
-23,63.0,-46.0,-10948.0,-2199.0,148.0,1583.0,216.169022548484,-300.101287673391,64.9445951702505,504976487
-23,63.0,-46.0,-10948.0,-2198.0,148.0,1583.0,217.111985033453,-299.995282260995,64.9274222866139,504984865
-15,6.0,-18.0,-10947.0,-2198.0,147.0,1586.0,218.025131812372,-299.785050056026,64.9322293729714,505000557
-15,-112.0,15.0,-10948.0,-2195.0,148.0,1588.0,219.079665804527,-299.227506802341,64.9712830424677,505013099
-31,98.0,-41.0,-10948.0,-2192.0,147.0,1588.0,220.848099729769,-298.164404382451,64.9842178927167,505029461
-9,-129.0,8.0,-10947.0,-2191.0,146.0,1592.0,222.528997398518,-297.428579092373,64.9903028315067,505042795
-10,46.0,-41.0,-10947.0,-2191.0,146.0,1592.0,223.854525796273,-296.047972914602,65.0003804770947,505050437
-9,-64.0,-18.0,-10946.0,-2190.0,146.0,1594.0,226.179588049382,-294.927362202206,65.0176082352705,505056789
-20,-32.0,10.0,-10946.0,-2189.0,146.0,1595.0,228.908942614453,-292.9199726916,65.0167800329755,505070747
-11,-72.0,-38.0,-10947.0,-2188.0,146.0,1597.0,230.962189024872,-291.34356219764,64.9997837936804,505079182
-11,-10.0,11.0,-10947.0,-2184.0,147.0,1601.0,234.434133166829,-288.618352865858,65.0005940604264,505086898
-11,-10.0,11.0,-10947.0,-2182.0,147.0,1601.0,237.002375433213,-285.453639755425,65.0120182643807,505094789
1,-137.0,-49.0,-10948.0,-2180.0,147.0,1604.0,241.198676171189,-281.841951472136,65.0145347752141,505114357
-23,0.0,38.0,-10948.0,-2180.0,147.0,1606.0,247.271093564993,-277.840734697465,65.0025132521822,505123018
-17,-63.0,-69.0,-10949.0,-2177.0,147.0,1606.0,252.068332220079,-272.023889392083,65.0075292869144,505141046
-4,-87.0,-70.0,-10949.0,-2175.0,148.0,1609.0,256.977411242665,-267.359937359326,65.0106803364584,505155931
-4,-87.0,-70.0,-10949.0,-2174.0,148.0,1612.0,261.933437246483,-264.135411375092,65.0112117042178,505164325
-15,13.0,56.0,-10949.0,-2172.0,148.0,1612.0,266.889951214189,-259.130697286276,65.0029054392611,505175611
-15,13.0,56.0,-10950.0,-2171.0,148.0,1613.0,271.833265475024,-253.950745165278,65.0044067209482,505184035
-25,73.0,61.0,-10950.0,-2170.0,149.0,1615.0,275.106372706165,-248.608195428238,65.0049771112826,505200139
-1,-220.0,-87.0,-10950.0,-2169.0,149.0,1617.0,279.971615754581,-243.115892730655,65.0037207037655,505207741
0,-192.0,-88.0,-10950.0,-2167.0,149.0,1618.0,284.763609609737,-239.380236777282,65.0030898346649,505216070
-17,-12.0,74.0,-10951.0,-2165.0,149.0,1621.0,289.461434888302,-233.675172270905,65.0002936729155,505233261
-29,-23.0,104.0,-10951.0,-2163.0,149.0,1622.0,294.067871815619,-227.858636703904,65.0022181858369,505245791
-29,-23.0,104.0,-10951.0,-2163.0,149.0,1622.0,297.082597262687,-221.927249475627,65.0024421372025,505252718
-23,-42.0,73.0,-10952.0,-2160.0,150.0,1625.0,301.513745809186,-217.913006383146,65.0017885422672,505265430
-36,-9.0,86.0,-10952.0,-2157.0,150.0,1628.0,307.251977996611,-209.749622813817,65.001325788052,505282248
2,-157.0,-82.0,-10952.0,-2157.0,150.0,1628.0,310.040214975461,-203.518580446601,65.0000389307613,505290826
-5,-172.0,-60.0,-10952.0,-2157.0,151.0,1630.0,315.453044425808,-197.204676960547,64.9997664688037,505298859
-29,-9.0,49.0,-10953.0,-2154.0,151.0,1632.0,318.074524806458,-190.800489700505,64.999568882498,505315125
1,-186.0,-49.0,-10953.0,-2152.0,151.0,1633.0,321.905025153704,-184.315491722037,65.0007594808546,505323224
-13,-67.0,31.0,-10954.0,-2150.0,151.0,1636.0,326.813559546309,-177.74443302718,65.0002382088238,505341946
-10,-128.0,-29.0,-10954.0,-2150.0,151.0,1636.0,330.338497161175,-171.104787396466,65.0006266315796,505350287
-11,-123.0,0.0,-10954.0,-2147.0,152.0,1639.0,333.728478388563,-164.395395081266,65.0003102662789,505366307
-9,-110.0,-7.0,-10955.0,-2146.0,152.0,1640.0,336.982392731375,-157.617156083966,65.0006699822364,505377239
-9,-110.0,-7.0,-10955.0,-2145.0,152.0,1642.0,339.07598582148,-150.771137536288,65.0001413903694,505385519
-15,-83.0,-29.0,-10958.0,-2123.0,154.0,1661.0,342.103740447946,-146.169652890618,64.9998717482775,505393345
-10,-153.0,35.0,-10959.0,-2099.0,154.0,1686.0,344.043933340087,-139.218506895015,65.0003068942842,505406775
-14,-30.0,-69.0,-10966.0,-2082.0,159.0,1700.0,347.734537027972,-129.870120909492,65.0002134490551,505419608
-9,-49.0,-75.0,-10966.0,-2079.0,160.0,1703.0,351.172308374537,-120.422771073332,65.0000552664712,505437727
-4,-29.0,-79.0,-10967.0,-2079.0,160.0,1705.0,354.357439339687,-113.276177447687,65.0001847413108,505453204
-22,-104.0,58.0,-10967.0,-2077.0,160.0,1706.0,356.576428587906,-106.082622854163,65.0002962013564,505459379
-10,-109.0,-95.0,-10968.0,-2074.0,161.0,1708.0,357.975198795837,-98.8509075531543,65.0000552665424,505473909
-14,-111.0,53.0,-10968.0,-2073.0,161.0,1710.0,359.949276651085,-94.0062882097245,65.0003142162004,505482699
-13,-138.0,59.0,-10968.0,-2073.0,161.0,1710.0,361.776832801983,-86.7060707471932,64.9998790693108,505491144
-8,-92.0,-106.0,-10968.0,-2072.0,162.0,1711.0,362.913837061235,-79.3696816258253,64.9996848575369,505502484
-23,-138.0,72.0,-10969.0,-2070.0,162.0,1713.0,364.49506679954,-74.4579959557988,65.0001200038958,505515303
-12,-42.0,-100.0,-10970.0,-2068.0,163.0,1714.0,365.926949782078,-67.0681557377168,64.9997856239971,505523440
-15,-177.0,49.0,-10970.0,-2068.0,163.0,1716.0,367.207912040462,-59.6547414065773,64.9997676093403,505541573
-31,-50.0,-92.0,-10970.0,-2065.0,163.0,1717.0,368.339911536376,-52.2156195161653,64.9993504779984,505549569
-21,-183.0,54.0,-10971.0,-2063.0,163.0,1719.0,369.321227735268,-44.7501733890108,64.9997676092048,505565690
-20,-111.0,33.0,-10971.0,-2063.0,164.0,1721.0,370.150460266384,-37.2704986695504,64.999814331828,505573839
-5,-148.0,-73.0,-10972.0,-2061.0,165.0,1722.0,370.619722372412,-29.7738208815011,64.9996848575369,505582660
-10,-123.0,-76.0,-10972.0,-2061.0,165.0,1724.0,371.197004662859,-24.7705254558507,64.9996848574461,505599204
-4,-135.0,-67.0,-10973.0,-2059.0,166.0,1725.0,371.621898234074,-14.7525456074365,65.0000552665689,505612202
-15,-167.0,7.0,-10974.0,-2058.0,166.0,1725.0,371.894461189139,-9.73646655969889,64.9997676092449,505618962
-24,-85.0,-63.0,-10975.0,-2057.0,167.0,1726.0,371.992601244711,-2.21120181003479,64.9997783025986,505630343
-15,-188.0,-18.0,-10975.0,-2058.0,168.0,1729.0,372.012029365174,2.80757819996207,65.0003068942482,505638928
-25,-366.0,-77.0,-10974.0,-2061.0,169.0,1734.0,371.87842893872,10.3330815306594,65.0001019890636,505653802
-21,-410.0,-138.0,-10974.0,-2061.0,169.0,1734.0,371.705810794658,17.8510752662006,64.9993431568215,505660069
-2,-366.0,-142.0,-10976.0,-2058.0,169.0,1735.0,371.319063882502,22.862368240383,65.0000839744679,505674300
-53,-323.0,-46.0,-10978.0,-2054.0,170.0,1734.0,370.780293487577,30.3687019372285,64.9995373681927,505682929
-16,-240.0,-150.0,-10978.0,-2052.0,170.0,1732.0,370.337405067702,35.366259598162,64.999102223407,505695411
60,-397.0,-134.0,-10978.0,-2052.0,170.0,1732.0,369.546176620435,42.8533395457658,64.9998430399683,505702445
5,-195.0,-121.0,-10981.0,-2045.0,171.0,1725.0,368.933561438913,50.3199929805626,64.9998897625091,505714809
-61,-194.0,-229.0,-10981.0,-2045.0,171.0,1725.0,367.891114832615,57.7652887292395,64.9995660763334,505722255
-165,-391.0,-8.0,-10987.0,-2031.0,171.0,1712.0,366.697920126661,62.7163344635059,64.9997602879729,505739055
-165,-391.0,-8.0,-10987.0,-2031.0,171.0,1712.0,364.87274559867,72.5840656605367,64.9992784197676,505739055
-131,-392.0,-31.0,-10992.0,-1998.0,167.0,1687.0,363.32962528761,82.4000762763616,65.0002241427632,505771980
-131,-392.0,-31.0,-10992.0,-1998.0,167.0,1687.0,361.636893962831,87.2858048540856,64.9999545001491,505771980
-117,-174.0,29.0,-10999.0,-1963.0,163.0,1656.0,359.7974201672,94.5816329224292,64.9993071281456,505789052
5,57.0,235.0,-11002.0,-1942.0,161.0,1642.0,357.811412547277,101.840644076872,64.9991776539726,505796859
-52,-230.0,-38.0,-11004.0,-1924.0,158.0,1624.0,356.404116702577,109.060600521436,65.0000299305908,505809861
-36,-232.0,6.0,-11011.0,-1886.0,153.0,1591.0,353.397622446918,116.234069842844,64.9999184703998,505824015
-175,-233.0,260.0,-11012.0,-1864.0,149.0,1575.0,350.973670220953,123.35849161452,64.9999004560648,505836009
120,64.0,-221.0,-11017.0,-1842.0,148.0,1557.0,348.40787280707,130.431171238491,64.9992891136441,505844679
-146,-85.0,-86.0,-11020.0,-1823.0,145.0,1538.0,346.617080355002,137.453936380801,64.9999651932698,505858655
47,-48.0,-337.0,-11023.0,-1801.0,142.0,1520.0,343.811649411004,144.419814801932,64.9999651932698,505872419
-84,-217.0,79.0,-11028.0,-1778.0,141.0,1502.0,339.853886439419,151.325225197092,65.0000119160879,505881096
137,142.0,-356.0,-11029.0,-1755.0,136.0,1485.0,336.723505922657,158.16840790771,64.9993178221901,505889334
4,0.0,-98.0,-11037.0,-1714.0,133.0,1447.0,334.559313164592,164.949081920253,65.0003175882331,505905547
69,157.0,-302.0,-11040.0,-1689.0,130.0,1429.0,331.199348475417,171.660990898501,64.9998357186806,505918006
69,157.0,-302.0,-11044.0,-1666.0,128.0,1409.0,327.705089861715,176.094893245717,64.999512033019,505925720
10,20.0,171.0,-11050.0,-1623.0,123.0,1372.0,324.075479396466,184.871111610269,64.9995407414912,505943235
-91,-154.0,-360.0,-11050.0,-1623.0,123.0,1372.0,320.312239735547,191.363657363252,65.0007561063445,505951477
18,-88.0,35.0,-11055.0,-1600.0,122.0,1354.0,316.418965470244,195.651561646034,65.0001700985287,505961051
195,28.0,-208.0,-11062.0,-1555.0,119.0,1314.0,311.027757959565,204.113381227303,65.00015208394,505975301
-234,-372.0,-160.0,-11064.0,-1533.0,116.0,1292.0,308.247814124084,210.362933008864,64.9996341867715,505992741
138,52.0,-40.0,-11069.0,-1508.0,115.0,1275.0,303.969343158402,216.526387217565,64.9998751206082,506000533
225,-30.0,-282.0,-11070.0,-1484.0,111.0,1256.0,299.567446995205,220.589442874138,65.0005692161812,506013052
-82,24.0,-32.0,-11078.0,-1444.0,109.0,1214.0,296.566395741904,226.604200101199,64.9997636608695,506023939
-184,-163.0,-26.0,-11078.0,-1444.0,109.0,1214.0,291.961839064918,230.562126731207,64.9995874640348,506032594
99,285.0,-1.0,-11083.0,-1417.0,109.0,1196.0,287.237610289171,236.421154471734,65.0001988064676,506041337
277,-42.0,-183.0,-11089.0,-1372.0,106.0,1158.0,282.394948584282,242.184223517224,64.9998464123845,506055967
-224,-109.0,-90.0,-11091.0,-1353.0,103.0,1138.0,277.439288415815,247.845274567658,64.9996522010719,506068732
-224,-109.0,-90.0,-11098.0,-1329.0,104.0,1115.0,272.36957558295,253.407239362117,64.9998571061462,506076390
130,69.0,-101.0,-11100.0,-1303.0,102.0,1096.0,268.926836819622,258.858599782617,65.0000226094195,506087260
72,177.0,9.0,-11104.0,-1280.0,101.0,1079.0,263.721307138287,262.393245327475,65.0002117448796,506102593
-127,-138.0,-99.0,-11110.0,-1239.0,99.0,1038.0,258.52588059913,269.119524216723,65.0061363894278,506115136
-69,-288.0,-113.0,-11110.0,-1239.0,99.0,1038.0,253.336167522861,272.258289493906,65.0171464345131,506122279
54,65.0,-52.0,-11117.0,-1190.0,97.0,999.0,248.177858493875,276.636742694444,65.022137511625,506138996
-57,-117.0,-132.0,-11123.0,-1147.0,96.0,959.0,241.3856856459,281.83658284169,65.0021174245705,506155584
-31,28.0,-159.0,-11123.0,-1147.0,96.0,959.0,236.373088402097,285.251755286757,64.9890344378817,506162419
-15,-186.0,-142.0,-11131.0,-1102.0,95.0,916.0,233.085149187284,288.267770941517,64.9954492520049,506176597
-23,5.0,7.0,-11133.0,-1081.0,94.0,896.0,228.240099893689,290.858493883836,64.9807467319347,506185160
-48,-16.0,-140.0,-11137.0,-1059.0,94.0,877.0,223.536502071749,293.044377670108,64.9972567511113,506193762
47,-28.0,-167.0,-11139.0,-1035.0,93.0,856.0,218.962974503223,294.259675434765,64.9725553572969,506210775
47,-28.0,-167.0,-11143.0,-1013.0,93.0,837.0,215.970041768025,295.708450894644,64.9359346228493,506217028
0,-44.0,-44.0,-11145.0,-990.0,92.0,815.0,211.600484803785,296.504259056229,64.9527847910107,506224929
-60,-111.0,-157.0,-11148.0,-969.0,91.0,796.0,208.713279066709,297.456804313968,64.9511729724006,506242224
45,-43.0,-152.0,-11151.0,-946.0,90.0,777.0,204.323485146045,298.163553273907,64.9301042686356,506250309
25,101.0,-102.0,-11154.0,-923.0,90.0,755.0,199.776219239294,298.527532552305,64.8991887239991,506263343
-34,-72.0,-97.0,-11160.0,-880.0,90.0,712.0,196.638817331445,299.0147468909,64.8842341498683,506274299
-49,-76.0,-82.0,-11160.0,-880.0,90.0,712.0,191.739643418057,299.403004621506,64.8647585266349,506282839
-30,-58.0,-145.0,-11162.0,-859.0,89.0,692.0,186.66255027032,299.723545675406,64.8547105759475,506291149
-15,-62.0,-120.0,-11168.0,-813.0,89.0,653.0,181.422006683389,299.887894102603,64.8132913518414,506305424
16,25.0,-67.0,-11171.0,-790.0,90.0,635.0,176.122073339244,300.189736358248,64.8347014651218,506317852
16,25.0,-67.0,-11173.0,-768.0,89.0,613.0,170.702353960647,300.289833597455,64.8057224608277,506325480
16,25.0,-67.0,-11173.0,-768.0,89.0,613.0,165.247036360939,300.428348231206,64.813168743519,506325480
3,-10.0,-84.0,-11181.0,-702.0,89.0,551.0,159.729673085775,300.532254189699,64.7845814027612,506358993
3,-10.0,-84.0,-11181.0,-702.0,89.0,551.0,156.036270963581,300.626034133655,64.7901555972624,506358993
80,110.0,-66.0,-11185.0,-659.0,89.0,510.0,148.629154897623,300.712072513822,64.8071812888207,506373677
-87,-233.0,-158.0,-11185.0,-659.0,89.0,510.0,144.888463899719,300.734944290551,64.7951580671204,506382499
-142,-130.0,-43.0,-11191.0,-591.0,89.0,447.0,137.425792284938,300.787972402887,64.8044216096593,506405210
75,137.0,-149.0,-11191.0,-591.0,89.0,447.0,129.930643571431,300.823401849465,64.8211835948005,506411380
-24,97.0,-110.0,-11196.0,-549.0,90.0,407.0,126.181883814057,300.840116069481,64.8172911653588,506430102
-25,136.0,-35.0,-11198.0,-527.0,90.0,386.0,118.670831092129,300.839170044786,64.8213418248458,506438050
-25,136.0,-35.0,-11199.0,-507.0,89.0,364.0,114.925789208625,300.880132343976,64.8592217979772,506446411
36,206.0,-116.0,-11201.0,-484.0,90.0,343.0,109.277359042474,300.848620867929,64.8415159434071,506459514
-42,-295.0,-50.0,-11206.0,-437.0,92.0,305.0,103.632224106221,300.832851871568,64.8329712078618,506474548
138,65.0,-247.0,-11206.0,-437.0,92.0,305.0,97.9870392647261,300.858512798285,64.8888581224506,506483223
166,148.0,-12.0,-11209.0,-396.0,91.0,259.0,94.2415745084321,300.892694846842,64.9022702231549,506496088
-207,-124.0,-344.0,-11209.0,-396.0,91.0,259.0,88.5931383391921,300.841105643334,64.8659441306786,506503280
-178,-323.0,161.0,-11214.0,-348.0,94.0,221.0,82.9524479655323,300.842560816307,64.8880738675515,506515750
284,312.0,-267.0,-11214.0,-348.0,94.0,221.0,79.1854850360527,300.862821982574,64.9048592286963,506522923
-315,-98.0,-251.0,-11215.0,-308.0,94.0,177.0,73.5378161333588,300.861314399304,64.9162438958529,506539556
-188,-227.0,174.0,-11219.0,-288.0,96.0,155.0,67.9116521934536,300.858210238501,64.9188480614947,506547609
-188,-227.0,174.0,-11220.0,-261.0,96.0,136.0,64.1474250118182,300.829861435248,64.9186468413709,506557611
67,-442.0,-94.0,-11222.0,-241.0,98.0,116.0,58.5051363817316,300.830465615136,64.9282617536401,506570534
4,72.0,-184.0,-11224.0,-218.0,98.0,95.0,52.853875835334,300.831080917709,64.9383925630944,506578471
-251,-497.0,-348.0,-11223.0,-181.0,97.0,54.0,47.2216242681739,300.818935514831,64.9417946899403,506595038
148,258.0,148.0,-11227.0,-161.0,100.0,39.0,39.7083082126705,300.826111876604,64.9613971504755,506608626
-79,-169.0,-560.0,-11225.0,-144.0,98.0,19.0,34.0660160588874,300.82615721619,64.9656838438388,506618259
-51,221.0,47.0,-11226.0,-109.0,99.0,-16.0,30.3051201213892,300.804470955323,64.957548157456,506635135
-7,39.0,-452.0,-11226.0,-96.0,99.0,-32.0,24.6743554765283,300.805645927915,64.9597369924483,506644223
-149,-361.0,-525.0,-11226.0,-96.0,99.0,-32.0,19.0365105167357,300.807519998222,64.9693691410233,506651993
103,142.0,-235.0,-11229.0,-79.0,101.0,-44.0,15.2771495112528,300.815195904874,64.9759334242457,506664561
-202,-406.0,-743.0,-11227.0,-66.0,99.0,-59.0,9.64352910412728,300.807186042348,64.9755137267994,506672193
-95,100.0,-158.0,-11229.0,-42.0,101.0,-84.0,4.00830716353234,300.805360338906,64.9818091212988,506684905
33,166.0,-185.0,-11229.0,-42.0,101.0,-84.0,-1.62689695550302,300.801867036086,64.9829860301231,506693285
-12,-62.0,-428.0,-11228.0,-20.0,101.0,-108.0,-5.38241817959174,300.757921879779,64.9812944922397,506707243
-1,42.0,-437.0,-11228.0,-11.0,100.0,-116.0,-11.0189498273129,300.742324638754,64.9784606146197,506720053
60,278.0,-420.0,-11228.0,-6.0,100.0,-121.0,-16.6490091034501,300.755718680436,64.9884653286782,506727891
60,278.0,-420.0,-11227.0,0.0,100.0,-127.0,-22.2818026823819,300.766683540561,64.9862762493888,506736302
-188,51.0,-440.0,-11227.0,3.0,100.0,-135.0,-26.0399914950773,300.771058816398,64.9871077295577,506747898
-14,-14.0,-295.0,-11227.0,11.0,101.0,-140.0,-31.6750547986578,300.763543437385,64.9803431734799,506761040
226,41.0,-110.0,-11230.0,30.0,104.0,-153.0,-37.3106728392722,300.779015203861,64.9880661671095,506774957
125,-48.0,-226.0,-11230.0,41.0,104.0,-164.0,-41.0665975316515,300.787690965148,64.9891065373848,506783986
71,-46.0,-291.0,-11230.0,41.0,104.0,-164.0,-48.5800235836694,300.801747247662,64.989224343436,506792454
291,-133.0,-194.0,-11230.0,78.0,104.0,-197.0,-54.2175137262348,300.80071966848,64.9737636057968,506809646
261,26.0,-180.0,-11230.0,103.0,105.0,-221.0,-61.7297649922105,300.812482045038,64.9763003082282,506823095
-36,-140.0,-346.0,-11227.0,172.0,104.0,-289.0,-71.1312490428015,300.830600256376,64.9736451794805,506839985
495,158.0,46.0,-11228.0,221.0,107.0,-330.0,-76.7684802328378,300.829954897132,64.9646765524616,506854920
132,-117.0,-266.0,-11227.0,332.0,111.0,-426.0,-84.2843001504684,300.82520578376,64.9523164371628,506871323
114,24.0,13.0,-11224.0,398.0,113.0,-490.0,-88.0405519012653,300.830731131489,64.9396163908172,506879989
231,-206.0,-228.0,-11220.0,558.0,122.0,-631.0,-93.6865843210452,300.839429983959,64.9391928279103,506896484
230,-328.0,-476.0,-11215.0,648.0,127.0,-713.0,-101.209538080052,300.84992587981,64.9429448333098,506910001
206,69.0,43.0,-11209.0,744.0,132.0,-801.0,-106.846076754414,300.841178714165,64.9154197233035,506923669
20,-413.0,-216.0,-11192.0,960.0,148.0,-1002.0,-114.372681482273,300.857517282886,64.9044737547247,506936454
317,348.0,-133.0,-11184.0,1080.0,160.0,-1109.0,-118.133736987077,300.844308076975,64.8880922606546,506945236
17,35.0,0.0,-11171.0,1204.0,171.0,-1224.0,-123.783099141372,300.872451279854,64.9020281237689,506959505
19,-434.0,-240.0,-11158.0,1331.0,184.0,-1341.0,-129.435960314265,300.898600789178,64.8969747769303,506973170
-15,199.0,-112.0,-11143.0,1460.0,200.0,-1458.0,-135.072310794902,300.887364261011,64.8506960381704,506982594
174,97.0,13.0,-11128.0,1593.0,218.0,-1579.0,-140.712322653739,300.876205604123,64.8431307871867,506990855
107,-162.0,-249.0,-11110.0,1729.0,237.0,-1702.0,-144.494990321645,300.906934724547,64.8612283675793,507000981
56,188.0,42.0,-11089.0,1863.0,0.0,-1827.0,-150.157847170179,300.93809963697,64.8466729027781,507013312
12,-281.0,-261.0,-11044.0,2139.0,47.0,-2079.0,-153.907787204147,300.923420806307,64.8122569368815,507027336
-82,24.0,-155.0,-11020.0,2278.0,73.0,-2205.0,-159.562569348594,300.935374318156,64.802020136317,507036035
97,270.0,-3.0,-10994.0,2417.0,102.0,-2332.0,-165.196950922265,300.942489503651,64.7976712021747,507045029
18,54.0,-190.0,-10964.0,2555.0,129.0,-2460.0,-170.735889738217,300.952137442137,64.800213459601,507062054
18,54.0,-190.0,-10935.0,2697.0,162.0,-2588.0,-176.070749955557,300.905461293664,64.7506422928425,507068343
-62,-191.0,-219.0,-10904.0,2838.0,196.0,-2716.0,-181.194309090094,300.893157439648,64.7755042550702,507076163
-12,-197.0,-230.0,-10871.0,2977.0,230.0,-2843.0,-184.458619977799,300.833201187434,64.7723127225316,507094414
25,222.0,69.0,-10836.0,3116.0,10.0,-2971.0,-189.099997255646,300.784420812807,64.7611028312144,507102105
25,222.0,69.0,-10799.0,3255.0,47.0,-3099.0,-192.040167205016,300.741041380372,64.7813980635615,507108388
48,-22.0,-185.0,-10721.0,3535.0,129.0,-3352.0,-196.144197039564,300.665599748176,64.7685636589536,507125571
-37,-75.0,-143.0,-10721.0,3535.0,129.0,-3352.0,-199.937906466758,300.616540398039,64.8160145119337,507134260
133,169.0,162.0,-10681.0,3673.0,173.0,-3478.0,-203.355389006092,300.528591894404,64.800046022914,507142765
-112,-150.0,-425.0,-10592.0,3949.0,7.0,-3732.0,-205.442784920749,300.455929795185,64.8233251989055,507157026
-116,3.0,-204.0,-10592.0,3949.0,7.0,-3732.0,-208.253965575738,300.36939470281,64.8319814313098,507163348
19,46.0,83.0,-10499.0,4223.0,105.0,-3981.0,-210.702246492589,300.318753032841,64.8556584134919,507177328
-5,-81.0,110.0,-10452.0,4361.0,159.0,-4105.0,-212.776511404191,300.217970530414,64.8770177412113,507189102
-94,-119.0,-78.0,-10401.0,4496.0,211.0,-4229.0,-214.959537736805,300.151658021853,64.9197084599521,507204551
-31,109.0,-78.0,-10298.0,4766.0,69.0,-4473.0,-215.803660702022,300.099454199616,64.9501211072753,507216920
10,70.0,-283.0,-10242.0,4899.0,126.0,-4596.0,-217.03730541652,300.036164280341,65.027134459701,507232668
-153,42.0,-278.0,-10186.0,5033.0,187.0,-4718.0,-217.713123553091,299.993722692575,65.3069154918643,507240974
54,59.0,133.0,-10127.0,5165.0,247.0,-4839.0,-218.084582220127,299.98296766152,65.6151765989857,507251265
