ACC_X,ACC_Y,ACC_Z,QUAT_W,QUAT_X,QUAT_Y,QUAT_Z,X_pos,Y_pos,Z_pos,t
-35,34.0,-194.0,-9131.0,6912.0,255.0,-6530.0,-218.250303088056,299.982539255906,65.8104122510729,611664080
93,-34.0,32.0,-9052.0,7031.0,85.0,-6638.0,-218.684454125476,300.001000591105,66.6047750574405,611677428
-119,22.0,-162.0,-8970.0,7148.0,169.0,-6745.0,-218.914659473374,300.024400826272,67.2723580246883,611685601
-55,64.0,17.0,-8804.0,7382.0,88.0,-6956.0,-219.170866004495,300.027980315628,69.0159205660929,611701579
239,-74.0,-125.0,-8717.0,7497.0,177.0,-7060.0,-219.453232915995,300.05807443172,70.1103851831556,611712140
-109,-202.0,-155.0,-8630.0,7610.0,11.0,-7163.0,-219.539782193921,300.031622049151,71.9527360049906,611724864
-137,321.0,107.0,-8542.0,7721.0,103.0,-7266.0,-219.638060882512,300.047435400436,74.1871312382204,611733055
232,263.0,263.0,-8366.0,7944.0,39.0,-7466.0,-219.770342072243,300.069174576303,76.7946629423132,611749982
23,-99.0,-372.0,-8366.0,7944.0,39.0,-7466.0,-219.864765457458,300.12664549618,79.7838423077175,611757469
62,130.0,113.0,-8273.0,8054.0,134.0,-7565.0,-219.908378906353,300.091429325782,83.0228374900414,611763752
-66,-31.0,-188.0,-8085.0,8268.0,72.0,-7760.0,-219.980958928943,300.153103899202,86.7475649109091,611781471
-79,131.0,-221.0,-7992.0,8373.0,173.0,-7853.0,-220.049707564763,300.200877560304,90.8426038937984,611790033
-92,45.0,-230.0,-7897.0,8475.0,15.0,-7946.0,-220.112707310147,300.245820610994,95.3043076413816,611806724
-92,45.0,-230.0,-7802.0,8573.0,111.0,-8035.0,-220.140933099014,300.273590762948,99.9878301838765,611813002
-318,282.0,148.0,-7709.0,8667.0,204.0,-8120.0,-220.195307072796,300.325026979749,104.935861417358,611825636
-396,30.0,-3.0,-7620.0,8755.0,39.0,-8201.0,-220.22675119452,300.365437858838,110.005781653011,611837038
-179,-55.0,-179.0,-7456.0,8919.0,217.0,-8348.0,-220.295704497245,300.413000429826,116.937309472359,611859863
-242,95.0,-210.0,-7300.0,9063.0,117.0,-8478.0,-220.305787753526,300.435716885395,122.256903749919,611872463
-290,145.0,22.0,-7231.0,9125.0,186.0,-8534.0,-220.345846787824,300.469333866432,127.665826413609,611880088
-377,63.0,86.0,-7231.0,9125.0,186.0,-8534.0,-220.350216154198,300.484952637288,133.109592033646,611888840
-22,-84.0,-186.0,-7110.0,9237.0,62.0,-8633.0,-220.364513116248,300.499005656903,142.286156739702,611908985
-236,133.0,-154.0,-7005.0,9327.0,169.0,-8715.0,-220.364299542362,300.508466092154,145.966876287916,611921358
-278,170.0,-83.0,-7005.0,9327.0,169.0,-8715.0,-220.38138630914,300.517136949223,151.5250170863,611928333
-344,169.0,41.0,-6922.0,9395.0,248.0,-8776.0,-220.383515147371,300.519032922466,157.093863517037,611945841
-302,28.0,-27.0,-6890.0,9423.0,27.0,-8801.0,-220.392017063587,300.510038056918,162.666551064405,611953683
-201,143.0,-82.0,-6865.0,9445.0,54.0,-8819.0,-220.390850739913,300.526262290943,166.416076079998,611963813
-82,166.0,-120.0,-6845.0,9462.0,73.0,-8833.0,-220.391735924734,300.532720344297,172.035066703986,611976928
-223,186.0,10.0,-6829.0,9472.0,84.0,-8844.0,-220.387581794492,300.535252238812,177.648727196117,611984859
-195,157.0,33.0,-6819.0,9478.0,91.0,-8851.0,-220.382086578792,300.515071006922,183.244157830297,612001438
-111,226.0,148.0,-6819.0,9478.0,91.0,-8851.0,-220.377515216298,300.508585724168,188.854327939444,612008835
116,207.0,20.0,-6834.0,9470.0,84.0,-8842.0,-220.384434477396,300.517517409972,192.610366763247,612025119
116,207.0,20.0,-6848.0,9458.0,68.0,-8830.0,-220.388716116241,300.523607620427,198.25138183737,612032993
-24,397.0,5.0,-6869.0,9439.0,44.0,-8814.0,-220.381478738262,300.513990415199,201.981698615352,612041991
-102,272.0,45.0,-6897.0,9416.0,14.0,-8792.0,-220.382207689021,300.514732683168,207.590449987142,612050449
-149,300.0,-56.0,-6930.0,9388.0,236.0,-8767.0,-220.374444445499,300.505405304251,211.357123929388,612064202
-149,300.0,-56.0,-6930.0,9388.0,236.0,-8767.0,-220.354522142471,300.480905264669,216.948987606823,612070482
-104,390.0,-42.0,-7019.0,9316.0,152.0,-8701.0,-220.349397698525,300.470244446512,222.552139336903,612085325
194,260.0,66.0,-7067.0,9273.0,99.0,-8662.0,-220.361052197301,300.487143463669,228.210513211413,612096135
-167,275.0,-234.0,-7121.0,9226.0,42.0,-8618.0,-220.35209532627,300.481920300237,231.960993708727,612104214
120,123.0,331.0,-7184.0,9172.0,235.0,-8567.0,-220.372525638038,300.502537068609,235.754866751708,612117324
120,123.0,331.0,-7251.0,9113.0,167.0,-8512.0,-220.36905403141,300.508420287836,241.388618247778,612123501
81,523.0,273.0,-7401.0,8974.0,13.0,-8387.0,-220.377333111621,300.509344326246,246.996464011089,612139721
31,442.0,63.0,-7401.0,8974.0,13.0,-8387.0,-220.385652994268,300.521192905825,252.670677385042,612148690
-151,244.0,-86.0,-7479.0,8899.0,185.0,-8318.0,-220.383159455329,300.518296155411,258.305649720196,612160153
8,173.0,216.0,-7642.0,8742.0,13.0,-8168.0,-220.395352756214,300.540757473538,262.091163003395,612172639
-147,-9.0,-246.0,-7727.0,8657.0,181.0,-8089.0,-220.393656909496,300.534787352355,267.685858369677,612180353
83,51.0,10.0,-7727.0,8657.0,181.0,-8089.0,-220.40287262568,300.548089993543,273.344270315562,612188994
-22,63.0,-146.0,-7901.0,8477.0,0.0,-7924.0,-220.402510867205,300.554505129196,278.976886980296,612205439
-22,63.0,-146.0,-7987.0,8383.0,164.0,-7839.0,-220.417630993256,300.566561035724,282.764323075446,612211741
-25,180.0,114.0,-8073.0,8290.0,74.0,-7750.0,-220.415350267341,300.566494521537,288.363945749356,612228596
38,-6.0,-117.0,-8158.0,8195.0,240.0,-7661.0,-220.427561471024,300.580102464051,294.027864387213,612237213
-140,-144.0,-292.0,-8243.0,8097.0,150.0,-7570.0,-220.427527112016,300.580559193323,299.651967066182,612245471
124,284.0,189.0,-8413.0,7893.0,224.0,-7382.0,-220.442070902517,300.599384245061,307.180484480408,612266494
124,284.0,189.0,-8496.0,7788.0,134.0,-7288.0,-220.451204285726,300.611838716013,312.838150948064,612272708
-167,50.0,-195.0,-8578.0,7684.0,47.0,-7192.0,-220.46329946856,300.628583789601,316.598803471214,612283430
117,-60.0,-174.0,-8740.0,7473.0,129.0,-6994.0,-220.467908509347,300.643694177817,324.112477367611,612300705
-35,37.0,-107.0,-8740.0,7473.0,129.0,-6994.0,-220.483012428225,300.660199219567,327.882873192246,612308326
-69,-25.0,-158.0,-8819.0,7363.0,44.0,-6895.0,-220.499877696223,300.678714535224,335.437126400354,612320882
229,-21.0,73.0,-8976.0,7141.0,131.0,-6691.0,-220.515651743688,300.700476281382,341.042578655061,612335804
-158,147.0,-201.0,-9052.0,7029.0,48.0,-6587.0,-220.53351013718,300.729110963475,348.592802273662,612347246
-13,-76.0,-155.0,-9127.0,6918.0,225.0,-6483.0,-220.559761027931,300.764403929906,354.287856242296,612361800
69,-21.0,22.0,-9271.0,6688.0,64.0,-6272.0,-220.580325304653,300.789422611223,359.982752533478,612374339
63,141.0,-23.0,-9414.0,6453.0,166.0,-6057.0,-220.608924053011,300.844636831371,365.591787851111,612390979
-194,-58.0,-256.0,-9414.0,6453.0,166.0,-6057.0,-220.642097276766,300.886004859431,372.894373172398,612399703
30,346.0,-45.0,-9483.0,6336.0,92.0,-5948.0,-220.667141573138,300.919730838533,376.430898945468,612411120
66,220.0,-132.0,-9615.0,6097.0,201.0,-5730.0,-220.692104121071,300.951940019127,381.50179529546,612423621
14,-7.0,-2.0,-9744.0,5854.0,62.0,-5509.0,-220.709138458221,300.964823671058,386.302172333358,612440161
93,-25.0,18.0,-9744.0,5854.0,62.0,-5509.0,-220.72133432667,300.982967048047,389.323038610328,612449370
38,176.0,-251.0,-9808.0,5731.0,249.0,-5394.0,-220.725025017263,300.992394213162,393.594462238912,612457394
38,176.0,-251.0,-9868.0,5607.0,183.0,-5283.0,-220.721918021721,300.985780038697,396.314917815828,612463690
-141,-224.0,-229.0,-9927.0,5483.0,117.0,-5168.0,-220.715796551023,300.9697231418,400.08749611529,612473411
-121,200.0,-115.0,-9984.0,5359.0,54.0,-5057.0,-220.704789448656,300.951063369576,403.464659047179,612489747
-38,-131.0,-68.0,-10043.0,5234.0,248.0,-4940.0,-220.685937791252,300.936463778144,405.496513806865,612498415
148,40.0,-135.0,-10100.0,5107.0,187.0,-4823.0,-220.657850637704,300.899675329223,408.288240059152,612506446
89,69.0,-232.0,-10154.0,4979.0,128.0,-4708.0,-220.633377720955,300.847560701493,410.704887146295,612518894
-169,-229.0,117.0,-10255.0,4721.0,11.0,-4479.0,-220.590833107716,300.804759257312,412.743366019671,612535419
-169,-229.0,117.0,-10304.0,4593.0,211.0,-4359.0,-220.543209461014,300.739566195076,413.870019443197,612543710
5,178.0,-190.0,-10354.0,4464.0,159.0,-4241.0,-220.485213321673,300.661488295613,415.633117189096,612552537
-1,-192.0,-14.0,-10402.0,4333.0,106.0,-4119.0,-220.4036656454,300.570177389053,416.296972091865,612566156
25,152.0,-240.0,-10448.0,4200.0,56.0,-4001.0,-220.30588464297,300.455852422723,417.111106439408,612579455
-104,-73.0,-10.0,-10492.0,4068.0,7.0,-3883.0,-220.025812404096,300.351370413137,417.740226196865,612588040
-101,73.0,-77.0,-10575.0,3805.0,168.0,-3642.0,-219.521471678886,300.251550739973,418.434078563912,612600641
70,-141.0,-190.0,-10615.0,3672.0,123.0,-3519.0,-218.446006658626,300.190021690448,418.669581871676,612614814
38,55.0,-91.0,-10655.0,3537.0,81.0,-3397.0,-217.726849067218,300.160441214322,418.968281291449,612627933
-47,16.0,-218.0,-10692.0,3401.0,39.0,-3276.0,-216.399538082081,300.138750385272,419.257098277888,612636028
-86,-114.0,-166.0,-10727.0,3266.0,254.0,-3155.0,-214.762347087261,300.139146654877,419.48174887768,612644185
12,9.0,-30.0,-10793.0,2994.0,179.0,-2912.0,-212.791392100632,300.159497901228,419.618918402308,612661837
-76,-44.0,-158.0,-10793.0,2994.0,179.0,-2912.0,-211.29309461537,300.202871845229,419.761400063942,612668076
-109,-104.0,26.0,-10856.0,2722.0,110.0,-2662.0,-208.746504120436,300.233009850689,419.876725316945,612681937
30,-83.0,-41.0,-10884.0,2584.0,77.0,-2538.0,-205.827607100994,300.3052758872,420.025198426324,612690539
-94,-112.0,-70.0,-10912.0,2445.0,48.0,-2416.0,-202.535911062934,300.375084127052,420.130457462308,612707465
-92,40.0,-230.0,-10937.0,2307.0,18.0,-2291.0,-198.86695191188,300.42711443325,420.20807129375,612716896
0,-175.0,-104.0,-10983.0,2033.0,220.0,-2043.0,-194.829234408962,300.504288429794,420.27969610685,612730700
3,10.0,-31.0,-10983.0,2033.0,220.0,-2043.0,-190.416722026799,300.579977672798,420.343260007885,612739350
74,-47.0,-27.0,-11005.0,1893.0,196.0,-1915.0,-187.29482690027,300.659945611166,420.425018682801,612747769
-250,-158.0,22.0,-11044.0,1612.0,154.0,-1665.0,-180.73301497802,300.737362855973,420.460166617006,612762087
124,113.0,-10.0,-11060.0,1475.0,134.0,-1539.0,-175.602349957206,300.814416598136,420.476156330039,612778400
-118,-218.0,-99.0,-11075.0,1335.0,116.0,-1414.0,-170.352792633281,300.874178700787,420.475889517898,612786515
16,-274.0,-239.0,-11090.0,1196.0,100.0,-1286.0,-165.001451386356,300.913743816059,420.475488216281,612794603
-186,18.0,-42.0,-11103.0,1053.0,86.0,-1160.0,-159.576893624748,300.941811336798,420.475551715615,612810373
194,26.0,-315.0,-11124.0,773.0,62.0,-908.0,-154.084315434557,300.969893395745,420.474460696773,612823136
206,-16.0,-390.0,-11138.0,492.0,44.0,-655.0,-146.69140992016,300.990295413663,420.419116185868,612843211
-292,43.0,336.0,-11142.0,349.0,37.0,-527.0,-141.125361385132,300.998251169692,420.415768621064,612851645
-320,-61.0,284.0,-11148.0,210.0,34.0,-402.0,-135.539153363461,300.989581305,420.411204939023,612865578
-340,28.0,239.0,-11149.0,67.0,29.0,-272.0,-128.056056789568,300.988032179846,420.373885466139,612878700
230,49.0,-383.0,-11150.0,-72.0,28.0,-145.0,-122.428512788784,300.983321176468,420.3389895886,612886694
-113,-40.0,24.0,-11148.0,-354.0,31.0,107.0,-118.672402197488,300.974949385233,420.33037893685,612905595
-113,-40.0,24.0,-11148.0,-354.0,31.0,107.0,-111.163827210926,300.959851509617,420.291580200735,612912215
-217,82.0,444.0,-11137.0,-627.0,37.0,353.0,-105.526603041966,300.948858281098,420.289638319725,612924725
34,-283.0,-172.0,-11132.0,-757.0,44.0,470.0,-101.76924856707,300.938025016037,420.263802196495,612932608
-226,-143.0,356.0,-11125.0,-884.0,51.0,584.0,-96.1230530177731,300.932161176209,420.222482513938,612949703
89,-113.0,-148.0,-11119.0,-1004.0,60.0,692.0,-90.4775216699177,300.922104282044,420.228230828865,612958480
-31,25.0,266.0,-11101.0,-1227.0,78.0,892.0,-84.8326291463715,300.909300181727,420.197309830036,612974501
-218,-212.0,299.0,-11092.0,-1329.0,87.0,983.0,-81.0749472284945,300.901017546461,420.168439275165,612982444
283,-245.0,-254.0,-11083.0,-1425.0,97.0,1069.0,-75.4337941528668,300.892060343937,420.154272528277,612991252
-288,-53.0,440.0,-11083.0,-1425.0,97.0,1069.0,-69.7895289805189,300.881835874024,420.131865439496,613000114
22,-14.0,206.0,-11065.0,-1597.0,117.0,1222.0,-60.3841536352747,300.870951894112,420.120815119189,613020657
-313,-3.0,423.0,-11056.0,-1670.0,127.0,1289.0,-56.6240424196858,300.865949013456,420.122603281345,613027213
-313,-3.0,423.0,-11056.0,-1670.0,127.0,1289.0,-52.8643986430644,300.85746031609,420.097124343746,613027213
-123,-7.0,258.0,-11036.0,-1851.0,152.0,1447.0,-45.35193642043,300.858983272517,420.072717893387,613059948
105,-175.0,19.0,-11030.0,-1896.0,159.0,1487.0,-39.7107768783334,300.847593260883,420.075548552591,613066836
105,-175.0,19.0,-11025.0,-1932.0,164.0,1519.0,-35.946113055205,300.840059405935,420.081174169257,613073144
-193,131.0,390.0,-11022.0,-1963.0,170.0,1544.0,-30.3104939241665,300.842986582514,420.046272733364,613088858
127,-268.0,-266.0,-11018.0,-1994.0,175.0,1570.0,-24.6749677907778,300.841376502645,420.01805329055,613097018
-189,-249.0,-111.0,-11018.0,-2017.0,181.0,1591.0,-20.9188076935841,300.834083101643,420.020776067587,613105149
280,-405.0,-422.0,-11014.0,-2039.0,184.0,1612.0,-15.2849732215849,300.83063351217,420.0291966204,613121686
-57,-271.0,-151.0,-11012.0,-2054.0,187.0,1628.0,-9.64146576636795,300.829919465273,420.012101476979,613128603
116,-452.0,-502.0,-11008.0,-2085.0,192.0,1653.0,-4.00410044716108,300.832487358179,419.997297474839,613144734
-69,-392.0,-436.0,-11005.0,-2095.0,192.0,1663.0,-0.248643009223345,300.834034202456,419.981615865329,613153066
-77,-238.0,-264.0,-11005.0,-2095.0,192.0,1663.0,5.38446876681744,300.81583615364,419.96012211104,613160465
97,-338.0,-342.0,-11000.0,-2109.0,193.0,1679.0,11.0129169106902,300.809176599216,419.958538729089,613176997
97,-338.0,-342.0,-10999.0,-2118.0,195.0,1688.0,16.6507125929363,300.812620179789,419.966348685615,613184688
-4,-531.0,-525.0,-10998.0,-2124.0,196.0,1693.0,22.2933446244121,300.814836415711,419.97052271191,613193222
7,-458.0,-426.0,-10996.0,-2128.0,195.0,1696.0,27.926620090485,300.818408661042,419.971541556981,613209616
32,-417.0,-336.0,-10994.0,-2131.0,194.0,1700.0,33.5532955765631,300.826894148696,419.982571208853,613222037
60,-306.0,-239.0,-10992.0,-2132.0,192.0,1699.0,39.1895612666522,300.823563343615,420.006846249506,613229094
-40,-339.0,-175.0,-10990.0,-2135.0,190.0,1695.0,42.9475995166282,300.821056134517,420.007503854158,613241621
-48,-209.0,-122.0,-10989.0,-2136.0,189.0,1694.0,48.5865613842579,300.830775838946,420.005393501162,613258363
-3,-136.0,-108.0,-10987.0,-2136.0,188.0,1692.0,52.3466389254827,300.827820105853,420.017771265897,613265671
-3,-136.0,-108.0,-10987.0,-2136.0,187.0,1692.0,59.8616667862024,300.8387750717,420.013006823102,613274517
16,-220.0,-115.0,-10985.0,-2136.0,185.0,1690.0,63.615263183533,300.840294349004,420.008220176261,613291875
-66,-195.0,-22.0,-10983.0,-2136.0,183.0,1687.0,69.25314961102,300.843669027324,420.026414295197,613304417
-40,-87.0,-3.0,-10983.0,-2136.0,183.0,1687.0,74.8865974206084,300.84382310869,420.048556186529,613311513
25,-171.0,-46.0,-10982.0,-2136.0,182.0,1684.0,78.6525347436901,300.845237861258,420.053067926921,613317648
-58,-90.0,-24.0,-10982.0,-2137.0,181.0,1681.0,86.181329129838,300.857499679521,420.053891764531,613331630
16,-119.0,-50.0,-10981.0,-2138.0,180.0,1679.0,91.8049902683414,300.860630243689,420.084177541854,613349090
-27,-166.0,28.0,-10980.0,-2139.0,179.0,1679.0,97.4469087252198,300.867792206231,420.094806268754,613357036
38,-68.0,-44.0,-10979.0,-2140.0,178.0,1674.0,104.97999073294,300.878833378563,420.113074780338,613374006
-67,-104.0,6.0,-10978.0,-2140.0,177.0,1671.0,112.507420003124,300.887526194771,420.128606368193,613391273
9,-149.0,-33.0,-10977.0,-2141.0,176.0,1670.0,118.14654687124,300.900497594068,420.141182512288,613400045
-13,-86.0,15.0,-10976.0,-2144.0,175.0,1667.0,123.792932878151,300.916079214408,420.175338417988,613414307
-41,-122.0,-26.0,-10976.0,-2145.0,174.0,1663.0,129.445936331444,300.924605909685,420.185582963436,613431526
-29,-102.0,-13.0,-10976.0,-2145.0,174.0,1663.0,135.101894189855,300.945012600486,420.22217286569,613440398
-31,-102.0,-4.0,-10975.0,-2145.0,173.0,1660.0,140.752218671979,300.956500002126,420.21437192062,613448900
-29,-79.0,11.0,-10974.0,-2147.0,173.0,1660.0,144.527257480513,300.967043739984,420.251133887601,613456724
-29,-79.0,11.0,-10974.0,-2148.0,172.0,1658.0,148.292966229276,300.994543450112,420.285589168311,613464254
-53,-114.0,0.0,-10973.0,-2150.0,172.0,1657.0,153.952732422333,301.009544652508,420.314607232903,613481570
17,-136.0,-43.0,-10982.0,-2129.0,179.0,1677.0,159.620599650329,301.039925338223,420.321811057861,613490030
65,-140.0,-47.0,-10980.0,-2132.0,178.0,1673.0,163.393869074804,301.30828280829,420.359350966858,613503179
-92,-105.0,45.0,-10980.0,-2132.0,178.0,1673.0,168.98217275243,301.083384165656,420.394789454106,613510810
69,-69.0,-54.0,-10980.0,-2132.0,177.0,1671.0,172.622862433091,301.096581920632,420.412854395747,613517066
-106,-106.0,54.0,-10980.0,-2134.0,177.0,1671.0,177.916126483994,301.088693557879,420.455573305827,613530963
-97,-173.0,53.0,-10980.0,-2135.0,177.0,1668.0,182.964718317041,301.080372422188,420.46171225132,613539772
77,-109.0,-76.0,-10979.0,-2137.0,177.0,1668.0,186.175077415131,301.066699837405,420.499013137587,613548159
-117,-122.0,71.0,-10979.0,-2138.0,177.0,1666.0,190.75133174873,301.034481964282,420.508319262051,613556093
102,-131.0,-83.0,-10978.0,-2142.0,176.0,1660.0,193.623490896818,300.995533858794,420.497197891006,613583512
102,-131.0,-83.0,-10978.0,-2142.0,176.0,1660.0,197.652066144938,300.963372303139,420.516536758247,613583512
-127,-19.0,82.0,-10978.0,-2143.0,175.0,1658.0,200.146025782613,300.909239909497,420.524057081246,613592518
98,-117.0,-96.0,-10978.0,-2143.0,175.0,1658.0,203.587313843025,300.851951229629,420.522902895678,613601396
-136,-80.0,89.0,-10978.0,-2146.0,175.0,1656.0,206.665688218581,300.784304990566,420.510439494603,613615680
108,-91.0,-82.0,-10977.0,-2147.0,175.0,1654.0,209.371611424278,300.711937613797,420.493156743547,613628534
-115,-83.0,89.0,-10977.0,-2148.0,175.0,1653.0,212.388532960103,300.624221344583,420.438724894072,613636761
76,-90.0,-82.0,-10976.0,-2152.0,174.0,1649.0,214.193030803749,300.537285682,420.387738831132,613655451
61,-100.0,-74.0,-10976.0,-2152.0,174.0,1647.0,215.610628469985,300.43868177797,420.320732065798,613662928
49,-130.0,-53.0,-10976.0,-2154.0,174.0,1646.0,216.354952366627,300.330728111418,420.294823080924,613680264
-65,-23.0,52.0,-10976.0,-2155.0,174.0,1644.0,217.289804812281,300.231389562736,420.270453085162,613689151
-59,8.0,32.0,-10975.0,-2157.0,174.0,1644.0,218.185150937464,299.981646982383,420.25588361674,613697598
0,-106.0,-26.0,-10975.0,-2157.0,173.0,1641.0,218.841154580211,299.554144682155,420.201258968557,613706016
-8,-72.0,14.0,-10975.0,-2160.0,173.0,1638.0,220.444197907655,298.59570074541,420.14694276685,613725424
-22,-42.0,-12.0,-10974.0,-2162.0,172.0,1637.0,221.993377641152,297.515503795048,420.15062580601,613733981
24,-139.0,-14.0,-10978.0,-2149.0,176.0,1648.0,223.904484294623,296.107577221838,420.11921813539,613750430
-67,37.0,17.0,-10978.0,-2151.0,175.0,1646.0,226.219878301654,294.969406026465,420.075637133424,613758274
43,-111.0,-25.0,-10978.0,-2153.0,175.0,1645.0,228.945061261356,292.181063826341,420.067030964492,613770796
66,-80.0,-46.0,-10977.0,-2155.0,175.0,1642.0,232.102012595411,290.516009258652,420.059289367534,613782499
-111,-27.0,45.0,-10977.0,-2155.0,175.0,1642.0,235.707167771946,287.648155946677,420.041461668197,613791547
-117,-29.0,54.0,-10978.0,-2158.0,175.0,1639.0,239.76900511523,284.317062288081,420.020343918339,613808303
-117,-29.0,54.0,-10978.0,-2158.0,175.0,1636.0,244.193867818459,280.557417039408,420.016892022504,613814614
101,-168.0,-66.0,-10978.0,-2160.0,175.0,1636.0,247.290161146744,276.441969220798,420.019959525884,613827129
-141,92.0,60.0,-10977.0,-2163.0,175.0,1632.0,253.704349959462,270.500105627936,420.01801071268,613846297
-141,92.0,60.0,-10978.0,-2163.0,175.0,1631.0,258.625690866391,265.763006614859,420.015721323587,613854875
-134,82.0,54.0,-10977.0,-2166.0,175.0,1628.0,265.235635327793,259.134108839371,420.01475742048,613874889
99,-190.0,-57.0,-10977.0,-2167.0,175.0,1627.0,270.189962419542,255.698829377037,420.009262601034,613883897
97,-145.0,-46.0,-10977.0,-2169.0,175.0,1625.0,275.107405682052,248.608402797878,420.005118914001,613893146
77,-85.0,-49.0,-10978.0,-2171.0,176.0,1622.0,281.576947783101,241.256120942518,420.007663345787,613914041
-106,42.0,34.0,-10979.0,-2172.0,176.0,1620.0,287.903462852773,233.678344540635,420.006608477642,613922432
40,-114.0,-24.0,-10979.0,-2174.0,177.0,1619.0,294.068568019124,227.85729613662,420.001305063038,613939876
-59,60.0,11.0,-10980.0,-2174.0,177.0,1617.0,297.082792484412,221.92478802065,419.997435811139,613947959
22,-147.0,-13.0,-10980.0,-2177.0,178.0,1617.0,301.51479691551,215.889639917609,420.0011473375,613962804
-1,-87.0,-18.0,-10980.0,-2176.0,178.0,1614.0,305.834643593642,211.806798275968,420.002317059203,613969065
-11,-59.0,-14.0,-10981.0,-2179.0,178.0,1611.0,310.036911499878,205.607564262023,419.999681700657,613986849
-11,-59.0,-14.0,-10981.0,-2181.0,179.0,1611.0,312.771579619523,199.319796108568,420.000383434055,613995128
-8,-22.0,-20.0,-10982.0,-2181.0,180.0,1609.0,316.770897264338,195.077306995365,419.99919912383,614003901
-47,61.0,-11.0,-10983.0,-2184.0,180.0,1609.0,320.642763907659,188.644948416341,420.001367340885,614017734
28,-104.0,-27.0,-10983.0,-2184.0,181.0,1607.0,324.385968631711,182.132426660673,420.002069031276,614031702
-65,73.0,-18.0,-10985.0,-2187.0,182.0,1604.0,328.001763732347,175.539995528888,420.002202500272,614044690
-91,79.0,-22.0,-10986.0,-2186.0,183.0,1603.0,330.337288438522,168.877332351466,420.00140922055,614053205
-86,73.0,-29.0,-10987.0,-2189.0,184.0,1602.0,334.827519901992,162.144179220486,419.999969007625,614066990
-86,73.0,-29.0,-10987.0,-2189.0,184.0,1602.0,338.036513340057,155.342363168207,420.000594105479,614073251
48,-80.0,-34.0,-10988.0,-2191.0,186.0,1600.0,340.09968106622,148.47546466798,420.001890112786,614088920
-95,117.0,-40.0,-10989.0,-2191.0,187.0,1597.0,343.080861785058,143.860158614893,420.001190760096,614097021
68,-156.0,-14.0,-10990.0,-2193.0,187.0,1597.0,344.988962995551,136.889823259104,420.000541680077,614107716
-92,145.0,-41.0,-10991.0,-2193.0,188.0,1595.0,347.734203874876,132.214581737663,420.002414663155,614120462
-92,145.0,-41.0,-10992.0,-2196.0,189.0,1595.0,350.337177094308,125.156293678256,420.00118860674,614126746
55,-172.0,-1.0,-10994.0,-2196.0,191.0,1593.0,351.991653279525,118.046443042244,419.999942871393,614143671
-96,174.0,-59.0,-10994.0,-2196.0,191.0,1593.0,354.35528065786,113.279075880511,420.001188606639,614152278
-72,96.0,-57.0,-10995.0,-2198.0,192.0,1592.0,355.851905684475,106.085237062302,420.000469576357,614160261
32,-91.0,20.0,-10996.0,-2198.0,193.0,1591.0,357.973685309976,101.265833850439,419.999750545797,614170829
-66,72.0,-64.0,-10997.0,-2199.0,194.0,1590.0,359.948618818906,94.0036588473085,420.002403747705,614179291
25,-38.0,3.0,-10998.0,-2200.0,195.0,1589.0,361.184676941376,86.702012867585,420.001077146942,614188031
13,-30.0,-27.0,-11000.0,-2200.0,197.0,1586.0,362.913275643716,81.8164358148921,419.999577897906,614204825
-62,152.0,-146.0,-11000.0,-2200.0,197.0,1586.0,364.492980594228,74.4621202485998,420.000185468915,614212225
-15,44.0,-170.0,-11005.0,-2195.0,198.0,1574.0,365.925210704917,67.0716142054845,420.001269472358,614224766
-45,318.0,-219.0,-11007.0,-2191.0,199.0,1567.0,367.207579933647,59.6560425068941,420.001704395378,614235732
47,164.0,-218.0,-11014.0,-2170.0,199.0,1548.0,368.339804627667,47.2380147918054,420.001907636549,614252992
8,183.0,-201.0,-11017.0,-2155.0,198.0,1537.0,369.613837933741,39.7661375454466,420.001745904935,614266980
17,254.0,-198.0,-11026.0,-2110.0,192.0,1494.0,371.019752768945,27.274180753873,420.001634445301,614288026
-13,213.0,-161.0,-11030.0,-2085.0,189.0,1468.0,371.496098435868,19.7646870957653,420.002961045609,614299295
237,206.0,-423.0,-11041.0,-2015.0,179.0,1405.0,371.728729470652,12.2439538391863,419.999265350737,614314245
-83,203.0,-374.0,-11041.0,-2015.0,179.0,1405.0,371.950810841557,7.22822000203327,420.000307844693,614320542
160,-20.0,-262.0,-11052.0,-1928.0,166.0,1328.0,372.015374939447,-0.296334107759707,420.001168928619,614334636
-427,289.0,-65.0,-11057.0,-1882.0,158.0,1282.0,371.983665318427,-7.82301069400544,419.999700273849,614343337
532,-190.0,-179.0,-11062.0,-1829.0,150.0,1235.0,371.799431960088,-15.3472212596159,420.000146112981,614355978
-252,-33.0,142.0,-11069.0,-1768.0,141.0,1181.0,371.463718891508,-25.367418648105,419.999853243439,614369146
147,-114.0,-117.0,-11076.0,-1702.0,133.0,1123.0,370.779217192219,-30.3705522187265,420.001706548726,614382847
-227,5.0,30.0,-11083.0,-1630.0,123.0,1057.0,370.089809814672,-37.863343116754,420.002344712653,614391261
-155,273.0,-210.0,-11099.0,-1475.0,105.0,912.0,369.248068503178,-47.8322042195664,420.000764599544,614407682
270,-376.0,174.0,-11105.0,-1387.0,95.0,834.0,368.254551450937,-55.2873344187457,419.999215078194,614417564
-342,224.0,73.0,-11113.0,-1294.0,86.0,750.0,367.110588004857,-60.2434327106676,420.000602867725,614430785
-159,59.0,-112.0,-11121.0,-1196.0,78.0,660.0,365.817245061199,-67.6587481528485,420.002202659812,614438824
-119,-75.0,-8.0,-11134.0,-991.0,62.0,474.0,364.374330850175,-77.4983174444124,420.001352492184,614455083
141,-194.0,-12.0,-11134.0,-991.0,62.0,474.0,362.781579107778,-82.3993160326577,419.99988383714,614462246
-173,29.0,-31.0,-11143.0,-777.0,49.0,275.0,361.039887376787,-89.7216995277574,420.000137350603,614478002
-173,29.0,-31.0,-11146.0,-669.0,44.0,178.0,359.150891658734,-97.0073140280525,420.001767737287,614485820
177,-238.0,-102.0,-11148.0,-558.0,39.0,79.0,357.810115961644,-104.253193964034,420.000441136161,614494397
-260,114.0,-101.0,-11150.0,-447.0,36.0,-25.0,355.676079961699,-109.061013745786,419.99931777531,614511501
284,-277.0,-99.0,-11151.0,-332.0,34.0,-128.0,353.39706631216,-116.232791814783,420.002416816324,614517701
-276,148.0,-160.0,-11151.0,-220.0,32.0,-232.0,350.974100642255,-125.722510514474,420.002032165347,614530734
283,-244.0,-88.0,-11148.0,12.0,33.0,-438.0,348.407273337145,-132.777879530658,420.001059622348,614550941
-288,180.0,-122.0,-11145.0,124.0,35.0,-542.0,345.697783198228,-137.452219767476,420.000259725939,614558742
135,-203.0,24.0,-11141.0,238.0,38.0,-644.0,342.844790822733,-144.419786027514,420.000259725872,614571494
135,-203.0,24.0,-11134.0,356.0,41.0,-752.0,339.853626793237,-151.325109585594,420.001778652476,614577755
87,325.0,-480.0,-11125.0,583.0,56.0,-959.0,336.722802152009,-158.170211820086,419.999986534217,614594258
-101,-420.0,209.0,-11115.0,701.0,63.0,-1065.0,334.558651426477,-162.697083932353,420.000067400174,614606517
-111,409.0,-450.0,-11115.0,701.0,63.0,-1065.0,331.199385464946,-169.430857642988,420.001090216083,614613499
138,-517.0,122.0,-11095.0,935.0,81.0,-1276.0,328.884290354134,-176.096557369991,420.000563511334,614625860
29,-286.0,31.0,-11085.0,1049.0,92.0,-1381.0,325.298985402793,-182.690444520614,419.999206315514,614633418
169,64.0,-246.0,-11085.0,1049.0,92.0,-1381.0,321.580655030931,-187.044194058721,420.000624699104,614642045
-64,-116.0,-53.0,-11059.0,1283.0,118.0,-1592.0,317.731002394935,-193.512395588699,420.000401779531,614658352
-64,-116.0,-53.0,-11059.0,1283.0,118.0,-1592.0,315.092456771218,-199.899845688417,419.999075177176,614658352
60,-306.0,-39.0,-11014.0,1629.0,164.0,-1903.0,311.027179015688,-204.112468022407,420.001404917122,614690904
60,-306.0,-39.0,-11014.0,1629.0,164.0,-1903.0,308.2458561448,-210.363014525523,420.000847618683,614690904
29,134.0,-217.0,-10998.0,1746.0,183.0,-2008.0,303.969549159522,-216.52757447533,419.999571288799,614699160
-59,96.0,-202.0,-10979.0,1863.0,201.0,-2113.0,299.568652027058,-220.586823627514,419.999551610428,614707999
-44,-120.0,-155.0,-10959.0,1975.0,221.0,-2217.0,295.044159342843,-226.60271206145,420.001039944573,614721298
-44,-120.0,-155.0,-10937.0,2090.0,240.0,-2320.0,291.961821444484,-234.477369881903,420.001577563688,614727457
57,-10.0,-74.0,-10893.0,2322.0,29.0,-2528.0,285.636891751019,-238.352270499689,420.000543833021,614743969
56,67.0,-295.0,-10870.0,2436.0,54.0,-2631.0,280.756297046329,-244.081683463521,420.000766752676,614756370
0,105.0,-247.0,-10845.0,2550.0,78.0,-2733.0,275.761317960127,-249.711051483061,420.000250962867,614769522
-66,37.0,31.0,-10820.0,2662.0,105.0,-2836.0,270.65314217026,-257.057053015006,420.001262863977,614782794
7,45.0,-156.0,-10793.0,2778.0,132.0,-2940.0,265.457486023569,-260.63876019771,420.000777667998,614791269
-147,69.0,-184.0,-10737.0,3006.0,190.0,-3143.0,260.266946959986,-265.816127515384,420.008732349324,614807965
-147,69.0,-184.0,-10707.0,3115.0,219.0,-3244.0,255.133881542701,-272.238808399649,420.02195729546,614818129
107,20.0,-16.0,-10676.0,3228.0,250.0,-3346.0,248.454912247776,-276.623047830767,420.030213154432,614831484
47,80.0,-69.0,-10645.0,3343.0,28.0,-3448.0,243.604670432059,-280.602642651133,420.038123750871,614839548
53,-90.0,-131.0,-10581.0,3570.0,99.0,-3645.0,238.928097191008,-284.167668104306,420.06195654132,614855830
-4,-14.0,-189.0,-10545.0,3680.0,133.0,-3746.0,234.428658374119,-287.315151817073,420.083543532621,614869269
-28,38.0,-51.0,-10509.0,3789.0,169.0,-3846.0,231.547689253701,-290.059323819406,420.051221917723,614879271
-28,38.0,-51.0,-10470.0,3901.0,206.0,-3948.0,227.407709322189,-292.377688797055,420.086361776424,614887243
0,-131.0,-51.0,-10395.0,4124.0,30.0,-4144.0,223.51020677064,-293.692222247379,420.10149639661,614904359
-103,93.0,-205.0,-10395.0,4124.0,30.0,-4144.0,219.861602378779,-295.307925061601,420.162480607097,614912212
-195,5.0,-86.0,-10357.0,4231.0,71.0,-4241.0,216.456699381693,-296.544259364279,420.192851305579,614924831
18,-77.0,-88.0,-10315.0,4339.0,112.0,-4341.0,213.175224031464,-297.734699572311,420.163069385081,614931810
66,-77.0,0.0,-10231.0,4559.0,201.0,-4537.0,209.91167447718,-298.182977162613,420.225403857654,614944019
-98,-4.0,-88.0,-10190.0,4667.0,247.0,-4631.0,206.611314486732,-298.729259512283,420.248187024821,614960205
-41,-62.0,-139.0,-10145.0,4775.0,37.0,-4726.0,204.352719983455,-299.15173168451,420.283641188245,614972690
-18,-63.0,-74.0,-10100.0,4881.0,84.0,-4823.0,200.84708969669,-299.49256651729,420.296720244382,614979007
63,78.0,-116.0,-10005.0,5093.0,182.0,-5019.0,197.171904662177,-299.676455737852,420.3124510282,614995380
63,78.0,-116.0,-10005.0,5093.0,182.0,-5019.0,193.312170976469,-299.904376735039,420.355229514052,614995380
103,-89.0,-62.0,-9957.0,5198.0,231.0,-5112.0,189.258254644849,-300.087118875571,420.401946694504,615014836
11,-66.0,-84.0,-9860.0,5409.0,80.0,-5298.0,185.041761699428,-300.231268732984,420.414775823519,615027567
-67,55.0,-58.0,-9808.0,5515.0,134.0,-5392.0,182.158584028844,-300.352159045913,420.389862107073,615035654
-6,120.0,-141.0,-9756.0,5620.0,188.0,-5484.0,177.745940348914,-300.423332364896,420.387623253623,615044404
-70,-41.0,-84.0,-9703.0,5721.0,242.0,-5576.0,173.26376480158,-300.510980777138,420.398456242134,615060882
-70,-41.0,-84.0,-9649.0,5821.0,41.0,-5669.0,168.727565182419,-300.574032838124,420.391216305706,615067080
109,-9.0,-129.0,-9594.0,5924.0,98.0,-5760.0,165.681516114877,-300.606568823979,420.375954029457,615076977
41,55.0,25.0,-9538.0,6029.0,157.0,-5850.0,161.080726189912,-300.638834934174,420.364819060129,615093162
-151,-76.0,-231.0,-9482.0,6131.0,217.0,-5939.0,157.993972541752,-300.672240641205,420.375899612055,615101776
-15,-55.0,-243.0,-9367.0,6329.0,81.0,-6118.0,153.344443956035,-300.68658678491,420.335257593118,615116101
139,117.0,-3.0,-9307.0,6428.0,141.0,-6207.0,147.118697544534,-300.702681278668,420.304905112902,615128636
125,-210.0,-179.0,-9247.0,6527.0,204.0,-6294.0,142.441149733742,-300.701121770411,420.298006648056,615138815
125,-210.0,-179.0,-9187.0,6627.0,13.0,-6379.0,139.32021376897,-300.703336706915,420.303568109912,615147014
-77,125.0,-94.0,-9125.0,6725.0,78.0,-6467.0,134.629852864447,-300.698726452336,420.27172603399,615162659
-78,172.0,-178.0,-9062.0,6820.0,143.0,-6554.0,131.496665696468,-300.699369878912,420.272984345726,615168939
-74,171.0,53.0,-8997.0,6918.0,209.0,-6640.0,126.793129523008,-300.696821150469,420.249707066633,615182203
-52,77.0,-4.0,-8933.0,7011.0,19.0,-6724.0,123.656668347439,-300.687343244625,420.234713504433,615190117
195,-354.0,-118.0,-8869.0,7106.0,87.0,-6807.0,117.385619473212,-300.681049704064,420.232715676132,615200671
-66,83.0,-156.0,-8802.0,7203.0,158.0,-6891.0,114.257865499195,-300.674097359257,420.199598853018,615215357
64,-88.0,-141.0,-8736.0,7296.0,229.0,-6975.0,109.548220134604,-300.667428939174,420.194755608327,615221564
-124,299.0,-110.0,-8600.0,7477.0,112.0,-7139.0,106.413497143809,-300.662986408936,420.167631006909,615235545
36,-56.0,-12.0,-8600.0,7477.0,112.0,-7139.0,101.703866130107,-300.65441119907,420.183085970839,615244122
-178,160.0,-12.0,-8459.0,7662.0,4.0,-7301.0,95.4311338075777,-300.64607885389,420.138453864562,615262940
221,-55.0,-229.0,-8389.0,7751.0,78.0,-7381.0,90.7250591659978,-300.639208408749,420.154142410996,615269206
-418,308.0,66.0,-8317.0,7842.0,152.0,-7457.0,87.5917842435244,-300.627689249092,420.131981223382,615282398
-113,-49.0,73.0,-8246.0,7928.0,229.0,-7538.0,82.885996212887,-300.626868175303,420.106159483619,615290640
83,168.0,-180.0,-8098.0,8103.0,126.0,-7691.0,78.1824121568772,-300.618851388789,420.109123415566,615307074
-44,-150.0,74.0,-8098.0,8103.0,126.0,-7691.0,75.0413816355165,-300.612483757824,420.099857748754,615314130
94,201.0,-261.0,-8023.0,8189.0,205.0,-7769.0,68.7758214550652,-300.611932691054,420.062342682346,615323997
-127,-126.0,70.0,-7871.0,8359.0,107.0,-7918.0,64.074554309579,-300.604958017429,420.080849860357,615338770
170,242.0,-149.0,-7721.0,8521.0,9.0,-8062.0,59.3700540732647,-300.600339135116,420.081226737504,615355365
-194,284.0,137.0,-7721.0,8521.0,9.0,-8062.0,56.2335791061005,-300.596012943259,420.076105617403,615362836
-348,602.0,92.0,-7648.0,8600.0,86.0,-8129.0,51.5340390011239,-300.59676265437,420.040847792628,615375248
-348,602.0,92.0,-7648.0,8600.0,86.0,-8129.0,46.8721794068956,-300.598144345047,420.047159974487,615375248
-153,225.0,76.0,-7442.0,8808.0,47.0,-8314.0,42.1301705408886,-300.585746758384,420.06577307122,615400394
-300,454.0,208.0,-7378.0,8870.0,113.0,-8369.0,37.4336523219951,-300.588660972766,420.033305047989,615408499
370,-133.0,-161.0,-7319.0,8927.0,176.0,-8421.0,32.7355577816802,-300.588981885662,420.02381453413,615422021
370,-133.0,-161.0,-7262.0,8984.0,237.0,-8468.0,28.0336119466228,-300.58278552623,420.010741291962,615428371
89,136.0,-84.0,-7155.0,9084.0,93.0,-8556.0,24.8990366229207,-300.57906887228,420.015756857244,615445140
-124,222.0,63.0,-7155.0,9084.0,93.0,-8556.0,20.2001235185425,-300.58018996545,420.018044976735,615453343
-186,226.0,177.0,-7064.0,9169.0,188.0,-8628.0,13.9382636099344,-300.581915398046,420.006803542034,615470553
-186,226.0,177.0,-7024.0,9205.0,231.0,-8661.0,9.23824722211444,-300.57910914067,419.98227895988,615476765
309,140.0,-211.0,-6986.0,9239.0,14.0,-8689.0,6.10411302757256,-300.575033330625,419.989627660432,615492640
-311,229.0,242.0,-6954.0,9270.0,49.0,-8713.0,1.40591929038546,-300.571826916508,420.0068581595,615500891
54,325.0,-152.0,-6924.0,9296.0,81.0,-8737.0,-3.29118266525906,-300.563956186978,419.992082435023,615509000
101,-90.0,182.0,-6899.0,9318.0,108.0,-8757.0,-7.98849829450796,-300.54458512849,419.965449451512,615525689
25,-103.0,136.0,-6878.0,9336.0,130.0,-8773.0,-11.1198426069542,-300.555367825751,419.942683251906,615532871
-115,258.0,213.0,-6847.0,9365.0,165.0,-8796.0,-17.3850988342916,-300.568498530969,419.964714197676,615549010
-115,258.0,213.0,-6837.0,9377.0,176.0,-8801.0,-20.5186123762116,-300.570857961128,419.969889032129,615557233
-227,124.0,-146.0,-6830.0,9386.0,186.0,-8806.0,-25.2167669771688,-300.572349110998,419.979701833765,615570666
-227,124.0,-146.0,-6822.0,9392.0,194.0,-8811.0,-28.3505546418243,-300.571652191428,419.977354709079,615576906
-244,110.0,-12.0,-6817.0,9398.0,201.0,-8815.0,-33.0477432776632,-300.571412180313,419.976938540091,615587802
-69,123.0,3.0,-6813.0,9404.0,207.0,-8817.0,-37.7459878859702,-300.577306559739,419.975631951792,615596513
-209,57.0,-110.0,-6811.0,9409.0,212.0,-8817.0,-40.8773846794415,-300.579268875834,419.996858791277,615605349
-556,0.0,4.0,-6807.0,9412.0,216.0,-8820.0,-44.0094615162574,-300.575149073219,420.011033035086,615619228
-229,-39.0,8.0,-6805.0,9414.0,220.0,-8824.0,-50.2751099072655,-300.576289699091,420.008777659033,615632550
-355,-91.0,7.0,-6803.0,9415.0,222.0,-8825.0,-53.4110544824915,-300.580496687538,420.009391462261,615640948
-317,-59.0,-84.0,-6802.0,9416.0,223.0,-8826.0,-58.1068524398251,-300.578698103675,420.019837462035,615651785
-512,-12.0,89.0,-6799.0,9419.0,227.0,-8829.0,-62.8073304015796,-300.58570991267,420.01300278903,615666305
-428,76.0,28.0,-6796.0,9418.0,227.0,-8832.0,-75.3370911193419,-300.583196209839,420.039130238016,615695517
-294,-189.0,-73.0,-6796.0,9418.0,227.0,-8832.0,-78.4732403152094,-300.590437381685,420.0419252656,615704259
-354,-29.0,-35.0,-6795.0,9419.0,228.0,-8833.0,-83.1771849344334,-300.592688121143,420.022366092401,615715497
-128,183.0,-3.0,-6792.0,9416.0,228.0,-8838.0,-86.3155336305815,-300.601826954493,420.036376280168,615728019
-222,160.0,-55.0,-6791.0,9415.0,227.0,-8839.0,-91.0058098617267,-300.601972936245,420.060861237873,615735968
-195,141.0,-46.0,-6791.0,9415.0,227.0,-8839.0,-94.1434953037164,-300.598785128496,420.073959881048,615744832
-160,15.0,21.0,-6790.0,9414.0,226.0,-8840.0,-98.85393191773,-300.605203502996,420.075071866937,615753200
-11,-1.0,48.0,-6788.0,9411.0,224.0,-8843.0,-103.55530704583,-300.609386364305,420.073007758096,615768285
-39,118.0,-154.0,-6788.0,9411.0,224.0,-8843.0,-106.688758575056,-300.615829284013,420.078600892079,615779049
-39,118.0,-154.0,-6788.0,9411.0,224.0,-8843.0,-111.387708552508,-300.621029211965,420.078233807866,615787457
-20,51.0,-18.0,-6787.0,9410.0,224.0,-8844.0,-116.094228797837,-300.619938631384,420.105979566702,615804931
18,87.0,-90.0,-6786.0,9409.0,223.0,-8846.0,-120.806497460572,-300.627544167265,420.108971822229,615812923
-34,48.0,18.0,-6785.0,9409.0,223.0,-8846.0,-123.943209061438,-300.63429407243,420.131490573447,615820175
-34,48.0,18.0,-6785.0,9409.0,223.0,-8846.0,-128.647064306065,-300.648848048384,420.125432152553,615828689
215,5.0,-127.0,-6786.0,9410.0,223.0,-8844.0,-133.352317914126,-300.653527860223,420.142213931357,615837278
-375,106.0,63.0,-6785.0,9410.0,224.0,-8847.0,-138.062035355296,-300.660992022762,420.165220197743,615857111
8,16.0,-193.0,-6785.0,9410.0,224.0,-8847.0,-142.77489392437,-300.67049814068,420.165140307883,615864473
-240,95.0,200.0,-6784.0,9408.0,222.0,-8848.0,-149.056535748728,-300.69614444329,420.197931817127,615884393
-91,-115.0,-17.0,-6786.0,9410.0,224.0,-8846.0,-155.338296813938,-300.710152370117,420.224885673159,615901468
-303,530.0,111.0,-6783.0,9411.0,224.0,-8848.0,-160.059480943324,-300.733531006237,420.233120795113,615911819
241,-42.0,-125.0,-6785.0,9407.0,224.0,-8850.0,-164.77507853346,-300.752536457743,420.261973277008,615924214
-399,601.0,171.0,-6787.0,9406.0,223.0,-8848.0,-169.459268728394,-300.768604932271,420.282083928798,615938839
204,-619.0,-78.0,-6782.0,9411.0,222.0,-8846.0,-174.045337395347,-300.77361565226,420.302717223306,615947263
-391,560.0,248.0,-6785.0,9408.0,225.0,-8849.0,-178.48899054994,-300.771580448922,420.295822997445,615955634
-280,705.0,5.0,-6782.0,9410.0,223.0,-8847.0,-182.760085851493,-300.75987929994,420.335501157522,615972720
-280,705.0,5.0,-6786.0,9408.0,223.0,-8848.0,-186.83698383079,-300.743556142411,420.349278123083,615979153
186,-42.0,-215.0,-6785.0,9409.0,222.0,-8846.0,-189.443184968235,-300.729813473411,420.354849301499,615995932
-263,156.0,388.0,-6785.0,9409.0,222.0,-8846.0,-193.162473182936,-300.709111624727,420.358998626416,616004773
256,0.0,-511.0,-6784.0,9410.0,224.0,-8847.0,-195.506745377384,-300.677767180348,420.349110149162,616012854
-354,176.0,369.0,-6785.0,9410.0,224.0,-8846.0,-198.82566957198,-300.644213346845,420.359476226517,616025327
-94,168.0,231.0,-6786.0,9408.0,224.0,-8848.0,-201.905423053138,-300.604310894674,420.366116687855,616036433
88,-52.0,-170.0,-6786.0,9408.0,224.0,-8848.0,-204.719450017306,-300.564362029616,420.37056822385,616045223
-158,173.0,103.0,-6784.0,9408.0,222.0,-8848.0,-207.279189133027,-300.539450691404,420.356641269773,616061499
-158,173.0,103.0,-6784.0,9408.0,222.0,-8848.0,-209.570817978657,-300.494899710738,420.332331550814,616068914
-28,102.0,-51.0,-6783.0,9407.0,222.0,-8849.0,-211.603417136189,-300.439745305455,420.303501035612,616086188
188,-299.0,-327.0,-6783.0,9407.0,222.0,-8849.0,-213.368061501437,-300.388093540091,420.305443810181,616095228
-141,363.0,301.0,-6783.0,9408.0,221.0,-8848.0,-214.38822361884,-300.356766560061,420.267454181006,616108207
113,-313.0,-403.0,-6783.0,9408.0,221.0,-8848.0,-215.700214857426,-300.302081015989,420.239898618855,616115799
-14,347.0,23.0,-6783.0,9408.0,221.0,-8848.0,-216.739284644986,-300.218926889103,420.200820397699,616124141
31,-240.0,-282.0,-6783.0,9408.0,221.0,-8847.0,-217.749706076199,-300.14602507501,420.142541084954,616141510
-27,273.0,172.0,-6782.0,9408.0,221.0,-8848.0,-218.283856687294,-300.124414064953,420.022787408556,616158332
-113,259.0,212.0,-6782.0,9408.0,221.0,-8848.0,-218.560489006573,-300.096753516202,419.814410320869,616165829
7,-97.0,-273.0,-6782.0,9408.0,220.0,-8847.0,-219.016143364878,-300.094481185472,419.229497026512,616177830
70,-256.0,-392.0,-6782.0,9408.0,220.0,-8847.0,-219.196730519342,-300.111292971903,418.312471941623,616186658
-187,501.0,516.0,-6782.0,9408.0,220.0,-8847.0,-219.418566187799,-300.130680022329,417.060055853377,616195363
283,-427.0,-451.0,-6781.0,9406.0,219.0,-8850.0,-219.604149070625,-300.183464356097,415.402288578708,616212104
193,7.0,-342.0,-6779.0,9407.0,218.0,-8849.0,-219.776476763426,-300.226110066196,413.274333594588,616224577
190,301.0,385.0,-6781.0,9405.0,218.0,-8851.0,-219.932707236476,-300.304096061466,411.626187448014,616230969
-6,237.0,252.0,-6780.0,9405.0,217.0,-8849.0,-220.013847344488,-300.363787485973,408.785810338757,616241661
381,-511.0,-327.0,-6778.0,9406.0,217.0,-8851.0,-220.14009913623,-300.462369081181,405.460613622836,616258052
174,424.0,267.0,-6778.0,9406.0,217.0,-8851.0,-220.265673802294,-300.560972973578,401.6334807738,616265799
329,-24.0,-123.0,-6778.0,9405.0,218.0,-8851.0,-220.345630947324,-300.665642904525,398.78997493014,616273726
206,-88.0,245.0,-6780.0,9404.0,217.0,-8850.0,-220.459761653744,-300.778804671606,394.123368812003,616290188
206,-88.0,245.0,-6778.0,9404.0,215.0,-8850.0,-220.548832478262,-300.884540036537,389.008422102184,616298404
206,-88.0,245.0,-6778.0,9404.0,215.0,-8850.0,-220.636119386379,-300.945160185071,383.504366138671,616298404
233,103.0,73.0,-6778.0,9406.0,216.0,-8850.0,-220.70706892485,-301.010916278566,377.795387350557,616332989
233,103.0,73.0,-6778.0,9406.0,216.0,-8850.0,-220.740141588752,-301.064492467759,373.871665762678,616332989
98,322.0,264.0,-6778.0,9404.0,216.0,-8851.0,-220.778681482078,-301.104955294183,367.833097001969,616341732
220,-108.0,20.0,-6778.0,9406.0,217.0,-8850.0,-220.800839504279,-301.124633862639,361.654324802346,616358421
314,41.0,-338.0,-6778.0,9406.0,217.0,-8850.0,-220.813429462695,-301.130496443751,355.391645513595,616365603
210,159.0,1.0,-6781.0,9408.0,215.0,-8844.0,-220.817609175024,-301.129773408787,349.105741327153,616378083
4,190.0,-41.0,-6797.0,9399.0,201.0,-8829.0,-220.814050379481,-301.115955943085,340.544812900316,616398399
-17,448.0,210.0,-6811.0,9388.0,188.0,-8820.0,-220.80676106787,-301.098720020852,334.049944618618,616407251
135,288.0,37.0,-6811.0,9388.0,188.0,-8820.0,-220.793475024665,-301.078978955766,329.733510797585,616414804
-33,263.0,128.0,-6830.0,9372.0,169.0,-8806.0,-220.77859786831,-301.060801327654,323.246361729874,616427154
89,261.0,-14.0,-6880.0,9330.0,117.0,-8768.0,-220.763765830997,-301.034286441976,316.714357865262,616442574
-55,415.0,167.0,-6912.0,9302.0,83.0,-8742.0,-220.739398700421,-301.004826602788,310.168678449337,616450632
206,210.0,-249.0,-6993.0,9229.0,254.0,-8680.0,-220.73155782265,-300.970586449614,303.586677880299,616467790
53,322.0,81.0,-6993.0,9229.0,254.0,-8680.0,-220.704380555704,-300.948503673969,297.029928003487,616474014
-168,338.0,289.0,-7093.0,9142.0,152.0,-8600.0,-220.682295116485,-300.926958970266,288.309068574908,616488236
282,451.0,-163.0,-7148.0,9089.0,91.0,-8555.0,-220.678412950113,-300.908557547218,283.936572128014,616505835
32,382.0,144.0,-7211.0,9028.0,24.0,-8504.0,-220.660111539646,-300.869548163984,277.312867597925,616514031
-132,140.0,35.0,-7282.0,8964.0,209.0,-8445.0,-220.643453807363,-300.864378683853,270.78175439773,616523653
-124,110.0,162.0,-7428.0,8820.0,53.0,-8320.0,-220.62467005522,-300.825818318843,261.988310873414,616537941
87,136.0,-181.0,-7592.0,8652.0,138.0,-8178.0,-220.617099111265,-300.814684872831,255.438224954071,616556809
104,160.0,-161.0,-7592.0,8652.0,138.0,-8178.0,-220.591242317827,-300.793726482824,248.859071306281,616564486
-202,343.0,355.0,-7677.0,8566.0,48.0,-8098.0,-220.584407139013,-300.78742970593,242.277652467409,616577026
78,17.0,-149.0,-7845.0,8380.0,125.0,-7941.0,-220.578689333784,-300.770561748114,237.892861691497,616588561
-29,483.0,31.0,-7932.0,8286.0,36.0,-7857.0,-220.564310916646,-300.760782451591,231.342499280128,616597305
-97,32.0,111.0,-7932.0,8286.0,36.0,-7857.0,-220.546729333797,-300.738571712747,224.749143109133,616606149
-38,158.0,0.0,-8019.0,8185.0,201.0,-7772.0,-220.561345587849,-300.749281315784,220.38983533036,616613960
-77,180.0,265.0,-8105.0,8087.0,110.0,-7682.0,-220.553770236425,-300.747920790737,213.819202386447,616626445
67,-44.0,-210.0,-8276.0,7882.0,188.0,-7505.0,-220.538805143557,-300.725285673909,209.410178256654,616640585
67,-44.0,-210.0,-8359.0,7778.0,98.0,-7412.0,-220.515732325011,-300.684612816597,202.801669857877,616648996
-162,-170.0,99.0,-8443.0,7673.0,12.0,-7319.0,-220.494950800493,-300.669225578059,194.047855150827,616660469
19,74.0,-132.0,-8527.0,7564.0,181.0,-7224.0,-220.501370628373,-300.664587173123,189.649833715461,616673506
19,74.0,-132.0,-8607.0,7456.0,94.0,-7129.0,-220.499144207555,-300.676706845222,183.087930655806,616679774
-201,60.0,-90.0,-8688.0,7346.0,10.0,-7033.0,-220.507425379313,-300.683365435868,176.5393249939,616696068
-220,-64.0,116.0,-8769.0,7237.0,183.0,-6932.0,-220.513825048141,-300.696222134811,169.980507390187,616704702
99,39.0,-186.0,-8848.0,7123.0,99.0,-6834.0,-220.52584036396,-300.705473510341,165.60855589648,616712650
151,251.0,-87.0,-9000.0,6896.0,194.0,-6637.0,-220.531543682934,-300.721895004429,159.037654475589,616728252
-157,80.0,-104.0,-9000.0,6896.0,194.0,-6637.0,-220.538136672232,-300.731641109034,152.474835709145,616735300
-89,116.0,-45.0,-9153.0,6666.0,38.0,-6428.0,-220.541604377248,-300.735865920216,145.899853109682,616752148
-89,116.0,-45.0,-9221.0,6547.0,216.0,-6330.0,-220.552938087215,-300.734487832768,141.519742640284,616760064
260,102.0,-417.0,-9221.0,6547.0,216.0,-6330.0,-220.559115778952,-300.760500716304,134.952516042062,616766941
-140,-254.0,-8.0,-9368.0,6308.0,67.0,-6115.0,-220.55393535154,-300.77225673163,128.386336096969,616783146
-300,280.0,58.0,-9438.0,6192.0,252.0,-6008.0,-220.565748104001,-300.792276911524,121.863958472958,616790891
-103,273.0,-20.0,-9570.0,5947.0,110.0,-5797.0,-220.563801016874,-300.766637688758,115.476242788726,616807977
141,-24.0,-283.0,-9570.0,5947.0,110.0,-5797.0,-220.571121351738,-300.779391419126,109.370867373596,616815764
-3,-201.0,122.0,-9703.0,5701.0,230.0,-5575.0,-220.546600793464,-300.749481283794,103.61015181084,616828518
-142,85.0,-13.0,-9703.0,5701.0,230.0,-5575.0,-220.551776316549,-300.721739248929,99.9659706375437,616835852
-110,127.0,-106.0,-9825.0,5453.0,99.0,-5357.0,-220.521813962335,-300.712405840555,94.8172931287487,616848651
49,-125.0,25.0,-9887.0,5325.0,36.0,-5244.0,-220.493656795728,-300.671994642552,90.085902442388,616864598
-15,-77.0,-11.0,-9947.0,5199.0,232.0,-5131.0,-220.459404451874,-300.579521403138,84.4838530953546,616877168
-44,184.0,-202.0,-10060.0,4949.0,114.0,-4904.0,-220.38985750003,-300.505871705129,80.8068329312688,616891716
26,-75.0,-53.0,-10170.0,4690.0,1.0,-4674.0,-220.332879443861,-300.454767139984,77.6308668454334,616911113
26,-75.0,-53.0,-10170.0,4690.0,1.0,-4674.0,-220.302947712475,-300.411182867124,74.1694131596741,616917840
-8,-47.0,-23.0,-10274.0,4430.0,150.0,-4442.0,-220.239138558447,-300.308528966816,72.110025651749,616930401
-47,63.0,-103.0,-10323.0,4300.0,98.0,-4325.0,-220.218486717095,-300.281728906365,70.5928241409544,616946485
-8,16.0,-80.0,-10372.0,4168.0,48.0,-4207.0,-220.121970947867,-300.184129263849,69.0409984089295,616954857
-7,15.0,-168.0,-10464.0,3903.0,209.0,-3971.0,-219.952848377211,-300.128300473183,68.1889359301676,616972118
-60,114.0,-121.0,-10508.0,3771.0,163.0,-3850.0,-219.566870433781,-300.117791277199,67.538820731485,616985683
-40,8.0,-121.0,-10551.0,3638.0,120.0,-3731.0,-218.962023603475,-300.117246894831,67.0236592162512,616994352
0,-18.0,3.0,-10592.0,3504.0,78.0,-3611.0,-218.020888378195,-300.055810030921,66.5483710555579,617002625
-23,-16.0,-76.0,-10632.0,3368.0,37.0,-3490.0,-217.230758614192,-300.032189199376,66.3210682408841,617017662
-50,-1.0,-101.0,-10670.0,3232.0,252.0,-3368.0,-215.804970310322,-300.023780795594,66.1294757008846,617023953
-99,100.0,-143.0,-10706.0,3097.0,214.0,-3247.0,-214.665313174172,-300.013004876062,65.8805493132203,617033880
79,-72.0,-136.0,-10775.0,2823.0,143.0,-3006.0,-212.687743294028,-300.007495147536,65.6780113536239,617049988
32,-90.0,-81.0,-10808.0,2686.0,109.0,-2880.0,-210.342907462812,-299.991844507137,65.4885550295824,617059556
-54,-62.0,-17.0,-10808.0,2686.0,109.0,-2880.0,-208.593740107445,-300.043098257842,65.4320230748357,617066896
-66,25.0,-89.0,-10868.0,2416.0,48.0,-2634.0,-205.668882621861,-300.067257187406,65.3235887979789,617079303
49,19.0,-155.0,-10868.0,2416.0,48.0,-2634.0,-202.373698875101,-300.106766095948,65.202785322557,617086787
123,-170.0,-179.0,-10924.0,2136.0,249.0,-2384.0,-198.692508861188,-300.128678010473,65.1417935698194,617099504
-145,0.0,53.0,-10951.0,2000.0,224.0,-2258.0,-196.031278224019,-300.218600338694,65.0827177818833,617115944
-45,14.0,-134.0,-10973.0,1863.0,200.0,-2135.0,-191.726541469641,-300.267918237828,65.0108390448583,617122245
32,-232.0,-107.0,-11035.0,1441.0,137.0,-1760.0,-182.216237971463,-300.428494083322,64.9191892800723,617151620
-209,228.0,132.0,-11053.0,1305.0,120.0,-1634.0,-177.165382112342,-300.535327124725,64.9169834861493,617162357
-209,228.0,132.0,-11071.0,1166.0,105.0,-1504.0,-171.945876322595,-300.566168038774,64.8612486637957,617169459
21,-156.0,-205.0,-11085.0,1026.0,91.0,-1380.0,-168.411992743792,-300.615427884085,64.846667249136,617182099
21,-156.0,-205.0,-11097.0,885.0,77.0,-1256.0,-163.065865033618,-300.675885439715,64.8423328693884,617189889
39,98.0,-157.0,-11109.0,742.0,66.0,-1130.0,-159.429386791806,-300.708650401354,64.8236838642853,617198443
212,-325.0,-238.0,-11120.0,603.0,56.0,-1001.0,-153.96597953284,-300.746154512258,64.8370817153509,617207390
-346,60.0,175.0,-11131.0,467.0,51.0,-872.0,-148.451159868049,-300.79044170694,64.8139663347292,617224601
-346,60.0,175.0,-11137.0,327.0,43.0,-746.0,-142.893571860322,-300.79482109652,64.8115006279369,617230900
353,-162.0,-249.0,-11146.0,41.0,34.0,-495.0,-139.183913852092,-300.827131584598,64.8208380817626,617247385
-62,12.0,-39.0,-11146.0,41.0,34.0,-495.0,-131.73256347241,-300.852356662602,64.8306133622614,617255735
-365,-103.0,79.0,-11151.0,-236.0,33.0,-236.0,-127.995062471478,-300.850717895313,64.8222060595417,617269824
-183,212.0,-387.0,-11151.0,-236.0,33.0,-236.0,-122.378334563443,-300.845154239266,64.8267281053806,617276060
120,241.0,-32.0,-11152.0,-379.0,36.0,-113.0,-118.634783753003,-300.885501207972,64.857410912384,617286593
54,-315.0,-168.0,-11147.0,-661.0,43.0,141.0,-113.006429806855,-300.865317434906,64.8471689686878,617303329
-175,-75.0,327.0,-11145.0,-795.0,52.0,270.0,-107.37109258145,-300.849876975814,64.8390181299916,617311619
-175,-75.0,327.0,-11139.0,-930.0,60.0,391.0,-101.728808461154,-300.837017899433,64.855451415192,617319084
67,-131.0,169.0,-11131.0,-1065.0,67.0,507.0,-97.9822296967573,-300.90078318496,64.9008321262759,617335775
-97,113.0,435.0,-11125.0,-1189.0,79.0,623.0,-90.4622577252088,-300.860876597054,64.8785790473458,617344145
-97,113.0,435.0,-11125.0,-1189.0,79.0,623.0,-86.6968436485093,-300.844071208853,64.8819762689816,617344145
183,-425.0,-42.0,-11099.0,-1526.0,113.0,932.0,-79.1762300208592,-300.854318980647,64.8996935204171,617371304
183,-425.0,-42.0,-11087.0,-1627.0,122.0,1019.0,-73.541572441167,-300.86737302593,64.9268816230563,617379900
223,-275.0,-83.0,-11080.0,-1719.0,137.0,1108.0,-69.7873162261431,-300.855768856021,64.9170882586225,617388473
79,-369.0,-46.0,-11069.0,-1805.0,148.0,1186.0,-62.2558727709937,-300.829861914505,64.9181083263602,617405663
-56,91.0,314.0,-11053.0,-1952.0,170.0,1321.0,-54.7320506107989,-300.831408918847,64.9406508970262,617420873
-23,23.0,244.0,-11044.0,-2014.0,178.0,1378.0,-49.1052116205056,-300.829235722611,64.9459009821087,617429542
143,3.0,175.0,-11031.0,-2122.0,197.0,1476.0,-43.4671178872241,-300.822253943265,64.9504956187106,617449800
97,-303.0,317.0,-11025.0,-2163.0,204.0,1514.0,-37.8198730216249,-300.821701685589,64.9564550477602,617458285
-17,-54.0,87.0,-11021.0,-2193.0,210.0,1545.0,-30.3071315003674,-300.822866604224,64.9622168509069,617474999
133,-63.0,-47.0,-11016.0,-2219.0,212.0,1566.0,-26.5559023039243,-300.814611364501,64.9635437782916,617483167
133,-63.0,-47.0,-11012.0,-2238.0,214.0,1580.0,-20.916915807804,-300.812360275538,64.9655557121091,617491160
141,-34.0,-255.0,-11009.0,-2250.0,215.0,1592.0,-17.1551616017107,-300.806070223512,64.9690000681844,617499709
-143,227.0,-340.0,-11006.0,-2272.0,219.0,1615.0,-11.5164888578897,-300.813001680721,64.9820641542588,617519041
-16,68.0,-262.0,-11006.0,-2272.0,219.0,1615.0,-5.88737681797562,-300.81451815803,64.988486421578,617527442
126,44.0,-382.0,-11004.0,-2283.0,221.0,1621.0,-0.254996765119021,-300.815694771974,64.9908706339883,617536113
-120,174.0,-334.0,-11002.0,-2289.0,222.0,1629.0,5.38413813324454,-300.765233261823,64.9873238047223,617552517
-120,174.0,-334.0,-11003.0,-2289.0,222.0,1631.0,12.8950196819846,-300.749772580132,64.9870077238794,617560707
-21,268.0,-533.0,-11001.0,-2289.0,221.0,1633.0,16.6469197894587,-300.750986444527,64.9845485485856,617577654
68,169.0,-492.0,-10999.0,-2293.0,220.0,1634.0,22.2804177857868,-300.754512323981,64.9793332827853,617584793
-48,221.0,-335.0,-10998.0,-2295.0,219.0,1638.0,27.9213842347894,-300.762009362693,64.9780194155744,617601306
-66,207.0,-391.0,-10997.0,-2296.0,219.0,1641.0,31.6768846001845,-300.767335869691,64.9777207747267,617610089
-73,226.0,-322.0,-10997.0,-2296.0,219.0,1641.0,37.3047157222148,-300.776081352969,64.9839187307242,617617900
31,96.0,-278.0,-10995.0,-2296.0,218.0,1641.0,42.9423734380643,-300.777349071767,64.9853411207912,617625844
14,52.0,-167.0,-10993.0,-2304.0,218.0,1650.0,46.7002827369243,-300.791855459511,64.9834753198803,617638443
-19,54.0,-110.0,-10993.0,-2304.0,218.0,1650.0,52.3410542054801,-300.79782562616,64.9800055298273,617647019
0,118.0,-120.0,-10990.0,-2309.0,218.0,1658.0,57.9757386374524,-300.801170240698,64.9723706637448,617663276
0,118.0,-120.0,-10988.0,-2311.0,217.0,1660.0,63.6068398288628,-300.812139420163,64.9774385092346,617669806
-3,81.0,-100.0,-10987.0,-2314.0,216.0,1663.0,69.2496583859965,-300.823005741035,64.9753149661197,617682423
-3,81.0,-100.0,-10985.0,-2314.0,215.0,1665.0,73.0138634783132,-300.826461553527,64.9723593141189,617690375
-18,-17.0,-42.0,-10984.0,-2315.0,215.0,1666.0,78.647723266058,-300.829812048566,64.9623318885002,617701786
4,-57.0,59.0,-10982.0,-2317.0,214.0,1668.0,84.281856203237,-300.832673680116,64.948582265594,617717561
-8,22.0,-75.0,-10980.0,-2314.0,211.0,1670.0,89.9206384032076,-300.830716854361,64.9341072327003,617730084
-6,-40.0,-51.0,-10980.0,-2314.0,211.0,1670.0,95.5669296497357,-300.833867010707,64.9345545098219,617737853
2,0.0,-132.0,-10978.0,-2314.0,210.0,1674.0,103.090578446089,-300.860001287443,64.9416107625961,617755257
-12,26.0,25.0,-10977.0,-2315.0,209.0,1677.0,106.846657845733,-300.849716230321,64.9181093594499,617765589
-14,-91.0,16.0,-10974.0,-2314.0,207.0,1680.0,112.484525403411,-300.850782519025,64.9031906169763,617780889
-8,-91.0,-49.0,-10974.0,-2312.0,207.0,1681.0,118.136501707761,-300.848588723757,64.8876138033535,617789463
-25,0.0,23.0,-10973.0,-2311.0,206.0,1683.0,123.780482400885,-300.885426733017,64.9000334737326,617798258
-17,39.0,-77.0,-10972.0,-2310.0,205.0,1684.0,129.435711177543,-300.903153371224,64.8981053152784,617815385
-17,39.0,-77.0,-10971.0,-2311.0,205.0,1687.0,135.075064372786,-300.892211281724,64.8557856964721,617821672
15,-64.0,-28.0,-10970.0,-2309.0,204.0,1690.0,138.828442838483,-300.871508878857,64.8364006501103,617839293
-23,0.0,6.0,-10969.0,-2306.0,203.0,1690.0,144.492828360916,-300.899352123612,64.8550776853202,617848161
-14,-112.0,14.0,-10969.0,-2306.0,203.0,1690.0,150.157751773402,-300.940917634894,64.85433895822,617856669
-12,-103.0,-27.0,-10968.0,-2304.0,201.0,1694.0,155.792543485782,-300.932763344197,64.813102690286,617870702
-2,-172.0,-12.0,-10967.0,-2305.0,201.0,1696.0,161.444740921985,-300.931029391288,64.7884551685216,617884381
-2,-172.0,-12.0,-10967.0,-2305.0,201.0,1696.0,170.737281076572,-300.970266277,64.8092718165318,617884381
-16,-124.0,-3.0,-10966.0,-2301.0,200.0,1700.0,176.075278365867,-300.917888535122,64.7558372040388,617919230
-26,61.0,-18.0,-10964.0,-2299.0,198.0,1703.0,182.847725730675,-300.883520182476,64.7740747385612,617932033
-13,-90.0,-17.0,-10964.0,-2299.0,198.0,1703.0,187.588635159552,-300.80354014569,64.75797221024,617940185
-19,-183.0,36.0,-10963.0,-2298.0,198.0,1707.0,192.044207347272,-300.787478216819,64.7993834033196,617949009
-16,-141.0,16.0,-10963.0,-2296.0,197.0,1707.0,194.812121198297,-300.669268547974,64.7632440047229,617965390
-14,-166.0,7.0,-10963.0,-2295.0,197.0,1709.0,198.702754303329,-300.615368758576,64.7834763846201,617972584
-27,159.0,-21.0,-10962.0,-2292.0,196.0,1710.0,202.264666152543,-300.532377379002,64.8029766325938,617984244
-6,-163.0,1.0,-10962.0,-2291.0,196.0,1712.0,205.44267691163,-300.460605405654,64.829916427707,618001143
-8,66.0,-19.0,-10962.0,-2290.0,196.0,1715.0,208.255178168415,-300.405248908191,64.8346177669281,618010110
-21,34.0,-2.0,-10962.0,-2290.0,196.0,1715.0,210.69857080738,-300.314789803165,64.8403466702904,618018127
-13,-10.0,-20.0,-10962.0,-2287.0,196.0,1717.0,212.12591276006,-300.248093865118,64.8790914366167,618034636
-6,-58.0,2.0,-10962.0,-2286.0,196.0,1719.0,214.468972553216,-300.147054712717,64.8937711640719,618042962
-22,-61.0,21.0,-10962.0,-2285.0,196.0,1719.0,215.808213721384,-300.123629365667,64.9435031766037,618053812
-2,-53.0,-31.0,-10963.0,-2284.0,197.0,1722.0,216.791428608607,-300.018557324534,64.9250646450511,618068713
-16,-105.0,26.0,-10963.0,-2282.0,197.0,1725.0,217.63597181075,-299.860737852221,64.9272207867843,618081244
-19,-18.0,-20.0,-10963.0,-2280.0,197.0,1725.0,218.533864349767,-299.676952007351,64.9603876470046,618089105
-14,-50.0,35.0,-10963.0,-2279.0,197.0,1728.0,219.234036852461,-299.221543224059,64.9766468487212,618106778
-13,-70.0,-36.0,-10964.0,-2277.0,197.0,1728.0,220.47145362599,-298.756829348296,64.9856580883375,618118291
-12,-37.0,40.0,-10964.0,-2273.0,197.0,1734.0,222.016083320795,-297.431659661437,64.9926777129268,618124547
-14,-20.0,56.0,-10964.0,-2271.0,197.0,1735.0,224.645662555606,-296.050779855569,65.0111809055186,618138108
-24,44.0,65.0,-10965.0,-2268.0,198.0,1738.0,226.229202568904,-294.305218050756,65.01878408255,618154819
0,-195.0,-81.0,-10965.0,-2267.0,198.0,1739.0,228.945805556127,-292.916493629715,65.0057004858891,618162869
0,-195.0,-81.0,-10965.0,-2267.0,198.0,1739.0,232.094703585796,-290.480685220395,64.9947415374508,618169645
-5,-135.0,-83.0,-10965.0,-2266.0,198.0,1740.0,234.459902144183,-287.616296695638,65.0057558743408,618179502
-3,-155.0,-101.0,-10966.0,-2263.0,199.0,1743.0,238.380156302329,-285.456515165722,65.0150877976216,618196858
-32,-43.0,105.0,-10966.0,-2261.0,199.0,1744.0,241.213398641654,-281.838296338503,65.0120886489876,618205437
-24,-38.0,88.0,-10966.0,-2261.0,199.0,1746.0,245.723950519215,-279.20926045553,65.0028726718905,618213586
-4,-123.0,-93.0,-10967.0,-2258.0,200.0,1749.0,250.462441784582,-274.990843040563,65.0048429967707,618229181
-36,6.0,103.0,-10967.0,-2258.0,200.0,1749.0,255.340326606535,-270.490811573243,65.0079682652692,618238093
-2,-194.0,-90.0,-10967.0,-2256.0,200.0,1751.0,258.634004122875,-265.757727430562,65.0098443802102,618251360
-10,-177.0,-88.0,-10968.0,-2253.0,200.0,1752.0,263.585546688204,-260.817048425508,65.0020236172028,618260139
-28,5.0,90.0,-10968.0,-2253.0,200.0,1752.0,268.539669921022,-257.422446492131,65.0029647198709,618267613
-8,-198.0,-80.0,-10968.0,-2253.0,200.0,1754.0,273.476549255475,-252.186340030725,65.0053861150003,618279973
-23,-27.0,91.0,-10968.0,-2250.0,200.0,1755.0,276.737538648587,-246.789740428891,65.0037631025484,618288138
6,-107.0,-76.0,-10969.0,-2249.0,201.0,1758.0,281.579460514676,-241.252668619701,65.0030387429945,618305742
-33,-69.0,63.0,-10969.0,-2247.0,201.0,1760.0,286.341098493879,-235.590157192641,65.0003939323831,618316293
-21,-113.0,46.0,-10969.0,-2246.0,201.0,1761.0,291.009681726676,-229.811171437864,65.0024382338598,618328849
-17,-58.0,16.0,-10970.0,-2244.0,202.0,1763.0,297.08324077857,-223.914861617061,64.9997423474428,618343774
-17,-58.0,16.0,-10970.0,-2242.0,202.0,1764.0,301.514572441282,-217.911953565333,65.0003688354533,618352081
-4,-183.0,-2.0,-10970.0,-2241.0,202.0,1766.0,305.837707304395,-211.805304624705,64.9992621054308,618367958
-18,-50.0,-18.0,-10971.0,-2239.0,202.0,1767.0,310.0398073232,-205.605204966107,64.999021723402,618377386
-15,-170.0,11.0,-10971.0,-2237.0,203.0,1769.0,314.119440685868,-199.317991184744,64.9990543682698,618392066
-22,-75.0,-18.0,-10971.0,-2236.0,203.0,1772.0,319.365722986697,-190.799820622606,65.0003710579247,618400895
-15,-112.0,26.0,-10972.0,-2234.0,203.0,1772.0,323.154762787892,-184.313649122646,64.9996809104642,618417439
-6,-140.0,-58.0,-10972.0,-2234.0,203.0,1774.0,325.607235492636,-177.744556580958,64.9994760043504,618429900
-26,-102.0,44.0,-10972.0,-2232.0,204.0,1776.0,329.17997189832,-171.1054830952,64.9997889963571,618441320
-9,-140.0,31.0,-10973.0,-2230.0,204.0,1778.0,332.613099592019,-164.397272005074,65.0002421575008,618449978
2,-89.0,-81.0,-10973.0,-2230.0,204.0,1778.0,335.912005509933,-159.886574471554,65.0000192370823,618458585
-18,-9.0,-90.0,-10973.0,-2228.0,204.0,1780.0,339.076389569275,-153.060997865536,65.0000192369928,618473502
-18,-9.0,-90.0,-10973.0,-2226.0,204.0,1782.0,341.110932058573,-148.47244966306,65.000472399372,618481813
-11,-15.0,-85.0,-10973.0,-2226.0,205.0,1784.0,344.045001148802,-141.54086742055,64.9995807187306,618491028
-4,-201.0,43.0,-10974.0,-2224.0,205.0,1784.0,345.921100500014,-134.557131364036,64.9990054047673,618499705
-21,-57.0,-89.0,-10974.0,-2223.0,205.0,1786.0,348.617429062595,-127.519444523103,64.9985128432692,618512180
-4,-169.0,44.0,-10974.0,-2221.0,205.0,1787.0,351.17238752438,-120.422630085255,64.9996814856802,618527538
-23,-103.0,-67.0,-10974.0,-2221.0,206.0,1789.0,353.584619165338,-115.664474461655,64.9998396682983,618536038
-25,-166.0,49.0,-10976.0,-2219.0,207.0,1791.0,356.576624609303,-106.081595818362,64.9988652369784,618552564
-22,-103.0,-79.0,-10977.0,-2217.0,207.0,1791.0,358.648940760113,-98.8504574688735,64.9993758136035,618560851
-24,-190.0,23.0,-10978.0,-2216.0,208.0,1794.0,361.183377888494,-89.1455906728098,64.9990701421193,618580947
-22,-92.0,-61.0,-10978.0,-2217.0,209.0,1797.0,362.913881490762,-81.8179434875073,64.9991996165035,618589793
-24,-191.0,5.0,-10977.0,-2219.0,209.0,1799.0,363.984516459766,-74.4581258863507,64.9995520108842,618599699
-38,-373.0,-130.0,-10977.0,-2221.0,210.0,1802.0,365.465686568225,-69.5357854660444,64.9996741640253,618617251
6,-404.0,-134.0,-10977.0,-2220.0,210.0,1803.0,366.798145529093,-62.1288831612417,65.0001093110747,618624640
6,-404.0,-134.0,-10978.0,-2219.0,211.0,1802.0,367.602162835275,-54.6970109634357,65.0000625883843,618632858
3,-395.0,-202.0,-10980.0,-2215.0,212.0,1801.0,368.683018402701,-47.2412349927942,64.9996741640253,618641362
-27,-213.0,-136.0,-10981.0,-2213.0,211.0,1799.0,369.614263026089,-42.2605542552894,64.9994512443024,618652977
-17,-111.0,-95.0,-10982.0,-2208.0,212.0,1796.0,370.393848018934,-34.7728498057602,65.0001380186958,618668809
-57,-202.0,-211.0,-10984.0,-2205.0,212.0,1793.0,370.828658613927,-29.7751762771138,65.0002494787871,618675031
-74,-472.0,-229.0,-10986.0,-2198.0,212.0,1786.0,371.35535594841,-19.7641321424501,64.999832346524,618688212
-156,-477.0,-37.0,-10990.0,-2191.0,213.0,1779.0,371.730269062546,-14.7519680386447,64.9999438064838,618697402
-112,-368.0,8.0,-10991.0,-2168.0,208.0,1765.0,371.894561881724,-7.2272148290731,65.0003142166835,618710204
-117,-418.0,-1.0,-10995.0,-2159.0,208.0,1755.0,372.01576459149,0.299901298618536,64.9992570323114,618724046
-117,-418.0,-1.0,-10995.0,-2159.0,208.0,1755.0,371.984768593321,5.31646628188085,64.9997495945091,618730335
-171,-283.0,12.0,-11003.0,-2125.0,205.0,1724.0,371.801057680791,15.3463791547356,65.0004076619193,618745194
-171,-283.0,12.0,-11006.0,-2103.0,202.0,1710.0,371.464945745179,22.8622485261181,65.0004363694842,618753168
-49,-130.0,-15.0,-11012.0,-2069.0,196.0,1676.0,370.977047716529,27.8665021786744,65.000213449181,618772359
-23,-298.0,-72.0,-11012.0,-2069.0,196.0,1676.0,370.337737043478,35.3665898800831,64.9997963171328,618778761
-178,-213.0,269.0,-11017.0,-2026.0,189.0,1643.0,369.546332385262,42.8527591713101,65.0005765370863,618793154
146,38.0,-280.0,-11022.0,-2004.0,187.0,1625.0,368.603879046204,52.8050273044904,65.0004363694842,618801796
-163,-150.0,23.0,-11025.0,-1984.0,184.0,1607.0,367.509959782165,57.7653398334475,65.0006592901838,618818146
51,-55.0,-338.0,-11028.0,-1963.0,181.0,1589.0,366.698220163174,65.1859776284072,65.0002421572518,618824439
-111,-306.0,223.0,-11033.0,-1940.0,180.0,1570.0,365.354704254978,70.1231162479545,65.0005478302176,618834102
103,89.0,-318.0,-11038.0,-1896.0,173.0,1535.0,364.375090914687,77.4986809968741,65.0002708650111,618850695
49,80.0,-174.0,-11038.0,-1896.0,173.0,1535.0,362.78318509552,84.8428342547274,64.999889762767,618859126
-44,-401.0,-6.0,-11043.0,-1876.0,171.0,1516.0,361.04131178692,89.7223597740073,65.0006412759309,618867015
26,211.0,-288.0,-11046.0,-1851.0,168.0,1497.0,359.152128792523,97.0071863633183,65.0006232597563,618879586
73,-204.0,-61.0,-11049.0,-1829.0,165.0,1477.0,357.811972643026,104.251398568405,65.0003175876083,618886039
-76,-41.0,-320.0,-11056.0,-1786.0,160.0,1440.0,355.67743057203,111.455069803721,65.0009863478601,618905267
1,-69.0,62.0,-11060.0,-1763.0,159.0,1421.0,353.399103237354,118.613240743399,65.0005405080023,618913758
207,-52.0,-201.0,-11063.0,-1738.0,155.0,1401.0,350.974637027829,125.723052113175,65.000763428146,618926821
-22,30.0,19.0,-11070.0,-1696.0,151.0,1359.0,347.520065918681,132.778991650668,65.0006052458615,618940712
-252,-317.0,-154.0,-11070.0,-1696.0,151.0,1359.0,343.811869315984,142.104622677752,65.000763428146,618949394
246,-116.0,-252.0,-11076.0,-1647.0,146.0,1323.0,339.854176285359,151.325842294317,65.0004757710311,618969562
-30,68.0,-102.0,-11084.0,-1607.0,143.0,1281.0,336.724226090413,158.168581998524,65.0009503184033,618982053
44,280.0,76.0,-11089.0,-1580.0,142.0,1262.0,334.559655182823,164.949144403351,65.0015436500546,618997681
311,-42.0,-186.0,-11091.0,-1555.0,139.0,1244.0,331.200081606201,171.66142798494,65.0007273986253,619005909
17,70.0,16.0,-11097.0,-1517.0,135.0,1204.0,326.509297695272,178.30418987472,65.000662661173,619022442
-211,-86.0,-179.0,-11097.0,-1517.0,135.0,1204.0,324.075811417174,184.872055134798,64.9999758866514,619028714
-187,-258.0,116.0,-11106.0,-1467.0,133.0,1162.0,320.312702886469,189.210298085124,65.0008208436228,619042762
122,-16.0,-121.0,-11110.0,-1443.0,132.0,1145.0,316.419128401764,195.651487663014,65.0005692157117,619051460
77,255.0,55.0,-11110.0,-1443.0,132.0,1145.0,312.397223699468,202.010516033982,65.0002922515323,619060066
-78,-282.0,-114.0,-11116.0,-1403.0,129.0,1105.0,309.645268090599,208.286673396363,65.0000873465111,619077251
-78,-282.0,-114.0,-11119.0,-1377.0,127.0,1084.0,305.408700653317,214.483860078298,65.0009503189525,619083767
36,58.0,-20.0,-11126.0,-1332.0,125.0,1045.0,301.048547771778,218.562920710866,65.0004037116163,619100364
-60,-163.0,-119.0,-11129.0,-1311.0,124.0,1025.0,296.567285271567,224.606649531477,65.0004037115353,619110144
-39,3.0,-157.0,-11129.0,-1311.0,124.0,1025.0,293.508981950044,230.562178084015,65.0007561063445,619118146
5,-155.0,-183.0,-11133.0,-1289.0,123.0,1004.0,288.826253884178,234.477979112822,65.0001807919238,619130729
-40,-38.0,1.0,-11139.0,-1245.0,121.0,962.0,285.638409503399,240.27204932433,64.9998283979468,619142170
-47,-63.0,-142.0,-11142.0,-1222.0,120.0,942.0,279.105009221963,245.969542407395,64.9998751205653,619150728
32,-71.0,-183.0,-11145.0,-1199.0,118.0,922.0,272.370461423875,255.238184458676,65.0001627774166,619166755
-6,-77.0,-30.0,-11148.0,-1177.0,118.0,902.0,267.193057401084,260.638492163366,65.0010938585541,619179246
-55,-78.0,-93.0,-11173.0,-1121.0,133.0,873.0,261.97814546185,264.131741886941,65.0078855203493,619193172
-55,-78.0,-93.0,-11173.0,-1121.0,133.0,873.0,256.736453290362,269.122189090018,65.0124842794543,619193172
-50,-129.0,-97.0,-11183.0,-1055.0,132.0,811.0,253.236134978387,273.763558470127,65.0203541208304,619227529
-50,-129.0,-97.0,-11183.0,-1055.0,132.0,811.0,247.998943895242,278.010827585142,65.0201370099473,619227529
-48,-98.0,-44.0,-11188.0,-1011.0,130.0,769.0,242.805468792397,281.840431918077,64.9998041540676,619242138
-29,-50.0,-141.0,-11191.0,-989.0,130.0,750.0,237.668339286608,285.264268164004,64.9922561571899,619250857
-21,-38.0,-111.0,-11191.0,-989.0,130.0,750.0,232.617676183137,288.288281046822,64.9988213394102,619259157
-12,63.0,-99.0,-11197.0,-943.0,130.0,711.0,227.662601941938,290.05892828013,64.9858469882625,619273040
17,-9.0,-49.0,-11197.0,-943.0,130.0,711.0,222.847745605836,292.386949179862,64.9985394843387,619279380
31,-36.0,-102.0,-11200.0,-920.0,129.0,689.0,219.695938308102,294.268104871878,64.9693166576674,619290307
-49,-98.0,-134.0,-11205.0,-878.0,128.0,648.0,215.068684692574,295.279542292078,64.9279117183078,619306964
-10,-66.0,-91.0,-11208.0,-855.0,129.0,627.0,210.59418033554,296.546391203949,64.9584901406117,619315564
74,44.0,-45.0,-11211.0,-832.0,129.0,609.0,206.124774716765,297.497629325686,64.9541973236807,619328687
46,100.0,-106.0,-11213.0,-810.0,128.0,586.0,203.092357278357,298.173939245582,64.8938428605233,619334971
-154,-137.0,-38.0,-11218.0,-769.0,128.0,543.0,198.435019186015,298.727958063336,64.8855153329949,619354226
-154,-137.0,-38.0,-11220.0,-744.0,128.0,523.0,193.560743938783,299.054983727608,64.8793918300433,619362592
50,83.0,-146.0,-11220.0,-744.0,128.0,523.0,188.494464355615,299.566929617761,64.8763968712036,619369757
48,-158.0,-177.0,-11225.0,-700.0,128.0,483.0,183.268051247598,299.748821669563,64.8248325270802,619382272
-13,148.0,-3.0,-11228.0,-678.0,128.0,463.0,177.958318945809,300.089382778694,64.8362395289863,619397508
-77,-309.0,-242.0,-11228.0,-658.0,127.0,439.0,170.752381460325,300.260848403942,64.8050775583993,619405558
-77,-309.0,-242.0,-11228.0,-658.0,127.0,439.0,165.68901523692,300.407859286082,64.8064499184497,619405558
114,20.0,-232.0,-11239.0,-569.0,129.0,359.0,161.615361701762,300.514263409532,64.7902867586755,619443280
114,20.0,-232.0,-11239.0,-569.0,129.0,359.0,156.058629071179,300.577032515247,64.7902047802606,619443280
-217,-156.0,-376.0,-11239.0,-550.0,128.0,333.0,150.508377068753,300.704268347434,64.8158978557618,619460658
-215,-321.0,164.0,-11245.0,-502.0,130.0,295.0,143.036823463268,300.728681764999,64.7942120192389,619474513
228,276.0,-206.0,-11245.0,-502.0,130.0,295.0,137.436076846134,300.763771619377,64.7942522295094,619480723
-289,0.0,-367.0,-11246.0,-462.0,129.0,251.0,133.693124546929,300.801797986002,64.8231147900569,619494940
-277,-339.0,226.0,-11249.0,-442.0,131.0,228.0,128.062336980548,300.829645357179,64.8226442480992,619505661
-277,-339.0,226.0,-11250.0,-415.0,130.0,209.0,124.312054986018,300.831897433635,64.8095339273026,619513987
281,300.0,-332.0,-11250.0,-415.0,130.0,209.0,118.673745550586,300.837052691989,64.8206228883531,619520903
63,-334.0,-47.0,-11255.0,-372.0,132.0,168.0,113.049419187684,300.878690842027,64.8596227147208,619533253
-250,-529.0,-279.0,-11254.0,-356.0,131.0,146.0,107.398308785548,300.845438009454,64.8358220974945,619549034
121,200.0,180.0,-11258.0,-315.0,133.0,111.0,99.8651527757131,300.834039183343,64.8633779852007,619567249
-82,-320.0,-631.0,-11257.0,-298.0,131.0,92.0,94.2424794858715,300.898117850128,64.9018146159926,619579731
-103,134.0,71.0,-11258.0,-282.0,132.0,74.0,88.5931702654644,300.848228511753,64.8719710712267,619586023
-103,134.0,71.0,-11258.0,-263.0,132.0,56.0,84.8325381480459,300.84309554618,64.8761509969187,619593830
-182,-624.0,-560.0,-11262.0,-233.0,134.0,29.0,79.1860627011761,300.86424125721,64.9059851463589,619611199
104,178.0,-95.0,-11262.0,-233.0,134.0,29.0,73.538636688673,300.855883575712,64.9089187284346,619619552
-150,-335.0,-773.0,-11259.0,-220.0,132.0,13.0,69.7851122538771,300.858598733414,64.9232724367983,619629232
-131,39.0,-240.0,-11261.0,-195.0,133.0,-12.0,64.1465062404451,300.828173006707,64.9153106152499,619643433
41,229.0,-117.0,-11260.0,-184.0,132.0,-23.0,60.3843287031596,300.840017258954,64.9294204063401,619651990
-6,-105.0,-492.0,-11260.0,-184.0,132.0,-23.0,54.7354450696778,300.833006354547,64.9357509404487,619660369
-132,15.0,-74.0,-11261.0,-174.0,133.0,-36.0,49.1025887756793,300.832063384439,64.9382208336219,619668262
-32,88.0,-410.0,-11261.0,-165.0,133.0,-45.0,43.4649364165374,300.813202023383,64.9438863751814,619681098
112,241.0,-443.0,-11262.0,-159.0,133.0,-50.0,39.7076909743527,300.829811408092,64.9620106820176,619687825
-187,44.0,-341.0,-11262.0,-153.0,133.0,-55.0,34.0666686691175,300.827620941273,64.9624998783457,619698968
-42,-24.0,-331.0,-11261.0,-143.0,133.0,-69.0,30.3064017119338,300.80574422546,64.9579579687556,619715086
-42,-24.0,-331.0,-11261.0,-143.0,133.0,-69.0,24.6750043922429,300.812323746616,64.9591623533532,619722500
138,53.0,-96.0,-11264.0,-130.0,135.0,-79.0,20.9150093489062,300.806690616234,64.9646326743709,619735104
7,-119.0,-199.0,-11264.0,-123.0,135.0,-85.0,13.3976723757576,300.819642615871,64.9772663080119,619742921
75,-95.0,-166.0,-11266.0,-97.0,137.0,-106.0,9.64381376479764,300.809013592278,64.976545973716,619764155
290,-14.0,-68.0,-11266.0,-97.0,137.0,-106.0,4.00857156710243,300.796495935688,64.9783022688786,619771140
292,18.0,-94.0,-11266.0,-78.0,137.0,-124.0,-1.62601513127767,300.794345099085,64.9807421422947,619777256
160,-110.0,-189.0,-11264.0,-56.0,135.0,-147.0,-7.26124808278637,300.741631553503,64.978142276427,619790792
69,-148.0,-177.0,-11261.0,8.0,134.0,-211.0,-12.8946750872224,300.74173561711,64.982847314487,619807785
302,-94.0,-161.0,-11262.0,53.0,135.0,-250.0,-18.5278800000994,300.765745995454,64.9913245746504,619815805
564,91.0,23.0,-11264.0,107.0,138.0,-293.0,-24.1610221432816,300.765288116407,64.9869669495066,619825804
271,-71.0,-149.0,-11262.0,161.0,139.0,-344.0,-27.9195417014187,300.770397251312,64.9839435046691,619839134
162,60.0,1.0,-11259.0,223.0,139.0,-406.0,-33.5546954002835,300.767463823504,64.9869003654541,619847257
35,-358.0,-456.0,-11257.0,296.0,140.0,-472.0,-39.1877635559743,300.774121768222,64.9849621049681,619855199
447,18.0,174.0,-11255.0,376.0,144.0,-543.0,-42.9463340812141,300.793134201458,64.9917250453358,619870656
93,-99.0,-47.0,-11247.0,558.0,153.0,-709.0,-50.460026069495,300.802203027842,64.9844209702704,619886684
93,-99.0,-47.0,-11241.0,660.0,158.0,-806.0,-54.2171127005585,300.799694913269,64.9760909277037,619894557
232,149.0,-72.0,-11233.0,770.0,164.0,-908.0,-59.8549497698035,300.80690167726,64.9774321153071,619903210
101,-398.0,-478.0,-11225.0,890.0,174.0,-1015.0,-63.6110086722312,300.810806625201,64.9790415090724,619912163
-66,-308.0,-520.0,-11214.0,1011.0,184.0,-1129.0,-69.2487901208491,300.83382825053,64.9842915123239,619925996
52,256.0,259.0,-11201.0,1134.0,194.0,-1243.0,-76.7681166063901,300.826119600644,64.9637954565002,619939174
-43,-309.0,-445.0,-11173.0,1397.0,223.0,-1483.0,-84.2831671394443,300.825325122116,64.9455178213458,619959539
96,82.0,-124.0,-11158.0,1532.0,242.0,-1605.0,-89.9228718030038,300.837412448156,64.9390508307659,619967327
-140,-392.0,-485.0,-11138.0,1666.0,3.0,-1730.0,-95.5660161124065,300.835699379315,64.9394146426075,619979823
39,240.0,288.0,-11095.0,1941.0,44.0,-1983.0,-101.209334356147,300.850115654275,64.9406625974364,619994003
72,37.0,-138.0,-11071.0,2079.0,68.0,-2109.0,-104.966465192757,300.849427026847,64.9241273496575,620002606
87,187.0,241.0,-11047.0,2219.0,94.0,-2237.0,-110.60484075383,300.84549194513,64.9081347777792,620014887
110,11.0,-62.0,-11047.0,2219.0,94.0,-2237.0,-116.254297171564,300.859891523821,64.9037973764533,620021783
-128,-252.0,-519.0,-10990.0,2498.0,149.0,-2494.0,-120.010682453135,300.853778857745,64.8893584319408,620034738
12,-100.0,-140.0,-10961.0,2639.0,181.0,-2622.0,-125.670508514122,300.897701816911,64.9053253912696,620042321
-72,-208.0,-191.0,-10961.0,2639.0,181.0,-2622.0,-131.315365889925,300.899445419669,64.8976109111444,620050930
-48,-159.0,-358.0,-10895.0,2918.0,246.0,-2879.0,-135.072932388499,300.87185516519,64.8513391810168,620067326
9,24.0,-46.0,-10859.0,3058.0,26.0,-3008.0,-140.711417868406,300.887240698949,64.8423345836884,620077254
-66,-199.0,-327.0,-10822.0,3199.0,63.0,-3135.0,-146.383794542525,300.91627387047,64.870689847165,620090576
78,184.0,87.0,-10783.0,3337.0,102.0,-3263.0,-152.032910112241,300.925275776262,64.8270472209916,620099147
-7,-142.0,-273.0,-10745.0,3477.0,144.0,-3390.0,-155.790723782585,300.930427698839,64.8104624445572,620107378
-98,6.0,-378.0,-10703.0,3616.0,187.0,-3517.0,-161.44551792327,300.934624012034,64.7993569192685,620122426
-149,-71.0,-42.0,-10658.0,3753.0,229.0,-3644.0,-165.196611115811,300.942088785174,64.7974164665419,620129651
91,79.0,-13.0,-10614.0,3891.0,20.0,-3770.0,-170.736496645272,300.969723931763,64.8004691604397,620140284
-64,-200.0,-320.0,-10567.0,4028.0,67.0,-3896.0,-174.315578149992,300.904395187629,64.7684838816363,620148667
-112,-201.0,-286.0,-10471.0,4302.0,168.0,-4145.0,-182.847232038326,300.855269888732,64.7714054121833,620164696
-176,-123.0,-333.0,-10369.0,4574.0,21.0,-4392.0,-187.58756129162,300.783653438542,64.7607424682217,620184118
138,55.0,162.0,-10314.0,4707.0,76.0,-4515.0,-192.040852388595,300.780634109944,64.7830248996435,620195067
111,39.0,-9.0,-10260.0,4842.0,135.0,-4637.0,-194.808628535617,300.66511900231,64.7631865018847,620203671
-91,-101.0,-187.0,-10201.0,4973.0,192.0,-4758.0,-198.707518986101,300.62179401124,64.7953332956654,620212533
-30,78.0,-130.0,-10143.0,5106.0,253.0,-4879.0,-202.263509568042,300.574198105868,64.8018594384285,620226477
-57,-121.0,-74.0,-10143.0,5106.0,253.0,-4879.0,-205.44193132143,300.476859425184,64.8228614747558,620233345
-172,144.0,-248.0,-10021.0,5369.0,122.0,-5118.0,-207.357046819213,300.399041375579,64.8242071766506,620248689
167,-43.0,106.0,-9958.0,5499.0,188.0,-5237.0,-209.924315611286,300.343608312223,64.8466507889145,620259711
-179,22.0,-245.0,-9893.0,5627.0,254.0,-5356.0,-211.436142127136,300.270925692491,64.8641554186684,620267559
-179,22.0,-245.0,-9826.0,5755.0,66.0,-5474.0,-213.944576767576,300.193497089615,64.8842493367853,620274031
-159,267.0,-182.0,-9691.0,6009.0,207.0,-5705.0,-215.405182497729,300.119735492955,64.9344800092076,620294540
95,-130.0,-146.0,-9621.0,6136.0,24.0,-5819.0,-216.487617541122,300.058541749327,64.9419073969909,620303575
53,132.0,108.0,-9548.0,6259.0,97.0,-5934.0,-217.283864995318,300.003740774543,65.0242519556786,620312720
18,57.0,-41.0,-9476.0,6385.0,175.0,-6046.0,-218.088121885863,299.991061688705,65.3176641861638,620330030
