ACC_X,ACC_Y,ACC_Z,QUAT_W,QUAT_X,QUAT_Y,QUAT_Z,X_pos,Y_pos,Z_pos,t
39,153.0,58.0,-10700.0,3659.0,181.0,-3463.0,-218.249778709249,299.982070400349,65.8093296142499,325065939
-43,132.0,-159.0,-10656.0,3800.0,227.0,-3592.0,-218.683405520868,300.003338545373,66.6060253211572,325082418
-43,132.0,-159.0,-10610.0,3940.0,17.0,-3721.0,-219.009931090609,300.026062155312,67.6468116144849,325088715
86,153.0,175.0,-10514.0,4218.0,116.0,-3977.0,-219.32809544002,300.039381664258,69.5526013565647,325106758
-113,-59.0,-449.0,-10465.0,4359.0,170.0,-4103.0,-219.503755610288,300.053442444116,71.3124767536173,325115386
16,61.0,100.0,-10414.0,4496.0,224.0,-4230.0,-219.605088950465,300.019644673725,73.3828575828623,325131866
16,61.0,100.0,-10361.0,4634.0,24.0,-4356.0,-219.691518582706,300.058095063881,75.024205849246,325138058
118,-34.0,226.0,-10308.0,4772.0,84.0,-4480.0,-219.798779283751,300.078003085581,77.7362359261943,325150711
118,-34.0,226.0,-10251.0,4907.0,142.0,-4604.0,-219.895584689213,300.127130038119,80.8406489429915,325158485
-151,4.0,-253.0,-10194.0,5043.0,204.0,-4728.0,-219.915252438336,300.094878275241,83.0257381954322,325169978
57,95.0,90.0,-10134.0,5177.0,9.0,-4851.0,-219.97960346331,300.158293257817,86.7468188905028,325185243
-201,74.0,-229.0,-10011.0,5445.0,140.0,-5095.0,-220.068107104123,300.209881713159,90.8409698592263,325197573
-48,32.0,-258.0,-10011.0,5445.0,140.0,-5095.0,-220.112844871599,300.245253649039,95.3028882852025,325204931
-34,23.0,-66.0,-9947.0,5577.0,207.0,-5216.0,-220.141190851023,300.274693685247,98.3816551685935,325213458
93,-68.0,-17.0,-9881.0,5709.0,21.0,-5337.0,-220.177814889698,300.326889487424,103.246924363476,325221610
-269,247.0,-232.0,-9746.0,5969.0,164.0,-5574.0,-220.228018013058,300.365972316789,110.005134799858,325238490
-109,35.0,-255.0,-9675.0,6098.0,236.0,-5690.0,-220.273941043902,300.405850936887,115.213777285504,325251277
225,-106.0,52.0,-9530.0,6351.0,133.0,-5925.0,-220.286439788971,300.431959645403,120.478173544288,325267478
-253,184.0,-225.0,-9456.0,6477.0,211.0,-6041.0,-220.325841739729,300.482341222447,125.885684179761,325276287
136,-13.0,45.0,-9456.0,6477.0,211.0,-6041.0,-220.338457948844,300.470176831392,131.299266233214,325283901
45,-9.0,54.0,-9303.0,6726.0,117.0,-6268.0,-220.363455702187,300.519494043359,136.796588160106,325300211
45,-9.0,54.0,-9225.0,6850.0,202.0,-6381.0,-220.364255699147,300.499566851686,142.284968056161,325307976
41,-116.0,33.0,-9144.0,6971.0,28.0,-6491.0,-220.364313766747,300.508471492637,145.966667201315,325316577
-24,2.0,-89.0,-9064.0,7092.0,116.0,-6602.0,-220.381827032306,300.516456374143,151.524904528052,325334043
-150,-27.0,-9.0,-8981.0,7212.0,203.0,-6712.0,-220.382326751771,300.515910327348,158.973058130865,325340250
0,92.0,-172.0,-8812.0,7449.0,127.0,-6926.0,-220.376446593798,300.528310483125,164.552487869933,325358264
18,144.0,47.0,-8724.0,7565.0,218.0,-7033.0,-220.382365297591,300.517716704243,170.155769296643,325366854
-86,268.0,221.0,-8635.0,7680.0,55.0,-7139.0,-220.383140511842,300.518018585225,175.755450708973,325383500
-86,268.0,221.0,-8546.0,7793.0,150.0,-7244.0,-220.388792388523,300.525725575775,179.501635656278,325389794
56,-214.0,-369.0,-8458.0,7908.0,249.0,-7344.0,-220.38612110594,300.518613448509,185.113606177622,325402931
74,316.0,122.0,-8366.0,8019.0,90.0,-7448.0,-220.382457858238,300.525962090742,190.749391612201,325410926
-72,-57.0,-165.0,-8272.0,8130.0,189.0,-7549.0,-220.379695851044,300.523894389752,196.371847579672,325423251
-117,118.0,-196.0,-8176.0,8239.0,32.0,-7648.0,-220.380190737512,300.513241021385,201.982327195993,325431156
-32,126.0,184.0,-8080.0,8347.0,133.0,-7747.0,-220.386090822903,300.515583344906,205.737378860965,325443769
-111,78.0,-167.0,-7889.0,8556.0,80.0,-7936.0,-220.374266817591,300.505666543963,211.35643482281,325457785
-39,21.0,22.0,-7794.0,8654.0,178.0,-8026.0,-220.36587153575,300.478297852454,215.068710572299,325466388
-311,195.0,68.0,-7794.0,8654.0,178.0,-8026.0,-220.354773503166,300.470910134376,220.689561071457,325475304
-416,167.0,-17.0,-7611.0,8837.0,111.0,-8193.0,-220.353269885484,300.486861319668,226.341375589243,325487212
-195,82.0,-89.0,-7527.0,8920.0,202.0,-8268.0,-220.352099907722,300.481340675889,231.960300043029,325499784
-195,82.0,-89.0,-7447.0,9000.0,34.0,-8339.0,-220.371096501522,300.50109172905,237.617990322481,325507626
-257,-50.0,-263.0,-7367.0,9074.0,115.0,-8406.0,-220.376229567532,300.508846440293,243.275721962253,325516080
-352,95.0,7.0,-7291.0,9142.0,191.0,-8469.0,-220.37359050882,300.505247774091,248.892551931903,325533459
-352,95.0,7.0,-7228.0,9199.0,3.0,-8522.0,-220.385929637774,300.522073624208,252.670473234708,325539641
-107,71.0,-4.0,-7165.0,9255.0,71.0,-8575.0,-220.382520022035,300.528098823346,258.303979916928,325549964
-337,123.0,-185.0,-7062.0,9348.0,182.0,-8658.0,-220.395854547197,300.536110909634,265.805809607478,325566588
-196,-27.0,-207.0,-7062.0,9348.0,182.0,-8658.0,-220.40255872083,300.544749330097,269.58078913572,325575487
-242,15.0,18.0,-6983.0,9413.0,2.0,-8717.0,-220.404678990955,300.542557871668,275.200815916991,325589667
-302,60.0,-59.0,-6983.0,9413.0,2.0,-8717.0,-220.409309309963,300.554458088092,280.882295287636,325595912
-293,87.0,107.0,-6955.0,9439.0,34.0,-8738.0,-220.417435772685,300.564306403609,284.627544744563,325602394
-35,149.0,-40.0,-6914.0,9473.0,76.0,-8769.0,-220.41847097196,300.57286042496,290.250799177861,325624503
-236,188.0,72.0,-6901.0,9482.0,84.0,-8777.0,-220.427707383274,300.580301433357,295.897864796303,325632740
-236,188.0,72.0,-6896.0,9485.0,88.0,-8781.0,-220.427558147793,300.585106629035,299.65376826032,325639074
-135,350.0,141.0,-6896.0,9485.0,88.0,-8781.0,-220.439258434549,300.596052713064,305.299313840779,325651746
-135,350.0,141.0,-6903.0,9481.0,85.0,-8777.0,-220.445340776257,300.604346734382,310.945090739533,325659495
30,208.0,68.0,-6915.0,9472.0,74.0,-8768.0,-220.456667811729,300.624213674415,314.727601772617,325667867
76,263.0,53.0,-6933.0,9457.0,55.0,-8754.0,-220.464302651347,300.630707250245,320.335891353283,325676558
-35,182.0,105.0,-6957.0,9436.0,28.0,-8735.0,-220.479098844815,300.656099299935,325.995952398743,325693911
-223,304.0,133.0,-7026.0,9379.0,215.0,-8682.0,-220.496351389237,300.674913461337,331.6769988595,325708357
109,270.0,-12.0,-7071.0,9341.0,169.0,-8647.0,-220.50363687027,300.694257815706,337.314345894211,325716874
222,354.0,280.0,-7119.0,9301.0,122.0,-8610.0,-220.526292426495,300.71523807778,344.828482663528,325733728
222,354.0,280.0,-7173.0,9253.0,64.0,-8565.0,-220.546543787517,300.742853346618,350.497126660498,325739976
-53,287.0,243.0,-7231.0,9202.0,3.0,-8517.0,-220.567212985181,300.772550098061,354.287856675898,325749637
-190,282.0,-32.0,-7368.0,9078.0,118.0,-8403.0,-220.580972743699,300.802630860506,359.98257648752,325766136
87,377.0,276.0,-7368.0,9078.0,118.0,-8403.0,-220.608840959566,300.827803348353,365.590593937907,325775084
36,129.0,-120.0,-7445.0,9007.0,39.0,-8338.0,-220.641817232053,300.874786926031,371.096533671142,325783106
120,207.0,273.0,-7524.0,8932.0,211.0,-8268.0,-220.658884839297,300.911313341635,376.429445320788,325795590
-38,324.0,11.0,-7604.0,8854.0,125.0,-8194.0,-220.684642416289,300.943518909087,379.833869574587,325802105
15,234.0,82.0,-7856.0,8600.0,113.0,-7955.0,-220.703843378605,300.958611591263,384.738871305517,325828994
15,234.0,82.0,-7856.0,8600.0,113.0,-7955.0,-220.717337986587,300.978021754577,389.321035546612,325828994
-53,78.0,-309.0,-7856.0,8600.0,113.0,-7955.0,-220.723338720201,300.989696835252,392.197919641747,325836061
21,111.0,6.0,-8033.0,8413.0,184.0,-7782.0,-220.724644955486,300.989750736304,396.315280605744,325848413
140,95.0,-29.0,-8033.0,8413.0,184.0,-7782.0,-220.716334288382,300.975140339004,400.087016363368,325855633
-151,13.0,-206.0,-8204.0,8221.0,255.0,-7601.0,-220.704761701829,300.958351194263,402.381407942397,325872068
-70,46.0,-52.0,-8290.0,8122.0,163.0,-7507.0,-220.694022051154,300.935859554356,405.496293437702,325880214
140,114.0,26.0,-8376.0,8020.0,71.0,-7412.0,-220.668242146212,300.912333265362,408.292009869168,325896602
163,375.0,131.0,-8462.0,7916.0,234.0,-7314.0,-220.633448929839,300.867408114987,410.707055752541,325903350
-184,-100.0,-216.0,-8630.0,7703.0,53.0,-7118.0,-220.590912198286,300.784195209786,413.325668649212,325919228
109,164.0,65.0,-8711.0,7597.0,221.0,-7018.0,-220.524202814943,300.688231041818,414.836570492978,325927616
31,-50.0,-72.0,-8792.0,7489.0,133.0,-6916.0,-220.485175039235,300.633295698744,415.630958319332,325941873
31,-50.0,-72.0,-8872.0,7378.0,45.0,-6814.0,-220.383377194597,300.541250682646,416.587949861976,325948077
138,-49.0,84.0,-9030.0,7151.0,129.0,-6605.0,-220.287639875338,300.424379646528,417.34966898669,325967728
196,-59.0,58.0,-9107.0,7036.0,44.0,-6498.0,-220.010637231435,300.357391486004,417.92403825901,325976542
-151,173.0,-140.0,-9107.0,7036.0,44.0,-6498.0,-219.506751871981,300.262129921961,418.268684583809,325984263
-90,-102.0,-127.0,-9182.0,6923.0,219.0,-6391.0,-218.746839523307,300.17719273989,418.786977199089,325996838
132,-16.0,16.0,-9327.0,6689.0,56.0,-6175.0,-217.311641335352,300.14693597976,419.158680291785,326011589
69,66.0,-11.0,-9399.0,6570.0,233.0,-6065.0,-215.886587099482,300.128396558291,419.328611254076,326022178
69,66.0,-11.0,-9469.0,6448.0,154.0,-5955.0,-214.760142436033,300.139744004516,419.526849465633,326029967
36,265.0,-5.0,-9607.0,6207.0,4.0,-5730.0,-212.05922283643,300.173621944514,419.7241383762,326050181
81,225.0,-145.0,-9672.0,6085.0,186.0,-5619.0,-209.630821946599,300.228651297686,419.869165107629,326057815
31,134.0,22.0,-9736.0,5962.0,113.0,-5505.0,-206.839952430885,300.284306578806,420.01777237141,326075446
-123,-25.0,-22.0,-9800.0,5837.0,44.0,-5392.0,-203.676407386031,300.327115841675,420.131548854956,326086985
-3,148.0,-204.0,-9863.0,5710.0,230.0,-5274.0,-200.130271995585,300.404542575781,420.230015403522,326093259
-96,-112.0,-167.0,-9982.0,5458.0,95.0,-5044.0,-196.218997807074,300.503639748114,420.288127828636,326107134
116,280.0,-84.0,-9982.0,5458.0,95.0,-5044.0,-191.927771990355,300.579501441492,420.358648654075,326115717
-77,-180.0,43.0,-10097.0,5203.0,225.0,-4810.0,-187.296764397399,300.633932014318,420.434843876166,326131922
-77,-180.0,43.0,-10153.0,5072.0,162.0,-4689.0,-182.409871177583,300.714650054221,420.462755908673,326138952
-23,-106.0,-99.0,-10207.0,4942.0,103.0,-4573.0,-177.326145709571,300.792805286635,420.480301381161,326156042
58,168.0,-170.0,-10258.0,4810.0,42.0,-4453.0,-172.11330745605,300.873118250158,420.489928445858,326164518
-70,-1.0,-10.0,-10307.0,4679.0,241.0,-4336.0,-166.795788780608,300.901709718977,420.497583415945,326172886
-16,-3.0,-78.0,-10356.0,4548.0,185.0,-4215.0,-161.39568803511,300.934655902731,420.489367578461,326187686
-34,-113.0,-14.0,-10452.0,4282.0,79.0,-3970.0,-157.752731247484,300.963093596475,420.473102511962,326200304
-3,211.0,-182.0,-10497.0,4146.0,28.0,-3847.0,-150.399541014152,300.980852780222,420.466603310767,326210801
-3,211.0,-182.0,-10540.0,4010.0,234.0,-3727.0,-144.841728345,300.994923654211,420.430418496284,326219209
-33,110.0,-92.0,-10580.0,3877.0,185.0,-3603.0,-141.126963527854,300.9928232723,420.41976017779,326235216
-19,-62.0,-37.0,-10621.0,3742.0,139.0,-3479.0,-135.538498005794,300.990701612223,420.411607243612,326241979
99,23.0,-109.0,-10661.0,3606.0,94.0,-3353.0,-128.055601498929,300.989298407061,420.378707824411,326255480
-3,-38.0,-156.0,-10699.0,3469.0,52.0,-3228.0,-124.306331535415,300.98260553045,420.340270610221,326263871
47,75.0,-98.0,-10734.0,3330.0,9.0,-3104.0,-118.673572949465,300.978550609999,420.334086160752,326275847
-59,71.0,-176.0,-10800.0,3052.0,186.0,-2856.0,-113.042608187113,300.967550685872,420.281644249109,326290182
-218,-59.0,103.0,-10832.0,2914.0,150.0,-2731.0,-107.408551054263,300.952561740681,420.297009953955,326302857
-218,-59.0,103.0,-10862.0,2776.0,115.0,-2603.0,-103.649742994909,300.941006532459,420.238625309988,326310516
56,140.0,-193.0,-10891.0,2636.0,82.0,-2476.0,-98.0072020242309,300.931119732753,420.252680309146,326318895
-68,-162.0,-60.0,-10919.0,2493.0,51.0,-2350.0,-92.3585479833168,300.921947392165,420.211656629621,326338096
-160,93.0,-195.0,-10944.0,2351.0,20.0,-2223.0,-86.7140938590745,300.910273877768,420.196752027012,326344252
-39,61.0,-42.0,-10988.0,2071.0,220.0,-1970.0,-81.0752370830518,300.902575241733,420.165105266945,326358444
9,-34.0,-103.0,-11011.0,1931.0,197.0,-1841.0,-77.3163658845282,300.892031514629,420.167797944148,326367101
105,56.0,20.0,-11011.0,1931.0,197.0,-1841.0,-71.6724575086856,300.885706084044,420.141257287987,326375983
180,29.0,-340.0,-11030.0,1786.0,172.0,-1712.0,-67.9086736569875,300.879259205452,420.119263715793,326384057
-297,-8.0,64.0,-11049.0,1643.0,152.0,-1586.0,-62.2666655180196,300.876390973952,420.120653866949,326393491
23,174.0,-12.0,-11079.0,1360.0,113.0,-1329.0,-58.5025738092163,300.866161549578,420.118400033326,326407410
-140,-236.0,-83.0,-11079.0,1360.0,113.0,-1329.0,-52.8652517941866,300.861980899882,420.096865287212,326416227
254,199.0,-88.0,-11092.0,1219.0,95.0,-1198.0,-47.2305986257726,300.85727773344,420.079544127523,326424684
-79,-251.0,-115.0,-11105.0,1073.0,81.0,-1070.0,-43.468195869543,300.854270752216,420.070192933596,326432537
184,-5.0,-347.0,-11115.0,930.0,68.0,-940.0,-35.9459311784037,300.840902089097,420.081252124098,326445250
-205,-104.0,-37.0,-11124.0,786.0,57.0,-812.0,-32.1892535241,300.842465121495,420.059125865101,326455453
120,-1.0,-301.0,-11137.0,500.0,38.0,-553.0,-26.549487383993,300.842097441349,420.029396277189,326471528
120,-1.0,-301.0,-11140.0,354.0,30.0,-423.0,-22.7983883540887,300.835785819861,420.017922489045,326479931
320,-148.0,-574.0,-11140.0,354.0,30.0,-423.0,-17.1606738207626,300.832513898012,420.027638948597,326486965
-256,106.0,367.0,-11145.0,66.0,23.0,-164.0,-9.641691914219,300.829128467438,420.011065600771,326499316
70,171.0,-35.0,-11144.0,-76.0,22.0,-34.0,-4.00470680335393,300.832891179549,419.997307469924,326514901
214,95.0,-342.0,-11142.0,-222.0,23.0,95.0,1.6261046905131,300.833144214575,419.973161517909,326526883
-141,-22.0,92.0,-11133.0,-504.0,28.0,351.0,9.13520760575875,300.807311503977,419.954006098951,326540950
191,-60.0,-70.0,-11126.0,-641.0,32.0,473.0,12.8947721366831,300.812408585501,419.958774568168,326555223
-143,-125.0,234.0,-11119.0,-772.0,38.0,590.0,18.5292178853489,300.813986682105,419.97203744902,326563222
200,-125.0,-305.0,-11103.0,-1022.0,55.0,814.0,24.1710194104352,300.817401798637,419.966234089572,326579757
7,-88.0,86.0,-11094.0,-1137.0,64.0,918.0,29.8031608672497,300.825189905808,419.969635475334,326590538
-230,-377.0,198.0,-11094.0,-1137.0,64.0,918.0,35.4321617068251,300.827728139341,419.992655694298,326596743
174,-18.0,93.0,-11074.0,-1348.0,84.0,1106.0,41.0689774739261,300.822665863962,420.008864303153,326610991
-289,-8.0,556.0,-11064.0,-1444.0,94.0,1191.0,44.8298279677682,300.82569649053,419.997990967865,326619516
-167,-21.0,201.0,-11054.0,-1532.0,104.0,1269.0,50.466694392184,300.831642604168,420.0108723328,326628102
34,-264.0,-6.0,-11044.0,-1613.0,113.0,1342.0,56.1011658444055,300.835993791029,420.012686329639,326641935
347,-212.0,-174.0,-11036.0,-1685.0,123.0,1407.0,61.7389424848987,300.839897151392,420.008595284211,326651965
-303,-35.0,476.0,-11021.0,-1809.0,140.0,1515.0,67.3723619157429,300.842666064994,420.036503568116,326668727
-300,100.0,429.0,-11014.0,-1860.0,148.0,1560.0,74.8869378531408,300.843412107534,420.04972677502,326677867
-379,-18.0,412.0,-11010.0,-1901.0,155.0,1595.0,80.5349052827574,300.849983891334,420.042671368637,326691975
401,-201.0,-106.0,-11003.0,-1936.0,159.0,1625.0,88.0527768819766,300.857280627316,420.052461976732,326705087
-3,-124.0,-23.0,-11002.0,-1965.0,166.0,1650.0,91.8051745205991,300.860182303786,420.084751024548,326716937
0,-237.0,-345.0,-10998.0,-1996.0,171.0,1676.0,97.4471551825624,300.866876397298,420.095087229493,326725320
-388,-94.0,18.0,-10993.0,-2037.0,179.0,1716.0,103.096757242662,300.870978449821,420.109647957465,326739614
264,-487.0,-454.0,-10993.0,-2037.0,179.0,1716.0,108.746388738952,300.881781161347,420.113213608588,326745844
79,-453.0,-412.0,-10988.0,-2069.0,184.0,1744.0,112.50641126884,300.890726944439,420.127959013628,326761028
-137,-372.0,-409.0,-10986.0,-2083.0,186.0,1754.0,118.146287826704,300.902362323245,420.139380426175,326771865
-137,-372.0,-409.0,-10983.0,-2091.0,186.0,1763.0,123.79337611101,300.910754497248,420.168239880725,326780387
150,-404.0,-395.0,-10980.0,-2098.0,186.0,1771.0,127.563787672729,300.924557036541,420.17648916734,326793636
150,-404.0,-395.0,-10979.0,-2107.0,187.0,1779.0,133.215351648915,300.93356612644,420.205693382706,326799821
16,-531.0,-520.0,-10977.0,-2116.0,189.0,1788.0,138.869215815179,300.947884380314,420.227298366473,326815505
-162,-410.0,-410.0,-10977.0,-2119.0,190.0,1791.0,142.639991257649,300.967485547005,420.250963931477,326823764
47,-432.0,-379.0,-10974.0,-2124.0,188.0,1795.0,148.292493886366,300.994067968763,420.286395542346,326833939
-41,-368.0,-235.0,-10973.0,-2126.0,187.0,1797.0,153.951886230238,301.009669800606,420.315942655766,326846472
93,-342.0,-270.0,-10970.0,-2127.0,185.0,1795.0,159.620210700921,301.039482357044,420.322847747942,326852896
93,-342.0,-270.0,-10969.0,-2128.0,185.0,1794.0,163.393433251823,301.070248864592,420.359231164675,326861200
-31,-198.0,-119.0,-10967.0,-2129.0,182.0,1790.0,168.980594258187,301.084235135947,420.385802817205,326878716
-59,-132.0,-53.0,-10967.0,-2129.0,182.0,1790.0,172.621708439651,301.096982255855,420.412205631026,326886868
4,-153.0,-134.0,-10965.0,-2129.0,179.0,1787.0,177.915182153503,301.096241244665,420.455158125648,326899078
-68,-169.0,-36.0,-10964.0,-2128.0,178.0,1785.0,182.965181803475,301.074584040636,420.473518268203,326907947
-67,-174.0,-29.0,-10964.0,-2128.0,178.0,1785.0,187.734238026647,301.057106536376,420.495605520323,326916901
-17,-104.0,-11.0,-10961.0,-2128.0,175.0,1780.0,192.206186811891,301.006661948148,420.50955651989,326933925
-17,-104.0,-11.0,-10961.0,-2129.0,175.0,1778.0,196.349615254654,300.977328441849,420.522613211307,326940326
-59,-108.0,-42.0,-10961.0,-2130.0,174.0,1774.0,201.331789199489,300.909507072098,420.525484198775,326959111
-37,-148.0,-29.0,-10960.0,-2131.0,173.0,1773.0,204.654129398535,300.851277878571,420.501894120334,326968462
-15,-141.0,-44.0,-10960.0,-2131.0,173.0,1773.0,206.6658480121,300.783607375058,420.509389425947,326977493
28,-120.0,-25.0,-10959.0,-2132.0,172.0,1769.0,209.372746878285,300.710639674927,420.492440495731,326991768
3,-152.0,-19.0,-10959.0,-2132.0,172.0,1769.0,211.697347993081,300.625470960887,420.461828227151,326998002
-8,-144.0,-39.0,-10958.0,-2134.0,171.0,1765.0,214.193331100626,300.537707032816,420.387550236864,327012677
63,-137.0,-42.0,-10969.0,-2111.0,179.0,1784.0,215.611574350293,300.438479593669,420.321001118831,327023089
55,-111.0,-58.0,-10974.0,-2086.0,183.0,1806.0,217.236641325819,300.232005088173,420.27189799861,327050467
-93,-144.0,26.0,-10974.0,-2087.0,183.0,1803.0,218.003195837936,300.034672785435,420.252515871074,327058420
-121,-103.0,55.0,-10974.0,-2088.0,183.0,1802.0,218.825795099063,299.688024918008,420.178670992975,327068405
-66,-131.0,60.0,-10973.0,-2089.0,182.0,1801.0,220.217437789318,298.863226796303,420.142727365048,327089184
61,-117.0,-58.0,-10973.0,-2090.0,182.0,1799.0,221.604147926632,298.248684866255,420.13596614516,327095512
25,-101.0,-76.0,-10973.0,-2092.0,182.0,1796.0,223.359359949091,297.068484755274,420.105433309654,327110003
-85,-49.0,48.0,-10972.0,-2094.0,181.0,1794.0,225.504740978776,295.54942370137,420.072494635408,327118714
48,-128.0,-57.0,-10972.0,-2094.0,181.0,1794.0,227.16265674189,293.655614298119,420.07131428239,327127320
-54,-33.0,53.0,-10972.0,-2097.0,181.0,1790.0,230.006057944091,292.176623401479,420.059765165397,327142126
-52,-49.0,27.0,-10972.0,-2097.0,180.0,1788.0,233.300845862366,289.603908864408,420.042431959904,327151983
-18,-92.0,-16.0,-10971.0,-2100.0,180.0,1788.0,237.051825915429,286.585451884536,420.021862928977,327160104
-34,-65.0,0.0,-10971.0,-2102.0,180.0,1784.0,241.237568444732,281.850707432036,420.017092147785,327178896
49,-131.0,-38.0,-10971.0,-2103.0,180.0,1782.0,247.307812357328,276.438896449873,420.014402537626,327192788
-104,-10.0,56.0,-10970.0,-2105.0,179.0,1781.0,252.093109473424,273.525816216434,420.01845201328,327206642
88,-112.0,-65.0,-10970.0,-2107.0,179.0,1778.0,256.990365158682,268.942936443979,420.020982726492,327219922
94,-113.0,-76.0,-10969.0,-2110.0,179.0,1778.0,261.93722670146,264.136278129328,420.016436208497,327228739
103,-85.0,-82.0,-10969.0,-2111.0,179.0,1775.0,268.548083042401,255.69760161443,420.007512769811,327242680
-130,-85.0,109.0,-10969.0,-2113.0,179.0,1775.0,273.478129794053,252.187999671233,420.005593276892,327255951
-134,13.0,90.0,-10969.0,-2113.0,178.0,1772.0,276.739006835541,246.795375971235,420.005414670881,327264814
81,-120.0,-82.0,-10968.0,-2116.0,178.0,1771.0,281.57756564191,241.255989756985,420.010481492448,327273415
-127,42.0,65.0,-10968.0,-2116.0,178.0,1768.0,286.337387713656,235.593118050787,420.006566989809,327284136
-71,52.0,52.0,-10968.0,-2118.0,177.0,1768.0,291.008682835669,229.809666483372,420.00365070922,327296726
25,-139.0,-32.0,-10967.0,-2121.0,177.0,1765.0,295.582960859434,223.914486717336,420.003354367261,327311395
-38,15.0,28.0,-10967.0,-2122.0,177.0,1763.0,301.514258426827,217.911909979857,420.005872832262,327320117
-45,-20.0,5.0,-10967.0,-2123.0,176.0,1761.0,305.835056006834,211.806903122995,420.002503015645,327336439
33,-119.0,-22.0,-10967.0,-2125.0,176.0,1760.0,308.65024366757,205.607015287856,420.001841179282,327347199
-87,49.0,40.0,-10966.0,-2125.0,176.0,1757.0,312.771941563728,201.425991404842,420.000427310975,327355968
80,-150.0,-50.0,-10966.0,-2128.0,176.0,1757.0,315.451710237587,195.076550947013,420.001605448418,327364267
104,-176.0,-64.0,-10966.0,-2128.0,176.0,1755.0,319.365315040675,190.798884445458,420.002245962143,327372392
-142,78.0,73.0,-10965.0,-2131.0,175.0,1754.0,321.905069870128,184.31330653696,420.00078393676,327388269
110,-167.0,-74.0,-10965.0,-2131.0,175.0,1752.0,325.608065732744,179.942347293336,419.996240390685,327394543
110,-167.0,-74.0,-10965.0,-2132.0,175.0,1751.0,328.002912557897,175.540104684848,419.999011677756,327400777
-146,51.0,81.0,-10965.0,-2134.0,175.0,1749.0,330.33758054782,168.877811073108,419.998170272821,327411711
-154,46.0,83.0,-10965.0,-2135.0,175.0,1747.0,333.727043345922,164.397007495591,419.998572453759,327420427
-132,44.0,71.0,-10965.0,-2136.0,175.0,1746.0,336.982149855754,157.617042483477,419.999746087994,327436844
82,-96.0,-57.0,-10965.0,-2137.0,175.0,1744.0,339.076275526245,150.772068293494,419.998520030948,327443100
41,-89.0,-42.0,-10965.0,-2140.0,175.0,1743.0,342.102847976574,146.170726056853,419.998913445431,327456523
-63,44.0,20.0,-10965.0,-2139.0,175.0,1741.0,344.989516711573,139.21993334322,420.000513239142,327465160
14,-64.0,-29.0,-10965.0,-2142.0,175.0,1740.0,346.835771490365,132.214450685692,420.000633461585,327477586
-16,26.0,8.0,-10965.0,-2142.0,175.0,1738.0,350.337364480741,125.155571562627,420.000045569132,327485794
21,-4.0,-12.0,-10964.0,-2146.0,175.0,1736.0,352.796665933766,115.666365884028,420.000257572768,327501247
-131,178.0,27.0,-10965.0,-2150.0,175.0,1732.0,359.307266238624,96.4284088245417,420.001077146942,327535954
-147,176.0,27.0,-10965.0,-2151.0,175.0,1729.0,361.777506164814,86.7018003016884,420.001846449272,327554643
111,-246.0,-35.0,-10965.0,-2154.0,176.0,1728.0,363.457211351341,79.3681410654642,419.999831411632,327562846
111,-246.0,-35.0,-10966.0,-2154.0,176.0,1726.0,364.987835155951,72.0008601864614,419.999223840732,327571266
-124,169.0,15.0,-10967.0,-2156.0,177.0,1726.0,366.369064328971,64.6032157279714,420.001592935703,327588232
70,-139.0,-20.0,-10967.0,-2157.0,177.0,1723.0,367.207476717491,57.1776416827729,420.000530764188,327594497
70,-139.0,-20.0,-10968.0,-2158.0,178.0,1722.0,368.340005666771,52.2109797916111,419.998920054987,327600815
-61,25.0,-9.0,-10969.0,-2161.0,179.0,1719.0,369.32003795041,44.7494304249086,419.999285028376,327620723
15,27.0,-18.0,-10970.0,-2161.0,180.0,1719.0,369.89044457403,37.2721876119107,420.001573257621,327629339
-33,3.0,-10.0,-10970.0,-2161.0,180.0,1719.0,370.828096793312,29.7763238971107,420.001522985654,327637180
-55,35.0,-19.0,-10971.0,-2165.0,182.0,1717.0,371.195678428941,22.2681024143747,419.998930971204,327652812
-55,35.0,-19.0,-10973.0,-2164.0,182.0,1715.0,371.7288267415,14.7519108007071,420.000784277546,327661231
38,-44.0,-27.0,-10973.0,-2167.0,183.0,1715.0,371.893936832486,7.22747835745556,420.001887958516,327669910
-79,67.0,-30.0,-10974.0,-2167.0,184.0,1712.0,372.015290282152,-0.297374496558144,420.000865143453,327682577
78,-119.0,-24.0,-10975.0,-2168.0,185.0,1712.0,371.983656084642,-7.82375320795799,419.999518864066,327698420
-118,162.0,-47.0,-10976.0,-2169.0,186.0,1710.0,371.704923170624,-15.3485591814284,419.998961564361,327707102
79,-210.0,19.0,-10977.0,-2170.0,187.0,1709.0,371.318154030392,-25.3672757028115,420.000126434884,327723699
-112,257.0,-67.0,-10978.0,-2172.0,188.0,1707.0,370.566158964326,-32.8697689921722,419.999357132077,327739352
62,-192.0,20.0,-10980.0,-2172.0,189.0,1704.0,370.089927168086,-40.3575281687774,420.002191744457,327751437
-92,192.0,-70.0,-10981.0,-2175.0,191.0,1704.0,369.24806754253,-47.8319039433679,420.000471729785,327760066
-67,143.0,-59.0,-10981.0,-2175.0,191.0,1704.0,368.254767374926,-52.8045446185216,419.998871936595,327768948
17,-69.0,4.0,-10982.0,-2175.0,192.0,1702.0,367.11119691333,-60.2426290298916,420.000633461633,327778572
-41,64.0,-56.0,-10984.0,-2177.0,193.0,1700.0,365.817325316945,-70.1234286307453,420.002121793938,327792935
-34,151.0,-116.0,-10985.0,-2178.0,194.0,1699.0,364.37445366424,-75.0435746362527,419.999610645392,327805879
-34,151.0,-116.0,-10985.0,-2178.0,194.0,1699.0,363.328484039115,-84.8432996807918,419.999479507423,327805879
-49,253.0,-203.0,-10993.0,-2166.0,196.0,1679.0,361.039929479514,-89.7215568576193,419.999398641474,327832935
40,203.0,-221.0,-10993.0,-2166.0,196.0,1679.0,359.151110037718,-97.0058336286867,420.001859518624,327839885
50,251.0,-226.0,-11000.0,-2145.0,196.0,1658.0,357.810462662051,-104.252370561464,419.999813886786,327852360
3,254.0,-229.0,-11004.0,-2127.0,195.0,1646.0,355.676226463447,-109.060436898176,419.999621561004,327859960
-157,160.0,-211.0,-11004.0,-2127.0,195.0,1646.0,354.173775574513,-116.232712733798,420.002001572156,327868564
-178,146.0,-306.0,-11009.0,-2107.0,193.0,1626.0,351.797855627051,-120.989637728135,420.000897890559,327877293
-102,367.0,-193.0,-11013.0,-2082.0,189.0,1601.0,350.133788457032,-128.080048053988,420.001059622348,327888348
184,99.0,-297.0,-11022.0,-2019.0,179.0,1539.0,347.519694469937,-135.117967934762,420.002193897711,327900924
94,293.0,-448.0,-11022.0,-2019.0,179.0,1539.0,344.762789236946,-142.10369806508,420.001282542009,327908049
-187,134.0,-132.0,-11037.0,-1935.0,169.0,1464.0,341.864063787061,-146.727422803926,419.999875074437,327924288
-187,134.0,-132.0,-11043.0,-1887.0,162.0,1423.0,338.825983950721,-153.612728681463,420.000209453842,327932368
-37,218.0,-242.0,-11043.0,-1887.0,162.0,1423.0,336.722954483645,-160.437600018848,420.00120167621,327939386
101,88.0,-251.0,-11056.0,-1782.0,146.0,1325.0,333.454377924214,-164.949375839653,419.999632476434,327955306
101,88.0,-251.0,-11062.0,-1718.0,137.0,1268.0,331.19984856481,-171.658298107926,420.001536055226,327963054
-85,-187.0,185.0,-11071.0,-1649.0,128.0,1206.0,327.704567469035,-178.303146833053,420.001627836015,327971417
-160,154.0,-119.0,-11080.0,-1574.0,120.0,1138.0,324.074788088736,-182.690241058481,420.000432373365,327980020
159,-313.0,195.0,-11087.0,-1494.0,110.0,1064.0,321.580916858582,-189.207996163362,420.000736159099,327994453
-93,129.0,38.0,-11104.0,-1320.0,91.0,902.0,316.418546624609,-197.779500035092,420.000543833021,328011996
107,-94.0,-59.0,-11112.0,-1221.0,82.0,816.0,312.396701573456,-204.112118099671,420.002062759706,328020566
18,-106.0,37.0,-11112.0,-1221.0,82.0,816.0,308.245949909871,-208.289589540325,420.001181997784,328028888
55,-276.0,50.0,-11128.0,-1016.0,66.0,630.0,303.968957314615,-214.482806093059,420.000594105258,328043053
24,44.0,-235.0,-11135.0,-909.0,59.0,530.0,301.04846356897,-220.586788053537,419.999743936232,328055933
20,-114.0,114.0,-11140.0,-798.0,52.0,429.0,296.565852615647,-228.587822150861,420.000878212259,328063751
-242,157.0,-26.0,-11148.0,-579.0,41.0,229.0,290.399787862372,-232.525221707357,420.001374323095,328086065
-242,157.0,-26.0,-11151.0,-463.0,38.0,127.0,285.636448289499,-238.352481123067,419.999997449578,328092350
186,-291.0,-43.0,-11151.0,-463.0,38.0,127.0,280.756050178219,-244.081862688058,419.999785445306,328098641
-283,250.0,-96.0,-11155.0,-235.0,34.0,-86.0,274.071413446712,-253.407813624337,420.000250962791,328112574
356,-346.0,-68.0,-11155.0,-118.0,34.0,-190.0,267.194005791159,-258.857733073959,419.999785445306,328129711
217,-287.0,14.0,-11153.0,117.0,37.0,-402.0,261.992902368307,-265.815782037121,420.001726068197,328146813
57,-293.0,135.0,-11145.0,350.0,44.0,-615.0,255.161506049883,-272.23706619759,420.028205257724,328160763
-79,-351.0,227.0,-11141.0,469.0,50.0,-723.0,248.539053572091,-276.622021740125,420.030359551409,328177905
82,396.0,-471.0,-11134.0,589.0,56.0,-831.0,245.326455328883,-280.597628476813,420.036442546553,328186110
-107,373.0,-392.0,-11129.0,704.0,65.0,-936.0,240.648406834542,-284.159791517686,420.033865640563,328198721
131,-434.0,50.0,-11119.0,825.0,72.0,-1044.0,236.153533746536,-286.301014281951,420.071904936329,328209302
-186,338.0,-173.0,-11110.0,942.0,83.0,-1151.0,233.271936686269,-289.171910661264,420.080989138496,328217806
20,-245.0,-9.0,-11099.0,1061.0,93.0,-1258.0,229.136100707364,-291.637791291423,420.06410158389,328225776
-228,190.0,-83.0,-11087.0,1176.0,105.0,-1366.0,225.230839431736,-293.039783190306,420.080181890009,328240384
-6,-136.0,-25.0,-11077.0,1296.0,120.0,-1472.0,222.770507081813,-294.800323368327,420.102378938509,328246686
-6,-136.0,-25.0,-11061.0,1416.0,133.0,-1582.0,219.290584547928,-295.740108022983,420.146338884428,328252928
-196,-138.0,186.0,-11031.0,1651.0,165.0,-1792.0,217.097473403021,-296.863750136597,420.156545123889,328272732
95,-326.0,-22.0,-11015.0,1766.0,184.0,-1898.0,213.900215662556,-297.448373615161,420.186644047474,328281621
9,101.0,-156.0,-11015.0,1766.0,184.0,-1898.0,210.730893089625,-298.165186515502,420.239097734095,328289899
-130,29.0,30.0,-10997.0,1887.0,203.0,-2005.0,207.514337860353,-298.712549172611,420.22119742128,328296281
-37,-54.0,-195.0,-10958.0,2120.0,245.0,-2218.0,205.311662594403,-299.133945318131,420.279812937567,328310122
74,-13.0,-120.0,-10958.0,2120.0,245.0,-2218.0,201.899601121036,-299.367333011872,420.319248754151,328318750
-26,46.0,-29.0,-10937.0,2237.0,11.0,-2323.0,198.315803475828,-299.659773272134,420.335088583411,328327256
-24,-109.0,25.0,-10892.0,2473.0,60.0,-2535.0,194.548468140949,-299.882767651443,420.354062263076,328344014
-1,172.0,-266.0,-10868.0,2588.0,86.0,-2640.0,190.57670758845,-300.067785550912,420.347119201736,328356794
9,-118.0,34.0,-10842.0,2704.0,113.0,-2744.0,187.816229929903,-300.169835425832,420.382185342599,328364455
9,-118.0,34.0,-10818.0,2818.0,142.0,-2849.0,183.567116639274,-300.298341982156,420.404164277961,328372720
49,110.0,-131.0,-10790.0,2937.0,172.0,-2955.0,180.669472900008,-300.408725136129,420.407991351041,328381528
-122,145.0,-254.0,-10762.0,3053.0,203.0,-3059.0,174.743778929843,-300.499680643986,420.41682620202,328398999
33,-212.0,0.0,-10731.0,3167.0,233.0,-3162.0,170.231945864783,-300.563558933024,420.383693253259,328405511
126,91.0,-101.0,-10668.0,3394.0,42.0,-3369.0,165.670416042797,-300.61426749823,420.372580026489,328421851
109,-18.0,-89.0,-10668.0,3394.0,42.0,-3369.0,161.072463901586,-300.643320526918,420.365486422623,328430307
-74,101.0,-201.0,-10604.0,3628.0,116.0,-3575.0,157.986222716125,-300.675860805356,420.376813837143,328444193
-213,-11.0,-113.0,-10604.0,3628.0,116.0,-3575.0,153.337797563869,-300.688869334855,420.336843836502,328450427
-68,-19.0,-175.0,-10534.0,3851.0,190.0,-3777.0,148.67137928857,-300.701723483047,420.310709383118,328461387
77,88.0,-78.0,-10496.0,3963.0,228.0,-3881.0,143.998650022359,-300.702119178286,420.326125487118,328478608
26,5.0,-85.0,-10456.0,4077.0,12.0,-3984.0,139.318120263449,-300.702315290062,420.30085285391,328486571
-23,-8.0,-121.0,-10419.0,4189.0,54.0,-4085.0,134.627739114607,-300.699802695404,420.274822343474,328499226
-70,-113.0,-39.0,-10339.0,4410.0,140.0,-4283.0,129.927399199931,-300.698514054373,420.263890465152,328513251
57,-49.0,-16.0,-10295.0,4521.0,184.0,-4385.0,123.656234019635,-300.694830632462,420.237715563287,328524405
76,44.0,-76.0,-10253.0,4632.0,230.0,-4485.0,120.526894542928,-300.685109875012,420.242778935565,328539970
-28,-160.0,-65.0,-10168.0,4850.0,70.0,-4678.0,114.258088356098,-300.671195472809,420.199302436271,328552510
-45,-112.0,-56.0,-10122.0,4960.0,119.0,-4775.0,109.545981417961,-300.662353247201,420.188106029312,328568105
35,113.0,-115.0,-10073.0,5069.0,168.0,-4875.0,103.271824556465,-300.659472244464,420.177749628752,328576311
147,-111.0,-15.0,-10024.0,5177.0,218.0,-4974.0,100.135144388508,-300.649720474457,420.174718066338,328586696
-47,145.0,-126.0,-9976.0,5285.0,14.0,-5068.0,95.4327004571563,-300.644366800809,420.139122182828,328599942
-81,114.0,-119.0,-9876.0,5502.0,123.0,-5258.0,89.1599203509039,-300.634977047732,420.125276691962,328614263
-81,114.0,-119.0,-9824.0,5609.0,178.0,-5353.0,84.4545673387549,-300.627009344187,420.111314691897,328622787
-59,123.0,-195.0,-9771.0,5713.0,233.0,-5448.0,81.3192035493204,-300.618696864584,420.114101670128,328638697
-43,-45.0,-28.0,-9718.0,5814.0,33.0,-5542.0,75.0421019811462,-300.61241552867,420.100213346624,328648204
80,26.0,16.0,-9608.0,6025.0,151.0,-5729.0,68.7758564178901,-300.61208550991,420.068425659368,328662786
21,17.0,-19.0,-9551.0,6130.0,212.0,-5821.0,65.6432433087859,-300.60522455663,420.077047001705,328671490
-125,-58.0,-210.0,-9495.0,6230.0,17.0,-5913.0,60.9391604923601,-300.600324232757,420.082585256997,328688351
35,158.0,-12.0,-9436.0,6331.0,78.0,-6004.0,53.0993484713737,-300.594809500624,420.065752520686,328701233
67,55.0,24.0,-9315.0,6533.0,204.0,-6186.0,49.9675431538956,-300.598366118541,420.03441809365,328712615
78,-49.0,-97.0,-9256.0,6636.0,15.0,-6273.0,45.2693768562956,-300.588322575371,420.056648064651,328721215
-147,184.0,-120.0,-9193.0,6735.0,81.0,-6363.0,40.5645340330564,-300.586187787777,420.06353442156,328737158
-147,184.0,-120.0,-9130.0,6832.0,148.0,-6453.0,35.8675276923049,-300.587339567026,420.035204681088,328743369
63,4.0,-48.0,-9065.0,6931.0,214.0,-6541.0,32.7341939632344,-300.587615482981,420.01759802329,328756020
63,4.0,-48.0,-9000.0,7027.0,26.0,-6627.0,28.0338987619534,-300.581964823264,420.00960921396,328763788
-27,0.0,-49.0,-8936.0,7123.0,96.0,-6713.0,24.8989459085139,-300.578700186973,420.017107179015,328774985
-27,0.0,-49.0,-8869.0,7222.0,168.0,-6799.0,20.1997149086432,-300.580105635456,420.022644402878,328783475
75,-74.0,-86.0,-8802.0,7317.0,241.0,-6886.0,13.9381397703231,-300.581410161643,420.008733126714,328796753
-101,227.0,-74.0,-8665.0,7501.0,127.0,-7054.0,10.8036498457983,-300.578622863526,419.987264039443,328811053
92,-138.0,13.0,-8665.0,7501.0,127.0,-7054.0,6.10387174958561,-300.575788107,419.986188040115,328819655
37,173.0,-95.0,-8594.0,7596.0,202.0,-7138.0,1.40676225489298,-300.572661621462,420.004801209368,328828020
-134,91.0,21.0,-8453.0,7780.0,99.0,-7303.0,-1.72530619458697,-300.564352759647,420.001323459296,328844694
94,6.0,-178.0,-8453.0,7780.0,99.0,-7303.0,-7.9898395491576,-300.545324796513,419.962855902442,328850909
264,-273.0,-133.0,-8308.0,7961.0,254.0,-7464.0,-11.1215071122628,-300.550495438644,419.941099955971,328865097
264,-273.0,-133.0,-8234.0,8050.0,77.0,-7545.0,-15.8206252238068,-300.568669305946,419.956808177538,328873481
236,-259.0,-74.0,-8159.0,8138.0,154.0,-7622.0,-20.5198213089102,-300.570223248868,419.969989716274,328889825
67,-180.0,-131.0,-8085.0,8225.0,236.0,-7701.0,-25.2168910310663,-300.572386512982,419.973262403582,328899268
-137,168.0,-32.0,-8007.0,8314.0,61.0,-7779.0,-29.9156403057593,-300.57111160828,419.974089482992,328905912
-54,-31.0,-36.0,-7856.0,8479.0,223.0,-7930.0,-34.613293703885,-300.579388380472,419.998106052846,328922338
-295,674.0,50.0,-7709.0,8638.0,124.0,-8069.0,-45.5762382895417,-300.575705476894,420.009670297481,328951198
-295,674.0,50.0,-7709.0,8638.0,124.0,-8069.0,-50.2759444232049,-300.576851236513,420.002601791389,328951198
-213,255.0,95.0,-7571.0,8779.0,15.0,-8197.0,-53.4104575161056,-300.580325406039,420.009803077777,328970045
-279,513.0,222.0,-7442.0,8907.0,152.0,-8311.0,-59.6740684665635,-300.579719527017,420.013498853027,328986755
-279,513.0,222.0,-7383.0,8965.0,215.0,-8362.0,-64.3737930503782,-300.58568341511,420.011564675032,328993205
-29,210.0,-42.0,-7328.0,9019.0,20.0,-8410.0,-69.0754235588538,-300.584575118974,420.00261457324,329006084
-29,210.0,-42.0,-7274.0,9071.0,78.0,-8455.0,-72.2064838095593,-300.585680393691,420.025961990828,329013937
60,231.0,-21.0,-7223.0,9118.0,130.0,-8496.0,-76.9062244050372,-300.583853555434,420.040186864493,329022484
213,181.0,-86.0,-7178.0,9159.0,178.0,-8534.0,-81.6104997409799,-300.590156320081,420.031782125568,329041670
367,50.0,-103.0,-7136.0,9197.0,223.0,-8570.0,-86.315049961056,-300.600564284484,420.021709273733,329047954
-438,605.0,248.0,-7063.0,9264.0,45.0,-8628.0,-89.4414848683079,-300.601571194275,420.048748641954,329061559
336,64.0,-149.0,-7063.0,9264.0,45.0,-8628.0,-94.1442575530041,-300.60051238312,420.075352736616,329070052
-372,358.0,224.0,-7031.0,9295.0,79.0,-8651.0,-98.8541081266256,-300.604608781428,420.073416831792,329078679
142,-4.0,160.0,-7006.0,9317.0,107.0,-8672.0,-101.986069412517,-300.609681464848,420.071378497612,329086602
-246,622.0,80.0,-6964.0,9354.0,153.0,-8705.0,-108.256321054091,-300.615576419269,420.086861270317,329102724
55,482.0,-29.0,-6949.0,9370.0,170.0,-8714.0,-112.953313733074,-300.620719725186,420.088058685006,329119067
-162,221.0,-104.0,-6939.0,9382.0,183.0,-8721.0,-117.66364203153,-300.625549450427,420.108483877393,329127030
-389,7.0,32.0,-6931.0,9392.0,193.0,-8725.0,-123.943549711806,-300.632869905115,420.131620538761,329141897
-316,140.0,140.0,-6917.0,9406.0,209.0,-8735.0,-127.080067102215,-300.645953581502,420.125215462091,329157993
-320,120.0,32.0,-6913.0,9412.0,215.0,-8737.0,-133.352987062963,-300.656555242338,420.143923735296,329165611
-341,13.0,-24.0,-6906.0,9420.0,225.0,-8742.0,-138.061280013526,-300.662235097499,420.165217786716,329182556
-432,100.0,-65.0,-6906.0,9420.0,225.0,-8742.0,-142.775066093241,-300.670240761533,420.187820076317,329189981
-266,17.0,-24.0,-6903.0,9423.0,228.0,-8744.0,-147.484656652821,-300.682758243291,420.16871408394,329202534
-409,20.0,0.0,-6901.0,9425.0,230.0,-8745.0,-150.630842018036,-300.697894475707,420.220952141918,329210236
-317,-99.0,-13.0,-6898.0,9428.0,233.0,-8748.0,-155.338205847351,-300.718615946263,420.225652807782,329223346
-418,79.0,19.0,-6897.0,9428.0,235.0,-8750.0,-160.058866455114,-300.724800372818,420.233205597495,329231801
-417,185.0,-28.0,-6895.0,9429.0,237.0,-8751.0,-164.774858571558,-300.746109832644,420.274729582064,329245683
-346,116.0,14.0,-6895.0,9429.0,237.0,-8751.0,-167.903508522898,-300.758363843463,420.286775973684,329251979
-353,-163.0,-13.0,-6894.0,9428.0,236.0,-8753.0,-172.528373331707,-300.770702023838,420.282591067959,329267358
-322,-7.0,-35.0,-6892.0,9427.0,236.0,-8755.0,-175.544053490661,-300.772506758269,420.297940748522,329275542
-116,183.0,27.0,-6890.0,9425.0,235.0,-8759.0,-181.35963041222,-300.760872833565,418.301314897462,329293680
-213,112.0,10.0,-6889.0,9424.0,234.0,-8760.0,-185.503338894476,-300.743349828801,420.348121905866,329301996
2,32.0,-117.0,-6887.0,9422.0,233.0,-8762.0,-190.710262435338,-300.720378738494,420.355928123147,329320402
-22,5.0,12.0,-6886.0,9421.0,232.0,-8763.0,-194.34862095863,-300.695270981962,420.371595490954,329328960
-42,-26.0,65.0,-6885.0,9420.0,231.0,-8764.0,-197.746547577943,-300.665442930081,420.383562735591,329336810
-150,130.0,-61.0,-6885.0,9420.0,232.0,-8764.0,-200.906171911843,-300.630796329715,420.381451318108,329355533
-150,130.0,-61.0,-6884.0,9420.0,232.0,-8765.0,-202.867904283469,-300.593078109903,420.369212693842,329363975
-69,15.0,-35.0,-6883.0,9419.0,231.0,-8766.0,-205.598952452582,-300.552609727218,420.352833683138,329372829
24,120.0,-53.0,-6882.0,9418.0,230.0,-8767.0,-208.071757092755,-300.506757635119,420.35632749131,329381788
-75,147.0,28.0,-6882.0,9418.0,230.0,-8767.0,-210.280629152145,-300.477207405629,420.352777091018,329396585
-75,147.0,28.0,-6883.0,9420.0,231.0,-8766.0,-212.222154592386,-300.426409937894,420.30384173864,329404850
-146,-42.0,0.0,-6883.0,9420.0,231.0,-8766.0,-213.368812125387,-300.387625266282,420.303763435559,329413614
-231,55.0,-75.0,-6882.0,9419.0,231.0,-8768.0,-214.389872594705,-300.338931343773,420.268747644162,329423103
-29,77.0,-111.0,-6881.0,9417.0,230.0,-8769.0,-216.078412627453,-300.277899669353,420.22657254219,329435409
-253,29.0,197.0,-6882.0,9418.0,229.0,-8767.0,-217.028407387532,-300.218533242491,420.200681844733,329448655
102,-201.0,-319.0,-6880.0,9421.0,231.0,-8766.0,-217.756411330083,-300.161316686315,420.071743814721,329462675
-230,83.0,233.0,-6880.0,9421.0,231.0,-8766.0,-218.290215603368,-300.128872321984,419.923724296801,329471465
321,-302.0,-161.0,-6881.0,9418.0,231.0,-8770.0,-218.562982721391,-300.101035241005,419.267495909721,329480352
-193,130.0,169.0,-6881.0,9417.0,229.0,-8768.0,-219.027809912883,-300.11071837654,418.319396173759,329497834
-193,130.0,169.0,-6880.0,9417.0,229.0,-8770.0,-219.291132527836,-300.130728062947,417.061260436884,329504045
70,-195.0,59.0,-6879.0,9420.0,230.0,-8768.0,-219.50605863686,-300.183999234354,415.396222287246,329521090
7,127.0,-116.0,-6880.0,9418.0,230.0,-8770.0,-219.757276714175,-300.250208728502,413.284053997375,329529771
-141,220.0,-60.0,-6880.0,9417.0,228.0,-8769.0,-219.865241244158,-300.326049181919,410.746532620819,329545063
-167,-87.0,274.0,-6880.0,9417.0,228.0,-8769.0,-220.004723160738,-300.390094155813,407.740418633169,329556116
-167,-87.0,274.0,-6880.0,9419.0,230.0,-8769.0,-220.144841985891,-300.48571143814,404.23492360627,329564510
186,110.0,-296.0,-6880.0,9419.0,230.0,-8768.0,-220.23192905327,-300.589751414467,401.631276770156,329573062
-236,138.0,102.0,-6880.0,9419.0,230.0,-8768.0,-220.357810808653,-300.661253835697,397.280938932392,329581766
55,-107.0,-193.0,-6880.0,9418.0,230.0,-8770.0,-220.469268741081,-300.773260203821,394.125286294193,329595880
-11,248.0,68.0,-6879.0,9418.0,229.0,-8769.0,-220.532166696668,-300.878339477499,387.216126609755,329608784
-11,248.0,68.0,-6879.0,9418.0,229.0,-8769.0,-220.622014755598,-300.965452448342,383.506278273645,329608784
-22,3.0,-120.0,-6877.0,9417.0,229.0,-8771.0,-220.69283093736,-301.027220220813,377.791309964575,329635954
-22,3.0,-120.0,-6878.0,9417.0,228.0,-8770.0,-220.758834319337,-301.0777330947,369.859832616882,329643504
143,-173.0,-249.0,-6878.0,9417.0,228.0,-8770.0,-220.787699819599,-301.107515373835,365.789175999445,329651846
138,-282.0,-360.0,-6878.0,9417.0,227.0,-8770.0,-220.806682539723,-301.127111101453,357.484113505105,329668899
-32,367.0,57.0,-6878.0,9418.0,228.0,-8769.0,-220.813074556062,-301.128897667922,349.099141434016,329677002
-118,206.0,177.0,-6878.0,9418.0,228.0,-8769.0,-220.811680860792,-301.113522780401,342.700773342083,329692728
-16,-196.0,-237.0,-6879.0,9418.0,228.0,-8768.0,-220.80250098192,-301.097684183671,336.233320739675,329704646
-94,348.0,290.0,-6878.0,9418.0,227.0,-8769.0,-220.7911551348,-301.079185865272,329.741469669809,329722007
-39,-17.0,-121.0,-6878.0,9418.0,227.0,-8768.0,-220.77770158258,-301.055534733427,323.245930895228,329730582
69,-380.0,-453.0,-6878.0,9418.0,227.0,-8769.0,-220.762148963753,-301.037362373584,318.879713472511,329738514
-174,515.0,473.0,-6877.0,9417.0,226.0,-8770.0,-220.756344089989,-301.01599017568,312.365909453651,329754115
30,280.0,200.0,-6877.0,9416.0,226.0,-8771.0,-220.732900392263,-300.994956821065,305.794423506025,329762882
184,-157.0,12.0,-6875.0,9416.0,225.0,-8771.0,-220.720767609084,-300.956248501944,301.378610409739,329775199
161,-23.0,-261.0,-6877.0,9414.0,225.0,-8771.0,-220.70412462385,-300.950927771277,294.866758467993,329783904
245,214.0,52.0,-6877.0,9414.0,225.0,-8771.0,-220.680693161838,-300.925782831321,288.300319186381,329791389
50,452.0,364.0,-6877.0,9415.0,225.0,-8771.0,-220.681118662564,-300.916027966671,283.936174091928,329803915
211,-137.0,220.0,-6877.0,9415.0,225.0,-8771.0,-220.660242828616,-300.884789640695,277.316615899727,329811316
362,-58.0,-502.0,-6875.0,9415.0,225.0,-8772.0,-220.643404871081,-300.86107390589,270.782094753638,329820023
106,482.0,344.0,-6875.0,9415.0,225.0,-8772.0,-220.636313948254,-300.845894836539,266.386991321231,329828322
447,-175.0,-474.0,-6876.0,9415.0,224.0,-8770.0,-220.609779938658,-300.824295823785,259.820379844236,329845958
222,3.0,234.0,-6875.0,9415.0,223.0,-8770.0,-220.617878497148,-300.814345771277,253.221141284724,329854405
320,139.0,-216.0,-6875.0,9414.0,225.0,-8773.0,-220.592654941976,-300.797357600913,248.861494015798,329863046
618,-74.0,-556.0,-6875.0,9414.0,225.0,-8773.0,-220.583814842694,-300.786118130924,242.275507471215,329871643
483,-136.0,-241.0,-6876.0,9414.0,224.0,-8772.0,-220.568108825019,-300.769488524095,235.691616652159,329888423
483,-136.0,-241.0,-6875.0,9416.0,223.0,-8770.0,-220.568837608063,-300.752350933566,226.928536178572,329894705
261,-93.0,-86.0,-6876.0,9416.0,225.0,-8769.0,-220.561508295495,-300.757464681907,222.588073557858,329911503
170,175.0,159.0,-6878.0,9417.0,223.0,-8766.0,-220.553939867804,-300.742932063387,213.817533115492,329928654
70,161.0,-139.0,-6882.0,9415.0,220.0,-8762.0,-220.536034759109,-300.724996183046,207.216080732426,329936649
-65,338.0,138.0,-6891.0,9411.0,214.0,-8754.0,-220.506622020933,-300.684888698636,200.618784264912,329949776
-65,338.0,138.0,-6903.0,9403.0,202.0,-8743.0,-220.496153013797,-300.670361197065,194.049306809553,329956084
135,188.0,-33.0,-6920.0,9387.0,185.0,-8732.0,-220.501605162034,-300.66580713749,189.653071190251,329966596
11,307.0,124.0,-6967.0,9346.0,134.0,-8695.0,-220.500270014573,-300.677738271571,183.089490579716,329983701
106,202.0,-37.0,-6967.0,9346.0,134.0,-8695.0,-220.507165573113,-300.686889286925,176.538739325779,329991222
-51,372.0,133.0,-6998.0,9320.0,102.0,-8670.0,-220.515195280158,-300.695317978138,172.170182187631,330003788
-64,404.0,136.0,-7034.0,9287.0,63.0,-8643.0,-220.524545489194,-300.704843227196,165.608092743175,330010652
108,360.0,52.0,-7075.0,9248.0,18.0,-8611.0,-220.531420244684,-300.720719045764,159.038540266772,330018576
-169,359.0,373.0,-7123.0,9207.0,225.0,-8571.0,-220.537844827659,-300.730739307464,152.475767760317,330029561
-90,144.0,10.0,-7174.0,9161.0,172.0,-8530.0,-220.540345950176,-300.734653738922,145.898903546236,330043953
-105,444.0,134.0,-7290.0,9049.0,44.0,-8434.0,-220.541084734691,-300.733393884748,141.517444067428,330056543
38,378.0,142.0,-7360.0,8984.0,228.0,-8374.0,-220.559396344374,-300.749022695257,134.953188442769,330063976
-110,216.0,17.0,-7360.0,8984.0,228.0,-8374.0,-220.556464934594,-300.760413126191,128.386675778242,330072433
28,538.0,-118.0,-7507.0,8839.0,71.0,-8246.0,-220.567511682873,-300.771193748779,121.863436781381,330092164
114,87.0,-199.0,-7590.0,8755.0,241.0,-8175.0,-220.5634536542,-300.76566012273,115.473603811807,330098456
78,221.0,-153.0,-7672.0,8669.0,153.0,-8101.0,-220.570256105018,-300.77745566333,109.371315253697,330111630
35,-148.0,-74.0,-7844.0,8486.0,228.0,-7940.0,-220.547563910983,-300.73775677538,103.611891504802,330127859
35,-148.0,-74.0,-7927.0,8393.0,136.0,-7857.0,-220.52860481255,-300.715949528159,96.499632075172,330135952
-81,504.0,165.0,-7927.0,8393.0,136.0,-7857.0,-220.50137619335,-300.683024807326,93.2089428346976,330142911
106,-36.0,-385.0,-8101.0,8195.0,208.0,-7685.0,-220.468205194801,-300.637055938329,88.6222950380194,330158884
-38,130.0,-3.0,-8273.0,7992.0,25.0,-7502.0,-220.436307782563,-300.578696586624,84.4832617066339,330175308
27,17.0,-312.0,-8359.0,7885.0,189.0,-7410.0,-220.3900453306,-300.534986619371,80.8073203698753,330183956
32,-10.0,-68.0,-8359.0,7885.0,189.0,-7410.0,-220.367837271823,-300.491906426139,78.6581978172188,330191487
29,216.0,-70.0,-8442.0,7780.0,98.0,-7314.0,-220.308756266082,-300.42111682924,76.6616699038074,330203817
-78,145.0,-69.0,-8611.0,7562.0,177.0,-7121.0,-220.301910161718,-300.389604139765,74.168836602833,330214971
33,181.0,-102.0,-8692.0,7451.0,89.0,-7023.0,-220.240123001732,-300.309276111422,72.1111145571495,330223593
135,103.0,-46.0,-8692.0,7451.0,89.0,-7023.0,-220.216342057984,-300.27859469817,70.5910806305747,330231863
55,65.0,-53.0,-8855.0,7227.0,174.0,-6821.0,-220.132561429802,-300.21832122161,69.3701379700725,330246370
110,175.0,-218.0,-8933.0,7111.0,89.0,-6721.0,-219.959107900545,-300.163022406413,68.4608895489113,330258858
110,175.0,-218.0,-9009.0,6996.0,6.0,-6620.0,-219.577705065461,-300.123581422394,67.9624161393788,330266532
101,-104.0,-167.0,-9087.0,6879.0,181.0,-6516.0,-219.201603950825,-300.123514974949,67.3733073802137,330277483
101,-104.0,-167.0,-9164.0,6762.0,101.0,-6407.0,-218.385403084775,-300.095904696621,66.8466176962569,330285928
75,133.0,-359.0,-9238.0,6643.0,22.0,-6304.0,-217.236583145583,-300.036454195236,66.4248883605995,330299193
235,87.0,-148.0,-9308.0,6522.0,199.0,-6200.0,-215.809386710505,-300.024105513017,66.1172761298326,330312298
-224,-36.0,136.0,-9455.0,6278.0,48.0,-5979.0,-214.046346383736,-300.015948729096,65.8758800505403,330328521
-268,376.0,53.0,-9523.0,6161.0,232.0,-5868.0,-211.950919542539,-300.013450180396,65.6666421465352,330339239
-268,376.0,53.0,-9589.0,6038.0,160.0,-5761.0,-209.489467968725,-300.000081955728,65.491117426918,330345869
187,-43.0,-367.0,-9656.0,5909.0,87.0,-5652.0,-206.691463555741,-300.058250961,65.434200400849,330358621
187,-43.0,-367.0,-9723.0,5782.0,18.0,-5537.0,-203.516448023621,-300.097186412176,65.2853857508214,330366414
-134,69.0,-15.0,-9849.0,5534.0,141.0,-5312.0,-199.951636336402,-300.108081060853,65.1650660879914,330383844
-47,111.0,-156.0,-9849.0,5534.0,141.0,-5312.0,-197.389330773663,-300.187919742158,65.1301344441337,330391471
-47,111.0,-156.0,-9849.0,5534.0,141.0,-5312.0,-193.206445274037,-300.241589460059,65.0642557733422,330391471
8,-158.0,-21.0,-10030.0,5147.0,206.0,-4965.0,-188.675711522059,-300.304129958951,65.0239293587866,330415403
-52,30.0,-14.0,-10086.0,5020.0,145.0,-4848.0,-185.502426074775,-300.376170909666,64.9638821203791,330423935
-85,37.0,-45.0,-10086.0,5020.0,145.0,-4848.0,-180.54454407909,-300.458766209546,64.9196364749731,330432064
-58,136.0,-173.0,-10196.0,4757.0,28.0,-4613.0,-175.443824711085,-300.535135098589,64.9023687417068,330446504
29,-32.0,-42.0,-10196.0,4757.0,28.0,-4613.0,-170.18114336675,-300.577175889504,64.8539961295569,330452768
9,-63.0,-31.0,-10301.0,4491.0,173.0,-4376.0,-164.862765425493,-300.657118107022,64.8629043035398,330466854
-25,48.0,-162.0,-10350.0,4359.0,119.0,-4256.0,-161.254109786179,-300.688327204211,64.8260929562058,330477759
-27,55.0,-88.0,-10398.0,4225.0,68.0,-4136.0,-153.966651684265,-300.745098017693,64.8380040378782,330493249
-34,25.0,37.0,-10491.0,3955.0,226.0,-3895.0,-148.450790799225,-300.777726165665,64.8154047448427,330505633
37,-119.0,-133.0,-10491.0,3955.0,226.0,-3895.0,-142.894938381086,-300.796457564589,64.8121635218184,330512689
3,-63.0,-130.0,-10536.0,3819.0,179.0,-3772.0,-137.325888958072,-300.824904220134,64.8205387918326,330521261
12,-34.0,-194.0,-10619.0,3550.0,90.0,-3527.0,-131.732419000319,-300.851372520477,64.8282994676001,330539350
-23,42.0,33.0,-10659.0,3412.0,48.0,-3403.0,-126.125940915257,-300.85194006062,64.8198163307144,330552162
-13,-73.0,-33.0,-10697.0,3272.0,7.0,-3277.0,-120.504031626535,-300.85574478465,64.844629365743,330558398
-55,52.0,-157.0,-10767.0,2997.0,185.0,-3032.0,-116.762374599296,-300.886155251109,64.8604619794403,330574986
-3,17.0,-191.0,-10800.0,2857.0,150.0,-2908.0,-109.250240418085,-300.856927313065,64.845123487713,330583780
71,6.0,-139.0,-10800.0,2857.0,150.0,-2908.0,-105.494719482801,-300.851772092459,64.8362072035787,330591539
-45,-56.0,-43.0,-10864.0,2578.0,83.0,-2652.0,-99.8550072130116,-300.882615643396,64.8824788405608,330607203
-78,33.0,-88.0,-10892.0,2440.0,52.0,-2527.0,-94.2319366316391,-300.886799537603,64.8778230647233,330615002
87,-82.0,-237.0,-10919.0,2299.0,22.0,-2402.0,-84.8203951183939,-300.845657300198,64.8744749020073,330632245
-58,14.0,43.0,-10973.0,2016.0,226.0,-2143.0,-81.0584746310819,-300.854495546196,64.8971902693189,330646961
-171,48.0,36.0,-10973.0,2016.0,226.0,-2143.0,-75.4173025088467,-300.865163503406,64.9164348518528,330653289
31,-51.0,-167.0,-11015.0,1734.0,178.0,-1891.0,-67.9075264674583,-300.833296499676,64.915904198658,330673045
54,-54.0,-28.0,-11035.0,1590.0,156.0,-1762.0,-62.2556534430865,-300.829528906309,64.9195989170059,330681797
93,-300.0,-249.0,-11071.0,1308.0,120.0,-1505.0,-54.7328092634567,-300.830802047913,64.9407710988125,330696185
-250,240.0,88.0,-11088.0,1166.0,105.0,-1373.0,-49.1053746696811,-300.828722949044,64.9451308236445,330709172
-250,240.0,88.0,-11100.0,1023.0,90.0,-1247.0,-45.3463792112643,-300.820443410507,64.9485752822278,330717004
44,63.0,-14.0,-11111.0,880.0,76.0,-1120.0,-39.7016979321869,-300.817714187881,64.9557775558175,330728130
44,63.0,-14.0,-11122.0,734.0,65.0,-992.0,-34.0600507683658,-300.813245890533,64.9544332570169,330736624
-15,73.0,-198.0,-11131.0,591.0,55.0,-860.0,-30.3081050871037,-300.816455062066,64.9616340881089,330750579
-191,136.0,-225.0,-11144.0,309.0,41.0,-601.0,-24.6783834288602,-300.811854364019,64.9639606816482,330764623
58,-57.0,-216.0,-11144.0,309.0,41.0,-601.0,-19.0375699669052,-300.809626719802,64.9689842423193,330773364
102,37.0,-205.0,-11152.0,19.0,34.0,-344.0,-13.39459378871,-300.814488951263,64.9802972992568,330789678
-274,219.0,-402.0,-11155.0,-122.0,34.0,-212.0,-7.76366223086298,-300.812639508542,64.9859536621962,330799500
-274,219.0,-402.0,-11153.0,-265.0,33.0,-81.0,-4.01012462702241,-300.816606333213,64.9910664067099,330805738
50,-174.0,12.0,-11153.0,-265.0,33.0,-81.0,1.6250336063691,-300.812845686991,64.9893177560261,330812925
80,138.0,-36.0,-11152.0,-409.0,36.0,44.0,5.38460331024102,-300.764291873036,64.9871016507041,330821497
130,-136.0,-309.0,-11143.0,-697.0,45.0,304.0,11.0210384800129,-300.748417831172,64.9857413295372,330837382
-228,311.0,11.0,-11143.0,-697.0,45.0,304.0,14.7705368066818,-300.748445086363,64.9842981595377,330844238
-246,19.0,453.0,-11139.0,-832.0,54.0,434.0,20.4022446328668,-300.752094178375,64.9817452168897,330850848
104,-158.0,10.0,-11121.0,-1103.0,70.0,672.0,26.0422903341707,-300.761890124107,64.9801005702143,330868723
104,-158.0,10.0,-11113.0,-1226.0,82.0,786.0,31.6763933845295,-300.768372759772,64.9791470515408,330877097
127,-375.0,-244.0,-11103.0,-1344.0,92.0,893.0,37.3053588213709,-300.766664162385,64.9837440379698,330885738
-301,468.0,379.0,-11094.0,-1455.0,106.0,1001.0,42.9415452560455,-300.785049947183,64.9845854660104,330899465
138,-365.0,-2.0,-11082.0,-1560.0,116.0,1091.0,48.5817689095927,-300.788888467181,64.9835930450175,330912955
-190,384.0,474.0,-11062.0,-1750.0,141.0,1266.0,54.2183853141654,-300.797535429368,64.9761641991373,330925998
-2,-242.0,63.0,-11051.0,-1834.0,151.0,1340.0,59.8512077457163,-300.812833138555,64.9761202561772,330934526
84,-297.0,-43.0,-11042.0,-1907.0,163.0,1409.0,65.4882118704388,-300.815707986077,64.9710514742144,330948424
-45,82.0,181.0,-11042.0,-1907.0,163.0,1409.0,71.1310324933468,-300.81787839244,64.9729854689214,330955341
13,-40.0,126.0,-11024.0,-2032.0,181.0,1523.0,74.8939545398864,-300.828873219263,64.9706282697493,330970534
149,23.0,224.0,-11017.0,-2086.0,190.0,1573.0,80.5258792044754,-300.835759704149,64.9628012277396,330978550
-179,-140.0,97.0,-11011.0,-2133.0,198.0,1614.0,86.1574300541389,-300.822876705099,64.9414153204399,330995800
-258,-30.0,279.0,-11005.0,-2165.0,204.0,1649.0,91.8043516538468,-300.831300642985,64.9337019460954,331002115
13,-25.0,33.0,-10996.0,-2214.0,210.0,1689.0,97.4482710266238,-300.834719087055,64.9366831761597,331016332
143,-99.0,-73.0,-10992.0,-2229.0,211.0,1702.0,101.211771689413,-300.859912762895,64.9441807239939,331025221
-26,107.0,-286.0,-10992.0,-2229.0,211.0,1702.0,106.845859532745,-300.859144681756,64.9184098614251,331033765
-142,163.0,-321.0,-10991.0,-2240.0,213.0,1714.0,112.484533263147,-300.839140086826,64.9028050978537,331044956
-130,173.0,-358.0,-10988.0,-2262.0,217.0,1733.0,116.254970524315,-300.860889307809,64.8990804498176,331057657
5,100.0,-300.0,-10986.0,-2269.0,218.0,1738.0,121.894724955355,-300.863965041638,64.8917388878755,331065372
58,80.0,-374.0,-10986.0,-2269.0,218.0,1738.0,127.554982379968,-300.902114632487,64.8965883672974,331074131
-137,212.0,-338.0,-10985.0,-2272.0,218.0,1745.0,135.075565696145,-300.89300631236,64.8404668515581,331091394
74,174.0,-490.0,-10982.0,-2274.0,217.0,1747.0,142.601743666935,-300.884481110766,64.8461172314704,331109790
74,174.0,-490.0,-10981.0,-2277.0,216.0,1749.0,148.269923181671,-300.939460800324,64.8651620702335,331117932
24,168.0,-369.0,-10981.0,-2277.0,217.0,1750.0,153.911229733463,-300.924246975072,64.8227602233087,331126451
-67,191.0,-364.0,-10980.0,-2279.0,216.0,1753.0,157.678870514947,-300.939612387244,64.8081975069795,331143078
-7,219.0,-388.0,-10979.0,-2280.0,216.0,1755.0,163.32719140039,-300.932625006446,64.790176067057,331150601
33,48.0,-218.0,-10976.0,-2287.0,216.0,1762.0,168.903927541991,-300.967826230869,64.8107876077478,331167193
-22,32.0,-72.0,-10975.0,-2289.0,216.0,1765.0,174.318510716509,-300.939617353994,64.7784573108335,331178558
-22,32.0,-72.0,-10974.0,-2292.0,216.0,1771.0,177.799435636862,-300.870325753378,64.7476382751047,331187073
-56,83.0,8.0,-10974.0,-2292.0,216.0,1771.0,182.847365099641,-300.881572610671,64.774074911786,331194738
-2,64.0,-157.0,-10973.0,-2293.0,215.0,1771.0,186.042968387761,-300.8326463521,64.7647401527463,331202643
14,74.0,-160.0,-10971.0,-2294.0,214.0,1775.0,190.583073750373,-300.774260374886,64.7686891122835,331211274
-22,98.0,-136.0,-10969.0,-2297.0,214.0,1781.0,194.812544010734,-300.709550730784,64.7643678133023,331227808
-33,117.0,-121.0,-10967.0,-2298.0,213.0,1783.0,197.440601397789,-300.616953346929,64.765567188939,331236060
-13,-89.0,20.0,-10966.0,-2300.0,212.0,1786.0,201.127591989513,-300.573752466209,64.8163384865271,331246717
-5,-40.0,26.0,-10965.0,-2300.0,211.0,1786.0,204.416376852957,-300.493252315995,64.8116608920958,331260371
-35,7.0,12.0,-10963.0,-2300.0,210.0,1789.0,206.428963220633,-300.434075900813,64.8292963290914,331268517
-35,7.0,12.0,-10963.0,-2299.0,210.0,1790.0,209.109717821727,-300.341291872301,64.8345329570878,331277066
-38,82.0,-101.0,-10962.0,-2299.0,209.0,1791.0,211.435679522539,-300.291525855811,64.8617142317753,331285902
-24,-45.0,92.0,-10960.0,-2299.0,208.0,1794.0,213.383769434517,-300.192950136547,64.8787920916422,331299702
-18,42.0,-82.0,-10960.0,-2299.0,208.0,1795.0,214.957258261637,-300.130841525694,64.9105636662227,331309407
-13,-89.0,20.0,-10959.0,-2296.0,207.0,1798.0,216.168920699959,-300.076196891452,64.9447655744625,331326244
-15,53.0,-49.0,-10959.0,-2296.0,207.0,1798.0,217.114539372097,-299.99502690722,64.9265048775317,331334881
-31,-8.0,46.0,-10957.0,-2295.0,205.0,1801.0,218.352730105668,-299.678946734399,64.9439164195639,331349601
-31,-8.0,46.0,-10956.0,-2296.0,205.0,1803.0,219.078079260601,-299.227938652735,64.9717275700262,331357929
-11,-54.0,14.0,-10956.0,-2295.0,205.0,1805.0,220.84692876433,-298.479521622027,64.9832644982062,331367477
-22,41.0,4.0,-10954.0,-2294.0,204.0,1807.0,221.930774455525,-297.429051201,64.9882535355216,331379246
-15,-63.0,-57.0,-10954.0,-2292.0,203.0,1808.0,223.855762544379,-296.5481303605,64.999206943631,331395255
-14,132.0,-59.0,-10953.0,-2291.0,202.0,1809.0,226.17807301322,-294.924410759508,65.0135787004273,331403355
-10,-159.0,31.0,-10952.0,-2289.0,201.0,1813.0,228.908071058608,-292.91813388658,65.0107232699013,331419882
-10,-159.0,31.0,-10952.0,-2290.0,201.0,1814.0,232.066782904779,-290.487142076994,64.9979969433048,331428110
-21,50.0,-2.0,-10951.0,-2287.0,200.0,1815.0,234.432852558242,-287.613791818897,64.9996628876156,331436447
-6,-119.0,18.0,-10950.0,-2286.0,200.0,1817.0,238.357147809228,-284.296721863172,65.0111019702374,331447130
0,37.0,-64.0,-10950.0,-2284.0,199.0,1817.0,242.671705331876,-281.839829650812,65.0104494118203,331459759
0,37.0,-64.0,-10949.0,-2283.0,199.0,1820.0,245.712889013764,-277.839284782366,65.0046274233467,331467864
-30,-34.0,16.0,-10950.0,-2282.0,199.0,1821.0,250.450939609711,-273.517492358083,65.0046884538609,331476661
-11,-96.0,38.0,-10949.0,-2282.0,199.0,1823.0,256.976860881458,-268.937192431118,65.0084044220314,331493201
-24,39.0,-37.0,-10948.0,-2279.0,198.0,1826.0,260.279809968184,-264.135378828797,65.0107000275988,331509278
-24,39.0,-37.0,-10948.0,-2278.0,198.0,1828.0,266.888165714902,-259.129999302397,65.0018016689594,331517363
-2,-71.0,5.0,-10948.0,-2276.0,197.0,1829.0,271.831715519341,-252.187788325668,65.0051156432174,331526243
-4,-102.0,-25.0,-10948.0,-2277.0,198.0,1831.0,276.735749207345,-248.608871063561,65.0071891033347,331542683
-21,13.0,28.0,-10947.0,-2274.0,197.0,1832.0,279.972977522,-243.116892926951,65.0054178659781,331549604
-21,13.0,28.0,-10947.0,-2274.0,198.0,1835.0,284.763012598911,-237.492576445552,65.0030178362008,331557816
-5,-141.0,-26.0,-10948.0,-2272.0,197.0,1834.0,289.460329045491,-233.675998452881,64.9995962218308,331567158
-14,-201.0,-23.0,-10948.0,-2268.0,198.0,1837.0,292.542710258767,-225.894354955334,65.0016726422056,331592835
-36,98.0,40.0,-10949.0,-2267.0,198.0,1838.0,300.047548666719,-219.926076396238,64.9992751106509,331600098
-36,98.0,40.0,-10949.0,-2266.0,198.0,1839.0,302.967730058318,-213.853136709599,65.0003941638506,331608456
-22,85.0,30.0,-10949.0,-2265.0,198.0,1840.0,307.251309652307,-209.748986620913,64.9999308605655,331617122
-18,-170.0,-20.0,-10949.0,-2264.0,199.0,1841.0,311.413721723919,-203.518066546636,64.9995643841349,331625965
3,-93.0,-34.0,-10950.0,-2262.0,199.0,1842.0,314.121176870906,-197.205032471233,65.0020209988962,331643260
-11,-113.0,0.0,-10950.0,-2260.0,199.0,1842.0,319.366203356157,-190.801492532247,65.0010972337616,331650749
-24,-15.0,6.0,-10950.0,-2260.0,199.0,1845.0,323.154452240333,-184.314669606199,65.0012807514987,331661713
-6,-101.0,8.0,-10951.0,-2257.0,199.0,1847.0,325.608307142832,-177.744886472888,65.0012880705129,331678839
-3,-55.0,-43.0,-10951.0,-2255.0,200.0,1848.0,330.339013838079,-168.876331573686,65.0011479018763,331694810
-27,-71.0,52.0,-10952.0,-2244.0,200.0,1859.0,334.827129164859,-162.146301709449,65.000802828793,331707330
-27,-16.0,-52.0,-10952.0,-2244.0,200.0,1859.0,336.982296518236,-157.618587677912,65.0010330709146,331714616
-11,-88.0,57.0,-10952.0,-2242.0,200.0,1862.0,339.076355004276,-150.77166715805,65.0006339524821,331727611
-19,-52.0,64.0,-10952.0,-2240.0,200.0,1863.0,343.081889749636,-143.858494714111,65.0004470620517,331736162
-7,-31.0,65.0,-10953.0,-2239.0,201.0,1865.0,345.920899532544,-136.89129852415,65.0002888795261,331749895
-7,-31.0,65.0,-10953.0,-2239.0,201.0,1865.0,347.734253913328,-129.870480651239,65.0008174717655,331756202
0,-199.0,-75.0,-10953.0,-2237.0,201.0,1868.0,350.33582634634,-125.16070329657,65.0003068942565,331772289
-32,32.0,83.0,-10954.0,-2235.0,201.0,1869.0,351.992844506086,-118.047834849856,65.0005478291455,331780783
-6,-177.0,-65.0,-10954.0,-2234.0,202.0,1871.0,354.357074378359,-110.882548950097,64.9998970838781,331791561
-6,-177.0,-65.0,-10954.0,-2232.0,202.0,1871.0,355.852766432232,-106.082038348201,64.9995914124531,331798915
-26,-8.0,64.0,-10954.0,-2231.0,202.0,1873.0,357.975484184258,-98.8497099114996,64.9997495945524,331807355
-32,-27.0,69.0,-10955.0,-2229.0,202.0,1875.0,359.949442176976,-94.0055634493969,65.000231463867,331816296
-19,-99.0,25.0,-10955.0,-2228.0,202.0,1876.0,361.776720783334,-86.7054326131559,64.9996741640796,331833518
-27,-54.0,-8.0,-10955.0,-2228.0,203.0,1878.0,363.456608550279,-79.3693784683118,64.9993217699182,331841373
-27,-54.0,-8.0,-10955.0,-2226.0,203.0,1879.0,364.494939759272,-71.9990824813286,65.0001200038694,331848744
-11,-77.0,-24.0,-10956.0,-2225.0,203.0,1881.0,365.926520518276,-67.0679259723099,64.9997856239527,331859606
-20,-126.0,32.0,-10962.0,-2208.0,209.0,1897.0,367.207594131372,-59.6546897606733,64.9995446894447,331876849
-18,-60.0,-53.0,-10962.0,-2208.0,209.0,1897.0,367.979242308149,-49.7289827870713,65.0000085438901,331885499
0,-59.0,-77.0,-10963.0,-2206.0,209.0,1900.0,369.61441725389,-42.2614693793463,64.9989873902098,331899550
-12,-48.0,-86.0,-10963.0,-2205.0,210.0,1901.0,370.393381074533,-34.7735523021538,65.0001019890636,331912427
0,-101.0,-88.0,-10963.0,-2203.0,210.0,1903.0,371.021416280144,-27.2746010697335,65.0001200038694,331924158
-26,-103.0,78.0,-10964.0,-2202.0,210.0,1904.0,371.355168511192,-19.7638294714192,64.999814331828,331932514
-9,-108.0,-75.0,-10964.0,-2200.0,210.0,1904.0,371.730012962255,-12.2460383475441,64.9996381346712,331946872
-30,-72.0,69.0,-10964.0,-2198.0,211.0,1908.0,371.952460825265,-4.71894270871007,65.0001200039508,331959365
-17,-83.0,48.0,-10965.0,-2198.0,211.0,1910.0,372.022123027096,2.80802440161096,65.0001200044302,331967371
-15,-145.0,-63.0,-10965.0,-2196.0,211.0,1910.0,371.939700244334,10.3335364983623,65.000242156883,331976280
-7,-156.0,-55.0,-10965.0,-2195.0,211.0,1912.0,371.70611416621,17.851693803291,64.9995733973726,331995871
-7,-125.0,-32.0,-10965.0,-2193.0,211.0,1913.0,371.319370053616,22.8625359863668,65.0005011071651,332002018
-21,-84.0,-9.0,-10966.0,-2191.0,212.0,1916.0,370.780431371749,30.3700552284988,65.0001019896349,332015939
-7,-157.0,-16.0,-10966.0,-2191.0,212.0,1916.0,370.337800025132,37.864118985165,64.9994152148238,332024983
-22,-101.0,-19.0,-10966.0,-2190.0,212.0,1918.0,369.546439544707,42.8527715975676,65.0006412753097,332033529
-16,-75.0,-42.0,-10967.0,-2189.0,213.0,1919.0,368.603847704399,50.3209648233478,65.0001019895083,332041354
-16,-63.0,-62.0,-10968.0,-2187.0,214.0,1922.0,367.509971534251,57.7654921184481,65.0004363699064,332060028
-16,-63.0,-62.0,-10969.0,-2185.0,215.0,1923.0,366.266936879753,65.1855113726845,65.0002888795408,332068408
-19,-188.0,16.0,-10970.0,-2186.0,216.0,1924.0,365.354079361945,70.1223910075514,65.0005478304155,332078079
-22,-216.0,14.0,-10971.0,-2183.0,217.0,1925.0,363.860441492383,77.4987831138354,65.0004183550785,332086926
-8,-222.0,0.0,-10972.0,-2185.0,218.0,1927.0,362.218544059368,84.842985601786,65.0002061275143,332100822
-8,-222.0,0.0,-10972.0,-2185.0,218.0,1927.0,361.041105905757,92.1540400061645,65.0007994586373,332107102
-47,-366.0,-101.0,-10972.0,-2187.0,220.0,1934.0,358.490134196876,99.427006511698,65.0010223785472,332127449
15,-409.0,-144.0,-10973.0,-2187.0,221.0,1935.0,356.40532187592,109.060203032364,65.0001126824275,332136577
-34,-398.0,-65.0,-10975.0,-2182.0,222.0,1933.0,354.174202003658,116.232644996735,65.0005765374313,332150691
-34,-398.0,-65.0,-10975.0,-2182.0,222.0,1933.0,351.799671093634,120.9874332756,65.0007814431429,332156910
-26,-156.0,-40.0,-10978.0,-2175.0,222.0,1928.0,350.134537840532,128.081373058152,65.0005765377401,332172147
30,-599.0,-207.0,-10978.0,-2173.0,222.0,1924.0,347.519654104343,132.779470671087,65.0005765383216,332183994
-58,-262.0,-256.0,-10982.0,-2166.0,222.0,1917.0,344.763844532874,139.779991643868,65.000234835443,332192038
-58,-262.0,-256.0,-10984.0,-2159.0,222.0,1910.0,342.845788377803,146.728615604882,65.0006232604723,332198352
-22,-257.0,-104.0,-10985.0,-2147.0,220.0,1904.0,339.854399883478,151.325616495694,64.9999184705694,332210754
324,-235.0,-484.0,-10991.0,-2126.0,218.0,1886.0,335.648314527792,160.438511290302,65.0002995731255,332227515
25,-377.0,-38.0,-10995.0,-2110.0,216.0,1869.0,333.455235671241,167.193007857269,64.9995660763449,332239789
-241,-395.0,-115.0,-10995.0,-2110.0,216.0,1869.0,330.049938883783,171.661105065755,65.0006339530166,332246743
-3,-55.0,39.0,-10999.0,-2089.0,214.0,1854.0,326.509278227867,178.304009914728,65.0004290479594,332253041
164,-13.0,147.0,-11005.0,-2051.0,208.0,1820.0,322.835861925698,184.871368212816,65.0005224929974,332266744
8,200.0,93.0,-11005.0,-2051.0,208.0,1820.0,319.030958969703,191.363087072332,65.0000873464089,332275522
-191,-220.0,195.0,-11013.0,-2011.0,204.0,1787.0,316.419088019229,197.781009711956,65.0008748877698,332292706
145,-73.0,-327.0,-11021.0,-1967.0,198.0,1751.0,309.644975687291,206.205914285545,65.0010330704178,332308523
-165,-314.0,341.0,-11021.0,-1967.0,198.0,1751.0,306.834549077038,212.428911220698,65.0005044780157,332315876
21,-64.0,-202.0,-11027.0,-1924.0,191.0,1714.0,301.048938281836,218.56320422334,65.0004684485865,332332532
-141,-293.0,359.0,-11031.0,-1902.0,189.0,1696.0,298.074410298464,224.607431670691,65.0004397408317,332340401
170,250.0,-342.0,-11033.0,-1877.0,185.0,1678.0,293.508846663946,228.58885271418,65.0008388583494,332353555
-40,-126.0,-58.0,-11038.0,-1857.0,183.0,1659.0,288.826336408592,236.421248849502,65.0007921357754,332363465
-140,-312.0,52.0,-11042.0,-1836.0,181.0,1639.0,284.023495202174,240.272612123379,65.0005799085331,332371392
-66,126.0,-175.0,-11050.0,-1787.0,175.0,1599.0,279.104371425039,247.846525774894,65.0005151712607,332388334
-30,-6.0,-68.0,-11054.0,-1765.0,173.0,1581.0,272.369786473732,253.407232583969,64.9998283978556,332402076
-121,-183.0,-301.0,-11057.0,-1743.0,170.0,1561.0,267.193055676268,258.859709457313,65.0004217262055,332415223
-48,-29.0,29.0,-11065.0,-1695.0,165.0,1522.0,263.721446281126,264.126237957672,65.0023908409489,332427989
57,103.0,-65.0,-11065.0,-1695.0,165.0,1522.0,258.527490110409,267.494061285756,65.0076643916498,332436592
-223,-214.0,-137.0,-11069.0,-1675.0,164.0,1501.0,251.613956742924,273.762289436433,65.0168763771759,332444274
64,97.0,128.0,-11076.0,-1626.0,159.0,1462.0,244.774505737872,279.333701257512,65.0199542733748,332463172
13,109.0,-188.0,-11079.0,-1604.0,156.0,1444.0,241.384326901781,283.021403946802,65.000778453653,332470792
-199,-246.0,-143.0,-11088.0,-1560.0,154.0,1401.0,234.721635424249,287.309146984723,64.9977493867846,332490693
25,337.0,59.0,-11092.0,-1531.0,151.0,1382.0,229.848243295478,290.045705725793,64.9882334345799,332503808
25,337.0,59.0,-11095.0,-1510.0,150.0,1363.0,223.536731867069,292.365904255375,64.9980754464166,332510047
-34,-130.0,-409.0,-11098.0,-1491.0,147.0,1342.0,220.4710120208,294.257471748138,64.9873076000104,332526074
-203,-137.0,-195.0,-11103.0,-1469.0,147.0,1320.0,215.968513237092,295.707264124551,64.9331717275298,332534487
-210,-303.0,132.0,-11108.0,-1444.0,146.0,1299.0,211.600239927521,296.859970359858,64.9549589486645,332545079
98,234.0,5.0,-11112.0,-1417.0,144.0,1281.0,207.256382953517,297.458617198838,64.9584645975384,332557535
-94,-128.0,-158.0,-11119.0,-1375.0,142.0,1242.0,202.821844702773,298.162086444018,64.8960963988871,332572441
-105,-260.0,-87.0,-11127.0,-1326.0,140.0,1201.0,196.638208687473,299.016356933861,64.8854663416418,332589711
46,120.0,-27.0,-11127.0,-1326.0,140.0,1201.0,190.054833370639,299.404626843119,64.8782377366237,332596838
-48,-174.0,-164.0,-11134.0,-1282.0,138.0,1161.0,184.923269407057,299.723148542591,64.8406137554468,332612800
-2,-160.0,-182.0,-11137.0,-1259.0,136.0,1140.0,179.655315945624,299.960383961251,64.8196217579806,332620712
-22,16.0,15.0,-11145.0,-1214.0,135.0,1097.0,174.326431562741,300.238525845192,64.8205409138689,332637588
-25,-100.0,-105.0,-11145.0,-1214.0,135.0,1097.0,168.888373619331,300.337756455787,64.7979104454191,332644996
-29,19.0,-142.0,-11148.0,-1192.0,133.0,1076.0,163.423022490055,300.479765357238,64.8077666076173,332657586
-20,51.0,-61.0,-11159.0,-1123.0,131.0,1012.0,157.879281440632,300.556845674406,64.7842798704627,332681648
-20,51.0,-61.0,-11159.0,-1123.0,131.0,1012.0,152.341114010489,300.658370029728,64.8000566091283,332681648
-20,51.0,-61.0,-11162.0,-1102.0,131.0,992.0,148.629066024482,300.719628881622,64.8056203315624,332689964
50,84.0,-184.0,-11165.0,-1079.0,130.0,972.0,141.165011140138,300.752360008314,64.7947638577177,332703784
50,84.0,-184.0,-11169.0,-1056.0,129.0,950.0,137.425488708298,300.769205520444,64.8057556439765,332709964
-24,-199.0,-110.0,-11172.0,-1035.0,129.0,929.0,133.684316649505,300.825007790383,64.8205484607932,332726279
-32,48.0,-93.0,-11175.0,-1012.0,128.0,907.0,126.181416715065,300.839272085918,64.8162228489375,332734695
-23,-185.0,-146.0,-11182.0,-968.0,128.0,868.0,120.546606159065,300.828335260648,64.8220669732511,332751573
-23,-185.0,-146.0,-11182.0,-968.0,128.0,868.0,116.798977961897,300.875868288479,64.8562221492997,332757840
16,26.0,-99.0,-11188.0,-921.0,127.0,828.0,111.160972098458,300.850504597614,64.8417466724035,332772755
-44,-119.0,-107.0,-11191.0,-899.0,127.0,805.0,105.515307272028,300.84697888956,64.8368702909135,332780897
-44,-119.0,-107.0,-11194.0,-876.0,126.0,784.0,101.745525207874,300.836288150686,64.8410664149534,332789427
-28,-108.0,-80.0,-11197.0,-855.0,126.0,764.0,94.241892829463,300.89750904456,64.9006729292917,332807532
-14,-126.0,-158.0,-11200.0,-832.0,126.0,743.0,88.5930538543021,300.837980645277,64.864697219786,332814375
75,141.0,-130.0,-11205.0,-788.0,125.0,700.0,81.0679791208769,300.852673349687,64.9004944808932,332830611
-59,-282.0,-122.0,-11207.0,-766.0,125.0,677.0,77.3024572237223,300.860644264614,64.9065098779203,332838876
-154,-124.0,-58.0,-11210.0,-743.0,125.0,658.0,71.6609390968448,300.859405682514,64.9199770344693,332852546
-154,-124.0,-58.0,-11213.0,-718.0,125.0,638.0,67.9120157903364,300.843250607941,64.9189306291188,332858847
131,1.0,-119.0,-11216.0,-697.0,126.0,618.0,62.2668446632798,300.83183925012,64.9246983948605,332869964
50,-144.0,-183.0,-11219.0,-675.0,126.0,596.0,56.6176848930222,300.831507806467,64.9304810493657,332878629
-24,164.0,-17.0,-11221.0,-653.0,125.0,572.0,50.9777781326303,300.829906413889,64.9401929733135,332895560
-113,-100.0,-92.0,-11223.0,-634.0,125.0,551.0,43.4654844046973,300.813598473836,64.9500997101423,332908073
29,227.0,-58.0,-11226.0,-608.0,125.0,530.0,39.7083306761994,300.829101918096,64.9620896165166,332914862
-52,-255.0,-57.0,-11229.0,-587.0,127.0,511.0,34.0670198530028,300.82534811994,64.957143430823,332922855
-220,-195.0,-138.0,-11233.0,-543.0,127.0,467.0,28.4273380208699,300.811819642199,64.9609024895817,332941396
-198,-160.0,-325.0,-11233.0,-522.0,125.0,443.0,22.7949378506587,300.805277252386,64.9616001287679,332954534
-198,-160.0,-325.0,-11238.0,-497.0,128.0,423.0,17.1574761444192,300.815300080193,64.9741922035706,332960815
208,-212.0,52.0,-11239.0,-472.0,127.0,405.0,11.521006897779,300.815746838387,64.9778080622965,332977133
-63,2.0,-290.0,-11241.0,-453.0,128.0,381.0,5.88540291510433,300.804448683703,64.9787579075385,332985645
-365,-100.0,-137.0,-11242.0,-434.0,127.0,359.0,0.252938214920074,300.797034763793,64.9812975237576,332997473
-87,-156.0,54.0,-11247.0,-386.0,128.0,318.0,-3.5061382872941,300.762097523195,64.9798505731303,333009910
93,-409.0,-154.0,-11250.0,-362.0,130.0,296.0,-9.14037284921158,300.738574903072,64.9783420287938,333017569
-28,275.0,88.0,-11250.0,-362.0,130.0,296.0,-14.7716678517036,300.759807879794,64.986950667319,333026235
-279,-455.0,-431.0,-11250.0,-325.0,128.0,253.0,-20.403688385713,300.768601493855,64.9902339750598,333042477
262,233.0,-11.0,-11254.0,-284.0,131.0,219.0,-26.0403491439549,300.769856642353,64.9824078304991,333058880
-77,-204.0,-580.0,-11254.0,-284.0,131.0,219.0,-33.5548147897336,300.765262919845,64.9849403573335,333065990
44,424.0,50.0,-11256.0,-250.0,130.0,183.0,-39.1878050220267,300.773502188731,64.9866937330578,333082485
44,424.0,50.0,-11255.0,-237.0,129.0,165.0,-44.821261580758,300.798190246522,64.9906768422919,333090815
128,357.0,26.0,-11258.0,-219.0,131.0,154.0,-52.3389431661913,300.800634504759,64.9787095593526,333104383
128,357.0,26.0,-11257.0,-205.0,131.0,138.0,-57.9759915228496,300.797956089703,64.9747230312687,333110655
-190,-217.0,-605.0,-11259.0,-181.0,132.0,113.0,-61.7310198948018,300.812601311264,64.9766919286397,333130340
-13,-16.0,-316.0,-11258.0,-170.0,130.0,102.0,-67.3699381698189,300.817937416615,64.9809940314661,333138711
-16,-55.0,-656.0,-11258.0,-170.0,130.0,102.0,-71.1308204908075,300.82821600381,64.9781364617283,333146126
-89,-132.0,-196.0,-11259.0,-159.0,131.0,88.0,-76.7678288984039,300.826998495281,64.9644238424806,333158764
-36,217.0,-241.0,-11259.0,-149.0,131.0,80.0,-80.5263129004565,300.831021136782,64.9585926529735,333165890
153,157.0,-566.0,-11259.0,-143.0,131.0,75.0,-86.1596740445682,300.82172382245,64.9455052723928,333174250
-97,143.0,-327.0,-11259.0,-138.0,131.0,70.0,-89.9227917019298,300.838773092479,64.9402557830564,333182404
-239,-33.0,-454.0,-11260.0,-126.0,131.0,55.0,-95.5658588049539,300.838785168172,64.9415444386785,333199832
-91,-113.0,-482.0,-11260.0,-126.0,131.0,55.0,-101.208806982731,300.849741039154,64.9400062329984,333206022
294,103.0,-55.0,-11264.0,-102.0,134.0,37.0,-106.846149809641,300.848148229237,64.9162265394651,333220114
201,-65.0,-110.0,-11263.0,-88.0,133.0,23.0,-112.488323552244,300.845613620669,64.9084267408593,333228682
78,-62.0,-182.0,-11263.0,-68.0,133.0,5.0,-116.254980699593,300.862017935083,64.8972609234017,333244828
78,-62.0,-182.0,-11262.0,-44.0,132.0,-19.0,-121.9830395958,300.853791202864,64.8955098864338,333251074
270,-165.0,-291.0,-11262.0,-13.0,132.0,-48.0,-125.670169316425,300.895427145215,64.9045556065872,333260519
33,-154.0,-140.0,-11261.0,24.0,132.0,-85.0,-131.315959361692,300.897714966403,64.8865853278743,333277061
309,-15.0,-95.0,-11261.0,71.0,132.0,-127.0,-136.949907884196,300.860260128954,64.8385524373311,333285640
548,191.0,63.0,-11263.0,127.0,135.0,-171.0,-142.60220036402,300.884823576033,64.8522513666117,333293633
245,-89.0,-255.0,-11262.0,184.0,136.0,-224.0,-148.273729935061,300.930264875808,64.8661520300533,333306950
51,-385.0,-418.0,-11258.0,324.0,138.0,-357.0,-153.908421544735,300.918163433411,64.817229293554,333323647
520,359.0,307.0,-11258.0,409.0,143.0,-431.0,-157.677865754811,300.939005135748,64.8081129753131,333331725
520,359.0,307.0,-11256.0,501.0,148.0,-514.0,-163.326788906415,300.936653328023,64.7945726060945,333340077
265,-339.0,-390.0,-11256.0,501.0,148.0,-514.0,-167.057608363018,300.958250887995,64.8057197033837,333347260
322,160.0,145.0,-11245.0,705.0,158.0,-703.0,-174.316311192004,300.929168095688,64.7838436653769,333359748
89,-210.0,-83.0,-11245.0,705.0,158.0,-703.0,-177.798194799167,300.875770984375,64.751455499745,333366769
230,314.0,-214.0,-11238.0,819.0,165.0,-808.0,-182.846813039463,300.88526827006,64.774763275395,333375447
84,183.0,13.0,-11208.0,1195.0,197.0,-1155.0,-187.586803539474,300.805152669562,64.7608275127414,333401293
84,183.0,13.0,-11208.0,1195.0,197.0,-1155.0,-192.03930940811,300.779277056258,64.7813732826142,333401293
-29,211.0,-129.0,-11194.0,1326.0,211.0,-1276.0,-194.807334037803,300.666799197384,64.7632206119259,333414668
145,83.0,-53.0,-11180.0,1461.0,228.0,-1398.0,-198.707676911549,300.621771872416,64.7936942308028,333422653
135,-214.0,-199.0,-11145.0,1736.0,8.0,-1652.0,-202.262603030737,300.530225577327,64.8015692263093,333439229
55,202.0,25.0,-11145.0,1736.0,8.0,-1652.0,-205.442782339191,300.477846485284,64.8241983392174,333446700
-115,-152.0,-145.0,-11103.0,2018.0,53.0,-1911.0,-208.253829143016,300.399458562286,64.8256754501737,333462642
-115,-152.0,-145.0,-11081.0,2160.0,79.0,-2040.0,-210.700689149086,300.319340132767,64.855485389814,333470627
73,274.0,53.0,-11055.0,2301.0,105.0,-2170.0,-212.777621562225,300.217400022245,64.8737562620439,333479458
19,191.0,-51.0,-11027.0,2442.0,132.0,-2302.0,-214.471434718558,300.150188659612,64.8996853407197,333496095
-50,-133.0,-193.0,-11000.0,2586.0,164.0,-2433.0,-216.163469221961,300.082555629526,64.9415844413981,333508670
-104,91.0,91.0,-10937.0,2872.0,231.0,-2695.0,-217.043147509568,300.02095351772,64.9488153730521,333520405
-48,168.0,106.0,-10903.0,3014.0,10.0,-2825.0,-217.911912142327,299.993820824337,65.2094070163194,333538033
