ACC_X,ACC_Y,ACC_Z,QUAT_W,QUAT_X,QUAT_Y,QUAT_Z,X_pos,Y_pos,Z_pos,t
111,-43.0,-124.0,-8148.0,8431.0,225.0,-7686.0,-218.399358360232,299.981797764851,66.0382134831954,733415125
-67,133.0,60.0,-8052.0,8534.0,70.0,-7783.0,-219.008416267068,300.026755416802,67.2739122505606,733430992
-162,102.0,70.0,-7956.0,8636.0,172.0,-7878.0,-219.169187493887,300.029086241821,68.5147221473676,733439067
-12,-28.0,-102.0,-7764.0,8835.0,124.0,-8063.0,-219.392668243854,300.056195339326,70.1078701789899,733455217
-23,127.0,47.0,-7668.0,8930.0,226.0,-8151.0,-219.538796542534,300.032504951421,71.9541271394644,733467668
-23,127.0,47.0,-7573.0,9020.0,67.0,-8235.0,-219.640857209974,300.024752928188,73.381626981929,733475488
-247,-17.0,-123.0,-7481.0,9104.0,162.0,-8315.0,-219.772765414384,300.07262925022,76.7947360265087,733484647
-270,165.0,49.0,-7394.0,9186.0,1.0,-8391.0,-219.827206831825,300.104510361261,78.7457925576198,733501017
-116,272.0,33.0,-7313.0,9263.0,93.0,-8461.0,-219.9104750899,300.127585966634,81.8983948181395,733510437
-6,150.0,-16.0,-7154.0,9400.0,1.0,-8590.0,-219.946647389624,300.153674311052,85.4865996045106,733524517
-317,17.0,-138.0,-7082.0,9460.0,74.0,-8647.0,-220.020468172919,300.201717555037,89.4456488999796,733533173
-356,19.0,-13.0,-7082.0,9460.0,74.0,-8647.0,-220.08129318079,300.212275656568,93.7700904632464,733541584
-438,233.0,-2.0,-6957.0,9567.0,211.0,-8745.0,-220.140329212649,300.275448422874,96.8213371623996,733555493
-165,108.0,208.0,-6957.0,9567.0,211.0,-8745.0,-220.171537976478,300.298897461605,101.592293648946,733561745
-196,-54.0,-160.0,-6849.0,9655.0,68.0,-8827.0,-220.227042857231,300.364537107102,106.597320274674,733580818
-299,79.0,85.0,-6804.0,9689.0,113.0,-8860.0,-220.25747128678,300.39244879504,110.004223312643,733589598
-426,171.0,30.0,-6730.0,9747.0,190.0,-8914.0,-220.294307933081,300.429851830356,116.938382122073,733604417
-282,49.0,-54.0,-6730.0,9747.0,190.0,-8914.0,-220.287327501166,300.432062534032,120.47938025401,733610673
-144,127.0,-139.0,-6682.0,9785.0,240.0,-8947.0,-220.32747359396,300.482224693982,125.886742258132,733624526
-62,161.0,-31.0,-6665.0,9796.0,254.0,-8958.0,-220.340095545661,300.489174853094,131.299229416612,733636399
-191,161.0,-138.0,-6655.0,9802.0,4.0,-8964.0,-220.364064949277,300.50157226777,134.950157865932,733644687
-161,339.0,163.0,-6652.0,9804.0,7.0,-8966.0,-220.36464218675,300.498882838307,140.433789018193,733658290
-130,353.0,132.0,-6656.0,9802.0,7.0,-8964.0,-220.365278020846,300.509461631251,145.968508900598,733671661
57,198.0,62.0,-6666.0,9797.0,2.0,-8959.0,-220.382176211004,300.515720537979,151.524893485048,733679841
-112,415.0,12.0,-6679.0,9787.0,242.0,-8948.0,-220.38294370551,300.518001955217,155.238003622655,733687824
-45,152.0,132.0,-6699.0,9770.0,219.0,-8934.0,-220.392169399789,300.519871925573,160.815164300472,733698855
-93,136.0,45.0,-6726.0,9749.0,189.0,-8914.0,-220.389611833558,300.526842984292,166.414569067505,733711701
-222,303.0,133.0,-6800.0,9692.0,116.0,-8861.0,-220.391551783805,300.528733089123,172.034164693771,733725774
-143,460.0,8.0,-6846.0,9656.0,69.0,-8828.0,-220.384744356298,300.522776952957,175.75740983353,733734253
-98,340.0,-146.0,-6894.0,9617.0,18.0,-8791.0,-220.386143017069,300.518268156207,185.113125905946,733750395
-43,257.0,286.0,-7010.0,9524.0,150.0,-8699.0,-220.383041232952,300.516876256043,190.749352434436,733766007
-178,246.0,77.0,-7077.0,9468.0,80.0,-8647.0,-220.381604084569,300.514413073295,196.372970548657,733773408
117,358.0,267.0,-7077.0,9468.0,80.0,-8647.0,-220.388547763952,300.512016080213,200.100830033788,733781906
47,137.0,62.0,-7228.0,9338.0,178.0,-8526.0,-220.386141452605,300.521858974963,205.735258331018,733798977
47,137.0,62.0,-7308.0,9268.0,91.0,-8458.0,-220.373635063369,300.504805074398,209.47390655793,733805324
-158,230.0,56.0,-7388.0,9195.0,2.0,-8388.0,-220.365153302192,300.492232349168,215.066846888812,733821793
-44,197.0,201.0,-7471.0,9120.0,169.0,-8314.0,-220.354027345847,300.477815991002,220.688629413863,733830015
-11,87.0,-105.0,-7558.0,9040.0,78.0,-8237.0,-220.353820723131,300.487253815359,226.342634564388,733837764
97,117.0,73.0,-7645.0,8956.0,240.0,-8158.0,-220.353130469229,300.483175079962,231.962912636595,733853056
-10,171.0,-102.0,-7821.0,8780.0,50.0,-7993.0,-220.372248271353,300.499087977634,237.617845518363,733865516
-96,173.0,66.0,-7821.0,8780.0,50.0,-7993.0,-220.376827682329,300.509410308691,243.276853385764,733872494
120,85.0,148.0,-7995.0,8600.0,116.0,-7819.0,-220.374858427473,300.506976729943,246.99891296061,733892869
-86,2.0,-208.0,-8081.0,8507.0,21.0,-7730.0,-220.385013226308,300.522119041006,252.669283902764,733901379
-86,2.0,-208.0,-8169.0,8410.0,182.0,-7639.0,-220.38187818058,300.517807676454,256.399223898566,733907735
-17,131.0,-34.0,-8256.0,8312.0,86.0,-7545.0,-220.394826114428,300.540948063026,262.090080383585,733920749
-38,201.0,60.0,-8341.0,8211.0,248.0,-7453.0,-220.394075617731,300.53567494207,267.685487338119,733928645
-51,-86.0,-10.0,-8508.0,8011.0,64.0,-7261.0,-220.402998263552,300.548483264089,273.343934832728,733945162
-23,179.0,0.0,-8590.0,7909.0,229.0,-7164.0,-220.402060631208,300.554674667951,280.88271292129,733955884
66,-75.0,-101.0,-8671.0,7805.0,138.0,-7066.0,-220.416280074314,300.564718891524,284.628613868845,733968428
66,-75.0,-101.0,-8752.0,7697.0,46.0,-6965.0,-220.418115914911,300.572597089814,290.250471218675,733976279
-116,-41.0,-172.0,-8910.0,7482.0,126.0,-6762.0,-220.427358357212,300.580784407626,295.89684814317,733993772
-257,-38.0,-269.0,-8910.0,7482.0,126.0,-6762.0,-220.430171597053,300.590931968631,301.538635590255,734002050
34,93.0,-13.0,-9063.0,7265.0,212.0,-6555.0,-220.441875776601,300.602310165368,307.181260791038,734018014
34,93.0,-13.0,-9136.0,7152.0,127.0,-6453.0,-220.451067546167,300.612407707558,312.83978814202,734025990
-210,-54.0,-187.0,-9211.0,7040.0,45.0,-6346.0,-220.463003454725,300.628935632825,318.462111158525,734034563
-157,48.0,-191.0,-9282.0,6924.0,218.0,-6241.0,-220.467616701706,300.643675651304,322.222985148005,734050850
-157,48.0,-191.0,-9354.0,6810.0,138.0,-6133.0,-220.482734087875,300.656344533175,327.881867426297,734057140
14,-126.0,12.0,-9424.0,6695.0,60.0,-6026.0,-220.496000941933,300.67519119308,333.55611672641,734069843
-94,-227.0,-102.0,-9491.0,6578.0,237.0,-5918.0,-220.50364604932,300.695089030379,337.31563381929,734080354
-9,228.0,-5.0,-9624.0,6342.0,86.0,-5699.0,-220.526368384398,300.715845464815,344.827762970543,734096813
157,212.0,-6.0,-9690.0,6222.0,12.0,-5587.0,-220.546572705236,300.754194513876,350.497086511227,734110760
-26,-2.0,-93.0,-9814.0,5981.0,124.0,-5363.0,-220.574152997056,300.782013721603,358.098522721667,734124631
46,166.0,2.0,-9814.0,5981.0,124.0,-5363.0,-220.588821389602,300.81588548529,363.729715225831,734133323
-169,-184.0,89.0,-9934.0,5737.0,243.0,-5138.0,-220.630922596256,300.874979556848,369.280545217648,734146183
211,315.0,-273.0,-9993.0,5614.0,178.0,-5024.0,-220.667329384144,300.911340654473,376.430363154253,734159693
40,197.0,-186.0,-10104.0,5362.0,47.0,-4794.0,-220.69932961523,300.951700175269,381.502343578716,734181773
-164,-72.0,-2.0,-10156.0,5236.0,240.0,-4682.0,-220.709120654301,300.964547280085,386.301790017261,734189873
-56,39.0,-70.0,-10207.0,5110.0,177.0,-4564.0,-220.721345769647,300.987206798757,390.778705272748,734197968
-33,-69.0,-12.0,-10260.0,4984.0,120.0,-4448.0,-220.725537016166,300.991471461866,394.980492692993,734208486
162,161.0,-282.0,-10310.0,4855.0,61.0,-4327.0,-220.722068900188,300.985481519832,397.610286987032,734221847
-35,-68.0,9.0,-10359.0,4726.0,5.0,-4210.0,-220.7167600124,300.969785919455,400.085776517652,734229958
-167,-74.0,88.0,-10405.0,4595.0,205.0,-4093.0,-220.705127509695,300.950809047466,403.464723039392,734237894
-23,170.0,-166.0,-10449.0,4466.0,150.0,-3975.0,-220.685935014211,300.935451632258,406.468793690912,734253446
-45,-14.0,120.0,-10493.0,4337.0,99.0,-3855.0,-220.657857725205,300.898676756782,409.138640342799,734259635
67,127.0,-169.0,-10618.0,3939.0,207.0,-3491.0,-220.633222837439,300.847034663955,410.706304840079,734286013
67,127.0,-169.0,-10618.0,3939.0,207.0,-3491.0,-220.591241827705,300.804560662475,412.743774405288,734286013
-123,-4.0,-70.0,-10655.0,3806.0,160.0,-3371.0,-220.524845338587,300.714020500621,414.836297954372,734294647
-91,-81.0,-47.0,-10692.0,3672.0,115.0,-3251.0,-220.462304538694,300.633522921704,415.631872545327,734309236
-164,-140.0,-43.0,-10726.0,3537.0,71.0,-3129.0,-220.403323322335,300.569962342147,416.586253585965,734322634
-21,78.0,-51.0,-10794.0,3269.0,246.0,-2882.0,-220.139881334412,300.417766110693,417.542893820212,734338794
-21,78.0,-51.0,-10794.0,3269.0,246.0,-2882.0,-219.719604735599,300.319798725966,418.115483020633,734338794
-21,78.0,-51.0,-10794.0,3269.0,246.0,-2882.0,-219.294514852043,300.224434155895,418.432535009883,734338794
-119,-4.0,98.0,-10910.0,2723.0,102.0,-2391.0,-218.445551451018,300.177439102046,418.776755219831,734378402
-119,-4.0,98.0,-10910.0,2723.0,102.0,-2391.0,-217.32036894141,300.150815416503,419.176032770567,734378402
-143,-213.0,197.0,-10960.0,2449.0,40.0,-2140.0,-215.89112943723,300.13481694864,419.342799184253,734395353
-69,62.0,-137.0,-10983.0,2308.0,11.0,-2014.0,-214.144479388263,300.14962488243,419.549120877245,734409709
-69,62.0,-137.0,-11005.0,2169.0,241.0,-1891.0,-212.06148892847,300.176829638318,419.683958858402,734416025
-33,8.0,82.0,-11023.0,2033.0,214.0,-1765.0,-209.632804929588,300.210457797654,419.823017421399,734431728
-91,-114.0,-56.0,-11041.0,1895.0,190.0,-1641.0,-207.815172655762,300.268147170199,419.946414476224,734443299
203,263.0,-14.0,-11058.0,1757.0,167.0,-1514.0,-204.772915586643,300.327165778226,420.073630461536,734451296
-184,-215.0,-152.0,-11074.0,1615.0,147.0,-1388.0,-201.357150366726,300.375383215942,420.178473486316,734463814
49,-81.0,-394.0,-11088.0,1475.0,127.0,-1261.0,-197.568965632603,300.451902215507,420.249491013288,734470215
-118,12.0,35.0,-11111.0,1196.0,94.0,-1010.0,-193.402259400797,300.529790216803,420.313175348053,734486341
83,-137.0,-215.0,-11120.0,1056.0,79.0,-884.0,-190.416697782221,300.608440076007,420.360232492858,734494936
95,96.0,-175.0,-11128.0,914.0,66.0,-757.0,-185.688597894087,300.686335073458,420.42129152083,734506056
294,-39.0,-510.0,-11136.0,774.0,56.0,-631.0,-180.731208165795,300.73871001475,420.459579900273,734518652
-275,107.0,351.0,-11140.0,632.0,45.0,-502.0,-175.601778700072,300.835988026306,420.475452401707,734526712
79,250.0,6.0,-11145.0,493.0,39.0,-376.0,-170.35301382464,300.873728370952,420.475424743825,734543818
231,192.0,-271.0,-11147.0,351.0,32.0,-249.0,-165.001170311682,300.922727438885,420.476413317329,734551669
-195,-175.0,77.0,-11146.0,73.0,24.0,2.0,-159.577302251634,300.941129638752,420.476399144645,734567508
0,-65.0,-187.0,-11143.0,-62.0,22.0,124.0,-154.084781288244,300.976018626907,420.474315703044,734575151
-27,-126.0,-22.0,-11140.0,-194.0,22.0,242.0,-148.54652855162,300.989565790393,420.458470583748,734592196
277,-134.0,-295.0,-11136.0,-322.0,24.0,356.0,-142.982933044972,300.997639873725,420.416190992482,734600298
-153,-231.0,78.0,-11124.0,-560.0,30.0,570.0,-135.538864091944,300.991607185784,420.411094249523,734619172
-114,90.0,384.0,-11117.0,-670.0,34.0,668.0,-129.934748356298,300.987644224025,420.382908967752,734629513
-114,90.0,384.0,-11110.0,-773.0,39.0,760.0,-124.30560957364,300.98308643242,420.339204983277,734637691
154,-96.0,-159.0,-11103.0,-871.0,45.0,847.0,-118.673314126495,300.974330607352,420.32966449767,734653311
-250,-153.0,226.0,-11096.0,-962.0,51.0,928.0,-113.042325178215,300.967527710919,420.295918825683,734665827
276,-234.0,-142.0,-11089.0,-1045.0,58.0,1002.0,-109.286666626553,300.957988484579,420.297759254455,734672721
-106,-4.0,325.0,-11081.0,-1121.0,64.0,1070.0,-105.526795037193,300.944343226284,420.255847943169,734680661
-288,-15.0,318.0,-11068.0,-1252.0,75.0,1185.0,-99.8884332043094,300.938745127649,420.26897537094,734699444
-288,-15.0,318.0,-11064.0,-1306.0,82.0,1232.0,-96.1230094887805,300.925244488115,420.222569968273,734706105
189,-158.0,-25.0,-11064.0,-1306.0,82.0,1232.0,-90.4764200407027,300.921927978626,420.227364283448,734712415
-268,-164.0,266.0,-11055.0,-1391.0,91.0,1306.0,-86.7132000936688,300.913809432332,420.196328887786,734726552
165,-20.0,29.0,-11051.0,-1423.0,94.0,1333.0,-81.0744062950547,300.901884389305,420.168042576552,734735288
-227,168.0,353.0,-11051.0,-1423.0,94.0,1333.0,-77.3159764820085,300.892075206321,420.169890785635,734743626
-392,67.0,42.0,-11047.0,-1477.0,103.0,1381.0,-69.7900509560065,300.881901969629,420.13375076891,734760799
-392,67.0,42.0,-11045.0,-1499.0,106.0,1401.0,-66.0293784649776,300.877053656211,420.108351411299,734766986
-36,-383.0,-268.0,-11043.0,-1515.0,108.0,1419.0,-60.3844093208989,300.866112117631,420.119212524887,734782908
-235,-256.0,-325.0,-11040.0,-1546.0,113.0,1446.0,-52.8648729507436,300.857873570821,420.098539892694,734799344
-235,-256.0,-325.0,-11040.0,-1546.0,113.0,1446.0,-47.2309595572016,300.857223534603,420.072764472312,734805989
-7,-349.0,-439.0,-11035.0,-1565.0,112.0,1463.0,-43.4688775647152,300.859159256916,420.067966381564,734816493
169,-356.0,-377.0,-11035.0,-1565.0,112.0,1463.0,-39.710516418036,300.844066650033,420.076605341633,734824246
10,-425.0,-421.0,-11031.0,-1581.0,113.0,1478.0,-32.189161323866,300.843357873537,420.076688293205,734840810
10,-425.0,-421.0,-11030.0,-1589.0,114.0,1486.0,-28.4297558039409,300.842130156886,420.042370096518,734848622
36,-407.0,-421.0,-11030.0,-1593.0,115.0,1489.0,-22.7976592962785,300.837661774457,420.018891365009,734861806
36,-407.0,-421.0,-11027.0,-1597.0,113.0,1492.0,-17.1603131841826,300.832532498039,420.02681393654,734868022
22,-367.0,-328.0,-11025.0,-1600.0,112.0,1494.0,-13.4057336610246,300.829722803155,420.028883543339,734878689
17,-269.0,-242.0,-11022.0,-1602.0,109.0,1491.0,-7.76435067758038,300.831623056455,420.007909817548,734895902
-34,-149.0,-134.0,-11022.0,-1602.0,109.0,1491.0,-4.0042192857134,300.833414812951,419.99879944039,734903650
0,-176.0,-124.0,-11021.0,-1601.0,108.0,1487.0,1.62550243069343,300.826007045093,419.973159318793,734909940
-78,-87.0,-58.0,-11020.0,-1602.0,106.0,1486.0,7.2609706230074,300.807760944727,419.952726098229,734924471
-10,-125.0,-110.0,-11018.0,-1603.0,105.0,1483.0,12.8940635409907,300.812820622105,419.957782044183,734937323
-2,-204.0,-106.0,-11018.0,-1602.0,104.0,1481.0,18.5288508485698,300.814020387847,419.97353781506,734945834
33,-168.0,-84.0,-11016.0,-1603.0,102.0,1480.0,24.1712631361729,300.815988511372,419.969419475515,734961249
-43,-102.0,-23.0,-11014.0,-1603.0,100.0,1474.0,31.6789734521753,300.824980273376,419.969306996555,734978050
-88,-101.0,-29.0,-11014.0,-1602.0,99.0,1471.0,37.3122382840275,300.827047253411,419.996441783068,734986675
-21,-69.0,-51.0,-11013.0,-1604.0,98.0,1471.0,42.9474325504524,300.822231579572,420.009318316837,734995478
32,-52.0,-67.0,-11012.0,-1603.0,97.0,1468.0,48.5872289278775,300.831944220275,420.012623534662,735012925
48,-78.0,-80.0,-11011.0,-1604.0,95.0,1464.0,56.1020273065516,300.829900910008,420.013362874435,735028133
-94,-134.0,13.0,-11011.0,-1605.0,95.0,1462.0,59.8608669208913,300.839344015812,420.010987995458,735036804
40,-113.0,-42.0,-11011.0,-1605.0,95.0,1460.0,65.4933247171457,300.842745277969,420.004628543305,735053150
-38,-53.0,21.0,-11009.0,-1607.0,94.0,1459.0,71.1311187689799,300.84292961566,420.037898216146,735060322
32,-159.0,-56.0,-11009.0,-1608.0,94.0,1458.0,76.7710242120572,300.843532718195,420.048561816615,735071375
-87,-17.0,10.0,-11009.0,-1609.0,94.0,1456.0,80.5339738798666,300.848922929165,420.043391710312,735079722
-52,-81.0,13.0,-11007.0,-1611.0,92.0,1452.0,86.1805030616664,300.857050165315,420.055494863529,735096908
3,-28.0,-33.0,-11007.0,-1611.0,92.0,1452.0,91.8053947863403,300.86051576709,420.084883587999,735104900
-2,-35.0,-29.0,-11006.0,-1612.0,91.0,1449.0,97.4479812846094,300.867031771884,420.094202521755,735121212
-26,-83.0,-38.0,-11006.0,-1615.0,91.0,1449.0,103.095888836855,300.87157967134,420.109544295703,735129939
-21,-68.0,-20.0,-11011.0,-1604.0,95.0,1457.0,108.746112423147,300.882520639916,420.103771288599,735140531
-33,-112.0,-11.0,-11016.0,-1590.0,99.0,1471.0,114.385304373453,300.891083693414,420.141058512606,735155333
20,-47.0,-29.0,-11021.0,-1582.0,104.0,1476.0,121.908709874474,300.909835956656,420.14842119252,735167595
20,3.0,-32.0,-11021.0,-1582.0,104.0,1476.0,125.679407858253,300.915227759615,420.180170535556,735174868
45,-44.0,-55.0,-11021.0,-1585.0,103.0,1473.0,131.328243859,300.927970569053,420.18819187357,735193227
-74,-137.0,26.0,-11021.0,-1586.0,103.0,1472.0,136.985331344917,300.944361055933,420.220834840136,735204499
-97,-54.0,45.0,-11020.0,-1588.0,103.0,1469.0,146.408090968105,300.975694159109,420.25161313363,735217155
-114,-4.0,62.0,-11020.0,-1590.0,102.0,1467.0,150.18379001815,300.998965153518,420.283316944397,735234886
92,-105.0,-85.0,-11020.0,-1592.0,102.0,1466.0,155.842255831385,301.023073025075,420.331342981467,735243422
106,-97.0,-105.0,-11020.0,-1592.0,102.0,1463.0,159.620060736224,301.051661905102,420.341001267695,735251306
-134,-67.0,82.0,-11019.0,-1595.0,102.0,1461.0,165.265787995588,301.069939294087,420.375287986078,735267343
102,-89.0,-95.0,-11019.0,-1595.0,102.0,1461.0,170.812562588969,301.094312264351,420.393624502036,735274982
-134,-97.0,90.0,-11019.0,-1597.0,102.0,1461.0,176.174576365645,301.09393834476,420.427802324937,735283656
101,-77.0,-102.0,-11019.0,-1600.0,101.0,1458.0,179.630238751941,301.083263751587,420.44113856436,735300488
101,-77.0,-102.0,-11019.0,-1600.0,101.0,1455.0,184.58641899022,301.073748054536,420.476868750317,735307126
-142,-4.0,93.0,-11018.0,-1603.0,101.0,1453.0,187.733620088876,301.045905012987,420.49532553003,735319639
85,-110.0,-89.0,-11018.0,-1603.0,101.0,1452.0,192.206198333162,301.006059839258,420.509602024319,735330562
85,-110.0,-89.0,-11018.0,-1606.0,100.0,1451.0,196.350237637174,300.977494257881,420.526161001702,735339001
-112,55.0,78.0,-11018.0,-1607.0,100.0,1449.0,198.917252391953,300.929964843632,420.538544047418,735347472
-112,50.0,69.0,-11017.0,-1608.0,100.0,1448.0,202.482202249862,300.891142190443,420.526052507402,735363415
-78,-11.0,44.0,-11017.0,-1610.0,100.0,1446.0,205.679158550515,300.835689925783,420.503023668264,735371893
19,-19.0,-56.0,-11017.0,-1611.0,100.0,1445.0,207.609576685018,300.764316907947,420.483000625881,735380146
19,-19.0,-56.0,-11017.0,-1612.0,100.0,1444.0,210.186134294751,300.711802605222,420.46229322777,735388652
-28,-42.0,11.0,-11017.0,-1613.0,99.0,1441.0,211.697964685414,300.625113522834,420.461165056367,735400094
-15,-11.0,-29.0,-11016.0,-1615.0,99.0,1440.0,213.633234452346,300.538367164236,420.388553783415,735413159
-12,-13.0,-3.0,-11016.0,-1618.0,99.0,1438.0,215.181113421653,300.469415362364,420.349666041505,735427271
-31,-43.0,-17.0,-11016.0,-1616.0,99.0,1437.0,216.687163298588,300.331077179392,420.271586339474,735436418
-82,-40.0,19.0,-11017.0,-1616.0,100.0,1437.0,218.1880434203,299.980081601325,420.265151447105,735461842
-82,-40.0,19.0,-11018.0,-1618.0,100.0,1436.0,218.842359660877,299.554547687666,420.201015375608,735468072
80,-127.0,-62.0,-11018.0,-1619.0,100.0,1434.0,219.998704077403,299.134947555761,420.163616711165,735483741
-120,121.0,34.0,-11017.0,-1621.0,100.0,1432.0,220.921461469161,298.2741772749,420.141132885707,735491965
91,-125.0,-67.0,-11018.0,-1622.0,100.0,1431.0,222.587853729311,297.515421923325,420.139276297263,735500150
-120,137.0,38.0,-11018.0,-1623.0,100.0,1429.0,223.903215995989,296.108653796943,420.111307017528,735513208
-120,137.0,38.0,-11018.0,-1623.0,100.0,1429.0,226.219908541945,294.338538708742,420.06787763006,735513208
118,-101.0,-67.0,-11018.0,-1628.0,101.0,1423.0,228.945465706542,292.181055142828,420.066717424883,735552822
118,-101.0,-67.0,-11018.0,-1628.0,101.0,1423.0,233.252646884697,289.61156336135,420.055433137122,735552822
97,-76.0,-70.0,-11018.0,-1630.0,101.0,1423.0,235.707572042818,286.591069928362,420.03938675859,735559986
97,-76.0,-70.0,-11019.0,-1631.0,101.0,1420.0,239.76908777062,284.31646891816,420.019716536614,735568362
-126,96.0,34.0,-11019.0,-1633.0,102.0,1420.0,244.193762810125,280.557749022285,420.014999130852,735577222
-115,104.0,28.0,-11020.0,-1633.0,102.0,1418.0,248.869860092965,276.441949774452,420.014783655014,735595018
-106,114.0,19.0,-11020.0,-1636.0,102.0,1417.0,252.077843263113,272.02618219925,420.020375956787,735603198
66,-156.0,-37.0,-11020.0,-1636.0,103.0,1415.0,256.980670952292,267.366671767417,420.016187066942,735610196
-93,156.0,3.0,-11021.0,-1639.0,104.0,1412.0,261.929278010807,264.139025570478,420.015378160924,735629553
48,-99.0,-36.0,-11022.0,-1640.0,104.0,1411.0,266.890200346442,257.426589163988,420.010879736126,735638670
-43,28.0,-10.0,-11023.0,-1641.0,105.0,1410.0,271.832692361209,252.188327864273,420.007049213088,735654884
2,27.0,-23.0,-11023.0,-1642.0,105.0,1408.0,278.356422863624,246.794441020462,420.005677647381,735667357
-25,-5.0,-16.0,-11023.0,-1643.0,106.0,1409.0,283.173490675107,241.255570553317,420.007947417315,735674500
-8,-5.0,-31.0,-11025.0,-1646.0,107.0,1406.0,287.903955723837,235.591887300113,420.007978130493,735687631
-38,34.0,-19.0,-11026.0,-1645.0,108.0,1404.0,291.005997473388,229.809966804948,420.004797109977,735696570
8,0.0,-29.0,-11026.0,-1645.0,108.0,1404.0,295.582080678675,225.890991882299,420.001893770015,735710612
-65,34.0,-33.0,-11030.0,-1651.0,112.0,1399.0,300.049916413583,219.924311008883,419.999359087549,735723622
41,-7.0,-40.0,-11031.0,-1652.0,113.0,1399.0,302.966483105825,215.888917223343,420.003833567611,735731578
-73,71.0,-42.0,-11032.0,-1653.0,113.0,1397.0,305.835610873495,209.749509385074,420.002275566936,735740119
-73,107.0,-44.0,-11032.0,-1655.0,114.0,1397.0,310.037955364916,205.607008272688,419.999305825721,735751150
47,-92.0,-37.0,-11033.0,-1656.0,115.0,1395.0,314.117420381827,197.202314334822,419.998444996587,735764182
-80,185.0,-50.0,-11035.0,-1658.0,117.0,1393.0,318.075163690233,190.799913452928,420.001249250509,735778372
51,-114.0,-39.0,-11036.0,-1660.0,118.0,1393.0,321.904614877893,184.313058651002,420.002457969363,735787208
66,-134.0,-27.0,-11036.0,-1660.0,118.0,1393.0,325.606961942024,177.745464124994,419.999868290494,735796209
61,-88.0,-11.0,-11038.0,-1661.0,120.0,1391.0,329.176984209336,173.326256927568,419.998961404916,735813598
61,-88.0,-11.0,-11040.0,-1661.0,121.0,1389.0,332.611555157312,166.640944370255,420.001144792122,735819955
-85,133.0,-82.0,-11042.0,-1662.0,123.0,1387.0,335.912286642146,157.616633510859,420.001911943609,735836813
-75,116.0,-75.0,-11043.0,-1664.0,124.0,1387.0,340.099947837881,150.771381651913,420.001981894264,735853953
-75,116.0,-75.0,-11044.0,-1662.0,125.0,1383.0,343.080802269567,143.860133658945,420.000705564808,735860274
-5,17.0,-158.0,-11049.0,-1655.0,127.0,1370.0,344.989211180532,136.890417071758,419.99997561871,735877733
-71,348.0,-249.0,-11051.0,-1650.0,127.0,1363.0,347.734245940898,129.868375471843,420.001291304647,735886544
26,203.0,-239.0,-11051.0,-1650.0,127.0,1363.0,350.33762275294,125.155663828563,420.000865143453,735895177
20,289.0,-284.0,-11054.0,-1640.0,127.0,1353.0,351.991943389555,118.046652262735,419.998900377192,735903195
0,220.0,-209.0,-11057.0,-1627.0,127.0,1344.0,354.355059226623,113.279941225088,420.001411526116,735915599
-102,227.0,-255.0,-11061.0,-1609.0,127.0,1330.0,355.852053301903,106.086653648942,419.999112380593,735921893
28,178.0,-358.0,-11069.0,-1562.0,123.0,1283.0,357.973806577232,101.265559265524,419.998858866883,735940875
28,178.0,-358.0,-11073.0,-1534.0,120.0,1256.0,359.948828684738,91.572940793803,420.001411525727,735949153
-79,269.0,-121.0,-11073.0,-1534.0,120.0,1256.0,361.777638894498,86.7018321110251,420.000224824619,735956250
266,215.0,-447.0,-11083.0,-1459.0,114.0,1190.0,363.457016472236,79.3687069708029,420.000408388576,735968796
-125,195.0,-347.0,-11088.0,-1415.0,108.0,1149.0,364.987748749961,72.0008431412203,419.998686218791,735984612
-440,328.0,-37.0,-11092.0,-1369.0,103.0,1110.0,366.368798186592,62.1301931838047,419.999942871393,735992638
-440,328.0,-37.0,-11092.0,-1369.0,103.0,1110.0,367.600943699436,57.1775904053787,420.002484612748,735992638
-440,328.0,-37.0,-11092.0,-1369.0,103.0,1110.0,368.339908911876,49.7270786830204,420.00226169379,735992638
131,-153.0,97.0,-11125.0,-981.0,68.0,754.0,369.614013504581,42.2582820050579,419.999466438042,736057692
131,-153.0,97.0,-11125.0,-981.0,68.0,754.0,370.392293388858,34.7750921170445,419.999831411632,736057692
131,-153.0,97.0,-11125.0,-981.0,68.0,754.0,370.828004503448,27.2738798340412,420.001715311435,736057692
-55,147.0,-138.0,-11137.0,-810.0,58.0,595.0,371.496126133906,19.7646885693826,420.001177691055,736070325
170,-230.0,197.0,-11143.0,-712.0,53.0,510.0,371.728776114832,12.243958012465,419.999335300345,736078113
201,-294.0,20.0,-11148.0,-613.0,48.0,420.0,371.991602620217,4.719227598051,420.000611630056,736095261
-29,-171.0,69.0,-11157.0,-407.0,43.0,230.0,372.010077104401,-5.31496343723781,420.000500170305,736109427
55,-64.0,-78.0,-11160.0,-298.0,41.0,131.0,371.877708997702,-12.8402620518302,420.002971961216,736119331
-113,193.0,-263.0,-11160.0,-298.0,41.0,131.0,371.593541818227,-20.3576547297692,420.002445257418,736126826
160,-213.0,-63.0,-11163.0,-83.0,40.0,-67.0,371.155841445443,-27.8686919708448,420.000004059247,736143403
-276,125.0,8.0,-11163.0,30.0,40.0,-167.0,370.566045252153,-35.368143237773,419.99959972973,736151659
226,-296.0,-56.0,-11163.0,143.0,43.0,-272.0,369.825361293918,-42.8511350893877,420.001533902391,736164667
-314,342.0,-198.0,-11159.0,369.0,50.0,-478.0,368.933847765373,-50.3198279432489,420.002749042756,736181309
-314,342.0,-198.0,-11156.0,482.0,57.0,-583.0,367.89060155337,-57.766535866175,420.001402763869,736189502
-385,408.0,-167.0,-11151.0,598.0,63.0,-685.0,366.696576591832,-62.718818554745,419.999984381223,736205624
249,-277.0,8.0,-11145.0,713.0,69.0,-789.0,365.352151729799,-70.1236856144309,420.002790551908,736211899
87,-297.0,136.0,-11139.0,825.0,79.0,-893.0,364.374605017294,-75.0434540754393,420.00186828166,736225230
10,323.0,-340.0,-11130.0,943.0,87.0,-1000.0,362.78168909267,-82.3987314208415,419.999964703124,736233515
-94,-331.0,274.0,-11122.0,1059.0,99.0,-1105.0,361.039826745907,-89.7209187957084,420.002375307058,736244405
67,451.0,-514.0,-11113.0,1172.0,111.0,-1209.0,359.79797383256,-94.5814711427348,420.002071522476,736252625
-143,401.0,-396.0,-11102.0,1290.0,124.0,-1312.0,357.810124691181,-104.253323696161,420.000602867962,736265549
116,-389.0,66.0,-11077.0,1522.0,153.0,-1523.0,355.67590386538,-109.061581518853,419.999752699103,736279681
-126,328.0,-171.0,-11064.0,1633.0,170.0,-1628.0,353.397380320827,-116.232425758803,420.001190760339,736288294
-28,-115.0,-25.0,-11064.0,1633.0,170.0,-1628.0,350.973896129121,-123.357940915205,420.001352492184,736297059
-99,-162.0,53.0,-11034.0,1866.0,207.0,-1837.0,348.407556973279,-130.431846430403,420.001271626595,736314643
-99,-162.0,53.0,-11016.0,1982.0,226.0,-1942.0,346.615683454936,-137.453266972919,420.000967841077,736320928
-85,-238.0,151.0,-10980.0,2209.0,13.0,-2147.0,343.811207170306,-142.104509805835,420.00197097849,736337536
99,-267.0,-43.0,-10980.0,2209.0,13.0,-2147.0,340.866400509973,-149.031030144059,420.000137350642,736345948
16,139.0,-214.0,-10940.0,2442.0,61.0,-2356.0,337.781727868932,-155.896409673021,419.999540695079,736361009
-36,-62.0,-8.0,-10918.0,2556.0,86.0,-2460.0,335.647924319103,-162.697486133085,420.001748059719,736370819
-45,-42.0,-173.0,-10895.0,2668.0,111.0,-2562.0,332.334873151307,-167.193140367938,420.001859519381,736378639
56,108.0,-83.0,-10871.0,2780.0,138.0,-2664.0,327.70463258056,-176.09565978408,420.001697787175,736396214
-106,-42.0,143.0,-10845.0,2896.0,167.0,-2768.0,324.074723451721,-182.690204620744,420.000836703193,736404374
-93,-142.0,-70.0,-10819.0,3010.0,197.0,-2871.0,320.312936012211,-189.20767412429,420.001120810398,736416904
-74,90.0,21.0,-10765.0,3234.0,3.0,-3074.0,317.731065107301,-193.512259776908,420.001920706448,736433370
93,-66.0,52.0,-10736.0,3347.0,36.0,-3176.0,313.752071542322,-199.899793679332,420.000705565372,736441307
93,-66.0,52.0,-10706.0,3460.0,70.0,-3278.0,309.644434012045,-206.204839356635,420.000259726069,736449588
-128,78.0,-165.0,-10675.0,3574.0,106.0,-3379.0,305.408359460225,-214.481764017623,420.000320913609,736463548
-68,7.0,-129.0,-10643.0,3682.0,140.0,-3480.0,301.049048257769,-220.586196581143,420.001262863977,736477116
67,-10.0,-58.0,-10609.0,3790.0,176.0,-3582.0,296.566039503222,-224.607756708243,420.00137432366,736485719
45,126.0,-46.0,-10541.0,4015.0,255.0,-3783.0,293.509216636029,-230.561522696161,420.000178860142,736498799
-194,131.0,-171.0,-10505.0,4128.0,40.0,-3881.0,288.825712734376,-236.419408663372,420.000240047493,736512568
-169,-55.0,-109.0,-10469.0,4236.0,81.0,-3979.0,282.394785402197,-242.18388779117,420.000817025474,736526011
-29,103.0,-81.0,-10430.0,4344.0,122.0,-4078.0,277.439165773923,-249.710916563612,420.001273778623,736534383
122,-75.0,38.0,-10350.0,4561.0,209.0,-4278.0,270.653537950096,-255.238476835394,419.999835717568,736550493
7,-93.0,-22.0,-10311.0,4670.0,0.0,-4375.0,265.45834319551,-262.392130343293,420.001171082889,736567354
-18,-103.0,-29.0,-10227.0,4883.0,92.0,-4567.0,260.2725213428,-267.478946819602,420.005394829421,736581944
-18,-103.0,-29.0,-10181.0,4990.0,140.0,-4666.0,255.162626452065,-272.237599108955,420.026071650583,736590230
90,154.0,-172.0,-10137.0,5096.0,190.0,-4763.0,250.173621247018,-275.20592631558,420.024829195288,736599072
-70,51.0,-82.0,-10092.0,5204.0,241.0,-4857.0,245.326812930479,-280.597164382559,420.037170543977,736612907
-52,-53.0,-87.0,-10047.0,5309.0,37.0,-4950.0,240.648918691677,-283.017273661421,420.034936448472,736622573
-157,125.0,-128.0,-9949.0,5517.0,142.0,-5141.0,236.15452646149,-287.303515432521,420.079776683898,736639083
-9,154.0,-34.0,-9898.0,5622.0,196.0,-5236.0,230.48838818807,-290.86484699908,420.052118850082,736655309
116,-67.0,-34.0,-9848.0,5723.0,251.0,-5331.0,225.231285487601,-293.040121258423,420.080373843698,736668879
24,-32.0,-85.0,-9692.0,6032.0,167.0,-5605.0,220.418590549327,-295.288967378392,420.148324135837,736688313
-8,164.0,-129.0,-9692.0,6032.0,167.0,-5605.0,217.097441794105,-296.863005611447,420.155853666706,736697278
-55,-43.0,-1.0,-9582.0,6234.0,29.0,-5788.0,213.90148254995,-297.446876478373,420.185703642415,736711523
83,-14.0,-92.0,-9527.0,6331.0,89.0,-5879.0,210.731935356157,-298.163628708876,420.23703668919,736724233
156,62.0,-94.0,-9469.0,6429.0,150.0,-5970.0,207.517292914852,-298.71120023548,420.247333573354,736732049
156,62.0,-94.0,-9412.0,6529.0,214.0,-6058.0,204.193768821902,-299.133238116664,420.282590058573,736740404
156,62.0,-94.0,-9412.0,6529.0,214.0,-6058.0,200.724462202616,-299.468036543656,420.297165185113,736740404
116,160.0,33.0,-9172.0,6917.0,218.0,-6410.0,197.079650398402,-299.814543251687,420.317096584743,736782633
116,160.0,33.0,-9172.0,6917.0,218.0,-6410.0,193.242952853458,-299.949582541543,420.356493608448,736782633
116,160.0,33.0,-9109.0,7012.0,28.0,-6496.0,189.204474710009,-300.120604623727,420.401591018861,736791007
-188,47.0,-22.0,-9047.0,7108.0,98.0,-6581.0,185.000751697725,-300.257635871695,420.411778340027,736807216
-80,117.0,-49.0,-8985.0,7204.0,168.0,-6665.0,180.668638613968,-300.372540875607,420.388748726846,736819773
-121,248.0,-132.0,-8919.0,7296.0,237.0,-6751.0,177.719399325258,-300.440088704337,420.387694375183,736826899
172,-103.0,-126.0,-8854.0,7387.0,52.0,-6837.0,174.742399609323,-300.524149082513,420.417309650458,736835486
-78,111.0,53.0,-8785.0,7480.0,123.0,-6920.0,170.230849472048,-300.583643791042,420.391217037282,736847394
203,-333.0,-104.0,-8652.0,7662.0,13.0,-7083.0,165.669391160394,-300.613544148206,420.373503735383,736861670
-177,236.0,-29.0,-8652.0,7662.0,13.0,-7083.0,161.072262857899,-300.643522298433,420.37586988234,736868673
37,-66.0,-5.0,-8443.0,7929.0,238.0,-7327.0,151.781108989491,-300.68915669806,420.336482449699,736891947
37,-66.0,-5.0,-8372.0,8015.0,57.0,-7406.0,148.670045472376,-300.702477201005,420.309715032896,736900562
86,37.0,-88.0,-8299.0,8104.0,136.0,-7485.0,142.438250201958,-300.703694346994,420.296377420553,736917463
-285,154.0,45.0,-8154.0,8276.0,38.0,-7640.0,137.752508557041,-300.704717104055,420.306312990469,736932019
-285,154.0,45.0,-8079.0,8360.0,118.0,-7717.0,133.060418686954,-300.701045284417,420.264171808728,736940529
95,-233.0,24.0,-8003.0,8446.0,199.0,-7792.0,129.927493903073,-300.698003761236,420.264716798974,736956467
152,-300.0,20.0,-7929.0,8526.0,25.0,-7869.0,125.221207410967,-300.694590386593,420.236310697421,736962716
152,-300.0,20.0,-7851.0,8610.0,106.0,-7941.0,120.527558172216,-300.685475298768,420.238352527252,736972276
2,-174.0,-43.0,-7695.0,8773.0,18.0,-8090.0,117.386079395034,-300.677460864559,420.210506412403,736988744
-108,279.0,-70.0,-7695.0,8773.0,18.0,-8090.0,112.688553108802,-300.672429753356,420.196073848835,736997748
79,227.0,-38.0,-7542.0,8926.0,184.0,-8232.0,107.980836980422,-300.661729276492,420.176543013067,737011994
-80,201.0,71.0,-7542.0,8926.0,184.0,-8232.0,103.272673977682,-300.659208737706,420.187991960659,737018206
-323,621.0,66.0,-7393.0,9072.0,91.0,-8362.0,98.5645781750427,-300.649072025986,420.164541690146,737034915
-207,348.0,33.0,-7321.0,9140.0,167.0,-8422.0,93.86518640245,-300.644002015026,420.139914215799,737042806
-54,91.0,46.0,-7252.0,9203.0,242.0,-8482.0,90.7256593001036,-300.63485636503,420.135995370833,737058281
191,286.0,-68.0,-7184.0,9264.0,60.0,-8540.0,86.0256572557989,-300.626898204024,420.13056590322,737064445
344,-75.0,-109.0,-7060.0,9375.0,192.0,-8638.0,81.3193594324103,-300.6265091473,420.115802480373,737078672
-399,545.0,196.0,-7060.0,9375.0,192.0,-8638.0,76.6104064590681,-300.617080509668,420.104730629371,737087259
209,21.0,-84.0,-6948.0,9475.0,58.0,-8726.0,73.4752310266808,-300.612308227731,420.097223512731,737100877
-163,333.0,130.0,-6948.0,9475.0,58.0,-8726.0,67.2087325470235,-300.611069476525,420.073960881519,737108315
-10,360.0,29.0,-6850.0,9556.0,162.0,-8801.0,62.506442662173,-300.601253108698,420.079262198574,737120690
91,319.0,-33.0,-6806.0,9592.0,208.0,-8834.0,57.8031498616506,-300.598352026922,420.076107533461,737136565
-181,123.0,224.0,-6731.0,9655.0,34.0,-8890.0,49.9680323340822,-300.599117637982,420.037317819449,737152568
-24,436.0,-100.0,-6671.0,9705.0,99.0,-8932.0,45.2690446466001,-300.591780380771,420.048938423957,737170533
95,-95.0,194.0,-6671.0,9705.0,99.0,-8932.0,42.1316326321931,-300.585181382792,420.064666960549,737178235
-96,594.0,3.0,-6643.0,9727.0,126.0,-8950.0,37.4339158015168,-300.588076841256,420.034361575047,737186825
209,268.0,-95.0,-6626.0,9741.0,148.0,-8964.0,34.2997686760407,-300.587770252697,420.02490757839,737195189
-127,330.0,206.0,-6609.0,9756.0,167.0,-8975.0,29.6025016035828,-300.581621602543,420.010481463554,737210044
21,128.0,-46.0,-6598.0,9767.0,181.0,-8983.0,24.8997101573226,-300.579129553374,420.016391359316,737216316
-239,124.0,-18.0,-6580.0,9784.0,201.0,-8992.0,20.1997594790378,-300.580182438791,420.024545911137,737234584
-125,120.0,84.0,-6574.0,9790.0,209.0,-8996.0,17.0696577670913,-300.58004850469,420.013409389733,737242627
-125,120.0,84.0,-6569.0,9796.0,216.0,-8999.0,13.9388463021666,-300.581468710409,420.005839819109,737250989
-260,102.0,-29.0,-6566.0,9802.0,221.0,-9000.0,9.23776735089141,-300.579137670261,419.982791280341,737264398
-260,102.0,-29.0,-6563.0,9807.0,226.0,-9000.0,4.53835035667076,-300.575422053278,419.988461243637,737270576
-424,186.0,-69.0,-6563.0,9807.0,226.0,-9000.0,1.40580267125897,-300.572415155238,420.00586303349,737277651
-185,-110.0,1.0,-6556.0,9810.0,233.0,-9007.0,-3.29094468340794,-300.564155471365,420.002292155473,737290436
-366,-55.0,54.0,-6555.0,9810.0,233.0,-9007.0,-6.42350193047947,-300.54518592554,419.955682321645,737307080
-483,80.0,69.0,-6554.0,9812.0,236.0,-9008.0,-12.6883423586641,-300.555418221945,419.943073468452,737319651
-366,193.0,-68.0,-6552.0,9814.0,238.0,-9009.0,-15.8207415353817,-300.568593976607,419.955314583369,737326742
-237,95.0,-32.0,-6549.0,9815.0,241.0,-9013.0,-20.5199413105762,-300.570214050229,419.969274699053,737343019
-328,-173.0,8.0,-6549.0,9814.0,240.0,-9013.0,-25.2172203895466,-300.571988531239,419.971764158923,737353780
-328,-173.0,8.0,-6549.0,9813.0,240.0,-9014.0,-28.3501769332194,-300.571497015626,419.976380409884,737361241
-376,63.0,3.0,-6547.0,9812.0,241.0,-9017.0,-33.0481513576246,-300.571807936809,419.978435940795,737369502
-204,107.0,105.0,-6547.0,9812.0,241.0,-9017.0,-37.7461475294901,-300.576635354832,419.978563851294,737378099
-183,103.0,-25.0,-6545.0,9810.0,240.0,-9020.0,-42.4425656607443,-300.578938315025,420.001951497268,737396862
-125,-33.0,-35.0,-6544.0,9809.0,239.0,-9021.0,-47.1430795706149,-300.574858249198,420.013935530145,737404848
-45,-61.0,-35.0,-6541.0,9806.0,237.0,-9025.0,-51.8441918549079,-300.578619842426,420.002317319582,737420759
-8,20.0,3.0,-6541.0,9806.0,237.0,-9025.0,-54.9758693922759,-300.580573260638,420.009463805646,737428361
-25,141.0,-119.0,-6541.0,9806.0,236.0,-9025.0,-59.6734741362525,-300.580497797092,420.020732520469,737437097
-162,76.0,2.0,-6540.0,9806.0,237.0,-9026.0,-62.807417862899,-300.585827949131,420.004083895814,737453480
-162,76.0,2.0,-6540.0,9806.0,237.0,-9026.0,-67.5065342838448,-300.584300582735,420.011554358032,737460184
-20,57.0,-35.0,-6539.0,9803.0,236.0,-9028.0,-72.2073982973494,-300.587186215992,420.026165969258,737472745
174,36.0,-124.0,-6539.0,9802.0,235.0,-9029.0,-76.9062246892669,-300.584854730731,420.04050379758,737483947
174,36.0,-124.0,-6539.0,9803.0,236.0,-9029.0,-80.042360925607,-300.590776601712,420.037740535638,737492407
-409,110.0,167.0,-6540.0,9804.0,237.0,-9027.0,-84.74746621541,-300.600434317691,420.023753768287,737508927
30,-61.0,-217.0,-6540.0,9804.0,237.0,-9027.0,-89.4409330409484,-300.60167030606,420.061924747267,737516801
452,111.0,-213.0,-6538.0,9802.0,236.0,-9031.0,-94.1432745164303,-300.597671765294,420.074858025287,737533424
452,111.0,-213.0,-6539.0,9803.0,234.0,-9028.0,-98.8536158736568,-300.60599008938,420.074616632266,737541859
-47,-168.0,-56.0,-6540.0,9802.0,235.0,-9028.0,-103.554701254566,-300.610944371363,420.072698005674,737553431
-47,-168.0,-56.0,-6540.0,9802.0,235.0,-9028.0,-108.255541674,-300.616049188218,420.085797864779,737560225
-290,458.0,174.0,-6538.0,9802.0,236.0,-9031.0,-112.953551055424,-300.620986611519,420.087297055481,737572825
150,0.0,-237.0,-6537.0,9803.0,236.0,-9031.0,-117.664303338081,-300.621834889185,420.110841574903,737581472
81,-478.0,48.0,-6539.0,9801.0,235.0,-9031.0,-122.373912850293,-300.631255940259,420.119017819473,737599433
226,-195.0,-367.0,-6539.0,9801.0,235.0,-9031.0,-125.513630143914,-300.639365458547,420.127671218231,737607268
-467,682.0,313.0,-6538.0,9803.0,238.0,-9032.0,-130.215698036983,-300.652525754892,420.129982714707,737623202
-203,572.0,-37.0,-6536.0,9805.0,236.0,-9030.0,-134.922484828077,-300.662668360346,420.151935303605,737631256
-35,-36.0,115.0,-6538.0,9802.0,236.0,-9031.0,-139.634822185817,-300.663698527985,420.165577632943,737648419
181,105.0,-232.0,-6536.0,9803.0,236.0,-9031.0,-144.348685299003,-300.675808888196,420.193967872804,737656405
247,60.0,-425.0,-6536.0,9804.0,236.0,-9030.0,-149.057244896051,-300.688944619871,420.197278044035,737668917
-340,160.0,344.0,-6536.0,9804.0,236.0,-9030.0,-153.770445458754,-300.704098326764,420.193577632735,737679922
-165,267.0,286.0,-6536.0,9804.0,236.0,-9030.0,-160.058726408072,-300.724826894614,420.231835632766,737697410
-36,221.0,77.0,-6536.0,9803.0,236.0,-9031.0,-163.205094980179,-300.746566910959,420.275613648646,737705402
-136,40.0,109.0,-6535.0,9802.0,236.0,-9033.0,-167.903062835391,-300.759823781911,420.285711364418,737720880
153,-178.0,-400.0,-6534.0,9803.0,236.0,-9032.0,-172.528098949866,-300.770780450151,420.282957131048,737729783
20,-62.0,-78.0,-6534.0,9803.0,236.0,-9032.0,-177.025510870073,-300.772875887754,420.297000532645,737738763
159,-128.0,-239.0,-6535.0,9804.0,236.0,-9031.0,-179.939243113029,-300.760804026758,420.339192083538,737751997
-184,349.0,376.0,-6535.0,9804.0,236.0,-9031.0,-184.143796648618,-300.747683791304,420.362604639178,737759953
-79,397.0,221.0,-6534.0,9804.0,236.0,-9031.0,-188.150925292976,-300.737877546468,420.355649333826,737776712
-86,54.0,103.0,-6534.0,9805.0,236.0,-9031.0,-190.709407172324,-300.714301375216,420.355500993838,737784928
-86,54.0,103.0,-6534.0,9804.0,235.0,-9030.0,-194.348128657457,-300.696090215795,420.359612643105,737793153
-30,155.0,33.0,-6535.0,9805.0,236.0,-9030.0,-197.74561243119,-300.653513227153,420.359806638637,737809769
-40,30.0,-10.0,-6534.0,9805.0,235.0,-9029.0,-201.903239287447,-300.615342556892,420.36538064149,737822160
81,-158.0,-370.0,-6534.0,9805.0,235.0,-9029.0,-203.808341790407,-300.578015348785,420.382074841994,737831028
-28,267.0,170.0,-6535.0,9805.0,236.0,-9030.0,-206.453830050707,-300.540125167439,420.342516924788,737848330
-31,-62.0,-70.0,-6534.0,9805.0,235.0,-9029.0,-208.836761017233,-300.50699701249,420.354978658033,737856021
-31,-62.0,-70.0,-6533.0,9804.0,235.0,-9032.0,-210.27899672296,-300.477941018123,420.35216887951,737862285
189,191.0,-127.0,-6532.0,9804.0,235.0,-9032.0,-212.222194660118,-300.425447981731,420.302259377213,737874960
189,191.0,-127.0,-6532.0,9804.0,235.0,-9032.0,-213.369078055967,-300.37026412222,420.304231996738,737874960
189,191.0,-127.0,-6532.0,9804.0,235.0,-9032.0,-214.852778404059,-300.339804278532,420.254058146621,737874960
260,332.0,29.0,-6533.0,9802.0,234.0,-9032.0,-215.700355674927,-300.277860260907,420.239157509949,737916670
260,332.0,29.0,-6533.0,9802.0,234.0,-9032.0,-217.027641480259,-300.218989336675,420.199814565163,737916670
145,427.0,236.0,-6532.0,9803.0,234.0,-9033.0,-217.755100185236,-300.15335534331,420.070495229644,737924848
232,267.0,-21.0,-6532.0,9803.0,234.0,-9033.0,-218.430794808281,-300.113927696158,419.808644052952,737941624
406,64.0,-206.0,-6533.0,9804.0,234.0,-9031.0,-218.690854845159,-300.101474238779,419.267145345652,737958153
107,270.0,343.0,-6532.0,9804.0,233.0,-9031.0,-219.028261124414,-300.118491242586,417.945702659762,737965536
107,270.0,343.0,-6532.0,9803.0,235.0,-9034.0,-219.36697871997,-300.141394243482,417.061142510182,737973559
623,-283.0,-419.0,-6532.0,9805.0,234.0,-9030.0,-219.506038993718,-300.184037433852,415.39596344477,738000879
623,-283.0,-419.0,-6532.0,9805.0,234.0,-9030.0,-219.695055674831,-300.225335360125,414.0340675961,738000879
314,-9.0,-280.0,-6533.0,9805.0,235.0,-9030.0,-219.864452355537,-300.299723976608,411.64105528759,738016732
226,182.0,-28.0,-6532.0,9805.0,234.0,-9030.0,-219.95865754992,-300.39011282335,408.793649057953,738025023
226,182.0,-28.0,-6535.0,9807.0,233.0,-9025.0,-220.100773305069,-300.455518469941,405.455919234293,738033369
90,221.0,-99.0,-6551.0,9800.0,221.0,-9012.0,-220.231802370186,-300.556302672037,402.95646196536,738050440
-93,452.0,274.0,-6551.0,9800.0,221.0,-9012.0,-220.315404605561,-300.661713032128,398.790075981553,738058065
90,255.0,124.0,-6582.0,9776.0,189.0,-8991.0,-220.469564255212,-300.80962207669,392.461127582543,738073884
113,170.0,-94.0,-6604.0,9759.0,165.0,-8975.0,-220.562806054926,-300.877928260355,387.216232907983,738081689
26,289.0,123.0,-6631.0,9738.0,136.0,-8955.0,-220.649670455748,-300.964400088105,381.61921497985,738099868
-88,379.0,195.0,-6663.0,9713.0,102.0,-8931.0,-220.71158461439,-301.026909805768,377.789927314423,738107902
55,272.0,26.0,-6742.0,9646.0,15.0,-8875.0,-220.760095479519,-301.077435347785,369.860753821844,738123209
-114,166.0,72.0,-6791.0,9609.0,220.0,-8837.0,-220.78900435758,-301.107276549595,363.724324612607,738134432
-114,166.0,72.0,-6844.0,9566.0,165.0,-8798.0,-220.803292004319,-301.123522330071,359.578926284476,738142800
-124,264.0,107.0,-6899.0,9518.0,103.0,-8756.0,-220.812447199716,-301.129467466872,353.293069946815,738151150
-87,390.0,162.0,-6962.0,9462.0,34.0,-8709.0,-220.814117577883,-301.123443567193,346.966261511834,738165962
-159,91.0,292.0,-7107.0,9338.0,139.0,-8594.0,-220.807863061659,-301.108022996693,338.391138343161,738182503
-15,327.0,28.0,-7181.0,9269.0,55.0,-8533.0,-220.795660794237,-301.088608769029,331.891737210231,738191240
-42,526.0,162.0,-7265.0,9191.0,222.0,-8466.0,-220.78999430334,-301.068627486711,327.564382565781,738203902
84,79.0,-147.0,-7349.0,9112.0,132.0,-8396.0,-220.773170089784,-301.055921725409,321.072180663124,738211281
-193,150.0,215.0,-7435.0,9031.0,38.0,-8320.0,-220.757462320982,-301.029854319578,312.366016308886,738228162
-96,395.0,254.0,-7609.0,8856.0,105.0,-8168.0,-220.733304948402,-300.987108353951,305.794372316569,738244314
-96,395.0,254.0,-7696.0,8768.0,11.0,-8087.0,-220.710269890404,-300.957290576982,299.18781983152,738252599
22,-52.0,-72.0,-7696.0,8768.0,11.0,-8087.0,-220.705499763332,-300.946750274167,294.866150537106,738260206
33,60.0,-161.0,-7875.0,8580.0,75.0,-7918.0,-220.681321494052,-300.925379238556,290.481607664468,738272434
-45,142.0,118.0,-7963.0,8485.0,237.0,-7833.0,-220.681487823511,-300.915270999462,283.935503930591,738281004
54,-36.0,-370.0,-7963.0,8485.0,237.0,-7833.0,-220.660436496275,-300.885053719318,279.531034701877,738289651
36,210.0,-57.0,-8137.0,8287.0,47.0,-7656.0,-220.642873593959,-300.861394995167,272.949903893821,738306363
36,210.0,-57.0,-8222.0,8187.0,211.0,-7566.0,-220.637021725579,-300.857914495017,266.388122465853,738313568
-92,25.0,-72.0,-8310.0,8084.0,118.0,-7474.0,-220.60918731863,-300.824243706911,259.82089006168,738321648
127,96.0,-31.0,-8393.0,7980.0,25.0,-7381.0,-220.607666869066,-300.814358770717,255.437497251146,738338928
17,92.0,-40.0,-8560.0,7771.0,102.0,-7190.0,-220.592314484761,-300.797504830096,248.860621918557,738351445
-279,92.0,132.0,-8560.0,7771.0,102.0,-7190.0,-220.578342309353,-300.779915613397,242.277810555428,738358927
160,134.0,-36.0,-8721.0,7554.0,181.0,-6999.0,-220.561830495479,-300.760747350843,233.510043963803,738378700
83,-70.0,-182.0,-8801.0,7444.0,95.0,-6902.0,-220.556877150798,-300.739470570698,226.92766227981,738386990
-284,111.0,53.0,-8882.0,7335.0,9.0,-6797.0,-220.562067182743,-300.75696709022,220.389742825449,738395026
-284,111.0,53.0,-8961.0,7224.0,183.0,-6696.0,-220.548487659248,-300.748061908395,216.011421571669,738403453
270,28.0,-189.0,-9033.0,7110.0,98.0,-6599.0,-220.54037628346,-300.729404833077,209.412746940806,738420089
-210,-116.0,88.0,-9185.0,6880.0,191.0,-6390.0,-220.516564565269,-300.6861102351,202.803266393131,738434570
-210,-116.0,88.0,-9259.0,6768.0,114.0,-6283.0,-220.498474870345,-300.67428290553,196.218923969467,738443103
-268,407.0,36.0,-9328.0,6655.0,37.0,-6179.0,-220.501599365717,-300.677032273089,191.853520347208,738451628
211,-21.0,-338.0,-9398.0,6534.0,215.0,-6077.0,-220.499458998848,-300.676551547282,185.283608547733,738465358
211,-21.0,-338.0,-9468.0,6412.0,138.0,-5969.0,-220.504729602858,-300.687305847226,178.728328924758,738475027
-73,-65.0,168.0,-9537.0,6295.0,65.0,-5860.0,-220.514690597558,-300.697906189856,172.172174888788,738482904
-48,124.0,-87.0,-9601.0,6177.0,249.0,-5753.0,-220.524667388542,-300.711006925728,167.803241877512,738500216
68,109.0,-267.0,-9665.0,6056.0,177.0,-5646.0,-220.521101120692,-300.721907253031,161.242653969078,738508625
9,-140.0,4.0,-9730.0,5931.0,106.0,-5535.0,-220.529539701735,-300.718658515521,154.676224820203,738521076
-39,33.0,6.0,-9795.0,5809.0,39.0,-5423.0,-220.529756192479,-300.739525309144,150.301778969121,738527561
-93,95.0,-70.0,-9855.0,5689.0,229.0,-5311.0,-220.536886139984,-300.749009471012,143.724522326946,738538396
-58,151.0,-90.0,-9974.0,5440.0,98.0,-5086.0,-220.548812094627,-300.759941163213,134.951474714801,738554511
12,-40.0,-40.0,-10032.0,5313.0,36.0,-4973.0,-220.565299370687,-300.760151621526,130.56856917579,738567628
-16,-26.0,-4.0,-10142.0,5061.0,171.0,-4744.0,-220.566907059489,-300.771125121591,121.862851331124,738581107
-25,54.0,-127.0,-10142.0,5061.0,171.0,-4744.0,-220.563399405397,-300.765838094097,115.474432387121,738589646
-31,53.0,-94.0,-10247.0,4805.0,54.0,-4512.0,-220.557123331038,-300.777886565759,111.396949330912,738602739
-15,37.0,0.0,-10247.0,4805.0,54.0,-4512.0,-220.554046670494,-300.75661159598,105.496009335769,738610674
-8,0.0,1.0,-10347.0,4546.0,200.0,-4279.0,-220.552187186763,-300.758106962554,99.9681876190104,738623333
46,-111.0,-181.0,-10347.0,4546.0,200.0,-4279.0,-220.521568286828,-300.712826535601,94.8174558861915,738630614
-26,5.0,-108.0,-10441.0,4286.0,96.0,-4041.0,-220.49385452202,-300.671508664251,90.0849018378879,738647208
26,-52.0,-104.0,-10486.0,4155.0,47.0,-3924.0,-220.458601170841,-300.626458168731,85.814326535067,738655120
-28,53.0,54.0,-10530.0,4022.0,255.0,-3804.0,-220.412230365211,-300.565742812243,81.9830783606214,738671654
-53,96.0,-156.0,-10612.0,3756.0,161.0,-3563.0,-220.367345808254,-300.492111529236,77.6319111189563,738686537
23,-30.0,-136.0,-10688.0,3487.0,75.0,-3325.0,-220.301891531403,-300.411252524271,74.9544032360957,738703412
104,-83.0,-137.0,-10688.0,3487.0,75.0,-3325.0,-220.268497095944,-300.367224396875,72.7365764840863,738711586
-91,76.0,-144.0,-10760.0,3218.0,251.0,-3077.0,-220.217333483178,-300.298075321056,71.0590376585739,738728189
-47,168.0,-104.0,-10793.0,3085.0,213.0,-2956.0,-220.184048005465,-300.25759956769,69.7358087672081,738736171
-47,168.0,-104.0,-10825.0,2948.0,177.0,-2835.0,-220.120798510732,-300.186138519877,69.0420840249324,738744389
-64,36.0,42.0,-10857.0,2809.0,143.0,-2710.0,-219.95281671616,-300.150916426395,68.1893417110342,738760146
-199,80.0,24.0,-10885.0,2676.0,110.0,-2588.0,-219.709631140215,-300.113356350508,67.7322402613265,738766289
-162,72.0,-224.0,-10911.0,2541.0,78.0,-2466.0,-218.961746966887,-300.116867726745,67.0253004974276,738779329
151,13.0,-139.0,-10962.0,2265.0,20.0,-2220.0,-218.372815366954,-300.056929655356,66.6912029596423,738791495
60,-9.0,22.0,-10962.0,2265.0,20.0,-2220.0,-217.230173681557,-300.034161998888,66.322743844682,738800439
53,-213.0,-208.0,-10985.0,2129.0,249.0,-2096.0,-215.807217839714,-300.023112931289,66.1306946564172,738809095
-80,35.0,-157.0,-11009.0,1993.0,225.0,-1966.0,-214.666750905804,-300.012593300683,65.8793124189449,738821585
46,-137.0,-239.0,-11047.0,1714.0,178.0,-1719.0,-212.686842156363,-300.010497638609,65.6771539036586,738835712
46,-137.0,-239.0,-11064.0,1573.0,157.0,-1594.0,-210.344606584289,-299.992228262379,65.5424984490351,738844021
200,-284.0,-36.0,-11080.0,1433.0,138.0,-1467.0,-208.594556410584,-300.016002832504,65.4339436413925,738855596
200,-284.0,-36.0,-11080.0,1433.0,138.0,-1467.0,-206.692057562356,-300.060909359057,65.3594347949143,738862411
-291,139.0,50.0,-11108.0,1160.0,106.0,-1212.0,-203.514880962254,-300.107494407193,65.2600464303454,738875031
-241,100.0,20.0,-11118.0,1015.0,90.0,-1088.0,-199.951441576972,-300.104671027861,65.1424381929314,738882959
-33,127.0,-300.0,-11128.0,874.0,77.0,-962.0,-197.388921815542,-300.18752729585,65.1131861722921,738891930
-199,-23.0,240.0,-11139.0,738.0,69.0,-833.0,-193.205511507059,-300.242246912794,65.052968691578,738908988
-347,181.0,-258.0,-11144.0,599.0,57.0,-703.0,-188.675168626828,-300.302733245743,65.000871921099,738918580
-347,181.0,-258.0,-11150.0,456.0,50.0,-581.0,-185.501267920843,-300.377078791915,64.9555512938416,738924928
122,-138.0,23.0,-11153.0,316.0,43.0,-454.0,-180.543554923587,-300.458614818833,64.91231891231,738941246
47,-421.0,-209.0,-11156.0,174.0,38.0,-327.0,-175.443417584415,-300.534713431617,64.8978195017702,738949695
-22,27.0,-158.0,-11160.0,-96.0,37.0,-75.0,-170.181296066257,-300.578285766404,64.8614238324366,738963731
-335,361.0,369.0,-11160.0,-96.0,37.0,-75.0,-166.637942597725,-300.615537170965,64.859009549217,738969907
-32,-148.0,-68.0,-11155.0,-232.0,35.0,42.0,-161.253252399902,-300.683781147412,64.8410428015553,738980087
-14,-36.0,136.0,-11150.0,-477.0,39.0,267.0,-153.964705397552,-300.773060503443,64.836115552068,738996294
88,-475.0,-117.0,-11146.0,-591.0,44.0,372.0,-148.449707011393,-300.776803230835,64.8125570439302,739011670
-230,339.0,118.0,-11135.0,-802.0,53.0,559.0,-142.894150287803,-300.795418656849,64.8117447782774,739024730
249,-440.0,-226.0,-11131.0,-897.0,60.0,647.0,-137.327643311968,-300.838555936824,64.8275848458349,739032370
249,-440.0,-226.0,-11131.0,-897.0,60.0,647.0,-131.733297365492,-300.850069572169,64.8276269358001,739032370
-60,165.0,405.0,-11106.0,-1200.0,82.0,925.0,-124.254690981094,-300.851961821142,64.8171123969663,739075248
-60,165.0,405.0,-11106.0,-1200.0,82.0,925.0,-118.63381656601,-300.884536372497,64.8567970166449,739075248
-51,-214.0,-100.0,-11097.0,-1312.0,93.0,1025.0,-111.124235424732,-300.864865329413,64.8448018275303,739092168
163,-22.0,252.0,-11097.0,-1312.0,93.0,1025.0,-105.492879978435,-300.851144716002,64.8396677243908,739101226
13,-272.0,232.0,-11093.0,-1355.0,98.0,1065.0,-100.036281888212,-300.855148830782,64.856143668937,739109206
-198,-15.0,211.0,-11087.0,-1412.0,104.0,1120.0,-94.2313807790011,-300.903138916851,64.8963510265284,739129072
148,-103.0,-158.0,-11083.0,-1433.0,104.0,1135.0,-90.46222143773,-300.842896063108,64.8661695345679,739140574
108,65.0,-271.0,-11080.0,-1446.0,105.0,1148.0,-81.0581406964352,-300.854322943829,64.8971297225308,739148996
-158,195.0,-330.0,-11078.0,-1469.0,108.0,1171.0,-75.4179542404109,-300.853844097569,64.9168939032056,739169690
-158,195.0,-330.0,-11076.0,-1479.0,108.0,1178.0,-69.7871638250521,-300.866178610878,64.9258236918626,739175973
122,49.0,-389.0,-11074.0,-1488.0,108.0,1187.0,-64.1416992021156,-300.821092537072,64.9139155477816,739192261
43,111.0,-364.0,-11074.0,-1487.0,109.0,1189.0,-58.4938331940872,-300.836917821304,64.929044744709,739204959
-88,325.0,-541.0,-11073.0,-1488.0,107.0,1190.0,-52.8552148107934,-300.834747417918,64.9441955008603,739218614
22,258.0,-542.0,-11070.0,-1495.0,106.0,1193.0,-47.2273978318032,-300.816279921176,64.9444696036386,739232967
95,162.0,-464.0,-11070.0,-1495.0,106.0,1193.0,-39.7021698590221,-300.818510825175,64.9552934060447,739241717
-82,197.0,-360.0,-11069.0,-1495.0,106.0,1198.0,-34.0589313831042,-300.814108714618,64.9572648508003,739257877
-56,291.0,-397.0,-11068.0,-1496.0,104.0,1199.0,-30.3070368236728,-300.816829516971,64.9609030892762,739267636
-56,291.0,-397.0,-11066.0,-1498.0,104.0,1202.0,-24.6773763507815,-300.811744133634,64.9629922375115,739273900
33,105.0,-194.0,-11066.0,-1503.0,104.0,1207.0,-20.9169570677802,-300.812693812757,64.9669118226435,739290104
-36,44.0,-80.0,-11065.0,-1505.0,104.0,1210.0,-13.3943801678805,-300.81330922619,64.9761083536586,739298559
-67,38.0,-82.0,-11064.0,-1509.0,104.0,1215.0,-9.64113271704291,-300.814143348349,64.9856491603513,739306628
-33,104.0,-38.0,-11062.0,-1508.0,103.0,1215.0,-4.01012105995545,-300.815265196343,64.9897600738112,739320326
26,84.0,-197.0,-11060.0,-1511.0,101.0,1218.0,-0.255118268471303,-300.817269106686,64.9921693392569,739331328
-29,170.0,-117.0,-11060.0,-1511.0,101.0,1219.0,5.38414948823189,-300.763653685109,64.9867268126732,739340102
-43,0.0,-62.0,-11057.0,-1514.0,99.0,1226.0,11.0209147380646,-300.748323974054,64.9858443919527,739355941
-18,105.0,-125.0,-11057.0,-1514.0,99.0,1226.0,14.7707185010386,-300.750299893046,64.9854124241605,739362727
-13,-32.0,14.0,-11055.0,-1516.0,98.0,1230.0,20.4017938279059,-300.752565570958,64.9808367211793,739375154
5,-26.0,-54.0,-11054.0,-1517.0,98.0,1233.0,26.0430735009851,-300.761276719356,64.9798488465701,739382831
-43,9.0,5.0,-11052.0,-1517.0,96.0,1235.0,33.5550438944742,-300.763738494943,64.974957361011,739404138
-6,-3.0,-50.0,-11052.0,-1517.0,96.0,1235.0,39.1842258151627,-300.777917999856,64.9824114065604,739412103
-25,-93.0,56.0,-11050.0,-1518.0,95.0,1239.0,44.8202773799042,-300.785197936108,64.9820982742832,739428880
-10,122.0,-102.0,-11049.0,-1516.0,94.0,1240.0,50.4628788346383,-300.797115119835,64.9833096142831,739437287
-10,122.0,-102.0,-11048.0,-1515.0,93.0,1241.0,56.0965007484093,-300.796266046195,64.9758368106275,739445621
-11,128.0,-62.0,-11047.0,-1514.0,92.0,1243.0,59.8511390295122,-300.797167254066,64.9753515990631,739454177
-5,-22.0,-73.0,-11046.0,-1513.0,91.0,1244.0,63.6063216485627,-300.815931252008,64.9754034017964,739464964
-45,-44.0,79.0,-11045.0,-1514.0,90.0,1246.0,69.2485677451933,-300.821016392108,64.9730600066584,739478015
-45,-44.0,79.0,-11044.0,-1512.0,89.0,1247.0,74.8936788677926,-300.826642175678,64.9728502700389,739486073
-3,-79.0,31.0,-11043.0,-1513.0,89.0,1250.0,78.6476777759233,-300.828851189471,64.962621598133,739494813
-26,-18.0,30.0,-11042.0,-1510.0,88.0,1249.0,86.1575316045359,-300.824231388908,64.9477889499246,739511557
-18,119.0,-73.0,-11041.0,-1507.0,86.0,1252.0,91.8043474248505,-300.831717255262,64.9328952230206,739528151
-18,119.0,-73.0,-11040.0,-1508.0,86.0,1255.0,97.4472868529308,-300.832500666616,64.9331067352581,739536212
-15,-88.0,22.0,-11039.0,-1507.0,85.0,1256.0,101.21280333181,-300.861295432294,64.9452867538949,739544672
-10,-133.0,40.0,-11038.0,-1506.0,84.0,1258.0,106.847204636674,-300.84950183225,64.9183651241069,739561034
-13,-78.0,18.0,-11037.0,-1504.0,83.0,1257.0,112.483983529823,-300.839867923016,64.902101851793,739568314
-17,66.0,-63.0,-11036.0,-1501.0,82.0,1261.0,118.136730068853,-300.858538066009,64.888143563166,739585081
-25,23.0,-55.0,-11036.0,-1500.0,82.0,1261.0,123.780453007661,-300.864653153786,64.8998377809986,739596595
-25,23.0,-55.0,-11035.0,-1500.0,81.0,1264.0,129.436260693916,-300.902112832711,64.897418926584,739605192
-10,-23.0,5.0,-11034.0,-1498.0,81.0,1265.0,135.076235004879,-300.894497257935,64.8559843642888,739621132
-13,-8.0,-47.0,-11034.0,-1497.0,80.0,1266.0,140.71260029411,-300.872101159466,64.8446689618527,739630141
-22,34.0,1.0,-11033.0,-1494.0,79.0,1268.0,148.270797402675,-300.925525959187,64.8654129329191,739646291
-15,21.0,-1.0,-11033.0,-1492.0,80.0,1269.0,153.911239579919,-300.925155784839,64.8230392305302,739654733
-13,-34.0,27.0,-11034.0,-1492.0,80.0,1271.0,157.67990896424,-300.940961894957,64.808062856049,739671812
-20,-74.0,-41.0,-11034.0,-1490.0,80.0,1271.0,165.194178382176,-300.931791072966,64.7878456064244,739678630
-7,-88.0,-55.0,-11033.0,-1487.0,79.0,1274.0,170.736567131643,-300.968167335325,64.8080245950983,739695299
-20,93.0,14.0,-11034.0,-1486.0,80.0,1275.0,174.320122691328,-300.917506732902,64.7787374292035,739704213
-26,128.0,28.0,-11034.0,-1485.0,80.0,1277.0,181.189932925205,-300.882626604724,64.778439930453,739717865
-19,90.0,45.0,-11034.0,-1483.0,80.0,1278.0,186.042412417041,-300.832553271744,64.7645162643031,739727626
-11,-184.0,-59.0,-11034.0,-1480.0,80.0,1280.0,190.583479995745,-300.77410424164,64.7990291445883,739744516
-23,119.0,33.0,-11034.0,-1480.0,80.0,1280.0,193.448207459619,-300.70972888912,64.7743797229582,739753030
-7,-94.0,-82.0,-11035.0,-1477.0,80.0,1282.0,197.44047370045,-300.615319726524,64.7631290047632,739767624
-7,-94.0,-82.0,-11035.0,-1477.0,81.0,1285.0,201.126554141102,-300.574716761304,64.8169481898067,739775934
-39,76.0,55.0,-11035.0,-1475.0,81.0,1285.0,204.415918340652,-300.472155546916,64.8126607291648,739784594
5,-153.0,-61.0,-11035.0,-1475.0,81.0,1288.0,207.363810200055,-300.435345508672,64.8315310633256,739796498
-34,118.0,48.0,-11035.0,-1472.0,81.0,1289.0,209.92237842821,-300.343391898522,64.840142306434,739813094
-3,-182.0,-64.0,-11035.0,-1472.0,81.0,1290.0,211.432028840508,-300.269528047368,64.8596528629743,739821087
-20,51.0,37.0,-11036.0,-1469.0,81.0,1293.0,213.944831509301,-300.191824702956,64.8826941395558,739838370
-20,51.0,37.0,-11036.0,-1468.0,82.0,1294.0,215.402395477985,-300.132070970946,64.9342255348874,739846671
-22,-5.0,46.0,-11036.0,-1466.0,82.0,1296.0,216.501211374334,-300.076124469921,64.9443440146953,739862823
-4,-76.0,-55.0,-11037.0,-1464.0,82.0,1299.0,217.11159643236,-299.937690832719,64.9267850004935,739875244
-18,-81.0,-32.0,-11037.0,-1463.0,82.0,1301.0,218.349146419605,-299.677801183721,64.9425830437544,739884158
-16,-51.0,-23.0,-11037.0,-1461.0,82.0,1301.0,219.475452083744,-299.226385426791,64.9757214176319,739901912
-16,-31.0,-2.0,-11037.0,-1461.0,83.0,1304.0,220.847618276098,-298.480952256958,64.9847699014614,739910141
-16,-31.0,-2.0,-11037.0,-1458.0,83.0,1305.0,221.929396248997,-297.426800185897,64.98525697914,739916315
-11,-115.0,16.0,-11037.0,-1458.0,83.0,1306.0,223.854476811839,-296.047325902523,64.9997414020164,739929112
-22,16.0,-41.0,-11038.0,-1455.0,83.0,1307.0,226.180118513826,-294.926590028715,65.0176014016604,739940167
-16,-130.0,27.0,-11038.0,-1453.0,83.0,1310.0,228.911165377698,-292.920164044668,65.0117946806007,739956179
-7,-93.0,-68.0,-11038.0,-1452.0,84.0,1312.0,232.066563478919,-290.484487835482,64.9957122513502,739969457
-7,-93.0,-68.0,-11038.0,-1450.0,84.0,1313.0,235.693095174449,-287.611998706756,64.9980603832651,739975712
-23,-50.0,43.0,-11038.0,-1449.0,84.0,1314.0,238.360135686558,-284.296410370414,65.011939464656,739983357
-13,-103.0,-74.0,-11038.0,-1449.0,84.0,1314.0,242.675942025962,-281.841790017847,65.0147953137527,739992020
-15,-48.0,-97.0,-11039.0,-1445.0,84.0,1318.0,247.272517675666,-277.841887885762,65.0055724072936,740018744
-15,-48.0,-97.0,-11039.0,-1445.0,84.0,1318.0,252.06944002979,-273.5200860765,65.0070470005847,740018744
-16,-116.0,70.0,-11039.0,-1444.0,84.0,1320.0,255.332261045519,-268.938882673515,65.010069147061,740033187
-35,-108.0,82.0,-11039.0,-1443.0,85.0,1322.0,260.28211903312,-264.1360287227,65.0131234898267,740042623
-20,-142.0,85.0,-11040.0,-1441.0,86.0,1325.0,266.890643763682,-259.131162578766,65.0020173189865,740059534
-18,-104.0,80.0,-11041.0,-1439.0,86.0,1325.0,271.831536606476,-253.949943480048,65.004058551845,740072271
-15,-62.0,-109.0,-11041.0,-1439.0,86.0,1328.0,275.105453097991,-248.608074649778,65.0065670547567,740083219
-29,-69.0,75.0,-11041.0,-1436.0,86.0,1328.0,281.576517047334,-243.115466279816,65.0031998795335,740092024
-3,-103.0,-98.0,-11042.0,-1434.0,87.0,1331.0,286.340115612275,-237.492081198281,65.0015046262457,740108790
-3,-103.0,-98.0,-11043.0,-1433.0,88.0,1332.0,289.462172634033,-231.748248557081,65.0000780703306,740116287
-28,-61.0,61.0,-11043.0,-1432.0,88.0,1333.0,294.067313072577,-227.858767767717,65.0025457637897,740124896
-18,-73.0,-91.0,-11043.0,-1431.0,88.0,1334.0,298.571932978997,-221.927456534519,65.0011766781749,740133903
-24,-117.0,46.0,-11043.0,-1429.0,88.0,1336.0,302.968071251254,-215.88767664069,65.0018645228574,740143605
-24,-117.0,46.0,-11043.0,-1429.0,88.0,1336.0,305.837139280404,-209.749481059521,65.0019405038539,740143605
-5,-96.0,-61.0,-11044.0,-1426.0,89.0,1341.0,310.040858941032,-203.51847868285,64.9998700532108,740186588
-5,-96.0,-61.0,-11044.0,-1426.0,89.0,1341.0,315.453349865349,-195.079067273897,65.0002089314836,740186588
-39,-4.0,-11.0,-11045.0,-1424.0,90.0,1343.0,319.366580756188,-188.649163992098,65.000874314619,740204570
4,-217.0,-52.0,-11045.0,-1424.0,90.0,1343.0,323.154969295175,-182.131826500855,65.0010938605467,740212525
-23,-52.0,-38.0,-11047.0,-1422.0,92.0,1345.0,326.813142161904,-175.539140885064,65.0003496686985,740227896
-23,-52.0,-38.0,-11047.0,-1419.0,92.0,1346.0,330.337972653379,-168.876146993064,64.9999685659366,740236262
-10,-135.0,-39.0,-11048.0,-1420.0,93.0,1349.0,334.827019426143,-162.145918321759,65.0001053609779,740245611
-14,-263.0,-121.0,-11047.0,-1422.0,93.0,1350.0,338.036963761477,-155.343947956366,65.0006052448648,740264418
-2,-413.0,-155.0,-11047.0,-1424.0,93.0,1354.0,340.100869243119,-150.771302438511,65.0000299303825,740270697
6,-300.0,-179.0,-11048.0,-1423.0,94.0,1356.0,343.082280822338,-143.858014098276,65.0002241422101,740285052
-21,-437.0,-146.0,-11050.0,-1419.0,96.0,1354.0,344.991167077914,-136.890556419199,65.0000192371284,740293930
-55,-223.0,-67.0,-11050.0,-1419.0,96.0,1354.0,347.734056878802,-132.21706973244,64.9999725144984,740303124
10,-276.0,-57.0,-11051.0,-1417.0,95.0,1352.0,349.484545249239,-125.159811948165,64.999062821415,740311131
27,-302.0,-146.0,-11053.0,-1412.0,96.0,1350.0,351.992430147905,-120.42274340753,64.9995914121533,740320540
30,-556.0,-241.0,-11056.0,-1404.0,98.0,1340.0,353.58451843713,-113.277020167484,64.9995446895098,740334387
-91,-164.0,-254.0,-11056.0,-1404.0,98.0,1340.0,355.113161133891,-108.48581795609,64.9991275584632,740343037
-176,-302.0,12.0,-11059.0,-1398.0,98.0,1333.0,357.283636543269,-103.675633155626,64.9997208868715,740352190
1,-264.0,-139.0,-11060.0,-1387.0,98.0,1327.0,359.306660581242,-96.4299388721917,64.9995446897996,740360138
296,-140.0,-464.0,-11059.0,-1375.0,95.0,1319.0,360.574642926463,-89.1459411157945,64.9993972006682,740372752
-221,-438.0,-164.0,-11066.0,-1352.0,96.0,1295.0,362.353040234868,-81.8187350031185,64.9997676093403,740391150
-22,-11.0,66.0,-11069.0,-1333.0,95.0,1279.0,363.983712191481,-76.9163405856929,64.9996381348863,740399371
-22,-11.0,66.0,-11071.0,-1311.0,93.0,1265.0,364.988645470499,-69.535676562932,64.9991275589322,740407705
204,41.0,114.0,-11071.0,-1311.0,93.0,1265.0,366.370369905029,-64.5986169571104,64.9993217698175,740414608
-54,-234.0,-118.0,-11076.0,-1277.0,90.0,1231.0,367.20733922229,-57.1769686783431,64.999656149259,740427135
-37,-135.0,92.0,-11080.0,-1256.0,90.0,1215.0,368.682935209123,-49.7290961145611,64.9994619377001,740434834
117,-107.0,-296.0,-11084.0,-1212.0,85.0,1181.0,369.613844981515,-42.2606560387848,64.999062821415,740455986
-117,-345.0,358.0,-11084.0,-1212.0,85.0,1181.0,370.393451330748,-34.7720662310356,64.9995266748751,740463308
-70,-87.0,-217.0,-11088.0,-1170.0,82.0,1144.0,370.828268027036,-27.27396036051,64.9994799521635,740475865
41,-20.0,-290.0,-11088.0,-1170.0,82.0,1144.0,371.354728550051,-22.2697306509199,64.9995086605719,740482918
155,257.0,-389.0,-11094.0,-1125.0,79.0,1109.0,371.729668450016,-14.7519442035751,64.9993324635763,740499423
-14,-47.0,-51.0,-11096.0,-1101.0,77.0,1090.0,371.894291345078,-7.22794453938819,64.9999725143728,740509984
-88,-456.0,89.0,-11100.0,-1082.0,78.0,1071.0,372.015257000987,0.298712390181205,64.9995086601049,740522521
-130,52.0,-132.0,-11104.0,-1034.0,74.0,1033.0,371.939502503149,7.82360506736311,64.9994259084559,740536747
36,-94.0,60.0,-11109.0,-1011.0,75.0,1013.0,371.80069292711,15.3463595027584,64.9998143320404,740545244
-125,-253.0,-375.0,-11110.0,-991.0,72.0,995.0,371.15666017991,25.3642040626727,64.9994906455405,740562121
-70,47.0,-155.0,-11113.0,-968.0,72.0,976.0,370.567209995605,32.8700114169491,64.9997963171761,740571613
171,168.0,-237.0,-11118.0,-921.0,70.0,937.0,370.089912561292,40.3599864711904,64.9996201199799,740585680
-179,36.0,-14.0,-11121.0,-900.0,69.0,916.0,369.248715133214,47.8335605573127,64.999314448573,740594345
3,113.0,13.0,-11124.0,-875.0,69.0,898.0,368.255451064971,55.2849933597256,64.9997602879293,740610864
3,113.0,13.0,-11125.0,-851.0,67.0,879.0,367.112523346193,60.2426960952945,65.0002421570657,740617047
-161,-45.0,-39.0,-11129.0,-831.0,67.0,860.0,366.266388320923,67.6572539348336,64.9999832076631,740629639
-257,-435.0,-225.0,-11132.0,-811.0,67.0,837.0,364.872920958798,75.041142144609,64.9999184705034,740639948
-257,-435.0,-225.0,-11136.0,-785.0,68.0,818.0,363.329637221813,82.3997069435388,64.9996308135063,740648049
223,-16.0,-130.0,-11138.0,-758.0,66.0,799.0,361.636999291434,89.7226816315491,65.0001594050298,740664568
-66,41.0,-63.0,-11142.0,-719.0,65.0,760.0,359.797755376004,97.0079360372207,64.9999004558353,740676953
-70,-179.0,-486.0,-11142.0,-719.0,65.0,760.0,357.811793290762,101.841061475999,64.999835718624,740684281
135,238.0,-34.0,-11152.0,-645.0,67.0,700.0,354.174249196162,113.845448172091,64.9999832078859,740705833
13,-146.0,-331.0,-11153.0,-626.0,66.0,681.0,352.606764694479,120.987081116165,64.9994546165221,740719516
-146,-118.0,-83.0,-11157.0,-604.0,67.0,661.0,349.279206067007,128.080673107253,64.9997889960413,740732633
54,89.0,-52.0,-11159.0,-579.0,67.0,640.0,346.617106203169,135.119434994286,65.0006052456718,740740925
42,21.0,-57.0,-11164.0,-533.0,67.0,601.0,344.763430280092,142.10469011679,64.9998644267629,740757592
-44,-22.0,-154.0,-11166.0,-513.0,68.0,582.0,341.864417349721,149.028175388358,64.9995947845264,740768159
-9,60.0,-197.0,-11166.0,-513.0,68.0,582.0,338.826236966955,153.614801470392,65.0003643108156,740774383
-13,15.0,15.0,-11172.0,-467.0,69.0,538.0,336.724043179081,160.437998628152,64.9997529669712,740788890
-13,15.0,15.0,-11174.0,-446.0,69.0,518.0,333.455415370254,164.949391625453,65.0004290484588,740797144
-34,-66.0,-161.0,-11176.0,-423.0,70.0,498.0,331.199706515231,169.431522673143,65.0002815583693,740805911
-3,-147.0,-178.0,-11176.0,-423.0,70.0,498.0,327.704792768287,176.096083284103,65.0001053611363,740813436
0,-16.0,-62.0,-11181.0,-378.0,71.0,458.0,324.075564451452,182.68965511268,65.0001700984311,740829239
0,-16.0,-62.0,-11184.0,-355.0,72.0,436.0,321.581100657172,187.045312869565,65.0002348355228,740837175
-20,11.0,-116.0,-11186.0,-334.0,73.0,417.0,317.731237172159,195.650947362432,65.0003462954572,740845840
70,42.0,-148.0,-11188.0,-311.0,73.0,397.0,312.396938662652,202.00980078385,64.9994940189616,740862165
17,92.0,-90.0,-11190.0,-288.0,74.0,377.0,308.248153292044,208.286594397076,64.9999291639213,740874615
-58,-130.0,-92.0,-11195.0,-244.0,76.0,333.0,303.969653220602,214.483297129612,65.0004110329976,740888698
2,-4.0,-153.0,-11197.0,-223.0,77.0,314.0,301.048905310533,218.562262042048,65.0000406238764,740899571
2,-4.0,-153.0,-11198.0,-200.0,78.0,294.0,296.566668001701,224.606927735696,64.999494018649,740907941
-14,-43.0,-185.0,-11200.0,-177.0,79.0,275.0,291.961668401239,230.561802592959,64.999512033019,740921005
-14,-43.0,-185.0,-11203.0,-154.0,80.0,255.0,288.825118781596,236.420686140249,64.9999758866094,740927186
-22,-53.0,-92.0,-11204.0,-130.0,81.0,234.0,284.023999656934,240.271870926755,65.0000226092561,740942845
-38,-77.0,-149.0,-11206.0,-110.0,82.0,213.0,279.10471765726,245.969483545671,64.9995874641259,740950635
-35,-41.0,-131.0,-11249.0,-56.0,122.0,181.0,274.070588848249,251.566484585787,65.0001988063899,740967542
102,225.0,-92.0,-11251.0,-32.0,123.0,163.0,268.927011901327,257.057369723942,65.0000873465788,740979942
102,225.0,-92.0,-11252.0,-10.0,124.0,140.0,265.458620636793,260.637583224636,64.9995908383441,740987277
-22,-41.0,-135.0,-11254.0,9.0,125.0,119.0,260.257471676423,265.830241538039,65.0086554596137,740995498
-90,-152.0,-164.0,-11254.0,9.0,125.0,119.0,256.791979880782,270.711629322332,65.0161864112652,741004324
97,218.0,-130.0,-11257.0,55.0,128.0,78.0,249.892867883511,276.636530152956,65.0170408992618,741021749
87,-125.0,-51.0,-11261.0,100.0,132.0,38.0,244.773373708084,280.608942110039,65.0183136663612,741036095
-12,-99.0,-187.0,-11261.0,100.0,132.0,38.0,239.706132665513,284.158768011617,64.9934587890426,741044685
-53,46.0,-88.0,-11263.0,122.0,134.0,17.0,234.720775823323,287.309957525738,64.9970093814439,741053366
-87,62.0,-22.0,-11264.0,163.0,136.0,-27.0,226.65525347369,290.860922707647,64.9874669639291,741073758
220,283.0,-206.0,-11268.0,210.0,140.0,-65.0,221.99694564019,293.044603595675,64.9977749377227,741090366
220,283.0,-206.0,-11269.0,234.0,142.0,-85.0,217.461219917501,294.784180043921,64.9488113436868,741098633
-230,-145.0,-227.0,-11270.0,251.0,143.0,-110.0,213.043119756908,296.120468009217,64.938961520087,741114381
-151,-197.0,132.0,-11273.0,298.0,147.0,-151.0,208.713295544535,297.173434591234,64.9519332807977,741126921
130,-253.0,146.0,-11273.0,321.0,149.0,-168.0,204.322648258586,298.160915736229,64.92775870337,741142134
-76,33.0,-436.0,-11273.0,340.0,149.0,-193.0,199.777031016404,298.527713565363,64.9000949645445,741153348
0,-17.0,-20.0,-11274.0,359.0,151.0,-215.0,195.031694005007,299.160728556347,64.8905455742288,741161088
192,179.0,-224.0,-11275.0,385.0,153.0,-236.0,188.371447909065,299.530772838317,64.8774954481126,741174319
84,-365.0,-116.0,-11278.0,429.0,158.0,-276.0,183.176776392117,299.808056279441,64.8260321489767,741188281
-46,390.0,32.0,-11277.0,446.0,158.0,-297.0,179.655187897469,300.040574226963,64.8362355673698,741196869
-238,-318.0,-440.0,-11276.0,466.0,159.0,-317.0,174.326326338266,300.240010308111,64.8215005859668,741205750
-238,-318.0,-440.0,-11276.0,466.0,159.0,-317.0,167.068405159206,300.377925668734,64.805794709978,741205750
-111,-273.0,-514.0,-11278.0,540.0,166.0,-387.0,163.423167091317,300.511613884487,64.8082734488358,741250183
-111,-273.0,-514.0,-11278.0,540.0,166.0,-387.0,156.035969266837,300.626719178998,64.7913327511891,741250183
-55,3.0,-465.0,-11277.0,553.0,167.0,-405.0,150.490185354675,300.712097430574,64.8053134846388,741265893
125,304.0,20.0,-11278.0,584.0,170.0,-431.0,144.888397956593,300.734049210724,64.7953616169747,741278442
-220,-354.0,-666.0,-11278.0,595.0,171.0,-447.0,137.427872228638,300.769336360276,64.806249740051,741286007
3,62.0,-253.0,-11279.0,608.0,173.0,-457.0,131.81308488662,300.823660781737,64.8201574746361,741303303
-131,155.0,-159.0,-11278.0,630.0,174.0,-481.0,124.307576028389,300.83966695069,64.8162160507216,741320671
-131,155.0,-159.0,-11278.0,630.0,174.0,-481.0,120.544865387053,300.838905130207,64.8210541839215,741326973
172,21.0,-458.0,-11277.0,646.0,175.0,-496.0,114.925877834839,300.877065527182,64.8597997065884,741342479
6,268.0,-387.0,-11277.0,651.0,175.0,-501.0,111.161759222649,300.851693917097,64.8420533321009,741350289
6,268.0,-387.0,-11276.0,654.0,175.0,-510.0,105.515439228453,300.846585503623,64.8365693643583,741358444
19,-60.0,-260.0,-11276.0,660.0,175.0,-516.0,99.8629449917586,300.836632437907,64.8636443627124,741375396
186,100.0,-108.0,-11278.0,669.0,178.0,-521.0,94.2410633150833,300.898653404825,64.9019019121591,741381985
203,12.0,-94.0,-11279.0,678.0,179.0,-528.0,90.4777460739764,300.849210838216,64.8717476576484,741389876
69,-20.0,-248.0,-11278.0,703.0,181.0,-551.0,84.8307723339625,300.835990115795,64.8663876745851,741406994
120,58.0,-122.0,-11278.0,703.0,181.0,-551.0,81.0675783075195,300.861205850177,64.9010520188077,741414494
284,48.0,-198.0,-11277.0,723.0,182.0,-568.0,75.421133521919,300.860921472304,64.9065353096382,741426834
297,-77.0,-188.0,-11273.0,776.0,185.0,-620.0,69.7852271550009,300.860559360416,64.920806761055,741438060
-20,-194.0,-174.0,-11270.0,811.0,186.0,-656.0,66.0334749606462,300.843566643336,64.9155201528139,741446582
-24,-99.0,-268.0,-11270.0,811.0,186.0,-656.0,62.2663872589922,300.832255481408,64.9241782118064,741454934
225,-118.0,-103.0,-11269.0,911.0,197.0,-739.0,56.6176515353013,300.833132182711,64.9310908032157,741469210
357,-7.0,-145.0,-11269.0,911.0,197.0,-739.0,50.9783346786168,300.832948485191,64.9412484960962,741475908
357,-7.0,-145.0,-11269.0,911.0,197.0,-739.0,45.3434676324876,300.815031784639,64.9440972518355,741475908
357,-7.0,-145.0,-11269.0,911.0,197.0,-739.0,39.7081405565961,300.830196396648,64.9621584049466,741475908
247,241.0,-4.0,-11225.0,1465.0,254.0,-1251.0,34.0670517519682,300.826704580395,64.9623366798955,741543298
247,241.0,-4.0,-11225.0,1465.0,254.0,-1251.0,30.3056510764446,300.805038789283,64.9579029795276,741543298
247,241.0,-4.0,-11225.0,1465.0,254.0,-1251.0,24.6742222435909,300.804162242437,64.9582520436871,741543298
247,241.0,-4.0,-11225.0,1465.0,254.0,-1251.0,19.0368085594492,300.810087653144,64.9688581983105,741543298
326,358.0,131.0,-11200.0,1693.0,29.0,-1459.0,13.3968402574149,300.814476408637,64.9764011190523,741559464
-51,-263.0,-291.0,-11184.0,1813.0,47.0,-1574.0,5.88566641139252,300.805628110659,64.9795239358837,741572745
16,271.0,139.0,-11148.0,2063.0,87.0,-1808.0,0.252942284980211,300.801874926126,64.9828435888406,741586629
-61,-88.0,-321.0,-11148.0,2063.0,87.0,-1808.0,-5.38227689155801,300.767241879178,64.9817436113782,741595143
172,271.0,262.0,-11108.0,2327.0,138.0,-2049.0,-11.0197769240104,300.740254133154,64.9800326467926,741608500
-121,-333.0,-376.0,-11083.0,2460.0,164.0,-2173.0,-16.6498615883742,300.758056320766,64.9891154212969,741622009
50,-120.0,-207.0,-11057.0,2596.0,193.0,-2299.0,-22.2823865245816,300.766410914924,64.9886284326535,741635378
-81,-228.0,-416.0,-11029.0,2731.0,224.0,-2425.0,-27.9190039244086,300.771614616074,64.9864427840413,741643953
94,323.0,204.0,-11000.0,2867.0,0.0,-2550.0,-31.674996705244,300.762991824103,64.9801685318518,741651955
104,-106.0,-70.0,-10936.0,3141.0,70.0,-2805.0,-37.3090190221489,300.777485155408,64.9879410448045,741669931
-18,-100.0,-146.0,-10902.0,3279.0,108.0,-2933.0,-42.9447868288077,300.790009079616,64.9883861829079,741682665
-104,-2.0,-26.0,-10868.0,3418.0,149.0,-3059.0,-50.4607114799196,300.801133612797,64.9852115312828,741690366
150,198.0,74.0,-10791.0,3691.0,233.0,-3314.0,-56.0993209129372,300.800363497812,64.9744893462786,741707423
-35,-22.0,-166.0,-10750.0,3828.0,22.0,-3441.0,-61.730671689678,300.813782438443,64.9766844658265,741721124
-35,-22.0,-166.0,-10750.0,3828.0,22.0,-3441.0,-67.3702788308566,300.818331548879,64.9811794841148,741721124
101,205.0,93.0,-10617.0,4237.0,166.0,-3819.0,-73.0095884004245,300.832460752714,64.9749108195377,741747065
64,213.0,248.0,-10617.0,4237.0,166.0,-3819.0,-78.6455434226585,300.829822527831,64.9585773885763,741755571
-95,-113.0,-363.0,-10522.0,4506.0,14.0,-4070.0,-86.1611800887059,300.823350171294,64.9463764399273,741769723
-64,-88.0,-160.0,-10472.0,4640.0,69.0,-4194.0,-89.9228825087837,300.829441302423,64.9387753557922,741783295
108,179.0,-11.0,-10421.0,4775.0,127.0,-4317.0,-95.5654164764655,300.83739272984,64.9406301567634,741791165
108,179.0,-11.0,-10368.0,4907.0,184.0,-4441.0,-99.3278997356862,300.851380360772,64.9442489029166,741799420
24,150.0,-30.0,-10314.0,5039.0,245.0,-4563.0,-104.966920731078,300.85875724722,64.9347399882263,741810672
24,150.0,-30.0,-10314.0,5039.0,245.0,-4563.0,-108.72611442089,300.844107220237,64.9105705103725,741817424
109,112.0,95.0,-10201.0,5302.0,114.0,-4806.0,-112.487607227315,300.858191629055,64.9081272191959,741829994
-60,-7.0,-243.0,-10142.0,5433.0,180.0,-4927.0,-118.132408334068,300.844967852038,64.8882781097459,741837670
-51,-28.0,-75.0,-10081.0,5561.0,244.0,-5047.0,-123.782115732344,300.870744137927,64.901197692782,741854436
-17,-121.0,44.0,-10019.0,5690.0,56.0,-5167.0,-129.435728226918,300.898225886579,64.8965811762286,741862139
-124,229.0,-133.0,-9955.0,5818.0,125.0,-5285.0,-133.196908987162,300.888889257619,64.8716448627187,741871789
205,-47.0,100.0,-9890.0,5944.0,195.0,-5403.0,-138.825630574039,300.860695496238,64.8386902429863,741886151
-178,196.0,-258.0,-9823.0,6071.0,12.0,-5520.0,-144.494411483663,300.905421266742,64.8604176819753,741894769
-128,-65.0,-119.0,-9754.0,6195.0,84.0,-5637.0,-150.157480120741,300.93766493265,64.865648629088,741903217
-180,117.0,-138.0,-9615.0,6443.0,237.0,-5866.0,-155.789909926729,300.922845585799,64.8114253466363,741917828
-71,297.0,-129.0,-9543.0,6564.0,59.0,-5981.0,-159.562661143779,300.934859621918,64.8011575930149,741934101
110,104.0,176.0,-9469.0,6687.0,139.0,-6093.0,-165.196085035929,300.935834370786,64.7968519044193,741942044
110,104.0,176.0,-9393.0,6806.0,218.0,-6206.0,-170.736159690481,300.967729252633,64.8111172622007,741950074
89,-65.0,76.0,-9317.0,6927.0,46.0,-6317.0,-174.317282071594,300.906046802983,64.7707367995745,741965545
57,54.0,-17.0,-9240.0,7044.0,128.0,-6426.0,-179.505621270184,300.89108573114,64.7746912825483,741971837
89,-146.0,131.0,-9162.0,7162.0,216.0,-6535.0,-184.459774900964,300.856124061403,64.7749745339217,741985728
-5,-6.0,-51.0,-8999.0,7393.0,133.0,-6751.0,-187.586102735512,300.804564142999,64.7612160404533,741998853
-102,248.0,-148.0,-8916.0,7506.0,222.0,-6858.0,-192.040042170213,300.741629830703,64.7820020803803,742007537
39,14.0,30.0,-8916.0,7506.0,222.0,-6858.0,-196.143769659077,300.665732022588,64.7631856512988,742015113
-123,-21.0,-28.0,-8832.0,7619.0,56.0,-6963.0,-198.706995702434,300.616847820192,64.7945592810641,742027470
205,48.0,32.0,-8747.0,7732.0,150.0,-7067.0,-202.262038548639,300.574085942857,64.8010107765581,742034188
-69,151.0,-148.0,-8569.0,7952.0,81.0,-7275.0,-205.442990502542,300.478408570541,64.8167950436498,742050226
-142,268.0,242.0,-8481.0,8060.0,175.0,-7373.0,-207.357198011746,300.401359336433,64.8260802052986,742061132
-145,-151.0,-386.0,-8392.0,8167.0,18.0,-7474.0,-209.92586327642,300.318330538019,64.846070815084,742074125
-145,-151.0,-386.0,-8302.0,8274.0,119.0,-7572.0,-212.128066367165,300.270053068389,64.8722018236647,742080409
9,-211.0,-406.0,-8112.0,8482.0,63.0,-7770.0,-213.943826678801,300.192952068989,64.8814147570692,742097431
-65,-118.0,-270.0,-8112.0,8482.0,63.0,-7770.0,-215.403493529056,300.119951990924,64.9340368852613,742106088
-102,25.0,128.0,-8016.0,8584.0,163.0,-7865.0,-216.486662157591,300.082737776659,64.9439891902641,742114044
-96,6.0,-191.0,-7726.0,8880.0,217.0,-8142.0,-217.504607842579,300.003790645746,65.0932878720312,742137021
-12,56.0,-11.0,-7726.0,8880.0,217.0,-8142.0,-218.086369319116,299.985474063909,65.4526539893654,742145552
