ACC_X,ACC_Y,ACC_Z,QUAT_W,QUAT_X,QUAT_Y,QUAT_Z,X_pos,Y_pos,Z_pos,t
109,239.0,-34.0,-11341.0,1262.0,87.0,-1266.0,-218.684788643234,300.01256638776,66.6044725811099,221921559
117,26.0,167.0,-11312.0,1528.0,121.0,-1516.0,-219.011505995426,300.02420723475,67.6488836148354,221937386
65,196.0,11.0,-11293.0,1663.0,139.0,-1644.0,-219.253011808529,300.040428768389,69.0175362283346,221945187
-48,-215.0,-398.0,-11293.0,1663.0,139.0,-1644.0,-219.453113468329,300.057659553637,70.6968336342566,221953965
-3,-221.0,-426.0,-11253.0,1936.0,181.0,-1901.0,-219.541732031373,300.031389931849,71.9535337744849,221970413
-3,-221.0,-426.0,-11231.0,2075.0,206.0,-2031.0,-219.64142710321,300.025531390262,74.1895224485204,221976748
93,246.0,159.0,-11206.0,2212.0,231.0,-2161.0,-219.77202371245,300.074131182648,76.7950595142446,221993619
-78,-253.0,-589.0,-11180.0,2350.0,1.0,-2292.0,-219.828088792999,300.105575000393,78.7465721402372,222002897
31,131.0,129.0,-11153.0,2489.0,32.0,-2422.0,-219.91109250817,300.129183031203,81.8991294820315,222011450
-25,-295.0,-357.0,-11124.0,2629.0,63.0,-2553.0,-219.915242753526,300.121146006961,85.485950029513,222019381
76,129.0,114.0,-11092.0,2767.0,95.0,-2683.0,-219.996504351235,300.174081779841,89.4458128011646,222032283
24,-82.0,-234.0,-11024.0,3043.0,163.0,-2944.0,-220.068538551974,300.21245788366,92.2701183442234,222045974
18,172.0,187.0,-10987.0,3181.0,200.0,-3075.0,-220.140847024797,300.269295839601,96.8198660918989,222057932
-89,-146.0,-393.0,-10951.0,3321.0,241.0,-3204.0,-220.172451595374,300.303475600133,101.593148146648,222066313
72,-85.0,-122.0,-10912.0,3458.0,26.0,-3332.0,-220.227366220066,300.364474887353,106.595915853399,222079994
72,-85.0,-122.0,-10869.0,3593.0,66.0,-3463.0,-220.259146206462,300.393978152186,110.005377981184,222086241
-148,-118.0,-188.0,-10827.0,3730.0,111.0,-3592.0,-220.275666889332,300.431017602084,115.213598875999,222102026
84,101.0,137.0,-10783.0,3868.0,157.0,-3720.0,-220.286301138373,300.408614456785,120.478014404446,222110364
-90,-67.0,-421.0,-10737.0,4003.0,203.0,-3847.0,-220.325154566403,300.45606235105,124.064529736978,222120799
-128,-64.0,-330.0,-10691.0,4138.0,254.0,-3974.0,-220.335453430266,300.470107512413,129.46941414321,222133433
10,80.0,104.0,-10642.0,4274.0,48.0,-4101.0,-220.349918843425,300.485302344744,134.950534837673,222139606
-145,-45.0,-280.0,-10541.0,4541.0,156.0,-4352.0,-220.375831059075,300.500254427199,138.600812607457,222155998
132,20.0,270.0,-10541.0,4541.0,156.0,-4352.0,-220.374339006549,300.51356868336,144.10678994185,222164562
149,60.0,168.0,-10487.0,4674.0,211.0,-4476.0,-220.372985912911,300.529022103742,147.839584204112,222172315
-173,-59.0,-268.0,-10431.0,4805.0,11.0,-4601.0,-220.379199820154,300.528151918312,153.395330820708,222181768
73,24.0,47.0,-10315.0,5067.0,129.0,-4848.0,-220.378730868765,300.515278081186,158.972925935113,222195731
-164,-113.0,-206.0,-10256.0,5198.0,191.0,-4970.0,-220.382434502596,300.511202119294,164.552712359004,222205457
31,-4.0,-105.0,-10256.0,5198.0,191.0,-4970.0,-220.388287150949,300.518514772283,168.276645900721,222214606
-95,103.0,-171.0,-10131.0,5455.0,62.0,-5214.0,-220.393106622023,300.519030874665,173.881079902273,222228619
179,-184.0,143.0,-10131.0,5455.0,62.0,-5214.0,-220.393432641328,300.532808351279,179.503077107522,222234825
171,127.0,134.0,-10002.0,5710.0,197.0,-5452.0,-220.382366741956,300.517215197715,186.972214074865,222254404
-181,74.0,-176.0,-9935.0,5835.0,9.0,-5569.0,-220.381240473779,300.524467357956,190.746821295527,222262895
174,-119.0,21.0,-9795.0,6085.0,152.0,-5805.0,-220.380750576991,300.524421266531,196.372300709536,222276986
158,0.0,126.0,-9724.0,6209.0,227.0,-5921.0,-220.378695188181,300.511799274654,201.978359813835,222289445
158,0.0,126.0,-9652.0,6330.0,45.0,-6035.0,-220.379565944781,300.501160523074,207.590178165152,222297199
-71,123.0,-143.0,-9578.0,6452.0,122.0,-6150.0,-220.374214972251,300.493653542172,213.214500770807,222309133
-81,77.0,-154.0,-9501.0,6573.0,201.0,-6265.0,-220.356441407545,300.481359546577,218.830431340063,222324671
-74,136.0,-116.0,-9424.0,6692.0,23.0,-6376.0,-220.344591474911,300.464697412514,222.551746847414,222330912
112,-75.0,43.0,-9347.0,6811.0,105.0,-6488.0,-220.358893097641,300.483947578089,230.07049617623,222344240
-157,42.0,-185.0,-9267.0,6928.0,187.0,-6598.0,-220.357394050547,300.495254516845,233.860534318106,222352685
-108,119.0,-35.0,-9104.0,7161.0,101.0,-6816.0,-220.36993759042,300.49925969914,239.494383811638,222370973
-108,119.0,-35.0,-9019.0,7276.0,187.0,-6925.0,-220.380067116082,300.513575918271,245.140045671361,222377332
-156,-186.0,-47.0,-8933.0,7389.0,18.0,-7031.0,-220.379917678271,300.51989779454,250.78502118139,222389942
-56,-100.0,-169.0,-8763.0,7613.0,201.0,-7240.0,-220.38251242182,300.528363800075,258.304447889984,222406317
14,-28.0,-237.0,-8674.0,7723.0,37.0,-7345.0,-220.39978309588,300.536261844222,263.95352448924,222423056
49,75.0,-7.0,-8583.0,7832.0,130.0,-7448.0,-220.402525294099,300.544451988166,271.466233143754,222432464
-151,-17.0,82.0,-8397.0,8046.0,63.0,-7650.0,-220.40427775226,300.542072768444,275.200035075998,222446362
-26,-59.0,-243.0,-8397.0,8046.0,63.0,-7650.0,-220.409497974453,300.562377546494,282.762087028236,222454898
-84,7.0,-194.0,-8213.0,8253.0,1.0,-7843.0,-220.415813630189,300.565730622434,288.364283296675,222470996
-199,-52.0,-303.0,-8119.0,8352.0,94.0,-7935.0,-220.427875903134,300.580027649215,294.027391148463,222483477
-199,-52.0,-303.0,-8119.0,8352.0,94.0,-7935.0,-220.427849455747,300.585212010376,299.653055275882,222483477
-267,97.0,145.0,-7778.0,8698.0,190.0,-8261.0,-220.439548026428,300.599775816242,305.300078397679,222517562
-267,97.0,145.0,-7778.0,8698.0,190.0,-8261.0,-220.445694152002,300.604073172481,310.945303677356,222517562
-246,-10.0,-258.0,-7701.0,8772.0,11.0,-8330.0,-220.460288197431,300.62397389913,314.726609299388,222531111
-264,7.0,-71.0,-7624.0,8841.0,85.0,-8396.0,-220.467899348721,300.636367311304,322.222364875446,222544414
-385,75.0,78.0,-7556.0,8903.0,152.0,-8454.0,-220.479431588255,300.656044343806,325.996612412062,222552912
-245,59.0,70.0,-7492.0,8962.0,218.0,-8510.0,-220.490251119822,300.667854286319,329.782882857636,222561027
-245,59.0,70.0,-7436.0,9015.0,23.0,-8558.0,-220.500251206189,300.677964496445,335.435667530085,222568906
-284,66.0,-160.0,-7382.0,9063.0,78.0,-8603.0,-220.515650711429,300.699971090986,339.184449736326,222579563
-248,-37.0,40.0,-7333.0,9105.0,127.0,-8644.0,-220.526490052175,300.728584411445,344.826926410374,222592899
-423,84.0,-70.0,-7290.0,9140.0,166.0,-8677.0,-220.546859150699,300.742779529211,348.594829500808,222600898
-423,84.0,-70.0,-7252.0,9173.0,203.0,-8706.0,-220.560124182955,300.772783321857,354.289244996546,222608963
-309,86.0,4.0,-7221.0,9201.0,237.0,-8732.0,-220.580807443083,300.789072203027,359.981700102995,222618289
-27,125.0,-80.0,-7196.0,9223.0,8.0,-8752.0,-220.609122167085,300.827178817399,365.589889234734,222631635
-168,98.0,-119.0,-7157.0,9252.0,40.0,-8779.0,-220.642073589881,300.874632427854,371.096582710035,222649083
-309,98.0,29.0,-7148.0,9259.0,48.0,-8787.0,-220.668423737629,300.911572611937,376.429071555048,222657416
-226,73.0,-9.0,-7146.0,9261.0,53.0,-8789.0,-220.684742557762,300.942889499107,379.834068448713,222665690
44,311.0,129.0,-7147.0,9262.0,54.0,-8789.0,-220.704478440623,300.957964932432,384.737372093873,222680393
44,311.0,129.0,-7152.0,9258.0,49.0,-8785.0,-220.717443847066,300.977409736177,389.32330171182,222688526
-84,178.0,14.0,-7163.0,9248.0,37.0,-8776.0,-220.723439684213,300.989010865297,392.198454167346,222697087
-75,119.0,120.0,-7181.0,9234.0,19.0,-8762.0,-220.724528082105,300.989591362666,396.31540462566,222709056
74,171.0,-39.0,-7206.0,9213.0,252.0,-8743.0,-220.718365637013,300.975222995605,398.867576915558,222725429
-53,284.0,169.0,-7237.0,9188.0,222.0,-8718.0,-220.708670520448,300.962672907473,402.381627871794,222731612
-53,284.0,169.0,-7272.0,9159.0,187.0,-8691.0,-220.698456273683,300.94346883123,404.497107091263,222737775
-141,326.0,64.0,-7314.0,9122.0,144.0,-8657.0,-220.678291488473,300.925028639646,407.395518632215,222753024
19,228.0,42.0,-7360.0,9082.0,98.0,-8619.0,-220.646082718764,300.884132121431,409.942145138775,222760891
-98,442.0,279.0,-7467.0,8989.0,246.0,-8529.0,-220.606345741647,300.826668776977,412.11105421006,222777697
12,304.0,-165.0,-7530.0,8933.0,183.0,-8474.0,-220.561676816674,300.739636741855,413.869577413267,222790254
12,304.0,-165.0,-7598.0,8870.0,113.0,-8415.0,-220.505422971672,300.662073776235,415.252244071432,222797836
3,429.0,286.0,-7671.0,8801.0,38.0,-8351.0,-220.440452399943,300.573368439583,416.299923400645,222814870
14,430.0,201.0,-7748.0,8728.0,215.0,-8282.0,-220.370751206017,300.514214357949,417.123621749489,222823454
40,134.0,122.0,-7825.0,8653.0,133.0,-8209.0,-220.246373451024,300.404742821357,417.771139389888,222833104
66,12.0,-47.0,-7988.0,8493.0,222.0,-8051.0,-219.978059726718,300.311406923537,418.242666241647,222847075
82,-56.0,-48.0,-8072.0,8406.0,135.0,-7969.0,-219.259723922685,300.208568295243,418.768479447562,222864276
-132,184.0,-91.0,-8158.0,8316.0,46.0,-7883.0,-218.412154089001,300.149549737696,419.090796959184,222872036
57,133.0,218.0,-8243.0,8224.0,214.0,-7796.0,-217.699356637244,300.124792996066,419.243904179367,222884608
-84,186.0,-15.0,-8412.0,8038.0,38.0,-7614.0,-215.880042706812,300.121985456092,419.496789033744,222900982
-84,186.0,-15.0,-8496.0,7942.0,206.0,-7519.0,-214.136780808465,300.139114746243,419.66007965252,222909063
166,82.0,167.0,-8580.0,7843.0,117.0,-7424.0,-212.054068870798,300.182844795532,419.797970115779,222925548
-186,-143.0,-252.0,-8746.0,7638.0,197.0,-7230.0,-209.629995626253,300.218954884322,419.951660460025,222938209
-131,58.0,-136.0,-8746.0,7638.0,197.0,-7230.0,-206.842573481327,300.281445005244,420.060548324828,222945488
-131,58.0,-136.0,-8746.0,7638.0,197.0,-7230.0,-203.675301102813,300.357199481681,420.154766370703,222945488
-6,-197.0,-171.0,-9065.0,7217.0,113.0,-6824.0,-200.126709455045,300.411158749757,420.248515576145,222982162
-6,-197.0,-171.0,-9065.0,7217.0,113.0,-6824.0,-197.565258298468,300.480638628433,420.288726037801,222982162
-6,-197.0,-171.0,-9143.0,7109.0,31.0,-6721.0,-193.406140946004,300.526588378945,420.36125511764,222988415
-225,104.0,-184.0,-9220.0,6997.0,204.0,-6614.0,-188.87462663093,300.605269825479,420.425185694787,223004930
321,-8.0,133.0,-9297.0,6887.0,125.0,-6508.0,-185.692087447865,300.690117223449,420.434170112436,223013637
10,-141.0,-86.0,-9369.0,6774.0,44.0,-6402.0,-180.731052631515,300.744981877905,420.462031345783,223021763
163,70.0,121.0,-9442.0,6663.0,223.0,-6293.0,-177.32384111635,300.817813731997,420.486756157352,223035129
-295,-124.0,-278.0,-9512.0,6547.0,144.0,-6186.0,-170.358088224249,300.870636445124,420.503612380955,223045976
-140,-68.0,-271.0,-9653.0,6315.0,250.0,-5965.0,-165.006467080432,300.921491052688,420.488130735223,223062552
41,166.0,-23.0,-9720.0,6197.0,175.0,-5853.0,-159.575277809933,300.957159847828,420.474900713426,223070428
9,-79.0,25.0,-9787.0,6080.0,105.0,-5742.0,-154.082532654135,300.974413867224,420.493440663919,223083504
37,195.0,-98.0,-9914.0,5842.0,221.0,-5517.0,-150.400813430254,300.9872765751,420.472596173081,223097200
20,41.0,9.0,-9914.0,5842.0,221.0,-5517.0,-144.845246849325,300.99208038055,420.439932325013,223105804
-84,7.0,-31.0,-10040.0,5599.0,87.0,-5287.0,-141.129495493364,300.991380646234,420.425153891827,223118723
105,51.0,26.0,-10040.0,5599.0,87.0,-5287.0,-135.538085880804,300.992633379587,420.407335076445,223126410
1,91.0,-232.0,-10100.0,5476.0,21.0,-5170.0,-129.932626723721,300.99148586388,420.368453751221,223132659
85,168.0,-82.0,-10157.0,5353.0,213.0,-5055.0,-124.30733255514,300.983168900973,420.345790187707,223146297
-125,-195.0,84.0,-10212.0,5231.0,151.0,-4939.0,-120.55264844294,300.976433396207,420.336190873566,223154743
-23,-141.0,-23.0,-10323.0,4982.0,31.0,-4702.0,-114.918474752362,300.966767516651,420.30023179814,223170686
-23,-141.0,-23.0,-10377.0,4854.0,228.0,-4581.0,-109.285531745082,300.958235838015,420.284573254272,223180867
19,-58.0,-161.0,-10377.0,4854.0,228.0,-4581.0,-105.52642500462,300.950275605534,420.24645639322,223187131
-95,42.0,-119.0,-10475.0,4600.0,114.0,-4346.0,-99.8905211831565,300.938602277049,420.259919693837,223202267
-109,-239.0,100.0,-10522.0,4472.0,61.0,-4228.0,-94.2412074110899,300.923558429377,420.207687252968,223210268
-80,-143.0,73.0,-10569.0,4344.0,8.0,-4106.0,-88.5922536406992,300.91919739383,420.230990245598,223225985
145,126.0,-310.0,-10615.0,4215.0,213.0,-3983.0,-84.8318354873765,300.904011701207,420.18383762398,223232256
-1,-231.0,42.0,-10660.0,4085.0,165.0,-3862.0,-79.1969188750483,300.897847834985,420.167797362208,223242111
-157,6.0,81.0,-10743.0,3822.0,70.0,-3619.0,-71.6715395541308,300.885585002434,420.144506373625,223258491
10,-254.0,57.0,-10782.0,3691.0,24.0,-3495.0,-66.0282688560192,300.876373454251,420.120345542101,223274374
-5,-84.0,-109.0,-10821.0,3560.0,237.0,-3372.0,-58.5021199348206,300.86675808658,420.114365073968,223286642
-63,-5.0,-150.0,-10895.0,3292.0,155.0,-3121.0,-52.8656883915887,300.862350280518,420.094180329098,223303686
-19,38.0,-49.0,-10928.0,3158.0,116.0,-2998.0,-47.2316505831432,300.856918711337,420.076069061391,223311778
-19,38.0,-49.0,-10960.0,3024.0,78.0,-2874.0,-43.4679451797502,300.854146542455,420.072961969497,223320184
-127,-45.0,-123.0,-10990.0,2890.0,42.0,-2750.0,-35.9458951167239,300.840600279464,420.078934744731,223334295
-49,-58.0,43.0,-11049.0,2619.0,232.0,-2496.0,-32.1896456590038,300.84264492374,420.055226947126,223348281
-28,11.0,-119.0,-11076.0,2484.0,201.0,-2369.0,-26.550408549528,300.841556369223,420.029515609023,223357096
33,-71.0,-39.0,-11101.0,2347.0,171.0,-2242.0,-20.919696654162,300.834986043408,420.021446153733,223369730
-145,-89.0,-31.0,-11101.0,2347.0,171.0,-2242.0,-15.2843570069474,300.830362031576,420.030879056821,223376667
-52,87.0,80.0,-11146.0,2073.0,117.0,-1991.0,-9.64123672129191,300.830032426432,420.00919466736,223396389
5,-104.0,-98.0,-11166.0,1937.0,91.0,-1865.0,-4.00457313036443,300.832852550504,419.994764012068,223404854
98,218.0,-129.0,-11186.0,1800.0,69.0,-1738.0,1.62586577997447,300.833411882217,419.973431826777,223413105
126,4.0,-253.0,-11222.0,1523.0,29.0,-1481.0,7.26130271874388,300.806828537163,419.956927957325,223430439
23,104.0,-177.0,-11235.0,1385.0,9.0,-1352.0,12.8948895248951,300.788088665516,419.958830850825,223443147
-143,-109.0,-61.0,-11248.0,1248.0,248.0,-1225.0,18.5291500555867,300.813776326598,419.969516364707,223450891
-143,-109.0,-61.0,-11260.0,1110.0,233.0,-1097.0,24.1713043234962,300.81650109548,419.966050325485,223459400
-145,-128.0,-196.0,-11270.0,971.0,219.0,-967.0,29.8030694161566,300.823910818006,419.97231840743,223475329
-140,-49.0,-7.0,-11287.0,691.0,197.0,-710.0,35.4310946118408,300.826943829927,419.994676833225,223491133
-140,-49.0,-7.0,-11294.0,553.0,190.0,-583.0,39.1900042291515,300.822793910146,420.006297138188,223498920
-21,-41.0,20.0,-11297.0,414.0,181.0,-452.0,44.8301593752481,300.826998573638,419.999173387109,223507726
-316,28.0,333.0,-11301.0,276.0,177.0,-327.0,50.4664713820424,300.832522806302,420.01113507885,223524518
-316,28.0,333.0,-11301.0,135.0,171.0,-196.0,54.2251878932981,300.829024721587,420.017545851492,223530810
-360,-32.0,430.0,-11301.0,135.0,171.0,-196.0,59.8608744568727,300.83898623647,420.015034496697,223537698
-223,40.0,255.0,-11297.0,-282.0,170.0,191.0,65.4931353128579,300.840636259259,420.004570021945,223556912
57,-92.0,-307.0,-11297.0,-282.0,170.0,191.0,69.2541323820696,300.843096267736,420.026342086504,223565502
-174,-175.0,75.0,-11292.0,-422.0,173.0,318.0,74.8879747078977,300.842690844582,420.047594048381,223573236
-174,-175.0,75.0,-11286.0,-561.0,177.0,446.0,78.6525484524487,300.845407057034,420.052496411182,223579441
-161,11.0,394.0,-11279.0,-695.0,182.0,571.0,84.2999558867606,300.856138107229,420.0566677815,223591881
247,-55.0,-274.0,-11260.0,-956.0,196.0,811.0,89.9291932368008,300.862379286518,420.066939077212,223608291
2,-240.0,161.0,-11249.0,-1079.0,205.0,925.0,93.6873026292951,300.863426617709,420.090057508974,223620482
-264,-36.0,348.0,-11249.0,-1079.0,205.0,925.0,99.3271292212973,300.866837794299,420.090745282083,223627398
9,-154.0,-83.0,-11239.0,-1197.0,216.0,1033.0,104.979740872288,300.87308964279,420.109219715529,223633721
-240,-113.0,416.0,-11215.0,-1414.0,236.0,1233.0,108.747034072851,300.884384239365,420.104478720505,223648654
117,-220.0,-81.0,-11204.0,-1514.0,248.0,1323.0,114.385146000938,300.890667093765,420.140931531261,223657483
189,-166.0,-114.0,-11204.0,-1514.0,248.0,1323.0,120.025819449544,300.909911374723,420.148170010398,223665994
132,-35.0,132.0,-11181.0,-1693.0,14.0,1487.0,125.679067836641,300.919014052113,420.180279328513,223683766
132,-35.0,132.0,-11169.0,-1772.0,24.0,1560.0,131.328327824939,300.927179210977,420.189722758418,223689912
112,-135.0,31.0,-11160.0,-1842.0,35.0,1625.0,135.101810416608,300.94433922084,420.222061662426,223706121
82,-146.0,100.0,-11151.0,-1908.0,45.0,1683.0,140.752943144421,300.962789431842,420.231133181909,223714748
-34,-98.0,188.0,-11142.0,-1965.0,53.0,1733.0,146.40722328683,300.97543869159,420.251506720733,223722869
18,-160.0,103.0,-11129.0,-2058.0,69.0,1817.0,150.183163135385,300.999430497773,420.28187439329,223739751
-163,111.0,328.0,-11121.0,-2092.0,73.0,1848.0,155.84155114407,301.022889978675,420.330895737702,223747503
326,-287.0,-10.0,-11121.0,-2092.0,73.0,1848.0,161.510529299878,301.062505341587,420.355134016701,223756311
-236,-23.0,-79.0,-11114.0,-2150.0,85.0,1898.0,167.129735473767,301.078546414973,420.386474573398,223772463
-236,-23.0,-79.0,-11113.0,-2172.0,91.0,1917.0,172.622117424042,301.095182920866,420.392888157135,223778968
-83,-257.0,-136.0,-11108.0,-2192.0,93.0,1938.0,176.17467380345,301.095072779976,420.429352936164,223791293
113,-400.0,-511.0,-11107.0,-2207.0,98.0,1954.0,181.30849224273,301.083859805915,420.459296224585,223801568
113,-400.0,-511.0,-11104.0,-2223.0,100.0,1968.0,184.585989738447,301.065596637769,420.474678241072,223809831
-32,-379.0,-423.0,-11102.0,-2236.0,103.0,1979.0,189.26090620009,301.03316213614,420.495115210325,223826079
-59,-201.0,-223.0,-11099.0,-2245.0,103.0,1988.0,193.624736861159,300.995301070598,420.497535796056,223832283
63,-317.0,-322.0,-11096.0,-2252.0,103.0,1996.0,197.651804624364,300.963498139228,420.517401191847,223846200
-53,-372.0,-323.0,-11094.0,-2259.0,104.0,2003.0,200.146874700242,300.908977901255,420.524466334212,223855055
-12,-459.0,-480.0,-11093.0,-2269.0,106.0,2012.0,203.588211919343,300.850705101872,420.50338291584,223867371
-172,-413.0,-377.0,-11090.0,-2277.0,106.0,2019.0,207.609284974114,300.783029651965,420.484017132365,223881374
7,-395.0,-282.0,-11087.0,-2281.0,105.0,2024.0,210.18684353046,300.711793989803,420.461439553034,223894179
5,-306.0,-223.0,-11086.0,-2282.0,104.0,2023.0,212.387668267412,300.624781207038,420.43869888031,223902435
-67,-192.0,-89.0,-11084.0,-2283.0,101.0,2019.0,214.709974455937,300.504827001412,420.381144629121,223919406
-6,-137.0,-83.0,-11082.0,-2283.0,100.0,2016.0,215.999165851017,300.407414449935,420.307065274778,223930155
0,-149.0,-100.0,-11081.0,-2284.0,99.0,2015.0,216.996606563199,300.283169532506,420.282996156146,223943110
8,-248.0,-108.0,-11080.0,-2285.0,97.0,2013.0,217.880959955532,300.084503895895,420.265626602177,223960404
-17,-219.0,-80.0,-11079.0,-2284.0,95.0,2011.0,218.504862823303,299.720537432909,420.222648360605,223968765
43,-197.0,-66.0,-11079.0,-2284.0,95.0,2011.0,219.998544036907,299.134479582136,420.165441698025,223976176
-58,-181.0,-21.0,-11077.0,-2284.0,93.0,2006.0,221.438038560254,298.274195447627,420.142502634561,223992707
-58,-181.0,-21.0,-11076.0,-2285.0,92.0,2004.0,222.587174611541,297.51500974989,420.138334261276,224000902
-28,-88.0,-30.0,-11076.0,-2286.0,91.0,2002.0,223.903759413628,296.108139871287,420.120018097061,224009521
-41,-221.0,-3.0,-11074.0,-2287.0,90.0,2001.0,226.219538983044,294.969695622051,420.077135946323,224018404
65,-123.0,-45.0,-11074.0,-2287.0,89.0,2000.0,228.944718827297,292.946215502596,420.067040838476,224034025
-82,-167.0,18.0,-11073.0,-2288.0,88.0,1998.0,232.101697845338,290.516091254178,420.058782199391,224042083
-82,-167.0,18.0,-11072.0,-2289.0,88.0,1996.0,234.45434490156,287.648037092641,420.054800598993,224050733
-84,-95.0,31.0,-11071.0,-2290.0,86.0,1993.0,238.367952438139,284.317106174778,420.024267346124,224070403
-49,-129.0,54.0,-11071.0,-2290.0,86.0,1993.0,242.685346660647,280.557918663483,420.014754562481,224077555
66,-108.0,-47.0,-11070.0,-2295.0,86.0,1992.0,247.290662293884,276.441327254492,420.01566450739,224089868
25,-90.0,-58.0,-11069.0,-2295.0,85.0,1989.0,252.078001175051,273.529814290001,420.021943517948,224105562
64,-37.0,-39.0,-11069.0,-2297.0,85.0,1988.0,256.978571216561,268.945435172053,420.018624539011,224113876
-76,-113.0,81.0,-11068.0,-2297.0,83.0,1985.0,260.276551648887,264.138840140271,420.016893251792,224124159
-76,-113.0,81.0,-11068.0,-2297.0,83.0,1983.0,265.234952186124,259.135092126984,420.014309653926,224131379
-101,-113.0,76.0,-11067.0,-2300.0,83.0,1981.0,271.833123992662,253.954070189343,420.00902690966,224148733
-101,-73.0,73.0,-11067.0,-2301.0,82.0,1979.0,275.108241928156,248.609437475664,420.005007443177,224157735
-62,-35.0,68.0,-11067.0,-2302.0,82.0,1977.0,281.576067111891,243.117041158698,420.004892036104,224174054
-62,-35.0,68.0,-11067.0,-2303.0,82.0,1975.0,284.758228061238,237.492848320502,420.012031016839,224181244
19,-79.0,-25.0,-11066.0,-2305.0,82.0,1975.0,289.459999412374,233.67840621042,420.007156953004,224192220
19,-79.0,-25.0,-11066.0,-2306.0,81.0,1973.0,294.06799685577,227.858169584925,420.00109304118,224200733
11,-100.0,-22.0,-11066.0,-2309.0,81.0,1971.0,297.083039113747,221.924436537538,419.999529246103,224218289
-43,-114.0,39.0,-11066.0,-2309.0,81.0,1971.0,301.515152877066,215.889240537503,420.003848704526,224225913
-17,-122.0,24.0,-11065.0,-2311.0,81.0,1970.0,305.834372847451,209.750242303174,420.004076468836,224238425
-20,-30.0,12.0,-11065.0,-2311.0,80.0,1967.0,310.036491035547,203.522292434873,420.001633429491,224245263
36,-70.0,-14.0,-11064.0,-2314.0,80.0,1963.0,314.117211953727,199.320625106567,419.999314852507,224265652
-82,-72.0,39.0,-11064.0,-2316.0,80.0,1963.0,318.075580265928,192.942539716622,420.000986968027,224273479
45,-62.0,-19.0,-11064.0,-2318.0,79.0,1961.0,321.905034553581,184.313665476453,420.001830718315,224286251
-84,-122.0,69.0,-11063.0,-2321.0,79.0,1959.0,325.606914792234,177.746232192649,419.998814880432,224300935
-101,-92.0,80.0,-11063.0,-2322.0,79.0,1957.0,329.177129265044,171.105901884383,419.997787767769,224309660
-101,-92.0,80.0,-11063.0,-2322.0,79.0,1957.0,332.61148148511,166.642237231181,420.000274944725,224309660
-101,-92.0,80.0,-11063.0,-2322.0,79.0,1957.0,335.912054366346,159.884458072551,420.000264029184,224309660
113,-135.0,-72.0,-11062.0,-2330.0,78.0,1949.0,338.036741121355,153.060193892844,419.999907820131,224362819
113,-135.0,-72.0,-11062.0,-2330.0,78.0,1949.0,341.107735235709,148.476568935901,420.000170096793,224362819
113,-135.0,-72.0,-11062.0,-2330.0,78.0,1949.0,344.042966545801,141.542762247391,420.000362422484,224362819
-165,-9.0,121.0,-11062.0,-2330.0,78.0,1947.0,345.920817237631,134.555799873886,419.999875074608,224378619
-141,-29.0,119.0,-11061.0,-2332.0,78.0,1946.0,348.616501211012,129.869613918565,420.000379948286,224386842
109,-93.0,-77.0,-11061.0,-2333.0,77.0,1944.0,350.336951964816,122.791154623731,420.001868280763,224395732
109,-95.0,-72.0,-11061.0,-2335.0,77.0,1941.0,353.583474578572,115.666132753863,420.001826770743,224412176
109,-95.0,-72.0,-11060.0,-2338.0,77.0,1940.0,355.110497202178,108.489228395651,420.000065247294,224420556
100,-135.0,-65.0,-11060.0,-2339.0,76.0,1939.0,357.282165112082,103.678146300285,420.00133066001,224431315
78,-168.0,-53.0,-11060.0,-2340.0,76.0,1938.0,358.649045922438,96.4282258925749,420.000388710535,224444286
-100,89.0,76.0,-11059.0,-2342.0,76.0,1936.0,361.184496429302,89.1395907646128,420.00110774069,224452227
-69,54.0,65.0,-11059.0,-2345.0,76.0,1934.0,363.45687816327,76.917117821339,420.001046552976,224469447
-52,-19.0,53.0,-11059.0,-2346.0,76.0,1931.0,364.987516691531,69.5386408074479,419.999942871497,224483096
-1,-24.0,-9.0,-11060.0,-2348.0,76.0,1931.0,366.368838937026,62.1290084227506,419.999912277463,224492996
-25,26.0,3.0,-11059.0,-2351.0,76.0,1927.0,367.97802665491,54.6969128829492,419.999831411632,224509913
4,-58.0,13.0,-11059.0,-2351.0,75.0,1925.0,368.68349118355,47.2383171526533,420.001573257373,224518911
20,-75.0,5.0,-11058.0,-2351.0,75.0,1928.0,369.614155053709,39.7661670659525,419.999831411517,224532822
20,-75.0,5.0,-11058.0,-2351.0,75.0,1928.0,370.392540653439,34.7752645985358,419.999092702509,224539066
-91,7.0,41.0,-11059.0,-2353.0,76.0,1925.0,370.828042426403,27.2740509919943,420.001107740906,224557587
65,-54.0,-20.0,-11059.0,-2354.0,76.0,1922.0,371.496128564485,19.7642422292206,420.002080284139,224566427
-99,34.0,43.0,-11060.0,-2356.0,76.0,1920.0,371.820240007663,12.2439529151965,419.999619407995,224581430
-129,84.0,47.0,-11060.0,-2358.0,76.0,1918.0,371.951097171329,4.71803850325663,420.000480492249,224589675
102,-178.0,-35.0,-11060.0,-2359.0,76.0,1917.0,372.015453227165,-0.297225769461882,420.001411526116,224598427
-140,149.0,51.0,-11060.0,-2359.0,76.0,1917.0,371.939481255885,-7.82449649619939,419.999700273849,224607326
102,-167.0,-33.0,-11060.0,-2360.0,77.0,1916.0,371.799528264656,-12.8405720518111,419.999761461752,224615958
-135,165.0,39.0,-11061.0,-2362.0,78.0,1913.0,371.463908507571,-20.358266653343,420.001837687421,224633050
-135,165.0,39.0,-11061.0,-2362.0,78.0,1913.0,371.156074999648,-27.8692839294475,420.000146112991,224639395
90,-148.0,-19.0,-11061.0,-2365.0,79.0,1912.0,370.566242804443,-32.8696272325744,420.001868280964,224646711
-120,92.0,37.0,-11063.0,-2367.0,80.0,1909.0,370.090024419669,-40.3567913432066,420.001979740819,224663189
-120,92.0,37.0,-11063.0,-2367.0,80.0,1907.0,369.248366170706,-45.3423905607102,419.999053346617,224671467
85,-98.0,-12.0,-11063.0,-2367.0,80.0,1907.0,368.254684645721,-52.8046828888144,419.999448913809,224678915
-90,96.0,21.0,-11065.0,-2372.0,82.0,1904.0,367.111083584751,-65.1895352561159,420.001210438578,224699956
-71,107.0,15.0,-11066.0,-2373.0,83.0,1902.0,364.871581943567,-72.5855009492458,420.000299082439,224717980
27,-105.0,6.0,-11066.0,-2374.0,83.0,1901.0,363.328753002897,-84.8435631036458,420.000076162857,224725979
-37,73.0,-8.0,-11068.0,-2376.0,84.0,1898.0,361.039924153926,-89.7212492681622,420.000360270149,224745160
3,-48.0,7.0,-11068.0,-2377.0,85.0,1898.0,359.151075513604,-97.0068744517237,420.001818009034,224753158
-33,40.0,-7.0,-11069.0,-2379.0,86.0,1896.0,357.810345568328,-104.253164224971,420.000522001903,224764392
-33,40.0,-7.0,-11069.0,-2380.0,87.0,1897.0,355.67621153873,-111.457628111435,419.999833565062,224772363
-38,87.0,-6.0,-11070.0,-2380.0,87.0,1894.0,353.397509174474,-116.231998805105,420.001302220169,224785405
15,-56.0,-10.0,-11072.0,-2381.0,89.0,1892.0,350.974462292944,-123.356722181047,420.000967841077,224799283
-49,74.0,-20.0,-11072.0,-2381.0,89.0,1892.0,348.407370687477,-130.431618005666,420.001190760484,224808106
-70,74.0,-21.0,-11073.0,-2384.0,90.0,1892.0,345.697530638043,-137.452599135707,420.000178859935,224816795
26,-20.0,-3.0,-11074.0,-2384.0,91.0,1889.0,343.811454107898,-144.420534561204,420.001970978752,224828713
30,-17.0,-7.0,-11076.0,-2386.0,93.0,1888.0,340.866486325513,-149.030905467322,420.001474867281,224845550
43,-86.0,-5.0,-11077.0,-2387.0,94.0,1887.0,337.782252885836,-155.895178885945,419.999783292951,224853713
43,-86.0,-5.0,-11078.0,-2387.0,95.0,1887.0,335.6479612923,-162.69711581335,420.001282542192,224862039
42,-101.0,-11.0,-11079.0,-2388.0,96.0,1885.0,332.334873511552,-169.430057338409,420.001686871811,224877762
-66,350.0,-225.0,-11084.0,-2382.0,97.0,1873.0,326.509007073965,-178.302337883479,420.00120167621,224893994
55,131.0,-206.0,-11090.0,-2368.0,97.0,1855.0,322.835466416151,-184.870970469825,420.001728380625,224910636
12,321.0,-273.0,-11094.0,-2355.0,96.0,1844.0,319.0285386036,-193.512353132966,420.001282541691,224919492
-150,168.0,-181.0,-11098.0,-2338.0,95.0,1832.0,312.396204575208,-202.011095862936,420.001616921202,224939778
-196,106.0,-250.0,-11103.0,-2318.0,93.0,1812.0,308.245893774697,-210.363490222837,420.001171082685,224946553
56,139.0,-179.0,-11113.0,-2267.0,84.0,1758.0,303.969576598946,-216.527038504691,420.001394002083,224967667
187,244.0,-429.0,-11126.0,-2195.0,73.0,1694.0,298.075020564152,-222.601351619498,420.000259725996,224981543
-289,178.0,-145.0,-11126.0,-2195.0,73.0,1694.0,295.04410624619,-228.587098834389,420.001282542192,224987807
-15,243.0,-439.0,-11141.0,-2107.0,59.0,1612.0,290.400336888732,-232.524519017805,420.000482645439,225001809
-341,338.0,-118.0,-11147.0,-2060.0,50.0,1563.0,287.238168148313,-238.352201053654,419.999601882693,225010470
495,-118.0,-220.0,-11155.0,-2006.0,42.0,1516.0,282.395124391688,-242.183786951514,420.000624699104,225022744
260,-31.0,-168.0,-11163.0,-1944.0,32.0,1460.0,275.760990974252,-249.711356854266,420.000462967196,225035973
113,-75.0,-100.0,-11182.0,-1806.0,13.0,1332.0,270.652936153847,-255.23893067947,420.000878212043,225049720
-161,-42.0,72.0,-11182.0,-1806.0,13.0,1332.0,267.1941283616,-260.638313891799,420.000108909435,225058684
128,-297.0,239.0,-11200.0,-1650.0,248.0,1183.0,258.528326582009,-267.478889351776,420.01648025131,225074837
296,-364.0,137.0,-11210.0,-1563.0,237.0,1102.0,255.095154918778,-270.692790994983,420.027106840954,225084665
-339,198.0,135.0,-11219.0,-1468.0,226.0,1017.0,250.020851774232,-275.208119776289,420.030221035934,225098105
149,-336.0,91.0,-11228.0,-1371.0,216.0,926.0,246.700852278097,-279.325428082422,420.03788220827,225106696
183,-194.0,24.0,-11246.0,-1168.0,198.0,737.0,240.262814956218,-284.174758379409,420.060275059123,225123157
183,-194.0,24.0,-11246.0,-1168.0,198.0,737.0,235.631341611867,-286.324187046179,420.081384971958,225130016
-182,223.0,-192.0,-11254.0,-1061.0,189.0,636.0,232.655795264529,-289.206932423678,420.052863617573,225139679
-166,0.0,36.0,-11266.0,-848.0,174.0,437.0,228.365817484003,-290.89386043323,420.083627550791,225154191
-166,0.0,36.0,-11271.0,-738.0,168.0,337.0,225.632647228734,-293.078016160028,420.086041208441,225162340
-252,18.0,56.0,-11275.0,-627.0,163.0,231.0,221.73258959404,-294.291316687269,420.136476097481,225170720
203,-253.0,-62.0,-11275.0,-627.0,163.0,231.0,219.271996881444,-295.786507599417,420.152704538196,225178131
-214,61.0,-68.0,-11278.0,-514.0,160.0,127.0,215.781245138515,-296.565687144878,420.192896885457,225190460
230,-196.0,-103.0,-11281.0,-401.0,157.0,23.0,213.531218633231,-297.49978289819,420.165366624908,225197388
239,-232.0,-154.0,-11283.0,-173.0,155.0,-186.0,210.181772463013,-298.208158244784,420.22051481517,225209818
251,-170.0,-129.0,-11281.0,-61.0,154.0,-292.0,206.816533015601,-298.747630815476,420.280220354994,225226751
-263,66.0,-6.0,-11280.0,50.0,156.0,-396.0,203.360125991863,-299.173714381332,420.311385806732,225239237
-49,78.0,-159.0,-11276.0,168.0,157.0,-505.0,199.764520800065,-299.515444395364,420.318506373397,225245732
-67,-178.0,119.0,-11268.0,397.0,167.0,-718.0,196.005065751052,-299.777315322611,420.32422150038,225262008
-130,-304.0,210.0,-11263.0,513.0,172.0,-822.0,192.055196097794,-299.921943688531,420.344198668649,225273814
-130,-304.0,210.0,-11263.0,513.0,172.0,-822.0,187.917104694001,-300.104919929509,420.382435360081,225280604
136,-539.0,159.0,-11246.0,745.0,186.0,-1036.0,183.643457702508,-300.250431125189,420.41417846948,225293118
44,-394.0,138.0,-11238.0,854.0,195.0,-1143.0,180.733597898687,-300.372265178617,420.413304158695,225309249
-225,2.0,73.0,-11227.0,972.0,205.0,-1248.0,176.28748641228,-300.472089705611,420.4015260826,225317767
-36,42.0,-119.0,-11218.0,1087.0,218.0,-1355.0,171.781335675349,-300.543518574082,420.382373207927,225325768
146,-18.0,-265.0,-11192.0,1319.0,243.0,-1565.0,167.218893941369,-300.599660995862,420.375691652276,225341725
36,-282.0,-8.0,-11178.0,1431.0,1.0,-1671.0,161.090868288891,-300.632376444021,420.366402977537,225357672
30,106.0,-194.0,-11162.0,1547.0,17.0,-1777.0,158.002403801295,-300.667973464224,420.375644912392,225365745
-110,-72.0,75.0,-11147.0,1663.0,34.0,-1884.0,151.795672873693,-300.682774601185,420.355406189679,225380810
-44,106.0,-236.0,-11129.0,1778.0,52.0,-1991.0,147.122618559473,-300.698055778171,420.311557615831,225387017
32,-79.0,17.0,-11091.0,2004.0,90.0,-2199.0,140.886766856842,-300.699434293935,420.277426756154,225405263
-65,-19.0,33.0,-11049.0,2234.0,134.0,-2411.0,136.194885854411,-300.697720156964,420.28853432215,225421749
5,114.0,-256.0,-11027.0,2347.0,157.0,-2515.0,131.499233489178,-300.701583351353,420.27099382806,225435275
5,114.0,-256.0,-11004.0,2459.0,181.0,-2619.0,128.363711419698,-300.695637945171,420.259423038764,225441606
112,-13.0,-50.0,-10954.0,2687.0,234.0,-2828.0,122.095775487632,-300.686577486993,420.236916710605,225461871
-7,-28.0,-77.0,-10928.0,2801.0,6.0,-2932.0,115.82371555117,-300.676206110908,420.210436355462,225470423
-13,-45.0,-102.0,-10900.0,2911.0,33.0,-3034.0,112.689826523827,-300.669729807925,420.198752099036,225484712
-13,-45.0,-102.0,-10900.0,2911.0,33.0,-3034.0,107.981394607276,-300.662227007059,420.176860507498,225490910
102,47.0,1.0,-10840.0,3133.0,92.0,-3242.0,103.272582305135,-300.658941850113,420.186431359628,225506069
33,-71.0,-111.0,-10811.0,3247.0,126.0,-3345.0,100.135598394062,-300.650310368229,420.173727789453,225514071
-239,129.0,-174.0,-10779.0,3362.0,159.0,-3446.0,95.4317617248946,-300.645974612028,420.138529440772,225524743
-107,-168.0,-76.0,-10748.0,3471.0,193.0,-3546.0,90.7250743003998,-300.639258560213,420.152245531834,225537570
-107,-168.0,-76.0,-10713.0,3580.0,227.0,-3648.0,86.0250642797204,-300.627114144697,420.132574355583,225543836
123,-12.0,-23.0,-10641.0,3801.0,44.0,-3854.0,82.8855355717807,-300.625436398586,420.107109627078,225560452
41,133.0,-122.0,-10641.0,3801.0,44.0,-3854.0,78.1830676716674,-300.618906967469,420.108750191074,225568637
2,-116.0,-35.0,-10606.0,3911.0,83.0,-3954.0,73.4749223334476,-300.612921930112,420.099514187314,225580500
-129,102.0,-189.0,-10568.0,4021.0,121.0,-4052.0,70.3410508071578,-300.611786036383,420.067568627195,225587012
30,-43.0,-103.0,-10489.0,4235.0,201.0,-4253.0,65.642980288145,-300.610764495784,420.077596194891,225600983
78,62.0,-104.0,-10489.0,4235.0,201.0,-4253.0,60.9398406481498,-300.599868685259,420.079679699511,225609599
27,89.0,-121.0,-10407.0,4454.0,32.0,-4451.0,57.8025524582477,-300.59819852338,420.081027099245,225625998
27,89.0,-121.0,-10366.0,4561.0,77.0,-4547.0,53.0997910770986,-300.59521213572,420.057930939247,225632412
-48,-54.0,-127.0,-10322.0,4669.0,121.0,-4644.0,48.4013030909104,-300.598362324365,420.045378970254,225642118
38,-66.0,-86.0,-10277.0,4773.0,167.0,-4744.0,45.2691754669061,-300.587630453832,420.065664095592,225657972
24,80.0,-55.0,-10230.0,4880.0,214.0,-4843.0,38.9980022574958,-300.585680721688,420.06260183078,225665889
83,-103.0,-38.0,-10184.0,4984.0,6.0,-4940.0,35.8676372819348,-300.588257981464,420.027413031343,225680564
-70,72.0,-113.0,-10136.0,5089.0,54.0,-5035.0,32.7351522239636,-300.58737042593,420.018106511082,225686821
-70,72.0,-113.0,-10090.0,5193.0,105.0,-5130.0,28.0342553524001,-300.581892266027,420.01042077624,225692941
-70,72.0,-113.0,-10090.0,5193.0,105.0,-5130.0,23.3318170775169,-300.578781917258,420.020756449015,225692941
-85,119.0,-179.0,-9937.0,5507.0,6.0,-5415.0,18.6333746828189,-300.580331647829,420.018404581296,225729845
-85,119.0,-179.0,-9937.0,5507.0,6.0,-5415.0,15.5037644107091,-300.581009793562,420.012852256924,225729845
-75,-85.0,-23.0,-9832.0,5707.0,114.0,-5604.0,10.8044840709632,-300.580655188495,419.989178802922,225742299
112,4.0,-35.0,-9832.0,5707.0,114.0,-5604.0,6.10424229912727,-300.576289582697,419.987675049597,225749957
-134,35.0,-111.0,-9722.0,5914.0,228.0,-5788.0,1.40616067957526,-300.572403596998,420.006316373618,225767138
-135,-114.0,-207.0,-9667.0,6014.0,30.0,-5879.0,-4.85796154235833,-300.554441576307,419.972342427929,225781553
25,88.0,-50.0,-9611.0,6112.0,89.0,-5971.0,-9.55451877915444,-300.550730863384,419.945157271089,225791311
-3,34.0,-17.0,-9493.0,6309.0,208.0,-6153.0,-15.8196963222237,-300.566668572746,419.957340953611,225806833
94,-180.0,-180.0,-9376.0,6508.0,78.0,-6329.0,-20.5195564868459,-300.569878102098,419.967868680694,225823290
-74,98.0,-91.0,-9376.0,6508.0,78.0,-6329.0,-25.2176198766574,-300.572426433275,419.972301506698,225830296
-23,106.0,-165.0,-9251.0,6698.0,205.0,-6508.0,-28.3513754574574,-300.571495302463,419.976398714509,225842619
151,-59.0,-113.0,-9251.0,6698.0,205.0,-6508.0,-33.0468212651157,-300.573762665123,419.977392058699,225850104
-103,194.0,75.0,-9124.0,6887.0,78.0,-6681.0,-37.7452521794212,-300.577580756309,419.977183544926,225862994
-226,260.0,-50.0,-9059.0,6983.0,145.0,-6766.0,-40.8771293827396,-300.578314606802,420.001461796055,225878706
-28,34.0,-140.0,-8993.0,7078.0,215.0,-6853.0,-45.5762203922616,-300.574949393009,420.015114455735,225884950
39,-60.0,-112.0,-8926.0,7171.0,28.0,-6938.0,-50.2753681749131,-300.577095831363,420.003404010919,225899486
52,-86.0,-6.0,-8859.0,7262.0,96.0,-7022.0,-53.4100508811478,-300.580830616926,420.011094823501,225908145
-12,-13.0,15.0,-8791.0,7352.0,164.0,-7104.0,-58.1066450362523,-300.57947389094,420.014149193693,225916402
66,-66.0,-86.0,-8651.0,7536.0,54.0,-7271.0,-64.3734914277308,-300.585379390171,420.011426154973,225932983
-448,328.0,110.0,-8581.0,7625.0,127.0,-7352.0,-69.074740797324,-300.585564511194,420.003548904131,225945419
311,-169.0,-227.0,-8437.0,7802.0,19.0,-7513.0,-75.3371618569474,-300.583864148416,420.044760267067,225962070
-246,71.0,140.0,-8437.0,7802.0,19.0,-7513.0,-80.0420510981102,-300.590561165384,420.040599941298,225970545
187,3.0,-179.0,-8364.0,7888.0,95.0,-7594.0,-83.1777513738147,-300.596762222098,420.021291513496,225978131
200,45.0,-278.0,-8217.0,8060.0,248.0,-7749.0,-87.8785740034958,-300.601908680889,420.0443705342,225994024
-288,-43.0,107.0,-8140.0,8148.0,71.0,-7827.0,-92.5738102560978,-300.60282071294,420.074105223788,226001808
72,232.0,-215.0,-8067.0,8229.0,148.0,-7902.0,-95.7129865925352,-300.600988270031,420.066715246444,226010654
-234,283.0,193.0,-7991.0,8310.0,225.0,-7977.0,-100.419271847892,-300.606497606177,420.074017228031,226027577
-234,283.0,193.0,-7918.0,8389.0,47.0,-8050.0,-103.554788624576,-300.61113260125,420.072738026332,226033977
-305,450.0,103.0,-7776.0,8538.0,193.0,-8181.0,-108.256193933552,-300.618110886083,420.085808538128,226051075
-29,135.0,-54.0,-7776.0,8538.0,193.0,-8181.0,-112.952853369294,-300.620953434548,420.087823589572,226059997
-168,280.0,102.0,-7708.0,8606.0,8.0,-8245.0,-117.663533373422,-300.621636819379,420.110105782687,226068452
283,129.0,-144.0,-7641.0,8672.0,76.0,-8306.0,-120.806448190065,-300.630519387394,420.110457495223,226076297
-278,474.0,195.0,-7579.0,8734.0,141.0,-8360.0,-125.512777721532,-300.634115896982,420.132481431899,226088987
-236,359.0,104.0,-7520.0,8790.0,201.0,-8412.0,-128.647359597137,-300.647980832938,420.125267005037,226095848
68,251.0,-25.0,-7411.0,8897.0,62.0,-8506.0,-133.353657147683,-300.65265863225,420.144184687978,226114929
68,251.0,-25.0,-7411.0,8897.0,62.0,-8506.0,-136.492322351397,-300.661243789965,420.160236429316,226114929
-190,265.0,104.0,-7360.0,8944.0,114.0,-8549.0,-141.203746772639,-300.663747970005,420.16424533886,226130473
-250,276.0,183.0,-7271.0,9026.0,206.0,-8622.0,-145.915756507411,-300.675331191686,420.179127138918,226142926
286,74.0,-118.0,-7271.0,9026.0,206.0,-8622.0,-150.630886113122,-300.695731790895,420.221417194866,226149889
327,78.0,-195.0,-7196.0,9094.0,29.0,-8684.0,-153.770251615146,-300.710365564674,420.19483783915,226166979
70,263.0,-131.0,-7164.0,9125.0,63.0,-8708.0,-158.487590242863,-300.725482889842,420.230770440459,226177101
107,-76.0,179.0,-7136.0,9149.0,91.0,-8731.0,-163.204651716317,-300.745813613228,420.275710310609,226189592
-223,661.0,33.0,-7110.0,9173.0,118.0,-8750.0,-169.459468172662,-300.766715737715,420.280330399376,226196572
53,-110.0,100.0,-7074.0,9205.0,157.0,-8778.0,-174.044707626808,-300.772962225593,420.302842177758,226212858
-71,206.0,-110.0,-7063.0,9218.0,171.0,-8787.0,-178.489301169718,-300.770735040355,420.325114001283,226229058
-373,5.0,42.0,-7054.0,9229.0,182.0,-8791.0,-182.761414202932,-300.756219665955,420.336339016361,226238560
-222,108.0,-152.0,-7039.0,9243.0,198.0,-8802.0,-186.837662701517,-300.736882955963,420.355652072937,226252739
-84,108.0,7.0,-7034.0,9248.0,205.0,-8806.0,-190.710737342325,-300.713430427504,420.355185678762,226261480
-214,22.0,-119.0,-7031.0,9254.0,210.0,-8807.0,-194.349943708088,-300.685139045892,420.35049885052,226277529
-594,18.0,32.0,-7029.0,9259.0,216.0,-8808.0,-198.825206661872,-300.6520440078,420.360661200738,226289958
-274,-15.0,55.0,-7022.0,9263.0,222.0,-8815.0,-201.904017409247,-300.615463286308,420.365316769165,226302308
-200,270.0,-60.0,-7021.0,9264.0,223.0,-8816.0,-204.720180703639,-300.577983321267,420.370459120264,226311608
-512,-70.0,88.0,-7020.0,9266.0,225.0,-8816.0,-207.279321618838,-300.540413420357,420.354868656189,226328452
-512,-70.0,88.0,-7019.0,9267.0,227.0,-8817.0,-209.571899552634,-300.494403826169,420.332505825735,226334714
-342,88.0,-58.0,-7017.0,9267.0,228.0,-8820.0,-210.957613768023,-300.438836559311,420.30359396164,226347384
-246,222.0,-62.0,-7016.0,9268.0,230.0,-8821.0,-213.368584408097,-300.387813020791,420.303763682732,226355343
-345,-57.0,8.0,-7015.0,9267.0,229.0,-8822.0,-214.853352211972,-300.340352852595,420.25358343676,226379863
-93,-22.0,-38.0,-7014.0,9267.0,230.0,-8824.0,-216.078021967104,-300.258118525956,420.226753387495,226386073
-135,125.0,4.0,-7012.0,9266.0,231.0,-8827.0,-217.028899291582,-300.191814629965,420.202968432573,226399575
-154,38.0,49.0,-7010.0,9264.0,229.0,-8829.0,-217.752275856244,-300.149790726272,420.117172321325,226416071
-154,38.0,49.0,-7009.0,9262.0,228.0,-8831.0,-218.431050340866,-300.116546599959,419.809951952061,226424303
5,-54.0,1.0,-7008.0,9261.0,227.0,-8833.0,-218.806598766721,-300.093760442348,419.253134452213,226440630
-69,62.0,-142.0,-7007.0,9260.0,226.0,-8833.0,-219.116635338964,-300.114191794888,418.315819220574,226447119
-129,39.0,-19.0,-7007.0,9261.0,227.0,-8833.0,-219.35949939734,-300.129902567498,417.059677005003,226463464
-7,-19.0,-53.0,-7006.0,9260.0,226.0,-8835.0,-219.678029635246,-300.204584727639,414.034953603379,226479846
215,-28.0,-133.0,-7005.0,9258.0,225.0,-8836.0,-219.851167292689,-300.275538849029,411.63486684477,226495645
-103,78.0,38.0,-7005.0,9258.0,225.0,-8836.0,-219.944425958858,-300.361175900318,409.78708046025,226506964
-54,-41.0,-76.0,-7005.0,9260.0,225.0,-8834.0,-220.074171646142,-300.459983574023,406.619444599714,226515135
-13,29.0,-132.0,-7005.0,9260.0,225.0,-8834.0,-220.248843964744,-300.559160715041,401.633352005895,226530920
-12,207.0,107.0,-7004.0,9258.0,225.0,-8837.0,-220.331583137845,-300.664021348829,398.792389731125,226537192
440,20.0,-206.0,-7002.0,9257.0,225.0,-8840.0,-220.449335993378,-300.736996597087,394.125403332486,226550823
-264,84.0,194.0,-7004.0,9258.0,224.0,-8837.0,-220.541128201665,-300.848356694347,389.008861139558,226559577
-127,-97.0,74.0,-7003.0,9260.0,225.0,-8835.0,-220.630675758787,-300.94227317549,383.505814561507,226572678
291,-268.0,-318.0,-7002.0,9258.0,225.0,-8838.0,-220.701943793327,-301.009978256235,377.793431691169,226586585
170,18.0,-88.0,-7002.0,9257.0,224.0,-8839.0,-220.749942381571,-301.06308391815,371.876330509512,226599970
247,-657.0,-142.0,-7002.0,9259.0,223.0,-8836.0,-220.784425447176,-301.103049825503,365.790367480803,226609318
-6,145.0,-299.0,-7004.0,9255.0,223.0,-8839.0,-220.799446835723,-301.12241248006,361.660180389089,226617857
405,-456.0,-388.0,-7003.0,9257.0,226.0,-8840.0,-220.812602247075,-301.130160095445,355.395277613373,226636065
405,-456.0,-388.0,-7003.0,9257.0,226.0,-8840.0,-220.815757269355,-301.129634815708,349.101229230646,226642354
75,-373.0,-28.0,-7000.0,9259.0,224.0,-8837.0,-220.813816903057,-301.118472810004,344.842014279002,226649426
169,-146.0,-184.0,-7000.0,9257.0,222.0,-8839.0,-220.809228760461,-301.102761971341,338.391284484804,226665849
169,-146.0,-184.0,-7001.0,9258.0,224.0,-8837.0,-220.796799184386,-301.08915226133,334.054612923097,226674321
203,-63.0,-466.0,-7001.0,9258.0,224.0,-8837.0,-220.790389446683,-301.068798441614,327.56267679447,226681884
-300,136.0,302.0,-7001.0,9259.0,225.0,-8838.0,-220.775279949876,-301.056276907297,321.074136312085,226689949
-300,136.0,302.0,-7001.0,9259.0,225.0,-8838.0,-220.758630360756,-301.03306865001,314.555331340176,226689949
84,-167.0,-350.0,-7000.0,9258.0,224.0,-8839.0,-220.746808727061,-301.004747749123,310.167684474808,226742064
84,-167.0,-350.0,-7000.0,9258.0,224.0,-8839.0,-220.730122324542,-300.971457881843,303.589042880069,226742064
84,-167.0,-350.0,-7000.0,9258.0,224.0,-8839.0,-220.702842834122,-300.948171538659,297.027590969694,226742064
-46,184.0,106.0,-7000.0,9258.0,224.0,-8839.0,-220.689751747781,-300.93763116748,290.48498373775,226751183
149,-320.0,-301.0,-7000.0,9257.0,223.0,-8840.0,-220.680753404995,-300.90906614556,283.937774463539,226759939
-108,145.0,35.0,-7000.0,9257.0,223.0,-8840.0,-220.660275722071,-300.870429766802,277.31558351202,226776115
103,-304.0,-360.0,-6999.0,9258.0,223.0,-8839.0,-220.643177322218,-300.863206434323,270.780452239513,226791904
-104,281.0,219.0,-6999.0,9258.0,223.0,-8839.0,-220.625375841157,-300.830821248339,264.179076540238,226804697
-45,-188.0,-135.0,-7000.0,9259.0,223.0,-8838.0,-220.617906994801,-300.828425115317,255.438611063824,226813559
27,186.0,31.0,-7000.0,9259.0,225.0,-8839.0,-220.592022063511,-300.796568898164,248.860274832997,226830218
-49,-3.0,-129.0,-7000.0,9259.0,225.0,-8839.0,-220.584281662074,-300.778890451072,242.276042694908,226837508
60,-366.0,-411.0,-7000.0,9259.0,225.0,-8839.0,-220.56955260903,-300.768937795202,235.693070378979,226854169
94,-88.0,-218.0,-6999.0,9259.0,224.0,-8839.0,-220.569512665874,-300.767371647389,231.339231968388,226862932
-187,520.0,486.0,-6998.0,9259.0,224.0,-8840.0,-220.54867746681,-300.744429315344,224.751553426227,226875139
230,-332.0,-278.0,-6998.0,9258.0,224.0,-8841.0,-220.555769020577,-300.749134749682,218.187402429068,226882564
163,-88.0,-339.0,-6998.0,9258.0,224.0,-8841.0,-220.55013727262,-300.741959165838,213.816538577914,226890922
213,270.0,284.0,-6998.0,9255.0,223.0,-8842.0,-220.537677347398,-300.717659433621,207.217177862326,226908089
330,-437.0,-175.0,-6997.0,9256.0,221.0,-8841.0,-220.507542126441,-300.686412433286,200.619047145541,226916923
330,-437.0,-175.0,-6997.0,9256.0,223.0,-8842.0,-220.4954614752,-300.681669464369,194.046912774264,226925295
220,316.0,231.0,-6996.0,9256.0,223.0,-8844.0,-220.492774137773,-300.675606557181,187.474982586925,226944785
253,100.0,4.0,-6996.0,9256.0,222.0,-8843.0,-220.496258468438,-300.671512460765,180.914482541857,226953547
200,-87.0,257.0,-6997.0,9256.0,222.0,-8841.0,-220.50484040675,-300.683466778097,176.538924640599,226962499
122,247.0,332.0,-6996.0,9257.0,222.0,-8841.0,-220.513431491031,-300.710423874789,167.802487765757,226979324
122,247.0,332.0,-6996.0,9256.0,223.0,-8844.0,-220.530231653758,-300.719602075664,159.037220523914,226985784
278,30.0,24.0,-6996.0,9259.0,222.0,-8840.0,-220.527961617474,-300.730460962095,154.674685638353,226998716
587,-210.0,-408.0,-6997.0,9257.0,223.0,-8842.0,-220.544206393616,-300.735329277266,148.101135472312,227010052
298,58.0,-303.0,-6997.0,9258.0,223.0,-8840.0,-220.551868303714,-300.733926116542,141.518374902334,227026857
298,58.0,-303.0,-6996.0,9258.0,222.0,-8841.0,-220.559388017745,-300.760620006328,134.953479198462,227034674
191,176.0,55.0,-6999.0,9259.0,222.0,-8837.0,-220.555673558066,-300.758830087099,128.386081950535,227043213
86,163.0,-161.0,-7004.0,9257.0,219.0,-8832.0,-220.57353575253,-300.770603944906,124.015637951937,227060508
-79,425.0,265.0,-7014.0,9253.0,212.0,-8823.0,-220.558240425462,-300.765330669133,117.568098796851,227068621
-79,425.0,265.0,-7014.0,9253.0,212.0,-8823.0,-220.55717136784,-300.757345384333,111.397427039446,227068621
-20,292.0,106.0,-7089.0,9190.0,135.0,-8764.0,-220.546496758605,-300.756031972536,107.422176141421,227107063
-20,292.0,106.0,-7089.0,9190.0,135.0,-8764.0,-220.538841342204,-300.737388520601,101.790354433222,227107063
-20,292.0,106.0,-7089.0,9190.0,135.0,-8764.0,-220.524984552911,-300.71572176277,98.2081101128845,227107063
-20,292.0,106.0,-7119.0,9163.0,103.0,-8739.0,-220.501649310934,-300.683397239565,93.2080883664838,227115304
134,213.0,-127.0,-7154.0,9131.0,66.0,-8712.0,-220.492901742017,-300.636539531041,90.0856333350717,227131934
158,330.0,-12.0,-7195.0,9093.0,23.0,-8681.0,-220.459284510921,-300.595944733228,85.8153086164492,227138232
-99,107.0,-22.0,-7241.0,9054.0,232.0,-8641.0,-220.412442288912,-300.565528241869,83.2166107110952,227151386
-138,309.0,105.0,-7292.0,9008.0,181.0,-8600.0,-220.36892790394,-300.505182911496,79.7064997482821,227159820
146,492.0,-145.0,-7345.0,8958.0,123.0,-8556.0,-220.36087277182,-300.454824281358,76.6633632475127,227171739
224,290.0,-70.0,-7473.0,8836.0,245.0,-8447.0,-220.302416006551,-300.390713462567,73.4314172122223,227185908
35,444.0,-144.0,-7545.0,8768.0,174.0,-8387.0,-220.224913638684,-300.308546885886,71.5539677095192,227198644
-84,472.0,228.0,-7617.0,8696.0,96.0,-8322.0,-220.203365505334,-300.280420589839,70.5905397330785,227206480
66,104.0,-108.0,-7778.0,8531.0,184.0,-8178.0,-220.120995785513,-300.202296430779,69.0422419170704,227223536
-100,354.0,216.0,-7866.0,8439.0,96.0,-8099.0,-219.954242018319,-300.15084952071,68.188689900981,227234502
90,-181.0,-204.0,-7953.0,8347.0,9.0,-8019.0,-219.711152607512,-300.11562044026,67.5397563470853,227246986
90,-181.0,-204.0,-8035.0,8255.0,176.0,-7937.0,-218.963384279612,-300.119867274485,67.198569165041,227254920
87,-97.0,-278.0,-8123.0,8156.0,86.0,-7852.0,-218.374947443642,-300.057884462053,66.6915383203925,227271946
-13,123.0,-37.0,-8210.0,8059.0,251.0,-7762.0,-217.232328056545,-300.033352766512,66.3218940573131,227279755
-59,135.0,226.0,-8382.0,7862.0,78.0,-7581.0,-215.250614807713,-300.011911093856,65.9540266572953,227295769
-103,20.0,44.0,-8466.0,7758.0,245.0,-7490.0,-213.388357563274,-300.012348774237,65.7423433857307,227303665
16,281.0,-47.0,-8549.0,7655.0,158.0,-7396.0,-211.950673232752,-299.997262460202,65.6102121061958,227320855
-132,-116.0,-47.0,-8635.0,7549.0,73.0,-7300.0,-208.59563259701,-300.016783570434,65.4331160286054,227329126
-60,-164.0,-114.0,-8716.0,7441.0,242.0,-7203.0,-205.668735393721,-300.067299430446,65.3600262268889,227341560
-74,62.0,-43.0,-8879.0,7227.0,75.0,-7005.0,-203.514436233007,-300.106189125853,65.259044029701,227358339
-74,62.0,-43.0,-8960.0,7114.0,248.0,-6904.0,-199.951506472565,-300.105288045567,65.1421395128789,227366340
-290,71.0,171.0,-9036.0,7003.0,166.0,-6806.0,-196.02926036021,-300.187444956745,65.0986661168891,227374470
185,-18.0,-121.0,-9113.0,6891.0,88.0,-6706.0,-191.726042958661,-300.269520812284,65.0184259662632,227388129
3,13.0,-143.0,-9192.0,6778.0,8.0,-6598.0,-187.110470964662,-300.351765812933,64.976400404757,227401437
-342,72.0,165.0,-9269.0,6663.0,187.0,-6492.0,-182.216755714553,-300.42810108114,64.9116719167233,227409777
268,-47.0,-106.0,-9411.0,6429.0,34.0,-6289.0,-175.444284728093,-300.550707770458,64.8985560646599,227429572
77,65.0,-84.0,-9484.0,6312.0,215.0,-6178.0,-170.180785436167,-300.595053526714,64.8490575708475,227442075
-94,-150.0,-71.0,-9623.0,6081.0,74.0,-5959.0,-164.863037886962,-300.675813527757,64.8558579379099,227456367
-229,367.0,24.0,-9689.0,5958.0,4.0,-5855.0,-157.613247771759,-300.707471835213,64.8233746713578,227464715
100,-27.0,-100.0,-9756.0,5833.0,189.0,-5743.0,-152.139176147071,-300.772818962859,64.8370825115523,227472993
54,-159.0,-5.0,-9823.0,5713.0,123.0,-5630.0,-148.451245365819,-300.77815865619,64.8142179993454,227490438
54,-159.0,-5.0,-9885.0,5594.0,57.0,-5519.0,-142.893856744889,-300.794180700621,64.8114037243958,227496673
-20,96.0,-133.0,-10008.0,5344.0,184.0,-5294.0,-137.326905957957,-300.825541519465,64.8274866199143,227513185
64,110.0,-217.0,-10008.0,5344.0,184.0,-5294.0,-133.603510973709,-300.851949705632,64.8304143878305,227521888
48,-69.0,-38.0,-10069.0,5219.0,123.0,-5179.0,-127.996556748811,-300.853518760484,64.8225861894161,227530824
-47,11.0,-25.0,-10184.0,4974.0,5.0,-4948.0,-122.379343304077,-300.844535100394,64.8263811353016,227547131
-83,49.0,-68.0,-10240.0,4847.0,203.0,-4832.0,-118.633986748115,-300.884456799157,64.8563989242359,227555173
-60,162.0,-132.0,-10295.0,4718.0,147.0,-4715.0,-113.005584064594,-300.876279626486,64.8464236710466,227563947
-13,63.0,-133.0,-10295.0,4718.0,147.0,-4715.0,-109.248428156445,-300.852919186142,64.8395900399903,227572283
9,-65.0,-35.0,-10399.0,4461.0,39.0,-4481.0,-101.729315500787,-300.83851733989,64.8385132034714,227586447
-17,53.0,-196.0,-10448.0,4332.0,243.0,-4362.0,-96.1096093499258,-300.900440854701,64.900699556183,227599194
-46,74.0,-120.0,-10497.0,4203.0,193.0,-4243.0,-92.3498651993536,-300.860335727826,64.8785754345376,227607104
-17,-2.0,23.0,-10545.0,4072.0,144.0,-4124.0,-86.6967346516656,-300.843838694518,64.8726981227829,227617944
3,-71.0,-37.0,-10590.0,3941.0,97.0,-4004.0,-81.0583990475227,-300.852521674356,64.8963770433933,227633821
29,-97.0,-176.0,-10635.0,3810.0,50.0,-3883.0,-75.4183897207694,-300.85456217844,64.9059626440911,227640187
-50,87.0,-109.0,-10719.0,3547.0,220.0,-3641.0,-69.7875083081419,-300.86766374518,64.9292384198912,227653968
-8,-42.0,-130.0,-10719.0,3547.0,220.0,-3641.0,-66.0267611214985,-300.827629094144,64.9129707569804,227662659
-32,14.0,50.0,-10799.0,3279.0,138.0,-3394.0,-60.3746180067593,-300.826222043911,64.921109868645,227681514
-101,48.0,-88.0,-10836.0,3145.0,99.0,-3271.0,-54.7317154513837,-300.830249127926,64.9416992519471,227687739
-37,68.0,-120.0,-10870.0,3012.0,62.0,-3150.0,-49.1052732806019,-300.828857641332,64.9448495984491,227701068
35,-64.0,-146.0,-10904.0,2876.0,27.0,-3028.0,-43.4674124079232,-300.820149460458,64.9474618169501,227709254
84,-107.0,-119.0,-10938.0,2739.0,249.0,-2902.0,-39.7026496558794,-300.824036387625,64.9559194101576,227717240
-52,-19.0,-114.0,-10970.0,2605.0,217.0,-2775.0,-34.0602070351961,-300.814626015676,64.9577948943381,227732958
-84,41.0,-133.0,-10999.0,2472.0,187.0,-2651.0,-30.3088241214865,-300.816920545189,64.9617142775289,227742608
-13,70.0,-156.0,-11055.0,2196.0,130.0,-2401.0,-22.7986898419328,-300.814579557838,64.967713243923,227756798
125,-185.0,-191.0,-11082.0,2060.0,105.0,-2272.0,-17.1552209279005,-300.810892074043,64.9692988562889,227765297
-102,33.0,71.0,-11105.0,1926.0,80.0,-2147.0,-13.3937365544334,-300.81419962233,64.9794738818448,227773656
-193,55.0,-11.0,-11126.0,1788.0,56.0,-2023.0,-7.76407695354219,-300.812292807172,64.9855778182385,227787520
70,-75.0,-128.0,-11167.0,1508.0,14.0,-1769.0,-0.255114414862377,-300.81272520585,64.9895583448919,227805161
60,-262.0,-235.0,-11184.0,1373.0,252.0,-1643.0,9.14349550245409,-300.751559337544,64.9854505515181,227822656
-127,88.0,-34.0,-11217.0,1098.0,222.0,-1384.0,14.7702254808135,-300.750453046455,64.9851403459872,227837369
42,-106.0,-234.0,-11230.0,959.0,207.0,-1259.0,20.4018753127231,-300.753766777481,64.9815395082427,227850161
27,81.0,28.0,-11242.0,818.0,195.0,-1132.0,26.0433702877953,-300.760382812602,64.9785922743375,227861324
222,-353.0,-36.0,-11252.0,678.0,185.0,-1004.0,31.6758996031701,-300.766951098906,64.9780901253505,227869220
22,50.0,-264.0,-11263.0,543.0,178.0,-872.0,37.3045447413019,-300.767969441346,64.9792848055387,227883919
-202,106.0,-116.0,-11271.0,407.0,171.0,-744.0,41.061855172423,-300.777821148645,64.9823398351888,227890205
7,-22.0,-195.0,-11280.0,122.0,160.0,-491.0,46.7002357257948,-300.783618417933,64.9820373956909,227903691
364,-466.0,-75.0,-11280.0,122.0,160.0,-491.0,52.3418724972432,-300.797548036263,64.9797726948477,227912384
163,137.0,-219.0,-11285.0,-150.0,157.0,-228.0,57.9756331260205,-300.799976198428,64.9729013804387,227925517
34,-189.0,-48.0,-11285.0,-291.0,159.0,-103.0,61.7293828919554,-300.8084305828,64.9768530555862,227939499
116,-33.0,-30.0,-11283.0,-431.0,160.0,24.0,69.2488854393135,-300.820197718347,64.9728526182452,227953216
112,48.0,-68.0,-11279.0,-572.0,164.0,153.0,74.8932153963286,-300.825805772922,64.9711958912756,227961839
-322,258.0,500.0,-11273.0,-839.0,179.0,409.0,80.5258263271159,-300.829292055479,64.9643242142716,227977839
60,-223.0,-225.0,-11263.0,-974.0,185.0,528.0,86.1579546815595,-300.826616602501,64.9418929793912,227988041
266,-371.0,-33.0,-11256.0,-1100.0,195.0,645.0,91.8041272913413,-300.830565435306,64.9326762013467,228001250
17,-132.0,8.0,-11247.0,-1218.0,205.0,756.0,95.5664646013765,-300.834032555126,64.9332301373991,228009593
77,-432.0,-34.0,-11230.0,-1438.0,229.0,967.0,103.089684372691,-300.860135547776,64.9451661817698,228026123
270,-407.0,-235.0,-11218.0,-1540.0,238.0,1055.0,108.724451188932,-300.837626562298,64.9067916203499,228040119
-15,-69.0,410.0,-11209.0,-1635.0,251.0,1145.0,114.368771693179,-300.85048901328,64.9016958689299,228050078
-194,129.0,321.0,-11200.0,-1722.0,6.0,1230.0,118.136587542859,-300.848468495095,64.8875292910668,228057937
-194,129.0,321.0,-11189.0,-1802.0,16.0,1302.0,123.780657434597,-300.864466882552,64.8999392135856,228066288
-62,124.0,445.0,-11181.0,-1873.0,27.0,1370.0,129.435426973708,-300.900836955745,64.8973716630086,228082053
8,-82.0,-7.0,-11171.0,-1937.0,35.0,1430.0,135.075104238909,-300.878430652892,64.8558846086778,228094559
-59,-241.0,0.0,-11164.0,-1995.0,45.0,1483.0,140.712854268421,-300.883373120981,64.8383728656515,228101327
-33,-251.0,219.0,-11151.0,-2092.0,62.0,1573.0,146.381009707328,-300.912993824831,64.8620368245508,228121705
-265,64.0,197.0,-11147.0,-2124.0,67.0,1608.0,152.036064397737,-300.93510338251,64.8355093131538,228129657
-162,-7.0,219.0,-11143.0,-2151.0,72.0,1631.0,155.793376134387,-300.933135810725,64.8078016332057,228142619
92,-61.0,-39.0,-11138.0,-2173.0,73.0,1648.0,161.446067541814,-300.934867948948,64.7942806815319,228148828
92,-61.0,-39.0,-11134.0,-2188.0,75.0,1661.0,167.055307551311,-300.931718694975,64.7991766812634,228156667
-79,85.0,-242.0,-11131.0,-2208.0,79.0,1685.0,172.541712472565,-300.96301732809,64.808088456012,228177412
-163,211.0,-306.0,-11131.0,-2208.0,79.0,1685.0,176.074813952665,-300.88465042376,64.7565765838587,228184383
-106,155.0,-278.0,-11127.0,-2226.0,80.0,1697.0,182.847222587097,-300.88187975532,64.774353335504,228196893
114,47.0,-369.0,-11126.0,-2230.0,81.0,1702.0,187.587411753674,-300.803184107669,64.758809844906,228204551
-89,157.0,-310.0,-11126.0,-2230.0,81.0,1705.0,192.043324141327,-300.786359813782,64.7944177105877,228221956
-143,214.0,-322.0,-11125.0,-2229.0,81.0,1706.0,196.143633346943,-300.670772459406,64.7643448448176,228230076
-143,214.0,-322.0,-11125.0,-2229.0,81.0,1706.0,198.703124158677,-300.606652962168,64.7834344963175,228230076
83,179.0,-489.0,-11122.0,-2235.0,79.0,1710.0,202.265536270599,-300.532052287829,64.8024599868763,228256667
-22,159.0,-323.0,-11121.0,-2234.0,79.0,1712.0,205.442349215057,-300.459532799671,64.8287045944853,228265640
-74,275.0,-324.0,-11121.0,-2234.0,79.0,1712.0,208.255424421772,-300.405091531502,64.834336025551,228274080
-1,262.0,-345.0,-11119.0,-2236.0,77.0,1715.0,210.698666876991,-300.314161247406,64.8484404750921,228288855
-1,262.0,-345.0,-11117.0,-2242.0,77.0,1720.0,212.127490166133,-300.247674724029,64.8735774110555,228297091
-18,66.0,-137.0,-11115.0,-2247.0,77.0,1729.0,213.94595848588,-300.164392224033,64.8941999889948,228314722
-18,66.0,-137.0,-11115.0,-2247.0,77.0,1729.0,215.80838609213,-300.122857311904,64.9429820994356,228314722
3,50.0,-157.0,-11109.0,-2252.0,75.0,1738.0,216.785285940067,-300.060423430922,64.9324196502786,228355641
3,50.0,-157.0,-11109.0,-2252.0,75.0,1738.0,217.584029808677,-299.968322254865,64.9281612506005,228355641
3,50.0,-157.0,-11109.0,-2252.0,75.0,1738.0,218.114063189967,-299.773762063093,64.9424828084062,228355641
-21,40.0,-40.0,-11108.0,-2254.0,74.0,1741.0,219.027185441348,-299.39966195766,64.9753762111918,228373002
-15,-9.0,31.0,-11107.0,-2256.0,74.0,1744.0,220.14132618907,-299.002666475638,64.986977860053,228380755
-6,28.0,-85.0,-11106.0,-2255.0,73.0,1745.0,221.548858670739,-297.814505060103,64.9898883846554,228393192
-45,26.0,-10.0,-11104.0,-2254.0,71.0,1748.0,223.307155956352,-297.010909694519,65.0055499511747,228407749
-4,77.0,-71.0,-11102.0,-2254.0,70.0,1751.0,225.465399690074,-295.512794391596,65.0191095661181,228418621
-4,77.0,-71.0,-11102.0,-2254.0,70.0,1751.0,228.028889946009,-293.629283460375,65.0061818010209,228426974
-10,-72.0,-8.0,-11100.0,-2255.0,69.0,1755.0,229.975017896071,-291.336508083591,64.9976809348465,228440284
-30,99.0,-7.0,-11099.0,-2254.0,68.0,1756.0,234.485923049625,-288.619439187251,65.009468323431,228454004
-23,-88.0,13.0,-11098.0,-2255.0,67.0,1757.0,238.39605630126,-285.455389900034,65.0094969877062,228462745
-27,57.0,-35.0,-11096.0,-2252.0,65.0,1760.0,244.201698762196,-279.2089924118,65.0046701864947,228478739
-25,-23.0,41.0,-11094.0,-2252.0,64.0,1764.0,248.872550813591,-276.430503456421,65.0054327539065,228497808
-3,0.0,-23.0,-11094.0,-2252.0,64.0,1764.0,253.713319259245,-272.020117806843,65.0083074108808,228506380
-19,-8.0,20.0,-11093.0,-2250.0,63.0,1766.0,256.992907140073,-267.360029408753,65.0116673459057,228514995
-19,-89.0,15.0,-11093.0,-2250.0,63.0,1766.0,261.937520458561,-264.135941236837,65.0038359027427,228523822
-16,-123.0,30.0,-11093.0,-2247.0,62.0,1767.0,266.892471047544,-259.13107262783,65.004219837319,228538728
-16,-123.0,30.0,-11092.0,-2247.0,61.0,1770.0,271.840382692499,-253.952513370201,65.0070296605647,228547012
-32,79.0,25.0,-11091.0,-2246.0,61.0,1771.0,275.11215655222,-250.405695515303,65.0053020487605,228558457
-32,79.0,25.0,-11091.0,-2246.0,61.0,1772.0,279.977086772993,-244.960494934889,65.005663595593,228566987
-27,126.0,-36.0,-11090.0,-2242.0,59.0,1773.0,284.764979503319,-239.3810000629,65.0023247286665,228583317
-17,96.0,-15.0,-11089.0,-2242.0,59.0,1775.0,289.462579068968,-233.677623864356,65.0009376043715,228590806
-19,-65.0,7.0,-11088.0,-2240.0,58.0,1779.0,294.069554563728,-227.859787992351,65.0029561024049,228607158
-28,91.0,-12.0,-11088.0,-2238.0,58.0,1779.0,297.084452660025,-221.925060646966,65.0007026737275,228616225
-24,-117.0,59.0,-11087.0,-2238.0,57.0,1781.0,301.517171536815,-217.912365101277,65.0016129005596,228628276
-4,-151.0,32.0,-11087.0,-2238.0,57.0,1781.0,304.411619758689,-211.806987137365,65.0010060468377,228635183
-12,73.0,-6.0,-11086.0,-2234.0,56.0,1783.0,308.654182496673,-207.682451755103,65.0013015765992,228647649
-28,-117.0,20.0,-11086.0,-2232.0,55.0,1784.0,311.414183118136,-201.426321270958,65.0006581481124,228655478
-15,107.0,-11.0,-11086.0,-2232.0,55.0,1784.0,315.451763896614,-197.205103281334,65.0001548883909,228664371
-14,81.0,-11.0,-11085.0,-2232.0,55.0,1786.0,319.367110711897,-190.800822811598,65.0010324959128,228673056
-18,-4.0,4.0,-11086.0,-2229.0,55.0,1788.0,323.154195287282,-182.131434290666,65.0000259825518,228690675
-8,-82.0,34.0,-11085.0,-2228.0,55.0,1790.0,326.813507016163,-175.538470287872,65.0003209600109,228704528
-14,7.0,31.0,-11086.0,-2226.0,55.0,1790.0,330.337815798158,-171.105606032191,65.0002922515323,228712947
-11,-49.0,38.0,-11086.0,-2223.0,56.0,1793.0,333.727152139136,-164.397226754352,65.0001053610293,228729409
-11,-49.0,38.0,-11086.0,-2224.0,56.0,1795.0,335.911676274206,-157.61818276431,64.9999471785105,228736812
-13,-45.0,71.0,-11087.0,-2221.0,56.0,1796.0,339.076106805122,-150.769894473876,64.9998537332077,228745256
-14,-81.0,-20.0,-11087.0,-2220.0,56.0,1798.0,342.104674266153,-146.168112557176,65.00041835432,228758346
-17,-6.0,53.0,-11087.0,-2218.0,56.0,1798.0,344.04451348565,-139.218260723068,65.0000192369928,228767122
-20,-40.0,-38.0,-11088.0,-2218.0,57.0,1801.0,346.834811153697,-132.218209163511,64.9998610545408,228775572
-22,15.0,77.0,-11088.0,-2216.0,57.0,1801.0,349.483989209754,-127.520707172293,64.9991922961502,228790876
-5,-129.0,-37.0,-11088.0,-2215.0,57.0,1803.0,351.992822548326,-120.422406445103,64.9997856239527,228799297
-5,-129.0,-37.0,-11088.0,-2214.0,57.0,1805.0,353.584753964209,-115.662642209565,64.9996741640796,228807815
-22,10.0,87.0,-11089.0,-2213.0,58.0,1806.0,355.113957791034,-108.485631878926,64.9994799522261,228816635
-31,89.0,79.0,-11089.0,-2211.0,58.0,1808.0,357.283783970639,-101.264208287741,64.9999618213201,228828665
-22,48.0,102.0,-11089.0,-2209.0,58.0,1809.0,359.306664963416,-96.4307094086017,64.9996561497631,228841892
-11,-158.0,-69.0,-11090.0,-2207.0,58.0,1811.0,361.183385186179,-89.1446740373729,64.9991455731372,228855890
-9,-134.0,-72.0,-11090.0,-2207.0,59.0,1814.0,362.353502036346,-81.8167227752712,64.9996741640253,228865458
-32,-14.0,113.0,-11090.0,-2207.0,59.0,1814.0,363.984234083855,-74.4576377307376,64.9996561493298,228874140
-5,-124.0,-72.0,-11090.0,-2204.0,59.0,1813.0,365.465149022257,-67.0689506989647,64.9997028720959,228882070
-43,9.0,108.0,-11091.0,-2201.0,59.0,1816.0,366.797334440017,-62.1308559983999,64.9993504778935,228897741
-8,-146.0,-61.0,-11091.0,-2201.0,59.0,1818.0,367.979273335593,-52.2154326984949,64.9998970838996,228914395
-36,46.0,105.0,-11091.0,-2199.0,60.0,1819.0,369.010524603223,-44.7503912265917,64.9993865070928,228923072
-11,-191.0,-58.0,-11092.0,-2197.0,60.0,1822.0,370.150278343576,-34.7720685692775,64.9995446893441,228937588
-36,4.0,92.0,-11092.0,-2196.0,60.0,1824.0,370.828338311527,-27.2742709545067,64.999814331828,228950237
-1,-159.0,-50.0,-11092.0,-2195.0,60.0,1825.0,371.354776462112,-19.7651455475934,64.9993504778044,228961141
-32,-36.0,80.0,-11093.0,-2192.0,61.0,1828.0,371.729627527082,-12.2463307523286,64.9995086602104,228977943
-11,-103.0,54.0,-11093.0,-2192.0,61.0,1828.0,371.952332874731,-7.22720908994517,64.9998790692777,228985487
-17,-94.0,-12.0,-11093.0,-2190.0,61.0,1828.0,372.021829396882,0.298861026704044,64.9997315799074,228993359
-9,-89.0,0.0,-11094.0,-2187.0,61.0,1831.0,371.98435674454,7.82419348580672,64.9990915291732,229010210
-9,-89.0,0.0,-11094.0,-2186.0,62.0,1833.0,371.705590174288,15.3459094051099,64.9999077771196,229018541
-26,-11.0,-6.0,-11094.0,-2176.0,62.0,1842.0,371.464528936949,22.8623863954279,65.0000552667184,229029622
0,-172.0,44.0,-11095.0,-2173.0,62.0,1845.0,370.976325657005,30.3709535743508,65.0001126822946,229045480
-7,-189.0,52.0,-11095.0,-2173.0,62.0,1845.0,370.337512109692,35.3677627154298,65.0003068945037,229054313
-20,-18.0,-38.0,-11096.0,-2173.0,63.0,1847.0,369.546028727002,42.8531727865225,65.0002421569964,229064275
-17,-129.0,66.0,-11096.0,-2171.0,63.0,1847.0,368.933914172894,50.32011630956,64.9998717477666,229072864
-8,-66.0,-46.0,-11096.0,-2169.0,64.0,1849.0,367.89139171749,55.2842678148883,64.9999832076631,229087961
-25,-88.0,76.0,-11097.0,-2168.0,64.0,1851.0,366.697854630492,62.716323261698,64.9998537331816,229099147
-25,-88.0,76.0,-11097.0,-2166.0,64.0,1852.0,365.817842885234,70.123118735493,65.0003175876083,229107665
-8,-106.0,-69.0,-11097.0,-2165.0,64.0,1853.0,364.374634909801,77.4997303108309,64.9997889959778,229116448
-16,-182.0,88.0,-11097.0,-2164.0,64.0,1854.0,362.782307172638,84.8427772928152,64.9991956682025,229133991
-20,-26.0,-75.0,-11098.0,-2162.0,65.0,1855.0,361.040818802993,89.7233091978545,65.0008929032768,229141471
-31,-193.0,83.0,-11098.0,-2162.0,65.0,1857.0,359.797581608112,97.0073750933363,65.0002168208289,229149591
-31,-193.0,83.0,-11099.0,-2159.0,65.0,1857.0,357.81199503427,101.840655349104,64.9994653103209,229158046
-26,-50.0,-68.0,-11099.0,-2159.0,66.0,1859.0,356.404355229289,109.059879766497,65.0001413902917,229169868
-31,-142.0,83.0,-11099.0,-2157.0,66.0,1859.0,354.173631424861,113.846498411113,65.0001233756077,229185378
-13,-65.0,-59.0,-11100.0,-2155.0,66.0,1862.0,350.974227358296,123.357584758121,65.0003643102073,229197729
-13,-141.0,70.0,-11100.0,-2155.0,66.0,1862.0,349.279201504464,130.431367947154,65.0000586386,229205361
-7,-142.0,-56.0,-11102.0,-2153.0,68.0,1864.0,346.616682521882,135.121024399907,65.000698690633,229222392
-13,-141.0,47.0,-11102.0,-2152.0,68.0,1865.0,343.81118857514,142.105306154377,65.0004757705416,229232876
-23,-88.0,-49.0,-11102.0,-2151.0,68.0,1867.0,340.867501259264,151.326138331878,64.9996702156208,229245350
-26,-54.0,-41.0,-11103.0,-2150.0,69.0,1868.0,337.78283783021,155.895939885807,64.9997349525183,229252005
-26,-172.0,17.0,-11103.0,-2150.0,70.0,1872.0,334.559664818044,162.697742002881,65.0004757705416,229268808
-28,-170.0,-98.0,-11102.0,-2153.0,70.0,1875.0,332.335672756232,169.43067654208,64.9997349526485,229277429
-26,-402.0,-40.0,-11102.0,-2153.0,70.0,1875.0,327.704566973364,176.095624529337,64.9997169381813,229285381
3,-366.0,-129.0,-11103.0,-2152.0,71.0,1878.0,325.299118107656,182.689519627048,65.0002348355228,229297834
-51,-352.0,-16.0,-11104.0,-2149.0,72.0,1876.0,321.580568356012,187.046206725295,64.9999939012437,229315005
-33,-201.0,-116.0,-11106.0,-2146.0,72.0,1876.0,317.73099405171,193.511694482257,64.9999471786128,229323620
-10,-157.0,-59.0,-11108.0,-2140.0,73.0,1870.0,313.753128788535,199.897824078219,64.9993645447454,229337863
57,-619.0,-228.0,-11108.0,-2140.0,73.0,1870.0,311.027929993088,206.205601582341,65.0002995732496,229344055
-76,-492.0,-207.0,-11113.0,-2130.0,73.0,1858.0,305.408701655215,212.427967578393,65.0005692161812,229360705
-76,-492.0,-207.0,-11116.0,-2122.0,74.0,1852.0,302.517661539899,218.56259581834,64.9995874640725,229368840
-96,-358.0,23.0,-11115.0,-2110.0,70.0,1845.0,298.074406694619,222.603489923588,64.9999111494224,229378037
138,-374.0,-112.0,-11117.0,-2099.0,69.0,1837.0,295.044105739561,228.587223563306,64.9999578720881,229391688
138,-374.0,-112.0,-11121.0,-2089.0,69.0,1826.0,290.401495862184,234.477662132619,64.9997816752267,229397934
-139,-208.0,44.0,-11125.0,-2073.0,67.0,1809.0,285.6379998936,240.271762766767,65.000116054555,229413710
217,72.0,181.0,-11132.0,-2032.0,62.0,1779.0,280.755946751332,245.969314264308,65.0002455290195,229426170
-29,-224.0,-11.0,-11134.0,-2015.0,59.0,1761.0,274.0708075126,253.406372934255,65.0001807917858,229440232
-180,-290.0,314.0,-11139.0,-1998.0,57.0,1745.0,267.193316072189,260.636943161423,64.9998751205313,229453293
-173,-99.0,-23.0,-11150.0,-1933.0,49.0,1692.0,256.830685287179,270.707688106912,65.0073515222707,229480611
54,-14.0,-326.0,-11152.0,-1914.0,45.0,1674.0,251.714067315255,275.218245049538,65.0153859841415,229493337
-36,40.0,78.0,-11160.0,-1870.0,41.0,1637.0,244.979583781379,280.606020528193,65.0217084678504,229507118
27,5.0,-93.0,-11161.0,-1846.0,36.0,1619.0,240.01012146625,284.157554311975,64.9943547103842,229524223
-61,-442.0,50.0,-11166.0,-1827.0,35.0,1600.0,233.517678222132,287.297491056903,64.9911151230805,229532252
-154,-105.0,-82.0,-11173.0,-1782.0,30.0,1561.0,230.351998924973,290.033487623716,64.994196453942,229548152
59,204.0,-274.0,-11173.0,-1782.0,30.0,1561.0,225.701738335067,291.61685872529,64.986397536627,229555639
-9,111.0,180.0,-11178.0,-1759.0,28.0,1541.0,222.68811981304,293.656420811276,64.9973407903609,229564173
-94,-107.0,-338.0,-11182.0,-1737.0,26.0,1523.0,218.28472798139,294.775475883231,64.9704955739437,229572266
-128,7.0,-260.0,-11185.0,-1717.0,23.0,1503.0,215.396668292028,296.092703717744,64.933852325284,229587251
27,-70.0,61.0,-11190.0,-1694.0,22.0,1485.0,211.167590543963,296.819523678927,64.9524225545624,229593496
27,-70.0,61.0,-11193.0,-1669.0,19.0,1464.0,206.930218499838,297.69225198249,64.9600355196629,229599741
144,90.0,-6.0,-11208.0,-1579.0,12.0,1386.0,202.574329154874,298.503345231938,64.9011125390487,229638285
144,90.0,-6.0,-11208.0,-1579.0,12.0,1386.0,196.463318395047,298.974680583142,64.8847690549003,229638285
-74,51.0,-53.0,-11208.0,-1579.0,12.0,1386.0,191.604023883799,299.220178662228,64.8658776522004,229644866
-251,-395.0,-202.0,-11216.0,-1539.0,9.0,1343.0,186.5590429071,299.783708755545,64.85609901602,229659141
-202,-178.0,-8.0,-11221.0,-1511.0,8.0,1324.0,181.344695706567,299.93457062908,64.8265355036572,229667817
0,-4.0,27.0,-11224.0,-1489.0,6.0,1307.0,176.065124017302,300.162566337206,64.8360502564354,229683889
0,-4.0,27.0,-11227.0,-1470.0,4.0,1286.0,172.467814881648,300.314250205777,64.8121884343251,229690158
-64,-218.0,-435.0,-11230.0,-1450.0,2.0,1265.0,168.846981299437,300.400377334384,64.7992371901438,229699797
127,52.0,-78.0,-11239.0,-1400.0,0.0,1223.0,163.390456016575,300.499390855565,64.8084633019564,229716764
77,186.0,48.0,-11239.0,-1400.0,0.0,1223.0,157.855133356,300.568910403375,64.7840343360718,229725870
34,-183.0,-307.0,-11242.0,-1379.0,255.0,1205.0,152.325394236999,300.669945009085,64.8023683717699,229733774
-116,-104.0,-103.0,-11245.0,-1359.0,254.0,1184.0,148.614994777919,300.726532670759,64.8060784180669,229746253
43,99.0,-94.0,-11249.0,-1338.0,253.0,1164.0,143.014746473685,300.739563121289,64.7929496314969,229752734
34,170.0,-15.0,-11253.0,-1312.0,252.0,1142.0,139.287665580123,300.767924730629,64.7959365819359,229763585
-19,-7.0,-102.0,-11257.0,-1289.0,251.0,1123.0,133.67641611387,300.809532218882,64.8236025256903,229771505
-63,-228.0,-77.0,-11260.0,-1269.0,250.0,1104.0,129.923571199997,300.836648675668,64.822095512046,229786636
-16,-147.0,-139.0,-11267.0,-1226.0,248.0,1062.0,124.30360035782,300.836235022592,64.8109361406182,229799039
4,-86.0,-114.0,-11271.0,-1203.0,247.0,1039.0,116.795902898167,300.860458114896,64.8572264391191,229814931
-54,-55.0,-103.0,-11277.0,-1160.0,245.0,1000.0,111.159309009922,300.851089292739,64.8416050472864,229828068
45,-29.0,-155.0,-11277.0,-1160.0,245.0,1000.0,105.513144703823,300.84390703925,64.8358530619375,229835577
-6,-60.0,-5.0,-11283.0,-1116.0,244.0,958.0,97.9863583095271,300.886908046397,64.8885741820351,229848059
-64,-80.0,-55.0,-11287.0,-1094.0,243.0,937.0,92.3632875915706,300.891528338089,64.8893460283323,229863211
12,46.0,-135.0,-11289.0,-1073.0,242.0,916.0,86.7106510314225,300.83946984474,64.8662886978489,229871055
51,57.0,-66.0,-11296.0,-1028.0,241.0,875.0,82.9494742576242,300.853449785684,64.8873107994178,229890582
-15,-137.0,-70.0,-11296.0,-1028.0,241.0,875.0,77.2998999023529,300.862144874532,64.907320750752,229896882
-64,-46.0,-69.0,-11299.0,-1007.0,241.0,854.0,71.6606789056408,300.859718388254,64.915363461572,229903478
-14,-71.0,-138.0,-11304.0,-964.0,239.0,812.0,67.9121238334609,300.842341368824,64.9183035178335,229919635
-14,-28.0,-98.0,-11307.0,-943.0,240.0,793.0,62.2665368086762,300.829140958367,64.9227860750867,229928299
-9,22.0,-52.0,-11310.0,-919.0,239.0,772.0,58.5031248041812,300.829857410852,64.92820168861,229941998
36,-71.0,-89.0,-11314.0,-896.0,239.0,752.0,50.9776921437235,300.832804461532,64.9417449272075,229951654
36,-71.0,-89.0,-11316.0,-876.0,239.0,731.0,45.3426912993433,300.815588756615,64.9458120629093,229959524
-38,41.0,-174.0,-11319.0,-854.0,238.0,710.0,39.7085660634909,300.829294612085,64.9614656110585,229976562
76,100.0,-29.0,-11324.0,-810.0,238.0,669.0,32.1850332094669,300.81613569995,64.9560364912016,229991145
40,22.0,-91.0,-11327.0,-787.0,238.0,649.0,26.5527582482509,300.813040896089,64.9620226187707,230004170
-86,-250.0,-138.0,-11329.0,-768.0,237.0,626.0,20.9152034304521,300.805098741887,64.9654294381023,230015687
-162,-141.0,-25.0,-11331.0,-746.0,237.0,604.0,17.1579971116328,300.813809580944,64.973362620309,230024230
41,152.0,-125.0,-11336.0,-700.0,237.0,564.0,11.5207003711496,300.814102147068,64.9765137337579,230038675
112,-52.0,-43.0,-11340.0,-680.0,238.0,544.0,5.88628370204877,300.805056710227,64.9795521510269,230050921
46,-145.0,-163.0,-11342.0,-658.0,238.0,523.0,0.253304036184261,300.803375020093,64.9839233163078,230058881
-14,113.0,6.0,-11344.0,-637.0,238.0,501.0,-5.38265069041402,300.767981537777,64.9803131005342,230067471
-98,-287.0,-228.0,-11345.0,-618.0,237.0,479.0,-9.14066984600068,300.739575470751,64.9778320987177,230079951
18,210.0,-77.0,-11348.0,-594.0,238.0,457.0,-16.6491717441192,300.756479701814,64.9890213247947,230093968
136,-9.0,-227.0,-11353.0,-548.0,239.0,419.0,-22.2816646613729,300.766451191849,64.9898238288417,230107757
189,264.0,0.0,-11353.0,-548.0,239.0,419.0,-26.0401593795792,300.763841432153,64.9855375574666,230116244
-202,-230.0,-38.0,-11355.0,-529.0,240.0,397.0,-31.6760554644618,300.763817145612,64.9806041616956,230124763
244,293.0,-220.0,-11359.0,-488.0,240.0,351.0,-35.4333185213452,300.778222913878,64.9882764127224,230142627
244,293.0,-220.0,-11361.0,-461.0,240.0,333.0,-41.0654841664976,300.787209062744,64.9881962724141,230148844
-81,-40.0,-121.0,-11364.0,-442.0,242.0,312.0,-46.6994958973035,300.797082668238,64.9889288524422,230164514
-315,-21.0,-301.0,-11363.0,-423.0,239.0,288.0,-52.3392009090667,300.799269809852,64.9833353428189,230172363
-315,-21.0,-301.0,-11367.0,-403.0,242.0,265.0,-56.0980974320605,300.797671109419,64.9737223408644,230180320
55,-352.0,-23.0,-11367.0,-377.0,241.0,247.0,-61.7309576746731,300.808921560842,64.9770500215954,230194242
-25,183.0,21.0,-11370.0,-357.0,243.0,226.0,-65.4893412199175,300.817271169235,64.9771757040271,230204594
29,137.0,-130.0,-11371.0,-335.0,243.0,205.0,-71.1306557638566,300.831311102209,64.9781636325989,230212711
29,137.0,-130.0,-11371.0,-319.0,242.0,182.0,-74.8905904344641,300.826492509727,64.9690718555666,230220694
121,232.0,210.0,-11372.0,-298.0,243.0,165.0,-80.5269316847683,300.829979944148,64.9579769712056,230236401
111,94.0,-448.0,-11375.0,-278.0,245.0,148.0,-86.1603887097672,300.824075266745,64.9409446653483,230242674
-95,-276.0,-562.0,-11374.0,-263.0,243.0,128.0,-91.8050684022636,300.836662675782,64.9411929283294,230256169
143,309.0,-151.0,-11376.0,-213.0,243.0,78.0,-97.4453008046944,300.841067177739,64.9411948965906,230282167
143,309.0,-151.0,-11376.0,-213.0,243.0,78.0,-103.088090035759,300.858226115824,64.9351020198208,230282167
143,309.0,-151.0,-11373.0,-202.0,240.0,62.0,-106.845881127782,300.841825181086,64.915277187334,230288720
-133,55.0,-173.0,-11370.0,-190.0,237.0,45.0,-112.48731632968,300.846217022688,64.908283774795,230301885
-133,55.0,-173.0,-11372.0,-177.0,239.0,32.0,-118.132088709489,300.853783152504,64.8869389506773,230309726
39,-41.0,-553.0,-11372.0,-167.0,239.0,21.0,-123.782495870017,300.871668118778,64.9013490686947,230326948
-4,-73.0,-465.0,-11371.0,-156.0,237.0,9.0,-127.555571137924,300.897155407829,64.9024179177015,230334766
-16,86.0,-386.0,-11370.0,-148.0,236.0,1.0,-133.198489896032,300.888025733846,64.8511901677297,230344203
124,-95.0,-375.0,-11369.0,-135.0,235.0,-13.0,-138.825756389011,300.875581033189,64.8392384276104,230358173
99,230.0,-424.0,-11368.0,-131.0,235.0,-21.0,-144.49384596222,300.914317959884,64.8593635766795,230367400
-24,-47.0,-345.0,-11370.0,-123.0,236.0,-26.0,-150.157476291209,300.939161844778,64.8474800722968,230383842
-24,-47.0,-345.0,-11372.0,-112.0,238.0,-33.0,-155.790850294943,300.923484261092,64.8118916586671,230390034
204,-12.0,-185.0,-11372.0,-112.0,238.0,-33.0,-159.563817819999,300.938064830064,64.8018281222466,230396493
71,-29.0,-273.0,-11373.0,-88.0,239.0,-56.0,-167.057894660876,300.941761704249,64.7975092489818,230415799
84,-56.0,-117.0,-11373.0,-69.0,239.0,-74.0,-170.736291981283,300.953207048787,64.8011330996418,230424141
277,-169.0,-216.0,-11371.0,-18.0,237.0,-124.0,-177.797562222934,300.876607014714,64.7522710757652,230444837
277,-169.0,-216.0,-11371.0,16.0,237.0,-159.0,-182.846281637863,300.85623147631,64.7733632459227,230451097
-49,-153.0,-264.0,-11370.0,60.0,237.0,-199.0,-189.09938187837,300.782054957574,64.7927437383083,230467464
574,102.0,41.0,-11372.0,168.0,242.0,-291.0,-194.808736670239,300.666988612212,64.7674128442334,230487293
112,-211.0,-187.0,-11367.0,299.0,244.0,-420.0,-199.937950174882,300.606721024731,64.8168876446313,230500597
142,101.0,-1.0,-11365.0,377.0,247.0,-491.0,-203.357105996471,300.529060091085,64.8013521390245,230508316
485,163.0,228.0,-11365.0,467.0,254.0,-571.0,-205.442610012124,300.455929483859,64.8233250368684,230525534
299,-60.0,-168.0,-11359.0,558.0,1.0,-657.0,-208.254222283108,300.399000491476,64.8253940916628,230536600
117,-168.0,-157.0,-11353.0,658.0,6.0,-753.0,-209.925897473069,300.318418256994,64.846306151068,230542860
232,184.0,105.0,-11346.0,765.0,12.0,-854.0,-212.12867355405,300.270658018125,64.8650217224492,230556308
88,-349.0,-507.0,-11338.0,883.0,21.0,-962.0,-213.380717232007,300.192358285991,64.877837828048,230565131
291,103.0,-23.0,-11328.0,1002.0,31.0,-1076.0,-214.959531147579,300.150129067464,64.9196321106121,230573420
-36,-391.0,-440.0,-11315.0,1125.0,40.0,-1193.0,-216.164067658334,300.081733919308,64.9502061117753,230588316
8,110.0,240.0,-11302.0,1253.0,54.0,-1314.0,-217.283085119646,300.001563123492,65.0902559511087,230598625
175,109.0,297.0,-11273.0,1517.0,87.0,-1557.0,-217.909095293624,299.984444149052,65.4477748150971,230614090
