ACC_X,ACC_Y,ACC_Z,QUAT_W,QUAT_X,QUAT_Y,QUAT_Z,X_pos,Y_pos,Z_pos,t
82,288.0,55.0,-8280.0,8226.0,76.0,-7600.0,-218.25016908659,299.982858867807,65.8111083777756,759465934
-37,-150.0,-183.0,-8184.0,8331.0,175.0,-7701.0,-218.68333692442,300.004503279425,66.6087020273153,759478001
-77,144.0,68.0,-8089.0,8435.0,18.0,-7796.0,-218.913767051577,300.027463830551,67.2743464627183,759486413
-47,115.0,-31.0,-7995.0,8537.0,120.0,-7891.0,-219.167722528752,300.030247723619,68.5161586348142,759500091
-47,115.0,-31.0,-7995.0,8537.0,120.0,-7891.0,-219.393353995929,300.049397038286,69.5497451608423,759506414
-32,153.0,58.0,-7804.0,8735.0,65.0,-8075.0,-219.499541959694,300.044499727314,71.3089543048168,759521710
-305,-36.0,-52.0,-7708.0,8827.0,161.0,-8161.0,-219.601480879553,300.017481472115,72.6326820405903,759529591
-329,-4.0,-8.0,-7617.0,8915.0,255.0,-8243.0,-219.731902885628,300.058575375021,75.9013504497248,759540212
-252,192.0,10.0,-7529.0,8999.0,92.0,-8321.0,-219.826550283602,300.104250205728,78.7452912772233,759552862
-115,264.0,11.0,-7368.0,9151.0,12.0,-8462.0,-219.909414726431,300.127396187067,81.8995752470176,759566709
-313,6.0,-108.0,-7289.0,9220.0,90.0,-8526.0,-219.946714565386,300.121968959621,85.4868609276964,759575390
-351,24.0,-42.0,-7216.0,9282.0,164.0,-8586.0,-220.020476241898,300.175333446876,88.0727642992786,759591589
-351,24.0,-42.0,-7149.0,9340.0,233.0,-8639.0,-220.068059066714,300.209313160986,92.2696730472425,759598352
-423,174.0,-27.0,-7089.0,9393.0,44.0,-8688.0,-220.11353659589,300.274104493535,95.3017241609937,759608079
-348,230.0,-98.0,-7033.0,9442.0,104.0,-8732.0,-220.149153727659,300.300026058184,99.9889044097526,759624314
-196,-64.0,-160.0,-6980.0,9486.0,158.0,-8772.0,-220.198008410317,300.365384265195,104.937305767173,759632937
-308,81.0,55.0,-6893.0,9555.0,243.0,-8836.0,-220.258650873901,300.395386636762,111.714979827573,759647265
-279,80.0,69.0,-6858.0,9583.0,25.0,-8863.0,-220.287747838856,300.409329911348,118.689078043264,759659659
-223,115.0,-158.0,-6789.0,9639.0,96.0,-8912.0,-220.312249251048,300.456043535154,124.06621601716,759687229
-223,115.0,-158.0,-6789.0,9639.0,96.0,-8912.0,-220.337867147177,300.468616068035,129.470505861461,759687229
-160,129.0,60.0,-6776.0,9647.0,105.0,-8920.0,-220.35096202748,300.484207767338,134.950287904637,759700790
-160,129.0,60.0,-6771.0,9650.0,109.0,-8924.0,-220.364014578097,300.499238047131,140.434161662659,759707481
9,210.0,118.0,-6772.0,9650.0,110.0,-8925.0,-220.364745792203,301.19223561982,145.966652983694,759723162
8,172.0,65.0,-6778.0,9647.0,108.0,-8921.0,-220.38209187302,300.51809907239,151.525410453168,759731529
-38,314.0,1.0,-6788.0,9639.0,97.0,-8914.0,-220.390069779268,300.518717469793,155.238721341607,759739598
-141,323.0,110.0,-6804.0,9625.0,77.0,-8901.0,-220.392161005817,300.53182957391,160.815875766316,759755955
-88,259.0,201.0,-6828.0,9606.0,53.0,-8883.0,-220.389771729629,300.527816260267,166.41467908239,759762786
-182,354.0,-29.0,-6893.0,9554.0,242.0,-8835.0,-220.39081059099,300.528477629336,172.033353900229,759778893
241,254.0,309.0,-6936.0,9519.0,198.0,-8804.0,-220.387057923031,300.535355257397,177.647991561536,759787038
-176,472.0,228.0,-6987.0,9476.0,142.0,-8764.0,-220.38193911672,300.51562513359,183.242158981012,759801158
-114,198.0,-159.0,-7037.0,9433.0,86.0,-8723.0,-220.378142442759,300.510196208803,188.855406078014,759811126
116,119.0,308.0,-7157.0,9332.0,218.0,-8628.0,-220.384590005707,300.51898818057,194.483495942097,759827331
-154,329.0,-303.0,-7232.0,9267.0,140.0,-8568.0,-220.387827893174,300.523151659049,200.101798036917,759835964
-40,399.0,43.0,-7310.0,9198.0,57.0,-8502.0,-220.386783011449,300.515582338236,205.737889140691,759849948
-96,188.0,-9.0,-7390.0,9125.0,227.0,-8433.0,-220.375109912684,300.495267477611,213.217388675165,759862897
56,106.0,185.0,-7472.0,9051.0,140.0,-8361.0,-220.356849754043,300.481664666068,218.83100079522,759874305
58,126.0,87.0,-7644.0,8891.0,216.0,-8206.0,-220.345310983541,300.465426849456,224.445044284335,759890453
58,126.0,87.0,-7732.0,8804.0,122.0,-8125.0,-220.359130787327,300.48502682532,228.207150747446,759897022
-52,136.0,-86.0,-7821.0,8716.0,29.0,-8042.0,-220.357074903582,300.482223391307,233.859593507421,759910076
-52,136.0,-86.0,-7908.0,8625.0,190.0,-7957.0,-220.371255860465,300.50130903312,237.619681603363,759917798
-233,225.0,-214.0,-7995.0,8535.0,97.0,-7870.0,-220.376188761162,300.508539065443,243.278049542023,759926369
31,120.0,168.0,-8082.0,8443.0,4.0,-7780.0,-220.374045242281,300.505616128391,246.997043393522,759938653
-146,-56.0,-218.0,-8169.0,8348.0,166.0,-7689.0,-220.384409380152,300.521634747702,254.534542167195,759951750
-230,-118.0,-325.0,-8255.0,8248.0,72.0,-7598.0,-220.383010925217,300.51859709474,258.304257076306,759965327
150,312.0,190.0,-8341.0,8149.0,234.0,-7504.0,-220.398736906585,300.54004135144,263.955244145365,759973937
-183,10.0,-236.0,-8426.0,8049.0,141.0,-7408.0,-220.395693439826,300.534884208482,267.685271758539,759981918
105,198.0,45.0,-8592.0,7846.0,216.0,-7215.0,-220.403751553238,300.547382948037,273.343465292692,759999604
90,-140.0,-124.0,-8592.0,7846.0,216.0,-7215.0,-220.402287995465,300.554530705874,278.977052646114,760006400
-114,104.0,-128.0,-8755.0,7635.0,38.0,-7018.0,-220.417384894606,300.56672900877,284.626504872778,760021518
-258,202.0,-113.0,-8835.0,7526.0,203.0,-6917.0,-220.415064461828,300.56690263124,288.364088039452,760029579
-258,202.0,-113.0,-8915.0,7419.0,119.0,-6815.0,-220.427763328814,300.580377721986,294.027015799367,760038131
-106,185.0,-107.0,-8991.0,7309.0,32.0,-6713.0,-220.427150604829,300.581052944173,299.654478506074,760051715
-90,-50.0,-126.0,-9068.0,7200.0,205.0,-6609.0,-220.441991305802,300.600282934335,305.300442045447,760061530
-297,-103.0,-320.0,-9216.0,6976.0,39.0,-6399.0,-220.445264747224,300.612062907997,312.837730166179,760077889
73,13.0,14.0,-9289.0,6861.0,214.0,-6293.0,-220.459983983469,300.628704217481,316.597898310444,760086405
-144,-21.0,-235.0,-9361.0,6746.0,133.0,-6186.0,-220.4670975065,300.636029409334,322.221246930017,760100330
-144,-21.0,-235.0,-9432.0,6632.0,56.0,-6078.0,-220.482679211116,300.656269701711,327.882467133973,760107196
65,221.0,-64.0,-9567.0,6398.0,159.0,-5862.0,-220.495969748886,300.674393046014,333.557459427784,760127235
-106,-113.0,-175.0,-9633.0,6279.0,84.0,-5751.0,-220.504310453776,300.694935266573,339.184407059669,760136121
-6,33.0,36.0,-9633.0,6279.0,84.0,-5751.0,-220.520617033031,300.715586376952,342.924715125216,760143789
74,-104.0,48.0,-9700.0,6160.0,13.0,-5641.0,-220.546023860724,300.743403997882,350.496607614195,760156355
-136,-233.0,-225.0,-9826.0,5917.0,126.0,-5417.0,-220.567126909072,300.772936627233,356.200409049739,760171143
-119,97.0,-46.0,-9945.0,5674.0,246.0,-5192.0,-220.608707209448,300.827620963304,365.590151528927,760190390
-45,-115.0,-53.0,-10005.0,5551.0,181.0,-5077.0,-220.64210777149,300.886718237533,372.89362884972,760203291
100,110.0,-264.0,-10171.0,5174.0,245.0,-4730.0,-220.684387107459,300.943694775133,379.833025687638,760226320
-52,189.0,-198.0,-10171.0,5174.0,245.0,-4730.0,-220.703461351137,300.958342754733,384.73848734965,760235210
19,199.0,-166.0,-10275.0,4921.0,126.0,-4498.0,-220.721747359579,300.987582336519,390.779074352461,760252623
-111,-300.0,118.0,-10375.0,4665.0,13.0,-4259.0,-220.724353044869,300.989856944273,397.612181109645,760266467
-70,-37.0,-29.0,-10511.0,4274.0,108.0,-3903.0,-220.694267591287,300.935607489555,406.468823030364,760298094
45,-162.0,-13.0,-10554.0,4144.0,59.0,-3783.0,-220.668070898534,300.899092382969,408.29105994104,760315661
59,-132.0,-212.0,-10597.0,4012.0,10.0,-3661.0,-220.633489428382,300.847576318339,411.425389679396,760324527
53,84.0,-40.0,-10638.0,3878.0,219.0,-3539.0,-220.591189604747,300.784178942154,412.743535872866,760332919
-54,59.0,-221.0,-10713.0,3610.0,129.0,-3297.0,-220.524441265753,300.713973301443,414.835811560629,760347586
-75,-48.0,-152.0,-10748.0,3477.0,86.0,-3177.0,-220.463592222525,300.633516009498,415.983208628497,760360153
-18,-23.0,-145.0,-10783.0,3342.0,46.0,-3056.0,-220.393402376372,300.544851441836,416.864170285477,760370448
9,140.0,-129.0,-10849.0,3072.0,225.0,-2806.0,-220.266190596397,300.434792624684,417.567449579082,760386950
33,-78.0,-17.0,-10849.0,3072.0,225.0,-2806.0,-219.991796243128,300.334689924631,417.917855680357,760394387
150,86.0,-308.0,-10879.0,2936.0,188.0,-2682.0,-219.686623195979,300.248346200322,418.391352044555,760406962
-31,150.0,3.0,-10935.0,2662.0,121.0,-2436.0,-219.016684014012,300.198462931977,418.776839438928,760422191
-44,-60.0,-64.0,-10960.0,2525.0,89.0,-2312.0,-218.421247218689,300.150810689238,418.990998659994,760432914
42,-89.0,-63.0,-10986.0,2389.0,60.0,-2187.0,-216.865181942253,300.130597238072,419.326925607471,760440942
16,-10.0,68.0,-11009.0,2250.0,31.0,-2058.0,-215.882708663949,300.124938083653,419.453379699507,760453682
16,-10.0,68.0,-11033.0,2111.0,7.0,-1935.0,-214.139237381377,300.140021984339,419.628482816059,760459921
-94,-43.0,-247.0,-11052.0,1972.0,237.0,-1809.0,-212.054349670175,300.174357320731,419.758820484333,760476077
97,298.0,-18.0,-11070.0,1836.0,213.0,-1684.0,-209.628663610252,300.20452710673,419.908783121208,760484742
97,298.0,-18.0,-11070.0,1836.0,213.0,-1684.0,-206.840826762377,300.282234584082,420.040741811518,760484742
-112,-166.0,-116.0,-11143.0,1137.0,121.0,-1052.0,-202.536692470159,300.353651496901,420.156554539667,760532268
-112,-166.0,-116.0,-11143.0,1137.0,121.0,-1052.0,-198.865615899293,300.431093303469,420.239615813069,760532268
-112,-166.0,-116.0,-11143.0,1137.0,121.0,-1052.0,-196.221164003984,300.50283828976,420.301467535753,760532268
172,6.0,-368.0,-11150.0,996.0,105.0,-924.0,-191.931099095472,300.549703199272,420.372856950293,760547355
-234,31.0,283.0,-11160.0,858.0,94.0,-799.0,-188.872546211188,300.606223852848,420.417530689949,760553637
219,-97.0,-410.0,-11173.0,577.0,75.0,-545.0,-184.060334354446,300.718223541629,420.464549372197,760567285
-248,-70.0,190.0,-11173.0,577.0,75.0,-545.0,-179.0356937184,300.770595593317,420.491337849104,760575900
275,82.0,-369.0,-11179.0,295.0,61.0,-288.0,-173.862847455428,300.837527520979,420.482448495504,760592272
-137,-184.0,-34.0,-11180.0,154.0,57.0,-162.0,-168.578831922494,300.901892206796,420.503521020648,760602429
-52,96.0,-37.0,-11180.0,14.0,55.0,-35.0,-163.201280234153,300.936356050076,420.490385258495,760616064
-232,150.0,385.0,-11177.0,-122.0,54.0,89.0,-157.749985240308,300.965309471719,420.496557069493,760625618
249,3.0,-115.0,-11169.0,-386.0,56.0,327.0,-152.240889217704,300.982615218406,420.4541655726,760642441
249,3.0,-115.0,-11164.0,-511.0,59.0,440.0,-146.692706743808,300.989903205747,420.429725749558,760648754
118,-100.0,-143.0,-11158.0,-630.0,64.0,548.0,-141.127111825746,300.996979292225,420.422315232713,760665174
-128,-213.0,161.0,-11143.0,-851.0,74.0,746.0,-133.671426376773,300.991388978949,420.393721541908,760681438
-128,-213.0,161.0,-11136.0,-953.0,82.0,836.0,-128.05576660499,300.990354019943,420.368476207078,760689620
-306,-19.0,441.0,-11129.0,-1047.0,89.0,921.0,-122.429903098428,300.982260705164,420.332626109296,760702782
46,-16.0,29.0,-11120.0,-1135.0,95.0,999.0,-114.917544057343,300.969579619194,420.298474430629,760716106
-64,35.0,261.0,-11106.0,-1288.0,110.0,1137.0,-109.285465058169,300.958426932029,420.295260473328,760728900
339,-251.0,-241.0,-11099.0,-1354.0,117.0,1196.0,-105.525939909545,300.945799953197,420.251011136031,760737755
83,-149.0,29.0,-11093.0,-1412.0,122.0,1246.0,-99.889964717506,300.936357041448,420.269060204763,760751634
-188,47.0,315.0,-11087.0,-1464.0,128.0,1292.0,-94.2409278116202,300.925194620952,420.203774607578,760764836
-344,137.0,418.0,-11084.0,-1507.0,135.0,1329.0,-88.5932346015325,300.919423475119,420.217481303129,760773228
385,-230.0,-90.0,-11078.0,-1543.0,137.0,1361.0,-82.9524003040965,300.90242957256,420.171128746104,760781361
-146,113.0,369.0,-11077.0,-1571.0,143.0,1385.0,-77.3172466054314,300.897543682701,420.168480615086,760798382
80,-189.0,-145.0,-11073.0,-1624.0,152.0,1430.0,-71.6735881077517,300.886186624985,420.143477148045,760810901
281,-395.0,-424.0,-11069.0,-1660.0,157.0,1467.0,-66.0294600984142,300.876869025428,420.110309574563,760827323
-70,-205.0,-124.0,-11069.0,-1660.0,157.0,1467.0,-60.3832344936288,300.949854110998,420.118724111124,760836282
117,-445.0,-489.0,-11067.0,-1676.0,159.0,1481.0,-54.7438451707823,300.865525636649,420.116783634929,760847501
-56,-359.0,-444.0,-11063.0,-1699.0,161.0,1501.0,-47.2314031993573,300.856911764697,420.073585667211,760859991
86,-315.0,-294.0,-11060.0,-1706.0,161.0,1508.0,-43.4687421377716,300.854393544069,420.068372858892,760876493
111,-340.0,-360.0,-11059.0,-1714.0,162.0,1515.0,-35.9462161312623,300.841246607593,420.083886254921,760885030
34,-489.0,-517.0,-11058.0,-1729.0,165.0,1529.0,-30.3107876926338,300.843492480602,420.056782385974,760899334
-175,-394.0,-400.0,-11056.0,-1732.0,164.0,1532.0,-26.5497876278249,300.842754820122,420.030427522014,760908841
-40,-446.0,-420.0,-11056.0,-1732.0,164.0,1532.0,-20.9191286160903,300.8355001096,420.017221866797,760916075
64,-395.0,-375.0,-11054.0,-1735.0,163.0,1536.0,-17.1607651263,300.832000957924,420.028077208814,760924705
1,-297.0,-237.0,-11052.0,-1737.0,162.0,1536.0,-13.4063329163997,300.829426381854,420.030754316432,760933511
-16,-307.0,-188.0,-11050.0,-1739.0,159.0,1532.0,-7.76434261789374,300.829683182893,420.004625450876,760948773
-24,-135.0,-133.0,-11048.0,-1739.0,157.0,1529.0,-2.1240185615264,300.835437843481,419.993041030875,760961439
0,-161.0,-127.0,-11047.0,-1739.0,156.0,1528.0,3.50439844110345,300.82755837863,419.968897167822,760971956
0,-161.0,-127.0,-11047.0,-1739.0,155.0,1526.0,7.26168622480009,300.807096682801,419.957876675876,760980153
-8,-201.0,-104.0,-11045.0,-1740.0,154.0,1526.0,14.7720297257131,300.811718217486,419.956589483689,760996097
-21,-201.0,-93.0,-11045.0,-1739.0,153.0,1523.0,18.5296936972612,300.814510608493,419.971487214151,761002381
-1,-179.0,-30.0,-11043.0,-1740.0,152.0,1521.0,24.1718210763266,300.815406335565,419.964339413676,761016087
-3,-71.0,-27.0,-11043.0,-1739.0,151.0,1517.0,27.926084106456,300.81916313162,419.969436105951,761024716
-36,-165.0,-45.0,-11043.0,-1740.0,150.0,1513.0,31.6783818318865,300.826276876728,419.973745693529,761037692
-29,-219.0,-36.0,-11043.0,-1740.0,150.0,1513.0,37.3112609026328,300.826053681177,419.999456042719,761046129
27,-100.0,-48.0,-11042.0,-1741.0,149.0,1512.0,42.9483805818503,300.822000931597,420.012279707484,761053844
-40,-136.0,-6.0,-11041.0,-1742.0,148.0,1510.0,48.5875763668766,300.830952367658,420.002971843351,761061934
42,-119.0,-52.0,-11040.0,-1743.0,147.0,1507.0,54.2240540590448,300.829526491283,420.013969352529,761079084
5,-155.0,-44.0,-11039.0,-1743.0,146.0,1504.0,59.8601170900418,300.838521424586,420.014564738137,761087735
-62,-99.0,-4.0,-11038.0,-1744.0,145.0,1503.0,65.4922835502412,300.840192889354,420.005211830073,761099662
-50,-115.0,27.0,-11038.0,-1744.0,145.0,1501.0,71.1310407822873,300.843136479652,420.036862154098,761116630
-74,-195.0,3.0,-11037.0,-1747.0,144.0,1501.0,76.7701425451234,300.844090649864,420.05362272118,761125437
30,-58.0,-79.0,-11037.0,-1747.0,144.0,1498.0,80.5338261173388,300.849474698309,420.043425079479,761134773
-99,-159.0,26.0,-11036.0,-1748.0,143.0,1494.0,86.1809448341686,300.856709639214,420.054555790922,761149452
59,-13.0,-69.0,-11036.0,-1748.0,143.0,1494.0,91.8051515067902,300.861904810525,420.083806983315,761155811
84,-67.0,-63.0,-11036.0,-1751.0,143.0,1493.0,97.446576012294,300.867203105827,420.094502509302,761166643
74,-167.0,-89.0,-11034.0,-1753.0,142.0,1491.0,103.095524226712,300.871691436808,420.109950757095,761183859
-121,-102.0,50.0,-11034.0,-1754.0,141.0,1489.0,106.864815100276,300.882662373192,420.114043072609,761191827
-88,-80.0,71.0,-11033.0,-1755.0,140.0,1487.0,114.385389064304,300.8913064731,420.140294794206,761204884
66,-64.0,-70.0,-11033.0,-1758.0,140.0,1484.0,120.026140388211,300.902378090082,420.147934912007,761219293
-111,-65.0,78.0,-11033.0,-1759.0,140.0,1482.0,125.679669860382,300.915855073443,420.179474141157,761231107
61,-73.0,-77.0,-11032.0,-1761.0,140.0,1481.0,131.328863719132,300.928079244977,420.188516191018,761240220
-83,-124.0,65.0,-11032.0,-1763.0,140.0,1481.0,136.985779005123,300.944069191384,420.220996390648,761256056
43,-45.0,-62.0,-11031.0,-1763.0,139.0,1478.0,140.753125057079,300.962963633152,420.231328164758,761264638
-78,-103.0,59.0,-11031.0,-1766.0,139.0,1477.0,146.407342034101,300.985283697985,420.252674723704,761273038
-60,-38.0,48.0,-11030.0,-1768.0,138.0,1474.0,152.066688621399,301.010308470807,420.280273403106,761289663
18,-65.0,-42.0,-11030.0,-1769.0,138.0,1471.0,157.729920203262,301.039869413052,420.322470873161,761300376
-4,-121.0,-30.0,-11030.0,-1771.0,138.0,1471.0,163.393472644473,301.069307859458,420.360709867598,761313408
-21,-98.0,-14.0,-11030.0,-1773.0,137.0,1468.0,170.813095786202,301.087374984216,420.392454151076,761330025
31,-107.0,-6.0,-11030.0,-1774.0,137.0,1466.0,176.174678166538,301.094112329183,420.427906978011,761339556
-51,-59.0,8.0,-11030.0,-1774.0,137.0,1466.0,181.309357238247,301.083663275971,420.441696369581,761347049
49,-122.0,-43.0,-11029.0,-1777.0,137.0,1463.0,184.586187713522,301.073910642549,420.47616955482,761363348
-87,46.0,37.0,-11029.0,-1779.0,136.0,1461.0,189.259865839586,301.04698309627,420.495959988939,761371520
-87,46.0,37.0,-11028.0,-1781.0,136.0,1460.0,193.624949609348,301.006608441084,420.510379551508,761380017
75,-121.0,-60.0,-11028.0,-1781.0,136.0,1458.0,196.350199165712,300.963842862828,420.521713269433,761388578
-138,-47.0,73.0,-11028.0,-1784.0,136.0,1458.0,200.146078966821,300.929016657694,420.523213938492,761402382
-138,-47.0,73.0,-11028.0,-1784.0,136.0,1458.0,202.481982707181,300.873816815275,420.537459782563,761408649
106,-62.0,-85.0,-11028.0,-1784.0,136.0,1455.0,205.678833665036,300.83573061033,420.514976396007,761415766
-146,-30.0,78.0,-11027.0,-1787.0,135.0,1452.0,207.609176986983,300.764684587522,420.483694161408,761428611
110,-103.0,-88.0,-11027.0,-1789.0,135.0,1451.0,210.185970232179,300.712079538644,420.461577072535,761446077
-143,-2.0,94.0,-11027.0,-1789.0,135.0,1449.0,211.696590050522,300.625564489338,420.461386976648,761452460
122,-164.0,-95.0,-11027.0,-1792.0,135.0,1448.0,214.192190998633,300.538901544852,420.387554562174,761465949
-144,74.0,77.0,-11027.0,-1793.0,135.0,1444.0,215.609311597903,300.408307692949,420.32275135591,761482351
104,-172.0,-76.0,-11027.0,-1795.0,135.0,1442.0,216.686787587321,300.330809285716,420.296060340535,761492842
104,-172.0,-76.0,-11027.0,-1796.0,135.0,1441.0,217.582609039234,300.16713786438,420.266737626204,761500336
-110,10.0,63.0,-11027.0,-1798.0,135.0,1440.0,218.503809944804,299.859869564608,420.223147832794,761517392
-96,15.0,39.0,-11027.0,-1801.0,136.0,1437.0,219.99879492912,298.88155125526,420.165523341843,761534218
48,-33.0,-53.0,-11027.0,-1801.0,135.0,1434.0,221.438645201396,297.912968434939,420.14874930093,761542728
27,-63.0,-41.0,-11027.0,-1804.0,135.0,1434.0,223.223762601378,297.085751371923,420.127826572902,761559149
9,-114.0,-23.0,-11027.0,-1806.0,136.0,1431.0,226.219873510432,294.33874074578,420.077753534607,761575771
-33,59.0,0.0,-11028.0,-1807.0,136.0,1429.0,228.944429919752,292.180529525595,420.066089604485,761583949
-33,59.0,0.0,-11028.0,-1809.0,136.0,1428.0,232.101625822189,290.516715046025,420.054754658409,761591836
-46,3.0,-1.0,-11028.0,-1810.0,136.0,1426.0,234.454964346284,287.648085138903,420.053859824389,761605001
-46,3.0,-1.0,-11028.0,-1811.0,136.0,1424.0,238.369227385951,285.477500284605,420.023142601847,761611176
28,-72.0,-31.0,-11028.0,-1812.0,136.0,1423.0,241.210390212232,281.853362518749,420.015210219107,761621698
-82,87.0,2.0,-11028.0,-1815.0,137.0,1420.0,245.732491617176,277.847317595653,420.011668271691,761638880
73,-157.0,-41.0,-11028.0,-1815.0,137.0,1420.0,250.466741609267,275.001301361145,420.018085977007,761647443
-102,111.0,13.0,-11028.0,-1816.0,137.0,1419.0,253.706174777997,270.498087250466,420.018334225184,761655267
70,-127.0,-40.0,-11030.0,-1818.0,138.0,1416.0,258.62635035764,267.366061055703,420.020955329563,761671815
85,-99.0,-47.0,-11030.0,-1820.0,139.0,1415.0,263.582679879285,262.491353864906,420.020588780391,761680394
85,-99.0,-47.0,-11030.0,-1820.0,139.0,1415.0,268.542408167955,257.425277232158,420.012778835982,761680394
-110,77.0,0.0,-11032.0,-1822.0,140.0,1410.0,273.473752026996,252.186994888467,420.009906296612,761710419
-118,116.0,-3.0,-11033.0,-1825.0,141.0,1410.0,278.355673184873,246.794372161347,420.008379112703,761719305
87,-157.0,-33.0,-11033.0,-1825.0,141.0,1410.0,283.172321533519,239.382855229988,420.0099889601,761728172
-108,139.0,5.0,-11034.0,-1824.0,142.0,1408.0,287.903786426056,235.591748763692,420.008926826776,761736914
-107,156.0,-6.0,-11036.0,-1827.0,143.0,1405.0,292.54329518413,227.857181695255,420.0035715236,761752026
58,-170.0,-18.0,-11036.0,-1828.0,144.0,1404.0,297.082851133489,223.914009653095,420.003614209784,761760437
53,-106.0,-19.0,-11038.0,-1830.0,145.0,1401.0,301.514869647373,215.88864127929,420.003606103274,761781446
46,-91.0,2.0,-11039.0,-1831.0,146.0,1400.0,307.249451967599,209.750057647334,420.003084250403,761789847
-76,62.0,-22.0,-11039.0,-1831.0,146.0,1400.0,310.037792955632,203.521636748868,420.000212923319,761797749
-56,29.0,-28.0,-11041.0,-1832.0,148.0,1398.0,314.117274567729,197.202328851826,419.999210032158,761813805
-56,29.0,-28.0,-11041.0,-1832.0,149.0,1396.0,319.365354193505,190.799080950607,420.002484074446,761822029
-8,-29.0,-8.0,-11043.0,-1833.0,150.0,1394.0,321.904784997115,184.313074810136,420.002042724464,761839553
-30,71.0,-37.0,-11044.0,-1836.0,151.0,1393.0,325.607194196966,179.94220524494,419.998410548144,761850478
-25,0.0,-28.0,-11045.0,-1836.0,152.0,1391.0,329.177166307221,171.105453382473,419.997829276462,761863171
-25,0.0,-28.0,-11049.0,-1839.0,155.0,1390.0,332.611472164235,164.395951356324,419.998393192627,761871090
-39,31.0,-40.0,-11053.0,-1843.0,159.0,1385.0,335.912683345617,157.617716510722,419.998887154596,761887287
5,0.0,-39.0,-11057.0,-1845.0,163.0,1383.0,339.076086745313,153.061187274846,419.998511267638,761894835
5,0.0,-39.0,-11058.0,-1846.0,165.0,1383.0,341.108538430603,146.170665715551,419.998904682975,761901163
-59,177.0,-125.0,-11059.0,-1847.0,166.0,1381.0,344.043115195419,139.220010556671,420.000462966927,761918292
-4,20.0,-149.0,-11061.0,-1845.0,166.0,1377.0,346.835369765583,134.55676668093,419.999510101842,761926949
36,248.0,-281.0,-11066.0,-1836.0,168.0,1362.0,349.485878535505,125.155935366261,419.998476369509,761943410
36,248.0,-281.0,-11069.0,-1826.0,168.0,1353.0,351.992170628371,120.421869273964,419.998738645474,761950519
10,225.0,-195.0,-11072.0,-1813.0,168.0,1341.0,354.355467591084,110.8872486392,419.99873864569,761963066
-107,191.0,-221.0,-11079.0,-1776.0,166.0,1310.0,357.28245660542,101.265850016079,420.000631307969,761981800
45,157.0,-316.0,-11082.0,-1752.0,162.0,1284.0,359.307121166569,96.4289853786321,420.001957908526,761990274
-50,195.0,-101.0,-11087.0,-1724.0,159.0,1257.0,360.574762135332,89.1400928809552,419.999304706441,762004009
-50,195.0,-101.0,-11091.0,-1690.0,154.0,1225.0,362.352951746444,84.2614856642325,420.000519848244,762010277
-92,228.0,-400.0,-11097.0,-1651.0,152.0,1194.0,363.456976246356,76.917012518248,420.000266334808,762025447
172,10.0,-342.0,-11102.0,-1608.0,146.0,1153.0,364.987749019595,72.0006917172962,419.999051192639,762036520
-439,381.0,-104.0,-11107.0,-1562.0,141.0,1113.0,366.369055697105,64.6012524339479,420.000084925183,762044584
-439,381.0,-104.0,-11111.0,-1515.0,134.0,1065.0,367.207828272405,57.1771609750253,420.001734989078,762051178
256,-64.0,-78.0,-11116.0,-1460.0,128.0,1018.0,368.683100826305,49.7273189479647,420.001765582789,762064526
-232,0.0,108.0,-11128.0,-1332.0,115.0,902.0,369.319887670405,42.2594518521583,419.999588814121,762081104
135,-119.0,-73.0,-11135.0,-1258.0,108.0,835.0,370.149317908752,34.7756859870932,420.001492391588,762089581
81,-125.0,68.0,-11141.0,-1181.0,101.0,763.0,370.827863975604,29.7767524764402,420.000854227455,762100621
46,-38.0,33.0,-11141.0,-1181.0,101.0,763.0,371.195533076159,22.2682387875274,419.99978113977,762106927
-106,222.0,-179.0,-11152.0,-1013.0,87.0,607.0,371.620544228222,17.2585996391702,420.001188606639,762121215
210,-276.0,191.0,-11158.0,-917.0,81.0,522.0,371.894108055523,9.73615998657767,420.002423425401,762129892
-196,91.0,-102.0,-11163.0,-819.0,75.0,433.0,372.015175061041,-0.295591078584686,420.001026874995,762146686
-78,-122.0,51.0,-11172.0,-614.0,66.0,244.0,371.939558425919,-7.82271436781772,420.001310982034,762163023
99,-142.0,-33.0,-11175.0,-506.0,62.0,145.0,371.704899383056,-15.3473682818893,420.000176706893,762171135
152,-137.0,0.0,-11177.0,-399.0,59.0,45.0,371.463784414504,-22.862150153999,420.002080284139,762179664
-153,73.0,-88.0,-11177.0,-399.0,59.0,45.0,370.976145074672,-27.8697130722086,420.001918552473,762187914
157,-201.0,-91.0,-11179.0,-180.0,57.0,-152.0,370.336665325833,-35.368577581879,420.000237894682,762201823
-267,163.0,-81.0,-11179.0,-68.0,57.0,-256.0,369.545175844062,-45.3438387541648,419.999741783661,762214334
291,-270.0,-70.0,-11178.0,46.0,58.0,-359.0,368.601884121514,-50.3205467682709,420.001291304091,762224635
-294,244.0,-180.0,-11173.0,271.0,65.0,-567.0,367.509137894763,-57.7653610863701,420.002526122998,762241346
325,-312.0,-90.0,-11173.0,271.0,65.0,-567.0,366.265577998343,-65.1897979789893,420.001179844532,762248649
261,-283.0,-35.0,-11162.0,502.0,74.0,-775.0,365.352306200764,-72.5861033046735,420.000602867812,762261525
-276,249.0,-147.0,-11162.0,502.0,74.0,-775.0,363.859562549294,-79.9495348357746,420.002821144961,762269015
110,-275.0,97.0,-11156.0,614.0,81.0,-877.0,362.217610876695,-84.8432249269539,420.001848602392,762277837
64,413.0,-506.0,-11140.0,847.0,98.0,-1090.0,360.426866027749,-92.1551460755499,419.999883837143,762297996
-58,-415.0,185.0,-11130.0,963.0,107.0,-1195.0,358.488654975729,-99.4261335823768,420.000056484652,762304248
124,-447.0,95.0,-11109.0,1192.0,131.0,-1404.0,356.402982473486,-109.061398584911,420.000036806438,762325335
-13,-195.0,17.0,-11095.0,1311.0,143.0,-1509.0,353.397099911847,-118.61193481137,419.999671833235,762333325
182,-6.0,-196.0,-11067.0,1540.0,173.0,-1718.0,350.133492359833,-125.722506274938,420.000806108939,762352245
-83,-126.0,7.0,-11053.0,1655.0,191.0,-1822.0,348.406980481836,-132.778167674216,420.001970977416,762365350
-116,-211.0,153.0,-11035.0,1772.0,208.0,-1929.0,344.76227116729,-139.782079913447,420.001686871159,762373286
-116,-211.0,153.0,-11019.0,1887.0,228.0,-2030.0,342.844544309278,-146.728537103929,420.000340591818,762381695
90,-294.0,-21.0,-11000.0,1999.0,247.0,-2135.0,339.85351623683,-151.325223037867,420.002071522476,762397751
-54,-83.0,10.0,-10980.0,2115.0,12.0,-2239.0,336.722991785629,-158.170136705246,420.001474867645,762404020
-69,103.0,-171.0,-10960.0,2231.0,35.0,-2344.0,334.558412923185,-164.949614226165,420.0002291321,762413697
-37,-82.0,-172.0,-10915.0,2458.0,82.0,-2551.0,331.199323127021,-171.660157358176,420.001586327519,762430416
51,-5.0,-168.0,-10915.0,2458.0,82.0,-2551.0,327.704189325198,-176.09660256997,420.00197097849,762439274
-107,-57.0,124.0,-10891.0,2572.0,107.0,-2654.0,325.298926673908,-182.690749392435,419.999682748641,762447239
55,88.0,-269.0,-10866.0,2686.0,134.0,-2756.0,321.581345067904,-189.207484477547,420.001394001682,762459723
-85,-183.0,-71.0,-10840.0,2802.0,161.0,-2861.0,317.730997030832,-193.51221831533,420.001647514664,762466780
89,-75.0,31.0,-10757.0,3138.0,250.0,-3167.0,313.751153532276,-199.900618497178,420.000290319721,762493272
89,-75.0,31.0,-10757.0,3138.0,250.0,-3167.0,311.027257476929,-206.203861781548,420.000128587895,762493272
-106,-78.0,-113.0,-10727.0,3253.0,26.0,-3269.0,306.834733654707,-210.362325779652,420.001485782918,762506408
-106,-78.0,-113.0,-10696.0,3366.0,60.0,-3371.0,303.969384393256,-216.527476823113,420.000017128054,762512618
-141,72.0,-183.0,-10663.0,3477.0,92.0,-3471.0,299.568754310403,-222.60206856028,420.000047721798,762520247
101,20.0,-6.0,-10630.0,3585.0,126.0,-3573.0,295.043459714566,-228.588324047906,420.001039944573,762537509
60,96.0,-58.0,-10596.0,3697.0,162.0,-3674.0,290.399989197375,-232.524811768419,420.000766752554,762545470
54,-73.0,-118.0,-10526.0,3924.0,240.0,-3873.0,287.238463662856,-238.352212186285,420.00038210118,762561450
-169,-86.0,-104.0,-10526.0,3924.0,240.0,-3873.0,280.755777869211,-244.082216717449,419.999693664017,762569415
-9,57.0,-72.0,-10452.0,4141.0,62.0,-4070.0,275.761452183191,-251.564200058018,420.00038210118,762586656
104,-57.0,34.0,-10413.0,4249.0,103.0,-4170.0,270.653931010494,-257.057003964545,420.001324051312,762594434
5,-108.0,-42.0,-10372.0,4360.0,146.0,-4271.0,265.458249731499,-260.637635597033,420.000939399914,762607425
-89,69.0,-187.0,-10332.0,4469.0,190.0,-4368.0,260.268201623578,-265.815072302266,420.007571603879,762617509
-200,47.0,-99.0,-10290.0,4579.0,234.0,-4464.0,256.836826269064,-270.692181629901,420.026289752449,762625685
3,-97.0,-43.0,-10203.0,4791.0,69.0,-4659.0,251.769023816987,-275.20759479299,420.018549804256,762642303
50,112.0,-126.0,-10160.0,4898.0,117.0,-4756.0,246.822880445139,-279.320963713925,420.033187929908,762655834
50,112.0,-126.0,-10114.0,5007.0,166.0,-4851.0,242.026577962051,-281.838407729443,420.033487341175,762662056
-98,38.0,-86.0,-10069.0,5113.0,216.0,-4945.0,238.928147057038,-285.260468530431,420.070943990496,762670164
-20,-47.0,-53.0,-9972.0,5322.0,61.0,-5135.0,232.974146035319,-288.274359595182,420.071016850052,762691362
60,71.0,-84.0,-9972.0,5322.0,61.0,-5135.0,230.1477929684,-290.879949130639,420.062909793265,762698821
1,109.0,-42.0,-9871.0,5530.0,166.0,-5326.0,226.081875713442,-293.059113097024,420.08564941477,762711427
104,-88.0,-56.0,-9871.0,5530.0,166.0,-5326.0,221.049982174393,-294.812651423265,420.146850808966,762718455
-65,51.0,-42.0,-9769.0,5736.0,20.0,-5509.0,217.571572308657,-296.172727203148,420.157589706723,762734666
-8,146.0,-134.0,-9662.0,5943.0,135.0,-5693.0,214.260141232755,-297.470425179642,420.182955320153,762751781
-109,139.0,-151.0,-9662.0,5943.0,135.0,-5693.0,211.006063213904,-297.967485115911,420.207808623913,762757982
-78,-27.0,-64.0,-9551.0,6144.0,251.0,-5875.0,208.825062288788,-298.56374521384,420.221420083818,762772744
84,-22.0,-113.0,-9494.0,6242.0,54.0,-5967.0,205.489679900403,-298.8788306242,420.281371114885,762781481
149,60.0,-92.0,-9494.0,6242.0,54.0,-5967.0,202.034373434692,-299.273592972697,420.32017048171,762789959
-72,56.0,-97.0,-9437.0,6343.0,116.0,-6056.0,199.64428687655,-299.589217685685,420.316240564345,762797785
-152,-39.0,-189.0,-9320.0,6541.0,242.0,-6231.0,195.915522602613,-299.831379683164,420.353214391705,762813500
10,108.0,-81.0,-9261.0,6636.0,50.0,-6320.0,191.987689549838,-300.030014845065,420.344766368295,762829892
-13,85.0,-6.0,-9199.0,6733.0,113.0,-6408.0,186.460363148668,-300.186815401211,420.380439274277,762838377
137,-214.0,-165.0,-9074.0,6926.0,246.0,-6579.0,182.15674427419,-300.352567446688,420.389682851478,762852740
-74,122.0,-60.0,-9011.0,7023.0,58.0,-6664.0,177.744698275,-300.458616720597,420.388670300372,762869388
157,-87.0,-117.0,-8946.0,7116.0,126.0,-6750.0,171.759950024698,-300.535511994927,420.398127383455,762878111
-64,146.0,39.0,-8879.0,7211.0,194.0,-6834.0,168.727220497658,-300.591621784241,420.40285275101,762885949
-74,105.0,31.0,-8814.0,7302.0,7.0,-6918.0,164.149521140297,-300.616780247021,420.385419857461,762900693
201,-353.0,-119.0,-8679.0,7489.0,153.0,-7083.0,159.540152825545,-300.66056617882,420.356209143619,762913113
-67,115.0,-148.0,-8610.0,7580.0,226.0,-7165.0,154.893912140815,-300.675965372528,420.342560539711,762920506
73,-101.0,-109.0,-8540.0,7670.0,41.0,-7246.0,150.232424543753,-300.694181188221,420.350619714778,762933105
40,-93.0,-6.0,-8471.0,7757.0,114.0,-7325.0,147.117852585073,-300.702355761855,420.305018285741,762949328
84,13.0,-104.0,-8399.0,7848.0,191.0,-7406.0,142.440820669689,-300.699825281859,420.297147376956,762955620
-175,174.0,12.0,-8327.0,7938.0,12.0,-7485.0,137.754046836016,-300.703633558595,420.305333181384,762968984
184,-10.0,-217.0,-8255.0,8024.0,89.0,-7564.0,133.062948868281,-300.700920084494,420.273025285985,762977300
-338,212.0,49.0,-8182.0,8111.0,165.0,-7640.0,129.929085713086,-300.697280042499,420.264487145657,762985240
1,-173.0,34.0,-8031.0,8280.0,67.0,-7796.0,125.22276865131,-300.695674161066,420.235161741318,763002153
-20,289.0,-129.0,-8031.0,8280.0,67.0,-7796.0,120.526789427937,-300.685644316803,420.23972947401,763008370
50,-218.0,41.0,-7881.0,8447.0,228.0,-7945.0,117.386017650113,-300.677579540668,420.210478537591,763022530
18,265.0,-205.0,-7801.0,8533.0,54.0,-8019.0,112.689224489602,-300.671297179402,420.201004791825,763030989
-53,267.0,-128.0,-7801.0,8533.0,54.0,-8019.0,107.98089712168,-300.661700116972,420.17858801782,763040086
114,224.0,-92.0,-7648.0,8690.0,215.0,-8164.0,104.841455009375,-300.65904295179,420.177558572093,763057802
114,224.0,-92.0,-7573.0,8767.0,40.0,-8233.0,100.135840843853,-300.652994853841,420.172902503334,763064092
-339,645.0,68.0,-7428.0,8911.0,193.0,-8359.0,95.4325013215431,-300.64580571733,420.138051249156,763080714
148,-152.0,-56.0,-7428.0,8911.0,193.0,-8359.0,90.7250685732234,-300.638805367912,420.136627390279,763089148
-157,326.0,-10.0,-7359.0,8977.0,11.0,-8420.0,87.5921187935656,-300.627645341753,420.131993366223,763096902
229,239.0,-127.0,-7290.0,9042.0,83.0,-8478.0,82.885855124693,-300.627293822611,420.107150907485,763109360
-258,407.0,208.0,-7225.0,9102.0,150.0,-8531.0,78.182291553978,-300.618880646432,420.11088556642,763119605
357,-135.0,-137.0,-7165.0,9156.0,213.0,-8580.0,75.0408236325087,-300.613065021368,420.096423379804,763128198
-89,329.0,53.0,-7052.0,9260.0,78.0,-8670.0,68.7747437137758,-300.612193241959,420.061983400133,763144666
-89,329.0,53.0,-7052.0,9260.0,78.0,-8670.0,65.643235919276,-300.605097822743,420.078937558229,763151521
-59,184.0,49.0,-6953.0,9346.0,183.0,-8749.0,60.9400052912017,-300.59944747562,420.087809792019,763164077
56,304.0,-38.0,-6909.0,9385.0,229.0,-8781.0,57.8028653933807,-300.5978023174,420.081110209985,763171711
-109,123.0,158.0,-6870.0,9419.0,16.0,-8812.0,53.1004324777989,-300.596504706781,420.058187720873,763184236
-302,323.0,249.0,-6833.0,9450.0,56.0,-8840.0,48.4015482307438,-300.598354565645,420.043676810515,763192643
-252,172.0,240.0,-6800.0,9480.0,90.0,-8863.0,43.7003176942632,-300.587438405438,420.066103363687,763206347
27,359.0,-137.0,-6772.0,9503.0,121.0,-8884.0,38.9976706850295,-300.585948333609,420.063725309357,763219514
-136,641.0,1.0,-6744.0,9526.0,148.0,-8903.0,35.8683947601676,-300.587797445754,420.02400779369,763227771
183,341.0,-105.0,-6707.0,9558.0,189.0,-8930.0,29.6026777251847,-300.584419391489,420.008535693296,763246237
183,341.0,-105.0,-6696.0,9570.0,204.0,-8938.0,24.8996263393208,-300.579577165016,420.017346724306,763252776
-386,96.0,37.0,-6678.0,9588.0,225.0,-8948.0,20.2002122388795,-300.580172810354,420.016077012583,763273260
-233,98.0,-119.0,-6672.0,9595.0,233.0,-8953.0,15.5036035582935,-300.581461314858,420.016913778193,763281810
-91,123.0,19.0,-6667.0,9600.0,240.0,-8956.0,10.8038715024796,-300.578352795967,419.985052698733,763298595
-91,123.0,19.0,-6667.0,9600.0,240.0,-8956.0,6.10424098737337,-300.575937799062,419.988907193793,763298595
-505,-33.0,4.0,-6660.0,9612.0,250.0,-8957.0,1.4074848254025,-300.572950056442,420.010433428954,763316901
-365,156.0,-130.0,-6653.0,9615.0,1.0,-8964.0,-4.85809466519826,-300.555247562044,419.978085145289,763333325
-227,-77.0,19.0,-6652.0,9616.0,2.0,-8964.0,-9.55536384376461,-300.550411557396,419.94747500505,763342071
-312,-89.0,-82.0,-6650.0,9617.0,3.0,-8965.0,-14.2538379317939,-300.565494680205,419.951779615529,763355942
-342,202.0,-116.0,-6645.0,9619.0,8.0,-8971.0,-22.0842252137347,-300.572280844858,419.969179260746,763382873
-240,86.0,-69.0,-6645.0,9619.0,8.0,-8971.0,-28.3498698387102,-300.571212705955,419.977733176842,763392656
-424,104.0,50.0,-6645.0,9619.0,8.0,-8971.0,-33.0472504564901,-300.571350941393,419.973575437587,763400900
-382,20.0,1.0,-6643.0,9618.0,8.0,-8974.0,-36.1814470149495,-300.576678968332,419.97537872914,763417180
-125,196.0,1.0,-6641.0,9617.0,8.0,-8977.0,-40.8780024046701,-300.578552984901,419.988175804651,763425379
-125,196.0,1.0,-6640.0,9616.0,7.0,-8978.0,-44.0102609189425,-300.574763634273,420.011465815822,763433908
-212,123.0,-1.0,-6639.0,9615.0,7.0,-8979.0,-48.7097461421219,-300.574258513844,420.014310269365,763442678
-31,-26.0,-62.0,-6638.0,9613.0,5.0,-8981.0,-51.8448776007083,-300.581430075902,420.004372622631,763459705
-3,13.0,34.0,-6637.0,9612.0,4.0,-8982.0,-56.5432277859644,-300.579676618817,420.019362982551,763466051
-3,13.0,34.0,-6637.0,9611.0,4.0,-8983.0,-61.2412421657962,-300.5817061241,420.008554944718,763474082
-43,111.0,-133.0,-6637.0,9611.0,4.0,-8983.0,-67.5060938867021,-300.584586138563,420.010459223562,763491867
-173,96.0,-12.0,-6637.0,9611.0,4.0,-8983.0,-70.6409788437375,-300.586391592313,420.013898245925,763499647
-4,39.0,-43.0,-6636.0,9610.0,3.0,-8984.0,-75.3374512585305,-300.583614754085,420.04306721855,763512033
-12,92.0,-63.0,-6634.0,9608.0,2.0,-8986.0,-80.0430711587822,-300.591011481238,420.042092497381,763523204
-44,50.0,52.0,-6634.0,9608.0,2.0,-8986.0,-83.1775281762629,-300.597170944558,420.022186784465,763531903
-95,76.0,61.0,-6634.0,9608.0,2.0,-8986.0,-87.8787540001682,-300.602078520153,420.035693526604,763540782
5,-10.0,-106.0,-6634.0,9610.0,2.0,-8985.0,-91.005453478238,-300.602094765151,420.061234623483,763548708
-383,102.0,128.0,-6633.0,9608.0,2.0,-8987.0,-95.7125022020516,-300.598205634508,420.06605839032,763564185
25,-19.0,-225.0,-6632.0,9607.0,2.0,-8989.0,-98.8533790242777,-300.605545290395,420.074495613018,763573092
-32,-140.0,-223.0,-6634.0,9608.0,0.0,-8986.0,-109.822009882286,-300.619042113529,420.084398740552,763601404
-77,-130.0,0.0,-6631.0,9610.0,1.0,-8987.0,-114.523252508312,-300.620449591867,420.102246844761,763613728
271,-104.0,-152.0,-6632.0,9607.0,1.0,-8988.0,-119.236005063033,-300.62735906832,420.109049403958,763629651
-406,605.0,211.0,-6630.0,9610.0,0.0,-8985.0,-123.942896794271,-300.749012177082,420.131568958388,763638014
155,-560.0,-34.0,-6633.0,9606.0,0.0,-8988.0,-128.646366040804,-300.646719362665,420.124904486883,763646113
155,-560.0,-34.0,-6633.0,9606.0,0.0,-8988.0,-133.352015992434,-300.65284715348,420.14444253487,763646113
-245,643.0,-25.0,-6628.0,9610.0,0.0,-8987.0,-136.490982788385,-300.661830698698,420.165743771601,763675864
-245,643.0,-25.0,-6631.0,9607.0,0.0,-8988.0,-141.203821787799,-300.670150800749,420.164891786855,763684206
12,-251.0,4.0,-6628.0,9608.0,255.0,-8989.0,-145.91525931609,-300.681695231912,420.179077883664,763693597
-258,109.0,399.0,-6629.0,9609.0,255.0,-8987.0,-150.630732987864,-300.698438457086,420.22205455605,763707188
-258,109.0,399.0,-6628.0,9610.0,0.0,-8988.0,-155.337910110525,-300.710876767447,420.194027325822,763713381
-356,174.0,370.0,-6629.0,9610.0,1.0,-8987.0,-158.488082791288,-300.725231655431,420.230462273373,763729190
-121,208.0,248.0,-6628.0,9610.0,1.0,-8988.0,-163.204663538199,-300.745989730546,420.275521201732,763737559
116,-109.0,-190.0,-6628.0,9608.0,1.0,-8989.0,-167.902824603466,-300.759397044062,420.285290573663,763747969
0,134.0,2.0,-6628.0,9607.0,0.0,-8990.0,-172.528101297536,-300.770784542879,420.281613413317,763763882
-158,115.0,114.0,-6627.0,9608.0,255.0,-8990.0,-177.024492425132,-300.77115704079,420.297548516034,763772695
-155,344.0,263.0,-6627.0,9608.0,255.0,-8990.0,-181.362162301985,-300.760359759361,420.324349854878,763781418
171,-238.0,-282.0,-6626.0,9607.0,255.0,-8990.0,-185.503528198448,-300.742297464747,420.347865566239,763797446
171,-238.0,-282.0,-6626.0,9607.0,255.0,-8990.0,-189.443633126313,-300.720460009682,420.353734462277,763804775
115,-271.0,-361.0,-6626.0,9608.0,254.0,-8989.0,-193.164167728176,-300.694613682159,420.37065705661,763824135
-41,387.0,119.0,-6626.0,9608.0,254.0,-8989.0,-197.74736630243,-300.665118082025,420.383004164777,763832883
4,14.0,-114.0,-6626.0,9608.0,254.0,-8989.0,-200.907052294459,-300.62951408831,420.392080067806,763849442
-58,275.0,213.0,-6626.0,9608.0,254.0,-8989.0,-203.808880563644,-300.591464661965,420.381282525522,763856557
-89,169.0,140.0,-6626.0,9608.0,254.0,-8989.0,-206.453853019429,-300.550633534453,420.341729366624,763873694
39,-135.0,-306.0,-6626.0,9608.0,254.0,-8990.0,-209.569378678197,-300.495906018692,420.326948927462,763885447
-202,435.0,500.0,-6626.0,9608.0,254.0,-8989.0,-210.956818729288,-300.440409684461,420.329427905505,763901887
-43,63.0,26.0,-6624.0,9608.0,254.0,-8991.0,-213.366843051631,-300.389428224907,420.319581853623,763908148
322,-457.0,-510.0,-6623.0,9608.0,253.0,-8991.0,-214.388391001516,-300.357254803225,420.268285250598,763921943
315,272.0,-56.0,-6623.0,9608.0,253.0,-8991.0,-215.701058930015,-300.277656257415,420.240018947355,763930791
173,243.0,437.0,-6625.0,9606.0,253.0,-8992.0,-216.73960211227,-300.24094315526,420.200868048622,763939567
406,-528.0,-371.0,-6624.0,9606.0,253.0,-8992.0,-217.535449979384,-300.170963524804,420.164036719677,763958648
163,424.0,266.0,-6622.0,9607.0,252.0,-8992.0,-217.94930646474,-300.139772283181,420.073436261763,763966921
163,424.0,266.0,-6623.0,9606.0,253.0,-8993.0,-218.430559267919,-300.11662782426,419.807681718566,763975457
291,162.0,-175.0,-6624.0,9606.0,251.0,-8991.0,-218.805821094828,-300.097489719436,418.972473838728,763992689
106,269.0,342.0,-6622.0,9607.0,250.0,-8991.0,-219.204040703008,-300.1152105868,417.94036690761,764008062
616,-145.0,-498.0,-6622.0,9606.0,252.0,-8993.0,-219.426196486716,-300.142123725433,417.059069597525,764018872
121,288.0,291.0,-6622.0,9609.0,251.0,-8989.0,-219.55694667824,-300.167166463554,415.405044271749,764026900
121,288.0,291.0,-6623.0,9607.0,252.0,-8991.0,-219.737136131118,-300.25154986484,413.280164533611,764035072
132,311.0,206.0,-6622.0,9608.0,252.0,-8990.0,-219.900303671649,-300.301875958103,410.739664244129,764051421
200,-89.0,60.0,-6624.0,9609.0,253.0,-8989.0,-219.987597828022,-300.395155331653,408.787788787803,764057734
313,14.0,-328.0,-6623.0,9608.0,252.0,-8990.0,-220.121133807585,-300.459896868651,405.457840091791,764071329
211,147.0,-18.0,-6628.0,9610.0,249.0,-8982.0,-220.206873227991,-300.558427353551,402.961382038514,764084256
67,169.0,-87.0,-6635.0,9606.0,244.0,-8976.0,-220.330784524378,-300.628156668461,398.791006681555,764092824
11,156.0,-42.0,-6635.0,9606.0,244.0,-8976.0,-220.448900098884,-300.737409767007,395.740099584177,764100367
-29,434.0,209.0,-6645.0,9601.0,233.0,-8966.0,-220.511739986259,-300.812803369442,390.747758793774,764106656
119,301.0,71.0,-6661.0,9589.0,219.0,-8956.0,-220.570415617244,-300.911503074792,387.215712264889,764119799
-28,246.0,144.0,-6680.0,9573.0,198.0,-8942.0,-220.65553815041,-300.967360833901,381.619355646527,764127842
6,272.0,91.0,-6704.0,9554.0,173.0,-8924.0,-220.717089088031,-301.028364924177,377.792964126936,764136000
97,237.0,-13.0,-6732.0,9531.0,143.0,-8903.0,-220.748957755585,-301.079386040209,371.874833756086,764153462
-22,318.0,102.0,-6766.0,9503.0,106.0,-8877.0,-220.784190417052,-301.103486008717,365.789171262973,764159654
201,205.0,-266.0,-6849.0,9431.0,17.0,-8816.0,-220.806127144915,-301.121799285475,359.574192103186,764173424
55,331.0,108.0,-6849.0,9431.0,17.0,-8816.0,-220.816420348805,-301.129782297135,353.289857697637,764181997
-103,432.0,182.0,-6953.0,9344.0,166.0,-8737.0,-220.816864849799,-301.12736084421,349.101664047193,764198090
242,488.0,-141.0,-7009.0,9291.0,102.0,-8692.0,-220.814618315735,-301.114569163102,342.70445753433,764208340
50,358.0,130.0,-7077.0,9232.0,33.0,-8640.0,-220.80607813977,-301.097286815397,336.231055103612,764222083
-113,138.0,-15.0,-7150.0,9169.0,216.0,-8582.0,-220.793330244725,-301.082908565284,329.737169189858,764230557
68,527.0,-151.0,-7222.0,9101.0,138.0,-8522.0,-220.777270058515,-301.060503843029,323.243892506413,764238833
-55,322.0,106.0,-7299.0,9028.0,53.0,-8457.0,-220.762154697015,-301.039387592955,318.881643455541,764253583
72,153.0,-125.0,-7383.0,8946.0,222.0,-8388.0,-220.756255523377,-301.017156719358,312.368011937982,764259826
89,169.0,-119.0,-7467.0,8864.0,132.0,-8315.0,-220.733966630505,-300.986695983041,305.792574858143,764269936
-22,-138.0,-29.0,-7642.0,8688.0,205.0,-8162.0,-220.710125972945,-300.957094333245,299.186179400822,764286049
58,30.0,-114.0,-7726.0,8599.0,112.0,-8082.0,-220.704871965988,-300.947213613107,294.868218464769,764294259
-91,29.0,135.0,-7815.0,8505.0,21.0,-8001.0,-220.681370736087,-300.920336896901,288.305123954309,764308402
-91,29.0,135.0,-7903.0,8407.0,182.0,-7916.0,-220.678609044314,-300.908320808829,281.742224991247,764314719
-39,156.0,4.0,-7903.0,8407.0,182.0,-7916.0,-220.64235852462,-300.861867405389,272.947338593617,764321960
67,-29.0,-221.0,-8165.0,8111.0,162.0,-7653.0,-220.636218053853,-300.847460050947,266.387126598167,764348427
67,-29.0,-221.0,-8249.0,8010.0,70.0,-7562.0,-220.608549144207,-300.831341328825,259.823167605884,764354798
-164,-147.0,119.0,-8337.0,7907.0,238.0,-7470.0,-220.606348495329,-300.815332899328,253.222108762197,764367213
17,40.0,-136.0,-8504.0,7695.0,58.0,-7283.0,-220.594336014053,-300.794368012697,246.675997783997,764383929
105,239.0,-28.0,-8504.0,7695.0,58.0,-7283.0,-220.577759962834,-300.781641101534,237.892449030951,764392525
-233,-30.0,145.0,-8671.0,7480.0,141.0,-7088.0,-220.564746978992,-300.761377064798,233.510432590319,764410230
-233,-30.0,145.0,-8750.0,7369.0,55.0,-6992.0,-220.557348841585,-300.738732259997,226.926034762602,764416588
134,254.0,-81.0,-8907.0,7147.0,144.0,-6795.0,-220.562718265353,-300.759114595663,220.389645757552,764433260
-134,82.0,-80.0,-8907.0,7147.0,144.0,-6795.0,-220.553029333349,-300.745902777121,213.815343377958,764442099
-339,42.0,267.0,-8987.0,7035.0,62.0,-6690.0,-220.538090043645,-300.725301062287,207.217032727043,764450080
-100,109.0,-5.0,-9062.0,6921.0,238.0,-6591.0,-220.515537289389,-300.683935135734,202.801165704468,764462584
243,111.0,-406.0,-9210.0,6687.0,79.0,-6387.0,-220.496436662222,-300.667213953049,196.216668361638,764473426
17,45.0,-154.0,-9210.0,6687.0,79.0,-6387.0,-220.501659058091,-300.67761741248,189.652329358543,764482056
-290,249.0,70.0,-9355.0,6458.0,184.0,-6172.0,-220.500021968016,-300.677148159514,185.28564706541,764498462
-290,249.0,70.0,-9423.0,6340.0,111.0,-6069.0,-220.504977189992,-300.687877588791,178.729059463978,764504949
144,-36.0,-298.0,-9492.0,6215.0,35.0,-5964.0,-220.514828678334,-300.697590701192,172.17309156584,764518084
144,-36.0,-298.0,-9562.0,6093.0,220.0,-5854.0,-220.513529243724,-300.712495268065,167.805068229058,764525854
-132,65.0,-13.0,-9628.0,5975.0,150.0,-5744.0,-220.522170081483,-300.706845867049,161.242244931971,764537112
-132,65.0,-13.0,-9692.0,5855.0,82.0,-5637.0,-220.53004340102,-300.719849185439,154.676159057851,764545681
61,70.0,-173.0,-9755.0,5730.0,13.0,-5527.0,-220.529967558381,-300.740764031627,150.303160169104,764558969
41,-93.0,25.0,-9819.0,5605.0,203.0,-5415.0,-220.537229112324,-300.728640124998,143.72509746822,764572337
-15,-74.0,-6.0,-9881.0,5482.0,140.0,-5303.0,-220.549891261861,-300.747166116506,137.154691738913,764580909
-70,98.0,-79.0,-9940.0,5360.0,77.0,-5190.0,-220.550222386915,-300.772900225025,130.568435710631,764588924
-52,191.0,-161.0,-10056.0,5107.0,210.0,-4962.0,-220.573989232637,-300.784310023163,126.20540366701,764605199
7,-15.0,-122.0,-10056.0,5107.0,210.0,-4962.0,-220.580434012124,-300.760216645275,119.684453480941,764611365
22,-70.0,-44.0,-10167.0,4851.0,93.0,-4734.0,-220.563571115335,-300.757120498767,113.408942809264,764625945
-19,-28.0,-47.0,-10219.0,4723.0,36.0,-4618.0,-220.546579290948,-300.745421046417,109.371759546836,764634509
-44,73.0,-102.0,-10271.0,4594.0,238.0,-4501.0,-220.539387380576,-300.738133124831,101.792502723793,764650800
-17,31.0,-59.0,-10321.0,4464.0,185.0,-4385.0,-220.524834161874,-300.712293660887,96.5003776630451,764660243
26,-108.0,-134.0,-10418.0,4202.0,82.0,-4150.0,-220.503802540306,-300.686837216097,91.6318873965855,764674225
-7,8.0,-162.0,-10418.0,4202.0,82.0,-4150.0,-220.468082201111,-300.637120331483,88.622334807731,764682903
-42,20.0,-92.0,-10509.0,3940.0,243.0,-3911.0,-220.412977176504,-300.565502300735,83.2178909867861,764698993
2,-26.0,-9.0,-10552.0,3807.0,197.0,-3792.0,-220.368494493224,-300.502076557647,79.7072874722735,764711499
-29,-2.0,-52.0,-10595.0,3673.0,152.0,-3670.0,-220.333159554206,-300.454897422795,76.6627679208486,764722933
-51,38.0,-83.0,-10635.0,3539.0,109.0,-3549.0,-220.302786764867,-300.411969994064,74.1695257253799,764732009
65,-73.0,-127.0,-10710.0,3270.0,27.0,-3310.0,-220.239979607015,-300.300193496877,71.0591800176664,764748665
16,-59.0,-34.0,-10746.0,3134.0,245.0,-3187.0,-220.206020766422,-300.25850680937,70.1483090298146,764761228
-41,-57.0,-36.0,-10814.0,2865.0,173.0,-2939.0,-220.156359334156,-300.204420322574,69.0405956028576,764775392
-68,56.0,-71.0,-10845.0,2730.0,139.0,-2817.0,-220.108291908482,-300.156852044213,68.1875790842016,764786922
46,17.0,-178.0,-10876.0,2591.0,107.0,-2695.0,-219.916279190185,-300.101152050687,67.5015476370894,764795164
-11,-4.0,-27.0,-10935.0,2319.0,49.0,-2442.0,-219.383986283858,-300.102503172781,66.8530167255491,764814963
-139,21.0,51.0,-10935.0,2319.0,49.0,-2442.0,-218.648266656502,-300.042674022772,66.4353519451886,764822686
113,-45.0,-189.0,-10983.0,2042.0,250.0,-2196.0,-217.63387225554,-300.018706378427,65.9733055702856,764839338
106,78.0,15.0,-11028.0,1764.0,203.0,-1946.0,-215.248033455925,-299.99924152667,65.7539713639829,764855956
-198,245.0,122.0,-11048.0,1627.0,182.0,-1819.0,-213.383021173854,-299.996102410139,65.578926739433,764868406
-167,78.0,-48.0,-11085.0,1349.0,145.0,-1567.0,-210.340151784704,-299.993523055767,65.3853107268021,764884965
18,-145.0,-216.0,-11085.0,1349.0,145.0,-1567.0,-207.664034641852,-300.0404394959,65.3153214287979,764893503
227,-324.0,-232.0,-11113.0,1066.0,113.0,-1316.0,-204.611802230177,-300.074262639459,65.2210788549801,764910537
227,-324.0,-232.0,-11126.0,928.0,100.0,-1186.0,-201.180178142474,-300.097128185604,65.1075814402923,764916816
-331,82.0,176.0,-11140.0,792.0,91.0,-1059.0,-197.387246260628,-300.1658890458,65.0912600452469,764933400
150,-234.0,-58.0,-11147.0,651.0,78.0,-933.0,-194.63843103685,-300.24451644565,65.0470363191976,764941942
360,-184.0,-250.0,-11162.0,368.0,63.0,-682.0,-190.202687918982,-300.265465270099,64.9799150038771,764956204
-14,6.0,-74.0,-11162.0,368.0,63.0,-682.0,-187.10967718744,-300.352188303738,64.9544053525551,764962488
-346,-114.0,113.0,-11170.0,230.0,60.0,-552.0,-182.217485887179,-300.399655248095,64.9013993411463,764972850
97,-247.0,85.0,-11171.0,90.0,55.0,-423.0,-177.163706857292,-300.507935692513,64.9022760174535,764981440
126,211.0,-73.0,-11174.0,-193.0,52.0,-173.0,-171.941793402986,-300.564323772879,64.8459634879379,764997330
70,-319.0,-156.0,-11173.0,-334.0,54.0,-45.0,-166.63785333992,-300.614809736527,64.851290320151,765010541
70,-319.0,-156.0,-11173.0,-467.0,58.0,83.0,-163.066670100597,-300.684601846318,64.8219415825816,765016714
89,-177.0,145.0,-11160.0,-858.0,75.0,433.0,-150.294936267913,-300.780832131532,64.8216571046067,765045836
-48,-137.0,109.0,-11152.0,-975.0,81.0,539.0,-144.741778337817,-300.798315770559,64.8078816114797,765059432
-291,476.0,379.0,-11146.0,-1086.0,91.0,646.0,-139.184019345231,-300.81540456355,64.8192022990985,765072655
149,-382.0,-5.0,-11139.0,-1192.0,99.0,739.0,-135.464213403709,-300.852441920055,64.8309645085705,765081183
231,-269.0,-116.0,-11129.0,-1291.0,106.0,826.0,-129.861052274018,-300.851444159598,64.8267218685301,765089447
-56,-174.0,19.0,-11124.0,-1383.0,118.0,915.0,-124.254255564489,-300.850566940284,64.815310523824,765099835
71,-366.0,-21.0,-11115.0,-1468.0,126.0,990.0,-120.503860231157,-300.871268100785,64.8602797800268,765112529
-55,88.0,289.0,-11102.0,-1611.0,144.0,1124.0,-113.005277868263,-300.86168763399,64.8432622432434,765127160
-33,70.0,277.0,-11094.0,-1672.0,150.0,1180.0,-107.371155918537,-300.85286446612,64.8398624097294,765135830
136,28.0,153.0,-11088.0,-1728.0,158.0,1231.0,-101.728611556889,-300.837623696386,64.8542880018877,765152183
101,-281.0,329.0,-11083.0,-1777.0,165.0,1275.0,-97.9814603080957,-300.900798581844,64.9007374877464,765161714
101,-281.0,329.0,-11078.0,-1815.0,170.0,1313.0,-92.350295204842,-300.859414369542,64.8641558663576,765167955
-45,-12.0,119.0,-11070.0,-1868.0,177.0,1361.0,-84.8200601899266,-300.844469357431,64.8733225477233,765184502
118,-45.0,-47.0,-11070.0,-1868.0,177.0,1361.0,-81.0580146910491,-300.853641240383,64.8991011933488,765192782
-122,142.0,-328.0,-11063.0,-1898.0,178.0,1387.0,-73.5422103779718,-300.870542042263,64.9302602767701,765213024
-134,232.0,-352.0,-11062.0,-1909.0,180.0,1399.0,-66.0277847377964,-300.836580825803,64.9126754835466,765223649
-36,99.0,-259.0,-11061.0,-1920.0,182.0,1409.0,-60.3737064715021,-300.824703556114,64.9190269515543,765233120
-32,161.0,-323.0,-11058.0,-1934.0,183.0,1420.0,-54.7321457907843,-300.841203480432,64.9452214750015,765249893
-111,175.0,-349.0,-11058.0,-1935.0,183.0,1423.0,-49.1055494247976,-300.822288093881,64.9461535315253,765262424
-114,288.0,-509.0,-11056.0,-1935.0,182.0,1426.0,-43.4672805374935,-300.821783884414,64.9513815869589,765276682
50,134.0,-385.0,-11054.0,-1939.0,181.0,1428.0,-39.7027812355783,-300.823176830127,64.9556547899438,765288041
50,134.0,-385.0,-11054.0,-1941.0,181.0,1429.0,-34.0589265891492,-300.814066373615,64.9553282724231,765296558
-45,228.0,-330.0,-11054.0,-1941.0,181.0,1429.0,-28.4303918372203,-300.819334642615,64.9612813809117,765303782
-63,218.0,-390.0,-11052.0,-1943.0,180.0,1434.0,-22.7984947291527,-300.813599805584,64.965608938284,765316325
-61,220.0,-334.0,-11052.0,-1943.0,180.0,1434.0,-19.0366895159431,-300.807405123564,64.9666600418814,765324061
17,30.0,-177.0,-11049.0,-1951.0,180.0,1442.0,-11.5165891716458,-300.814261083295,64.9823403628734,765346540
-14,67.0,-106.0,-11049.0,-1951.0,180.0,1442.0,-5.88735794400665,-300.81835151452,64.9913411224426,765353892
-43,15.0,-71.0,-11046.0,-1957.0,179.0,1449.0,-0.255359433240971,-300.81394391627,64.9897682381347,765366395
9,34.0,-206.0,-11045.0,-1957.0,178.0,1450.0,7.26471888664365,-300.765364514075,64.9875594882076,765382858
-2,119.0,-105.0,-11043.0,-1959.0,177.0,1452.0,12.8950874577022,-300.751353309138,64.9872203011764,765391094
-38,41.0,-92.0,-11042.0,-1961.0,177.0,1455.0,16.6470468832182,-300.747513296145,64.9833475874117,765398759
-25,11.0,-38.0,-11041.0,-1962.0,176.0,1459.0,22.2804487801786,-300.753300039521,64.9794111133418,765414996
9,-50.0,61.0,-11039.0,-1964.0,176.0,1461.0,27.9217014908291,-300.758900115482,64.9788220360337,765422122
0,43.0,-84.0,-11038.0,-1965.0,175.0,1463.0,31.6770939126616,-300.764130062253,64.9770788527942,765430454
-10,-8.0,-55.0,-11036.0,-1963.0,173.0,1466.0,37.3055252496933,-300.77780312588,64.9847492540125,765447314
-18,72.0,-50.0,-11036.0,-1963.0,173.0,1466.0,42.9425055798469,-300.786897217196,64.9851482117678,765454802
0,3.0,-138.0,-11035.0,-1963.0,172.0,1469.0,48.5819284810099,-300.789876436748,64.9843411824754,765463076
-17,-70.0,9.0,-11032.0,-1963.0,170.0,1473.0,54.2199141858271,-300.801601668541,64.9752459046853,765485018
-11,-93.0,-45.0,-11032.0,-1963.0,170.0,1473.0,59.8504381398796,-300.812531585455,64.9757315050696,765493647
-19,16.0,18.0,-11031.0,-1965.0,169.0,1475.0,65.4866293835429,-300.815376663438,64.9712082791831,765501647
-8,45.0,-101.0,-11030.0,-1962.0,168.0,1475.0,69.2476863791282,-300.817309244722,64.9728538609557,765514086
-3,-31.0,0.0,-11028.0,-1961.0,167.0,1478.0,74.8937962484691,-300.826601043761,64.9698415812823,765529215
-3,-31.0,0.0,-11028.0,-1961.0,167.0,1478.0,80.5255341438168,-300.827719402654,64.9631237842033,765529215
-17,106.0,-81.0,-11026.0,-1960.0,165.0,1484.0,84.2833622687647,-300.825339774571,64.9489071752285,765559834
-17,106.0,-81.0,-11026.0,-1960.0,165.0,1484.0,89.9213515715727,-300.829575105603,64.9348184395546,765559834
-17,106.0,-81.0,-11025.0,-1957.0,164.0,1485.0,93.6848896762241,-300.835438924521,64.93412873607,765568074
-11,-99.0,-37.0,-11024.0,-1956.0,163.0,1485.0,99.3294752452156,-300.83761090529,64.9371345293222,765576721
-27,168.0,-24.0,-11023.0,-1955.0,162.0,1487.0,103.090385706698,-300.865760535403,64.9415956148242,765585659
6,-170.0,-12.0,-11023.0,-1955.0,162.0,1487.0,108.724008467344,-300.849183296142,64.9066074825719,765594407
-12,104.0,-36.0,-11023.0,-1955.0,162.0,1489.0,112.48346496937,-300.851106993838,64.9031404887179,765609681
-12,104.0,-36.0,-11022.0,-1952.0,161.0,1490.0,118.135973404108,-300.859437218353,64.8877036913912,765618052
-16,94.0,-25.0,-11022.0,-1951.0,161.0,1491.0,123.780847613073,-300.865612294084,64.8926596162388,765629085
-16,94.0,-25.0,-11021.0,-1949.0,160.0,1491.0,127.553845656225,-300.900801942002,64.9028039544229,765637785
-28,104.0,-27.0,-11020.0,-1949.0,159.0,1494.0,133.196627113966,-300.899710740036,64.8741665307133,765646674
-16,41.0,-3.0,-11020.0,-1948.0,159.0,1494.0,138.827998955599,-300.863300808625,64.8369009756718,765662535
-12,-153.0,12.0,-11019.0,-1948.0,158.0,1496.0,144.491136714597,-300.898909691417,64.8537140266462,765670767
-20,-169.0,0.0,-11018.0,-1944.0,157.0,1498.0,148.269797019299,-300.939841364241,64.8657213273032,765687159
-13,-145.0,-4.0,-11018.0,-1941.0,156.0,1498.0,153.910953179169,-300.927967372168,64.823389690981,765698851
-13,-145.0,-4.0,-11018.0,-1941.0,156.0,1498.0,157.678966417418,-300.941034955764,64.7994428362302,765705684
-11,80.0,-12.0,-11017.0,-1940.0,156.0,1502.0,163.32624952158,-300.931863169935,64.788785021466,765718231
-34,55.0,-2.0,-11017.0,-1939.0,156.0,1504.0,168.904312137007,-300.952261629761,64.8120081419952,765725920
-13,-92.0,1.0,-11017.0,-1939.0,156.0,1504.0,174.319329151715,-300.939921573278,64.7792965861778,765734688
-16,-55.0,-1.0,-11016.0,-1935.0,155.0,1506.0,179.502407900491,-300.870601921542,64.7641940318711,765752328
-34,-34.0,16.0,-11015.0,-1935.0,154.0,1508.0,182.847610394696,-300.856888156477,64.7737873920324,765761871
-34,-34.0,16.0,-11016.0,-1933.0,154.0,1509.0,187.58858623902,-300.779922444811,64.7589197215104,765768148
-18,-73.0,26.0,-11016.0,-1930.0,155.0,1512.0,192.04428780535,-300.785749862309,64.7950579717916,765785348
-19,-16.0,-20.0,-11016.0,-1930.0,155.0,1512.0,194.813168972424,-300.671491111212,64.7650132779335,765794060
-28,12.0,-49.0,-11016.0,-1930.0,155.0,1514.0,198.702688361281,-299.556687062221,64.7830968424353,765802057
-18,-80.0,41.0,-11016.0,-1930.0,155.0,1517.0,202.264443526464,-300.575067551779,64.8023915585425,765814572
-15,-42.0,-44.0,-11017.0,-1926.0,156.0,1521.0,205.443369215966,-300.472779463608,64.8127510820426,765825121
-12,-20.0,39.0,-11017.0,-1926.0,156.0,1521.0,207.363252353004,-300.405806866409,64.8363365416628,765833874
0,-163.0,-55.0,-11017.0,-1924.0,156.0,1525.0,211.432397141953,-300.268255145997,64.859572263611,765851377
-2,-157.0,-83.0,-11018.0,-1920.0,157.0,1528.0,213.945252524447,-300.193176624198,64.8841056476967,765870570
-2,-157.0,-83.0,-11018.0,-1919.0,157.0,1530.0,215.403355266894,-300.133155192891,64.9350513729753,765878638
-13,-18.0,81.0,-11018.0,-1918.0,157.0,1531.0,216.491713054919,-300.083422866295,64.9400471063759,765889417
-7,-138.0,-96.0,-11018.0,-1918.0,157.0,1534.0,217.074305252051,-299.976892170147,64.9246504325922,765904880
7,-131.0,-96.0,-11019.0,-1915.0,158.0,1536.0,217.91818815969,-299.77710901268,64.9306859252301,765917358
-25,-30.0,86.0,-11019.0,-1915.0,158.0,1536.0,218.869595224768,-299.556558356194,64.9577204103708,765924930
-9,-91.0,-94.0,-11019.0,-1912.0,158.0,1536.0,219.61357831351,-299.005420792264,64.9807792607123,765933628
-33,22.0,94.0,-11019.0,-1912.0,158.0,1539.0,220.949068145677,-298.475401687579,64.9857282059239,765942021
-13,-175.0,-88.0,-11019.0,-1910.0,158.0,1542.0,223.243523183387,-297.011485779285,65.0003647334963,765960081
-13,-175.0,-88.0,-11020.0,-1907.0,158.0,1543.0,224.646551041638,-295.508525496412,65.0092411002782,765968438
-1,-175.0,-97.0,-11020.0,-1905.0,159.0,1545.0,227.08623607056,-294.299970829795,65.0129448350316,765985998
-12,-105.0,-88.0,-11020.0,-1905.0,159.0,1545.0,229.943512687894,-292.148315124763,65.0035741817111,765994758
-37,-67.0,85.0,-11020.0,-1903.0,159.0,1547.0,232.094726074185,-289.573261082167,64.9954491342802,766002722
-2,-82.0,-72.0,-11021.0,-1900.0,159.0,1549.0,235.721561661887,-286.563037581045,65.014003757835,766018677
-25,-73.0,61.0,-11021.0,-1900.0,160.0,1551.0,239.779771499958,-284.302404473625,65.020647946418,766026749
-31,-71.0,50.0,-11021.0,-1897.0,160.0,1552.0,242.689455085422,-280.541510007859,65.0098800935668,766035682
-17,-94.0,-45.0,-11021.0,-1897.0,160.0,1552.0,247.281620536195,-276.428234249767,65.0015100835212,766044697
-18,-51.0,18.0,-11022.0,-1895.0,160.0,1554.0,252.078575586691,-272.019073199923,65.0059401207349,766059140
-3,-163.0,-16.0,-11022.0,-1895.0,160.0,1557.0,256.986186055752,-267.356533922832,65.0098433732978,766072171
-32,-1.0,-16.0,-11022.0,-1892.0,160.0,1557.0,261.935085911964,-264.131375902009,65.0046795219553,766083731
-6,-167.0,7.0,-11022.0,-1892.0,161.0,1560.0,266.887646681534,-259.126181438695,64.9980908927664,766092097
-20,-58.0,-27.0,-11023.0,-1889.0,161.0,1560.0,271.834167528696,-253.948740794381,65.0025598341974,766106574
-17,-34.0,-38.0,-11023.0,-1888.0,161.0,1563.0,276.737350076891,-248.605115283578,65.0045252923464,766119153
-15,-106.0,27.0,-11023.0,-1886.0,161.0,1564.0,279.97481533899,-243.114636329918,65.0038866481412,766127146
-10,-123.0,-63.0,-11024.0,-1885.0,162.0,1566.0,284.763961142336,-239.379561576958,65.0024605512031,766136186
-23,-89.0,38.0,-11024.0,-1884.0,162.0,1567.0,289.461086952504,-233.676037327338,64.9984203304811,766148659
-19,-150.0,41.0,-11024.0,-1884.0,162.0,1567.0,292.544297009845,-229.811504245027,65.0014418927466,766156232
5,-79.0,-88.0,-11026.0,-1881.0,163.0,1569.0,297.081270069028,-221.925325023207,65.0000007515213,766168845
-16,16.0,-87.0,-11026.0,-1878.0,163.0,1572.0,301.51251520172,-215.887182412966,64.9997822850819,766185908
-10,-16.0,-83.0,-11026.0,-1878.0,163.0,1572.0,305.836328005943,-209.747293745161,64.998722273796,766194622
-5,-191.0,43.0,-11026.0,-1878.0,164.0,1574.0,310.03897081845,-205.604650231759,64.9979499227439,766202676
-17,-59.0,-88.0,-11027.0,-1876.0,164.0,1574.0,314.118707305628,-199.317701838462,64.9997411364733,766212855
-6,-171.0,44.0,-11027.0,-1874.0,164.0,1577.0,318.074245070011,-192.944510858736,64.9989395299172,766229628
-6,-171.0,44.0,-11027.0,-1873.0,164.0,1578.0,320.642207522267,-186.485262447659,65.0008168955306,766238057
-23,-80.0,-76.0,-11028.0,-1871.0,165.0,1579.0,324.389405597078,-179.944196805014,65.0008889534031,766246994
-19,-153.0,34.0,-11029.0,-1871.0,166.0,1580.0,328.004565085544,-175.537617931439,65.0003102672328,766263741
-5,-107.0,-71.0,-11030.0,-1869.0,167.0,1581.0,331.482951831635,-166.640953742922,64.9999004558353,766272318
-25,-60.0,-66.0,-11032.0,-1868.0,169.0,1586.0,334.826557654034,-159.885649634911,65.0003536168475,766299205
-25,-60.0,-66.0,-11032.0,-1868.0,169.0,1586.0,338.037431050051,-153.061052974658,64.9994799525085,766299205
-23,-403.0,-50.0,-11031.0,-1871.0,169.0,1589.0,341.110593166614,-146.168839423898,65.000407661347,766312493
-44,-341.0,-125.0,-11031.0,-1870.0,170.0,1592.0,344.044169054013,-139.218102989767,64.9998970842293,766326446
14,-390.0,-149.0,-11031.0,-1870.0,170.0,1592.0,347.734285298073,-132.217951550277,64.9996454561907,766335278
-19,-214.0,-131.0,-11034.0,-1865.0,171.0,1589.0,350.336070589759,-125.159212430691,65.0000265586595,766352060
50,-423.0,-143.0,-11036.0,-1862.0,172.0,1587.0,352.796828764149,-115.662981094182,64.9998216534669,766362368
-2,-129.0,-106.0,-11038.0,-1855.0,172.0,1580.0,355.853261558601,-108.485178022112,64.9991168646773,766376780
-82,-464.0,-219.0,-11040.0,-1848.0,172.0,1573.0,357.975336915016,-101.264293277305,64.9995807188897,766394033
-143,-464.0,-40.0,-11043.0,-1840.0,173.0,1566.0,359.949111123714,-91.577647027976,65.0001740485453,766401806
-101,-332.0,-2.0,-11045.0,-1817.0,168.0,1551.0,361.777029091658,-84.2640863398325,64.9997101934897,766417665
159,-333.0,-181.0,-11045.0,-1817.0,168.0,1551.0,363.456874443709,-79.3689801863819,64.9998503612742,766424940
-145,-432.0,20.0,-11049.0,-1807.0,169.0,1541.0,364.989464899466,-71.9978491779942,65.0002207714574,766433581
-152,-240.0,9.0,-11055.0,-1770.0,166.0,1510.0,365.926665662303,-64.5996272520594,65.0000912961499,766450037
-152,-240.0,9.0,-11055.0,-1770.0,166.0,1510.0,367.207724730575,-57.1782336433723,65.0001847412659,766457349
21,-24.0,282.0,-11060.0,-1733.0,160.0,1477.0,368.340195325764,-52.2158098452896,64.9998790691384,766470065
-30,-272.0,-65.0,-11063.0,-1717.0,159.0,1461.0,369.010634569364,-44.7503391850219,65.0001847415898,766480408
-30,-272.0,-65.0,-11066.0,-1695.0,157.0,1444.0,369.890698301654,-37.2706880127457,65.0001847413108,766488701
-166,-240.0,279.0,-11067.0,-1673.0,153.0,1428.0,370.619484433228,-32.2763694084705,64.9999905290914,766497150
12,-73.0,165.0,-11072.0,-1651.0,152.0,1409.0,371.197069138579,-22.2693183491401,64.9999438066168,766511050
-164,-142.0,21.0,-11074.0,-1632.0,149.0,1391.0,371.621912289679,-14.7515156175299,65.000296201577,766524191
-108,-295.0,199.0,-11081.0,-1587.0,145.0,1354.0,371.894615817522,-7.22720674661602,65.0000552665178,766542757
105,109.0,-322.0,-11081.0,-1564.0,141.0,1337.0,372.015563629597,-2.21075740005179,65.0003068943031,766550896
105,109.0,-322.0,-11086.0,-1543.0,140.0,1318.0,372.011681596241,5.31602443237533,65.0009469476442,766558298
-52,-351.0,6.0,-11089.0,-1522.0,138.0,1299.0,371.878796842343,10.3330917532963,65.0006773050947,766571024
-52,-351.0,6.0,-11092.0,-1498.0,136.0,1280.0,371.706412963315,17.8515403607563,65.0006879970615,766578947
35,223.0,-284.0,-11096.0,-1474.0,134.0,1260.0,371.319565580657,22.8628458149961,65.0008822099968,766587541
18,68.0,157.0,-11100.0,-1452.0,133.0,1242.0,370.780447730551,32.8704935440237,65.0004830918536,766607183
-134,-25.0,-290.0,-11101.0,-1431.0,130.0,1222.0,370.090092013016,37.8645670995719,65.0001594050298,766613448
9,-42.0,51.0,-11108.0,-1383.0,127.0,1184.0,369.248960493965,45.3421640822306,65.0005765368472,766627451
198,-57.0,-183.0,-11108.0,-1383.0,127.0,1184.0,368.255874163625,52.8045531890244,64.9997602879293,766635999
-81,-31.0,-126.0,-11114.0,-1340.0,124.0,1143.0,367.112434536677,62.7165261930578,65.000687997389,766652633
-81,-31.0,-126.0,-11118.0,-1315.0,123.0,1126.0,365.817921539508,67.6572107997951,65.0007527350989,766658872
232,-123.0,-233.0,-11125.0,-1272.0,121.0,1087.0,364.374594904161,77.4996325595801,65.0002888798365,766676743
-34,79.0,-117.0,-11125.0,-1272.0,121.0,1087.0,362.218169047929,84.8422872205251,65.0001700982329,766685614
59,291.0,63.0,-11132.0,-1222.0,119.0,1047.0,360.428398823945,92.1544642252912,64.9997709814562,766701885
306,-18.0,-179.0,-11134.0,-1200.0,117.0,1028.0,359.151439639281,99.4272567390939,65.0007814431429,766714752
16,28.0,9.0,-11137.0,-1180.0,116.0,1008.0,357.11604576807,106.65848010145,65.000393018139,766721352
-215,-86.0,-180.0,-11140.0,-1160.0,115.0,987.0,354.935126974326,111.453942999941,64.9996415071801,766731745
-183,-200.0,104.0,-11147.0,-1110.0,114.0,946.0,352.607488471902,120.986173692465,65.000522492885,766748647
82,241.0,55.0,-11150.0,-1088.0,113.0,928.0,350.134932158035,128.081193915017,64.9999651936,766762152
82,241.0,55.0,-11153.0,-1068.0,112.0,908.0,347.519366230943,135.120010599492,65.0004757705416,766768887
-74,-291.0,-103.0,-11157.0,-1046.0,112.0,888.0,344.763474198131,139.78000185958,64.9995300476295,766785280
36,135.0,-140.0,-11163.0,-997.0,111.0,847.0,342.846150175515,146.729294680847,65.0000946683564,766798187
42,117.0,-21.0,-11163.0,-997.0,111.0,847.0,339.853915185239,153.614003074534,65.0003643109845,766805611
-62,-159.0,-131.0,-11165.0,-976.0,110.0,828.0,336.724293151485,158.167792539525,64.9997169381813,766811956
-46,47.0,-136.0,-11169.0,-954.0,110.0,807.0,333.455625716833,164.949495676965,64.9999578722844,766825328
-32,0.0,-3.0,-11175.0,-909.0,110.0,764.0,330.049643654474,171.661789076682,65.0006806762332,766841571
-50,-96.0,-145.0,-11180.0,-866.0,109.0,725.0,324.075598906199,184.87188140464,64.9997169381007,766860142
37,-28.0,-184.0,-11182.0,-842.0,108.0,704.0,320.312688003334,189.20977147939,65.0004217264165,766873068
-16,-71.0,-20.0,-11186.0,-821.0,108.0,684.0,316.41931190746,197.779728494612,65.0003930187265,766880926
-58,-43.0,-108.0,-11191.0,-778.0,108.0,643.0,311.027610027078,204.113106388814,65.0005044785742,766897769
46,3.0,-152.0,-11218.0,-747.0,131.0,631.0,306.834217727075,210.363233364444,65.0003102662881,766911566
-34,-69.0,-73.0,-11241.0,-715.0,150.0,619.0,302.517547072623,216.525777246824,64.9999578722844,766921184
-34,-69.0,-73.0,-11243.0,-694.0,150.0,598.0,299.567774357186,222.603562826252,65.0005512008998,766928322
-50,-53.0,-41.0,-11246.0,-672.0,151.0,576.0,295.043428057812,226.604399048157,65.0000693318811,766945140
-29,-66.0,-133.0,-11249.0,-650.0,151.0,557.0,291.961833941861,232.523721793154,64.9996522011707,766953056
-36,-169.0,-177.0,-11252.0,-629.0,151.0,538.0,287.237166341806,238.352365383695,65.0007380916842,766965579
-17,82.0,-84.0,-11255.0,-604.0,152.0,517.0,282.395196512388,242.184436142401,65.0002922516508,766971812
14,5.0,-51.0,-11257.0,-582.0,152.0,497.0,279.105102652427,247.844954523275,64.9997456464114,766981876
33,-28.0,-98.0,-11261.0,-539.0,153.0,455.0,272.369465369523,253.407339808386,64.999680909428,766998371
-49,51.0,-161.0,-11261.0,-539.0,153.0,455.0,268.926487778927,258.85982441904,65.0002922517219,767005809
-47,-121.0,-132.0,-11267.0,-494.0,154.0,414.0,263.720962677605,264.125609976202,65.0019016499197,767018367
76,88.0,-39.0,-11269.0,-471.0,154.0,395.0,258.526460369169,267.492995829752,65.0089799916439,767033674
-88,-284.0,-117.0,-11270.0,-451.0,154.0,372.0,253.337717759765,272.261045954195,65.0218853813542,767044884
-131,-73.0,-151.0,-11272.0,-431.0,155.0,350.0,248.181200340376,276.639356131852,65.0206244135775,767052942
-142,-150.0,-30.0,-11275.0,-409.0,156.0,330.0,243.081983393799,280.611610895609,65.0093253586357,767065563
58,101.0,-135.0,-11279.0,-364.0,158.0,291.0,239.709272684622,284.160669214797,64.9941272736133,767080531
42,-165.0,-176.0,-11281.0,-341.0,158.0,269.0,234.722410316094,287.311172293227,64.9932825473961,767089057
-39,85.0,-104.0,-11283.0,-320.0,159.0,247.0,229.848490343657,290.045978067304,64.9859818986942,767097453
-67,-311.0,-240.0,-11283.0,-301.0,158.0,224.0,221.997899481163,293.045376279795,64.9926332007454,767114686
11,164.0,-87.0,-11288.0,-255.0,161.0,184.0,218.962038306748,294.7835692494,64.9699846476232,767128959
-47,-306.0,-43.0,-11289.0,-231.0,162.0,164.0,214.495904321004,296.119352994299,64.9289372950637,767137659
101,28.0,-229.0,-11289.0,-231.0,162.0,164.0,210.16371880527,296.861457789164,64.957659718424,767146441
203,276.0,-3.0,-11291.0,-192.0,162.0,118.0,207.256848070216,297.459284743876,64.9580593836296,767160548
-213,-93.0,-372.0,-11294.0,-170.0,164.0,98.0,202.822300184362,298.346345126059,64.9000412765641,767170015
-214,-323.0,158.0,-11295.0,-143.0,165.0,80.0,198.230539764284,298.705755468677,64.885875951038,767178155
303,58.0,-3.0,-11297.0,-124.0,167.0,60.0,193.401498997468,299.162250939833,64.8807995303618,767195335
-260,-1.0,-361.0,-11296.0,-104.0,165.0,36.0,188.372675845159,299.531663330053,64.8744899243623,767203027
-297,-315.0,234.0,-11299.0,-84.0,168.0,13.0,184.923319161259,299.80816063347,64.8392988886833,767215521
75,-359.0,-49.0,-11302.0,-37.0,170.0,-26.0,179.655470454289,300.039455756544,64.8358459108196,767232233
75,-359.0,-49.0,-11303.0,-15.0,171.0,-47.0,174.325701820074,300.237779968159,64.8199835815375,767240439
37,220.0,-123.0,-11303.0,1.0,171.0,-69.0,168.888626490688,300.337363669347,64.8053810752439,767249068
-251,-494.0,-246.0,-11303.0,1.0,171.0,-69.0,165.247743295646,300.48101612472,64.8136321841959,767256469
-47,131.0,-560.0,-11306.0,42.0,175.0,-103.0,159.728311488493,300.557176470029,64.7838729905236,767269027
-76,-279.0,-609.0,-11304.0,58.0,173.0,-123.0,154.189771549031,300.626484807035,64.8013201732674,767285360
-88,122.0,53.0,-11306.0,75.0,176.0,-140.0,148.628073462366,300.712303858372,64.8071874695196,767293422
56,164.0,-412.0,-11305.0,92.0,175.0,-160.0,143.024735285209,300.734238343682,64.7951592466582,767303623
125,359.0,-186.0,-11305.0,107.0,175.0,-174.0,137.425536998098,300.769311207425,64.7951437279582,767316174
106,178.0,-88.0,-11304.0,135.0,175.0,-202.0,133.684026880194,300.824691837841,64.8193690875318,767330141
-136,53.0,-215.0,-11305.0,159.0,177.0,-226.0,126.18128891637,300.840447189837,64.816848838067,767347686
37,-20.0,-554.0,-11305.0,159.0,177.0,-226.0,116.797403166745,300.858978995138,64.8577298832251,767355384
-29,96.0,-391.0,-11304.0,190.0,177.0,-258.0,111.161792311638,300.865960539526,64.8415962157193,767386040
-29,96.0,-391.0,-11304.0,190.0,177.0,-258.0,105.51510491858,300.84640193608,64.8363382204057,767386040
112,246.0,-446.0,-11304.0,195.0,177.0,-263.0,99.8636587329392,300.835567198334,64.8400103302678,767394566
-186,66.0,-328.0,-11304.0,204.0,177.0,-277.0,94.2414351776447,300.891836448556,64.9018055543541,767409123
-208,19.0,-447.0,-11305.0,212.0,178.0,-283.0,88.5931328438522,300.849431958139,64.865310137003,767421590
-31,-55.0,-350.0,-11307.0,222.0,180.0,-289.0,84.8308351683457,300.843214034932,64.877109475457,767429120
261,87.0,-43.0,-11308.0,233.0,182.0,-298.0,79.1849402983828,300.863795003998,64.9057471996487,767437749
158,-53.0,-174.0,-11307.0,246.0,181.0,-311.0,73.5377779173807,300.853412355516,64.9150124297209,767450500
89,-60.0,-129.0,-11306.0,265.0,182.0,-328.0,67.9115047937548,300.857557237019,64.9229903546338,767463669
263,-179.0,-252.0,-11305.0,288.0,182.0,-350.0,64.1479182379913,300.828902827497,64.9191796338874,767477490
262,91.0,-108.0,-11305.0,316.0,183.0,-377.0,58.5040590749356,300.839555240237,64.9290633068155,767486717
18,-194.0,-168.0,-11303.0,349.0,183.0,-412.0,54.7350143984051,300.832004050688,64.9354163512662,767495188
-45,-155.0,-277.0,-11301.0,393.0,184.0,-452.0,49.1027843015552,300.831749540228,64.9378932644019,767502961
556,126.0,59.0,-11301.0,501.0,192.0,-542.0,43.4656499489757,300.814744163819,64.950995473959,767521470
317,-89.0,-234.0,-11297.0,561.0,194.0,-603.0,37.8273723583017,300.831691807625,64.9634704933623,767529626
119,-229.0,-207.0,-11294.0,631.0,198.0,-670.0,32.1851477555381,300.819478335502,64.9572785137975,767538224
461,106.0,165.0,-11290.0,708.0,203.0,-741.0,26.553612885969,300.811998471288,64.9613593711963,767555147
461,106.0,165.0,-11287.0,799.0,212.0,-819.0,22.7955783925164,300.80541782434,64.959938448906,767561447
289,-88.0,-229.0,-11280.0,889.0,217.0,-904.0,17.1574266001606,300.811517021324,64.9732861989553,767574107
108,-140.0,-112.0,-11272.0,990.0,225.0,-998.0,11.5207495724057,300.816055268688,64.9753802516964,767585555
41,-316.0,-480.0,-11262.0,1097.0,234.0,-1098.0,7.76360201556214,300.795170490165,64.9729194731266,767593676
257,257.0,176.0,-11251.0,1215.0,245.0,-1205.0,2.13216660456763,300.797095536289,64.9825730622921,767608383
280,39.0,-41.0,-11223.0,1457.0,16.0,-1433.0,-3.50550364251409,300.768648549906,64.9812803407457,767620908
19,164.0,244.0,-11208.0,1586.0,34.0,-1553.0,-9.14005241163442,300.745102017566,64.9783560849163,767628527
63,5.0,-188.0,-11208.0,1586.0,34.0,-1553.0,-14.7713141960175,300.748099334706,64.9815747255318,767637237
-42,-203.0,-396.0,-11173.0,1849.0,73.0,-1793.0,-18.5274694795536,300.770698834139,64.9907435922186,767650311
-115,-347.0,-483.0,-11152.0,1984.0,94.0,-1917.0,-24.161233806117,300.766417669798,64.9878521478663,767663922
-115,-347.0,-483.0,-11129.0,2119.0,118.0,-2045.0,-27.9193848541784,300.768894135052,64.9834708351009,767670282
39,73.0,-91.0,-11105.0,2255.0,144.0,-2171.0,-33.5550268109928,300.767163351427,64.9865652967532,767686333
-81,-345.0,-491.0,-11079.0,2392.0,170.0,-2297.0,-39.1873757199922,300.773020724122,64.987113772566,767694470
131,66.0,-19.0,-11053.0,2531.0,201.0,-2424.0,-42.9457382787849,300.794472972909,64.990589861875,767702363
-113,-251.0,-513.0,-11023.0,2669.0,231.0,-2553.0,-50.4601559617966,300.802977341561,64.9883182590782,767718764
-13,219.0,121.0,-10992.0,2807.0,7.0,-2681.0,-54.2172094993944,300.801629772328,64.971865248247,767725664
138,218.0,118.0,-10926.0,3085.0,79.0,-2938.0,-61.7308526242725,300.80901987479,64.9776375945383,767741927
138,218.0,118.0,-10890.0,3224.0,116.0,-3066.0,-67.3710337143172,300.81944826342,64.9821099700964,767750474
-84,18.0,39.0,-10852.0,3362.0,155.0,-3194.0,-71.1320923668328,300.829590054371,64.9797714631918,767767135
-24,105.0,-2.0,-10812.0,3499.0,195.0,-3322.0,-76.768204979007,300.829338287476,64.9638806126445,767773747
104,151.0,125.0,-10730.0,3776.0,28.0,-3576.0,-82.4061747573637,300.82338627718,64.9509296708221,767790918
4,-133.0,-237.0,-10687.0,3913.0,74.0,-3703.0,-88.0413337515857,300.825760057594,64.9398145627848,767799667
36,112.0,186.0,-10687.0,3913.0,74.0,-3703.0,-91.8058987276302,300.841151035333,64.9418162314018,767807141
-87,-17.0,-330.0,-10592.0,4184.0,170.0,-3956.0,-97.4451950616924,300.84201023244,64.9417077430328,767819678
61,119.0,4.0,-10544.0,4320.0,221.0,-4082.0,-103.086317395909,300.856972080972,64.9329467110301,767830909
-88,-204.0,-361.0,-10494.0,4456.0,18.0,-4206.0,-108.725578803033,300.84224920443,64.9087164950288,767839527
-102,-117.0,-259.0,-10443.0,4589.0,73.0,-4330.0,-112.487741724298,300.857899517475,64.8966395811776,767856169
-149,-157.0,-309.0,-10390.0,4723.0,129.0,-4454.0,-121.893009178329,300.853469063824,64.89608098914,767868786
-68,-11.0,-348.0,-10280.0,4989.0,247.0,-4699.0,-127.554792587797,300.895979674819,64.9044536905473,767883603
119,46.0,8.0,-10222.0,5121.0,52.0,-4820.0,-133.197546022666,300.898539101944,64.8721886059413,767894713
-11,60.0,-94.0,-10163.0,5250.0,114.0,-4941.0,-138.825441533259,300.861233579041,64.8391888524261,767909479
-52,-162.0,-75.0,-10102.0,5382.0,179.0,-5062.0,-144.493987949337,300.904847311149,64.8595166972065,767915701
152,-13.0,24.0,-9976.0,5639.0,54.0,-5300.0,-153.907659869027,300.91845329636,64.8279185570778,767938122
174,-45.0,126.0,-9910.0,5766.0,122.0,-5418.0,-159.561803539606,300.939203902737,64.8014724463093,767946758
-133,-22.0,-100.0,-9774.0,6019.0,7.0,-5652.0,-165.195097741101,300.936030740235,64.7970636271921,767964072
-135,228.0,-186.0,-9706.0,6145.0,82.0,-5768.0,-170.735438597082,300.967578692294,64.8108488764205,767977743
88,-58.0,-126.0,-9635.0,6268.0,155.0,-5882.0,-176.073834665903,300.907148101782,64.7526372092709,767986294
44,128.0,122.0,-9564.0,6393.0,232.0,-5996.0,-179.505800076775,300.891177075032,64.7741813416814,767994997
-275,32.0,-223.0,-9488.0,6514.0,52.0,-6110.0,-184.458709147512,300.854385804633,64.7725625209865,768009576
-9,67.0,-51.0,-9414.0,6637.0,132.0,-6222.0,-189.099739507099,300.783744174504,64.7746735447747,768019261
-130,182.0,-291.0,-9337.0,6755.0,211.0,-6332.0,-192.039266067821,300.742261186039,64.7821322684174,768026262
122,-155.0,104.0,-9260.0,6876.0,38.0,-6443.0,-196.145160694952,300.666814449573,64.7681669213723,768034472
-14,-16.0,-131.0,-9099.0,7111.0,205.0,-6661.0,-199.936956440069,300.616153699811,64.8154329937227,768051179
67,-17.0,40.0,-9099.0,7111.0,205.0,-6661.0,-202.262703233711,300.572740620102,64.8001483801134,768058568
-113,63.0,-123.0,-8935.0,7342.0,123.0,-6876.0,-205.443160191751,300.476853362331,64.8237513008854,768071295
-113,63.0,-123.0,-8935.0,7342.0,123.0,-6876.0,-207.358028429924,300.400600669975,64.8258019557805,768071295
19,34.0,72.0,-8765.0,7571.0,46.0,-7085.0,-209.924465170072,300.34458884179,64.8463370103048,768097194
-131,-137.0,-180.0,-8677.0,7683.0,137.0,-7191.0,-212.126077115059,300.270291615984,64.8731941103939,768104987
-116,284.0,201.0,-8588.0,7793.0,228.0,-7292.0,-213.943801690888,300.167430371084,64.8988972642565,768117434
-118,-168.0,-376.0,-8411.0,8012.0,165.0,-7493.0,-215.404551022149,300.120869245817,64.9350836128907,768131435
6,-176.0,-426.0,-8319.0,8119.0,6.0,-7593.0,-216.487297363362,300.059438496597,64.9601785762036,768140036
81,264.0,191.0,-8225.0,8225.0,103.0,-7692.0,-217.281805692469,300.019681873613,65.0900133460201,768148808
-97,-15.0,-212.0,-8225.0,8225.0,103.0,-7692.0,-217.905426906354,299.988875324164,65.4461379677668,768159906
