ACC_X,ACC_Y,ACC_Z,QUAT_W,QUAT_X,QUAT_Y,QUAT_Z,X_pos,Y_pos,dt
-0.26,0.32,0.13,-0.7000709360769655,-0.0644158245097033,-0.7111433617524225,0.0051385842913723,257.5,0.0,
-1.47,0.49,2.03,-0.7001212943336634,-0.0639310339547953,-0.7111333384598483,0.0056895561318621,257.4948961662979,1.6212489961333867,6721.0
-1.47,0.49,2.03,-0.6999476786311148,-0.0636260454310252,-0.7113269521408944,0.0062402467634274,257.48167301145975,3.072143098838107,6015.0
1.66,-0.68,-0.76,-0.6999476786311148,-0.0636260454310252,-0.7113269521408944,0.0062402467634274,257.4576830014166,4.668132768255319,6617.0
0.3,-0.58,-1.56,-0.7001198360971296,-0.0631967660510603,-0.7111930351825526,0.0065460348184544,257.4185855050988,6.474707449307554,7491.0
0.3,-0.58,-1.56,-0.7000869442621085,-0.0625263354920803,-0.7112829514979702,0.0067298404149988,257.36589451309607,8.309412823655027,7609.0
-1.95,0.74,0.79,-0.7000773565400348,-0.06198027986148,-0.7113353738100371,0.0072198154231536,257.2947221994421,10.279879781005056,8174.0
-0.44,0.77,0.05,-0.7000773565400348,-0.06198027986148,-0.7113353738100371,0.0072198154231536,257.21969119133144,12.011680291953343,7186.0
-0.44,0.77,0.05,-0.7001420405191423,-0.061797034075359,-0.7112777436891575,0.0081376292396264,257.1524122841397,13.374859118802869,5658.0
0.21,0.91,0.99,-0.7001420405191423,-0.061797034075359,-0.7112777436891575,0.0081376292396264,257.0778952271616,14.737903024939714,5659.0
0.15,-0.01,-0.03,-0.7002327604393183,-0.0616772651627781,-0.7111853700267561,0.009239352221805,256.99526308968404,16.114737027456385,5718.0
0.15,-0.01,-0.03,-0.7004142938604487,-0.0615600890812171,-0.7110006710086103,0.0104027983536848,256.885198997846,17.783265612285074,6932.0
0.22,0.72,1.04,-0.7003596910641342,-0.062606428168351,-0.7109470928951457,0.0114441857942147,256.7372545620826,19.804850919014353,8403.0
-0.16,1.03,1.68,-0.7003596910641342,-0.062606428168351,-0.7109470928951457,0.0114441857942147,256.565718362465,21.9153407719859,8778.0
0.18,-1.67,-0.91,-0.7000437574453684,-0.0638350794732924,-0.7111215612657577,0.0130363105731651,256.41180141245525,23.648215501800763,7212.0
0.18,-1.67,-0.91,-0.7003478227110624,-0.0643913572358012,-0.7107532701731215,0.0140167498165384,256.2808878577545,25.02711567162801,5742.0
0.74,-0.58,-0.2,-0.7003478227110624,-0.0643913572358012,-0.7107532701731215,0.0140167498165384,256.14248486619397,26.406011561225725,5745.0
0.74,-0.58,-0.2,-0.7002926262794477,-0.0647591642866581,-0.7107593721140587,0.0147513786324051,255.9968450951271,27.78246391775742,5738.0
-1.42,0.32,2.34,-0.7001978546439427,-0.0653738358912257,-0.710787436675012,0.0151804412930936,255.81191705175277,29.43659447536625,6900.0
2.94,-0.6,-2.24,-0.7001978546439427,-0.0653738358912257,-0.710787436675012,0.0151804412930936,255.5798085374995,31.388078436487586,8147.0
-3.02,-0.26,0.71,-0.7007827616880065,-0.0659891524370781,-0.7101485690376104,0.0154260356346416,255.34544310883055,33.24085864647571,7742.0
0.49,2.25,1.24,-0.7007328986455207,-0.0677042531582026,-0.7100376422983659,0.0153650701109483,255.11435015903018,34.97024939767707,7233.0
0.49,2.25,1.24,-0.7007328986455207,-0.0677042531582026,-0.7100376422983659,0.0153650701109483,254.8959994812583,36.527790084405154,6520.0
-1.17,4.11,2.7,-0.7004827025961746,-0.0719401429552054,-0.7100339045544828,0.0006734821893678,254.69643197694282,37.89429426990998,5725.0
-1.17,4.11,2.7,-0.6996825984614887,-0.0753815227293972,-0.7104601354236121,0.0028780922569306,254.4885087888493,39.26638377069857,5753.0
4.38,0.33,-3.5,-0.6996825984614887,-0.0753815227293972,-0.7104601354236121,0.0028780922569306,254.25015987193808,40.78119916203942,6357.0
0.39,0.52,-0.27,-0.7005316595355269,-0.0766799823167056,-0.7094735744063249,0.0047771873967276,253.94790496746256,42.62289950996537,7737.0
-2.59,3.28,1.83,-0.7014196998223726,-0.0782826282746478,-0.7084026572741018,0.0069217034389946,253.62539233290752,44.50180180598008,7903.0
-2.59,3.28,1.83,-0.7014783393937981,-0.0806381459331095,-0.7080347843898792,0.0106006073301124,253.28837005295392,46.3815868197486,7917.0
2.53,3.34,3.1,-0.7014783393937981,-0.0806381459331095,-0.7080347843898792,0.0106006073301124,252.97319602912927,48.070906906441124,7124.0
-0.8,-2.01,0.5,-0.7006909001624188,-0.081886200368876,-0.7085975766950423,0.0147100958746483,252.71086964490075,49.43143092525217,5744.0
-0.8,-2.01,0.5,-0.7006909001624188,-0.081886200368876,-0.7085975766950423,0.0147100958746483,252.44094074985958,50.79194260240374,5750.0
2.22,-3.19,-2.12,-0.7006038483959081,-0.0835745707477352,-0.7086363273159032,0.002023448888243,252.1502929453043,52.21570422389438,6024.0
2.22,-3.19,-2.12,-0.7011455597463782,-0.0842086121004003,-0.7080147254821719,0.0043545604217978,251.80398241734525,53.86097324376239,6970.0
-2.31,-1.72,-0.33,-0.7012350673944118,-0.0861284257389339,-0.7076762958150585,0.0067479535835347,251.3888246242153,55.76655677066259,8085.0
4.36,1.34,0.23,-0.7012350673944118,-0.0861284257389339,-0.7076762958150585,0.0067479535835347,250.92987883781902,57.796590785594475,8628.0
-5.07,-1.79,6.36,-0.7021052719377459,-0.0925340631080336,-0.7059710849190497,0.0095111271762236,250.53813212527817,59.47179458513639,7132.0
-5.07,-1.79,6.36,-0.7011607257953482,-0.0993065523754265,-0.7059480626836567,0.0122138466765821,250.20469124103596,60.85936641945806,5916.0
-2.59,1.81,-1.14,-0.7011607257953482,-0.0993065523754265,-0.7059480626836567,0.0122138466765821,249.86210770891086,62.25092072620801,5941.0
-2.59,1.81,-1.14,-0.7011432957973264,-0.1043028158269553,-0.7051950826393387,0.0147951610443179,249.52221463157946,63.59964155049935,5766.0
4.65,-1.2,-3.42,-0.7026212964725373,-0.1065415092973127,-0.7035424046220817,0.0005526648897266,249.09032215928195,65.27067800004167,7155.0
-4.11,5.14,3.1,-0.7037344722899961,-0.1060085267212893,-0.7025061000220785,0.0022724886956475,248.56118800550422,67.25760787667356,8524.0
1.86,6.44,1.49,-0.7037344722899961,-0.1060085267212893,-0.7025061000220785,0.0022724886956475,248.03312683861878,69.17960675414139,8263.0
3.53,2.12,0.07,-0.7046143135367888,-0.1063649931745165,-0.7015419567148791,0.0066362907353251,247.55988500350236,70.85445178005888,7215.0
3.53,2.12,0.07,-0.7050409646136763,-0.105620890931836,-0.7011677887529628,0.0111891747087276,247.1472301416019,72.28067953010729,6155.0
-10.52,-4.36,4.37,-0.7050409646136763,-0.105620890931836,-0.7011677887529628,0.0111891747087276,246.75499389656406,73.60857957539076,5740.0
-10.52,-4.36,4.37,-0.7033052255690697,-0.1050406895131139,-0.7029362301726536,0.0144523196929635,246.35372760432753,74.94058243337045,5767.0
5.19,0.72,1.04,-0.7024534249283828,-0.1066971127212522,-0.7036840721339336,0.0019075031686037,245.85543239395847,76.55949557291841,7022.0
-2.95,-3.31,-0.81,-0.7024534249283828,-0.1066971127212522,-0.7036840721339336,0.0019075031686037,245.2672074065217,78.4235103206065,8103.0
1.75,-0.34,-2.16,-0.7021924958894723,-0.1080248799339081,-0.7037313118429468,0.0043086846697285,244.69919786346176,80.17825493847067,7646.0
1.75,-0.34,-2.16,-0.7025130020845675,-0.1097176310004118,-0.7031287014728975,0.0068958331492963,244.13367320762384,81.8840619788316,7450.0
1.47,0.09,1.02,-0.7025130020845675,-0.1097176310004118,-0.7031287014728975,0.0068958331492963,243.61859649295423,83.4040133494975,6653.0
2.28,0.32,-0.35,-0.7023296191925495,-0.1119022201046003,-0.7029454817137637,0.0088684203054829,243.1730268425077,84.69432694255869,5659.0
2.28,0.32,-0.35,-0.7022864492326614,-0.1142039362229062,-0.7025944425881708,0.0105949714295252,242.71433983733752,85.99999556584544,5737.0
1.13,0.73,-0.88,-0.7022864492326614,-0.1142039362229062,-0.7025944425881708,0.0105949714295252,242.21149024848685,87.40620110499687,6191.0
-2.28,-0.7000000000000001,0.6,-0.7024802316435454,-0.116515228316634,-0.7019873062990013,0.0126312119539449,241.64737165013258,88.95390814676279,6829.0
-2.28,-0.7000000000000001,0.6,-0.7023120290995144,-0.1194349519476008,-0.7016341217355188,0.014236054643909,240.99663822879612,90.70209679174333,7733.0
1.42,-0.63,-0.07,-0.7023279769029115,-0.1222940763713688,-0.701095173713684,0.0156566005031893,240.26616476225374,92.61976069088901,8507.0
1.17,0.91,-0.86,-0.7023279769029115,-0.1222940763713688,-0.701095173713684,0.0156566005031893,239.6399679238993,94.22810500817964,7155.0
1.17,0.91,-0.86,-0.7029167657384013,-0.124983533697521,-0.7002037536601128,0.0013565060391442,239.12579914797752,95.52540071541765,5785.0
0.06,0.1,-0.7000000000000001,-0.7029167657384013,-0.124983533697521,-0.7002037536601128,0.0013565060391442,238.60460749574378,96.81989094087048,5785.0
-0.51,0.5,0.3,-0.7036936288444204,-0.1276022890516306,-0.6989447761344274,0.0030219971790864,238.08302523386985,98.09547948549151,5713.0
-0.51,0.5,0.3,-0.704232792665861,-0.1307173517570917,-0.6978172171195007,0.0045032405277336,237.4346480666622,99.65459295717513,7000.0
-0.63,-1.09,0.65,-0.7046427187955415,-0.134129521991201,-0.6967454884299142,0.0057995285497575,236.64188452919416,101.52274861562579,8413.0
-0.31,-0.38,1.03,-0.7046427187955415,-0.134129521991201,-0.6967454884299142,0.0057995285497575,235.8300640199197,103.39454001232649,8458.0
-1.24,0.63,1.24,-0.7050129272845553,-0.1378554817990106,-0.6956333242257149,0.0068495785495479,235.127223300309,104.98304083558753,7201.0
-1.24,0.63,1.24,-0.7049247576095948,-0.1411454141702979,-0.695050133093964,0.00802313241895,234.5340284631426,106.30164388592411,5994.0
-1.46,4.8,1.68,-0.7049247576095948,-0.1411454141702979,-0.695050133093964,0.00802313241895,233.95631846149598,107.5671467128466,5767.0
-1.46,4.8,1.68,-0.7046928983757037,-0.1436057194341937,-0.6947528636255296,0.0101869921352716,233.37402295280336,108.82470037093788,5745.0
2.71,2.41,-0.92,-0.7046928983757037,-0.1436057194341937,-0.6947528636255296,0.0101869921352716,232.6729616353652,110.31565130944874,6830.0
0.27,2.53,0.65,-0.7045919445359269,-0.1449576870464428,-0.6945245806720282,0.0131555122884074,231.8368617676515,112.06212351069763,8027.0
-3.19,-2.97,0.71,-0.7042929393370058,-0.1458031631326017,-0.6947746319514947,0.0010507222438551,231.02218344449682,113.73214478122388,7703.0
-3.19,-2.97,0.71,-0.7030790833001319,-0.1459209072718592,-0.6959685306152744,0.0038335153605318,230.22897729594786,115.32938920007305,7393.0
0.51,-0.58,1.07,-0.7030790833001319,-0.1459209072718592,-0.6959685306152744,0.0038335153605318,229.50649123076855,116.76052621901442,6646.0
-0.1,0.56,1.78,-0.7017120894025267,-0.1477158382839592,-0.6969490577660673,0.0064950431406263,228.88042006928316,117.98306365283314,5694.0
-0.1,0.56,1.78,-0.7017120894025267,-0.1477158382839592,-0.6969490577660673,0.0064950431406263,228.23946113336717,119.21828040007196,5769.0
2.24,-3.01,-5.22,-0.7004637053156598,-0.1503159590256858,-0.6976170465609536,0.0092825828957813,227.50771770533916,120.60882382523972,6514.0
-1.55,-1.77,0.25,-0.7007839702937172,-0.1523524161566111,-0.6968219407796892,0.0113908348528307,226.68642560193655,122.14546429490407,7223.0
-1.55,-1.77,0.25,-0.7009303216930597,-0.1562232510275256,-0.6957909915958403,0.0128792850629113,225.81523547793256,123.74865423933248,7564.0
0.11,-0.28,1.5,-0.7011915928655389,-0.1600458507167699,-0.6946262445002225,0.0144933162026796,224.8474067099809,125.49858045331204,8290.0
-0.77,4.21,4.96,-0.7011915928655389,-0.1600458507167699,-0.6946262445002225,0.0144933162026796,223.99999058436276,127.00493777095986,7165.0
-0.77,4.21,4.96,-0.7008706529692171,-0.1634745165811489,-0.6943019271323704,0.0011154440100305,223.3125078869285,128.2098819173097,5751.0
-0.92,3.96,-0.75,-0.7008706529692171,-0.1634745165811489,-0.6943019271323704,0.0011154440100305,222.61866482872333,129.41089625636835,5750.0
1.61,-1.36,-7.87,-0.7001728585563007,-0.1661910602188367,-0.6943437691307147,0.0050229387603454,221.92154365572492,130.6027505891824,5724.0
1.61,-1.36,-7.87,-0.7004800183924166,-0.1688995136915721,-0.6933442931629783,0.0086249200599296,221.08508614614348,132.01376702356583,6800.0
0.67,1.08,-1.33,-0.7002191741778273,-0.1726023500810746,-0.6926445386706722,0.0120449121999023,220.0410615520092,133.74670549611642,8387.0
0.85,0.16,1.45,-0.7002191741778273,-0.1726023500810746,-0.6926445386706722,0.0120449121999023,218.92797674591267,135.56102315171984,8824.0
2.45,-1.1,-1.88,-0.6992752713337601,-0.1761855605457128,-0.692627931778615,0.0154690425161785,218.01507992914424,137.02435886910345,7150.0
2.45,-1.1,-1.88,-0.6993968069519372,-0.1792942569999455,-0.6918744057393875,0.0027354186227453,217.27538800225224,138.19426821858696,5738.0
-2.43,1.06,2.89,-0.6993968069519372,-0.1792942569999455,-0.6918744057393875,0.0027354186227453,216.52902653448058,139.3607931522715,5741.0
-2.43,1.06,2.89,-0.6990025132697175,-0.1825107567796877,-0.6914134497635409,0.0057229003489199,215.77653384158722,140.52308509035217,5740.0
0.53,0.11,1.17,-0.6987178634690597,-0.1852750583011838,-0.6909384270271222,0.0084017913572925,214.85467319572632,141.92857149269716,6968.0
-0.37,0.68,-0.01,-0.6987178634690597,-0.1852750583011838,-0.6909384270271222,0.0084017913572925,213.75850076380738,143.5742085167436,8197.0
0.02,-0.86,-2.27,-0.6986129078969516,-0.1886796604802356,-0.6900818473405845,0.0112709632168061,212.736202977031,145.08465784815243,7561.0
0.02,-0.86,-2.27,-0.6986155948499388,-0.1923326800411808,-0.6890207672741883,0.0139561128374553,211.7618517804323,146.50313351775864,7134.0
-0.89,2.97,0.64,-0.6986155948499388,-0.1923326800411808,-0.6890207672741883,0.0139561128374553,210.84674820840954,147.81711257476098,6638.0
0.32,0.7000000000000001,0.92,-0.6984091101871653,-0.1956617969616395,-0.6884327279329071,0.0012470477817822,210.03100507048075,148.9739135187221,5868.0
0.32,0.7000000000000001,0.92,-0.6979923592361058,-0.1987846300640237,-0.6879470593490035,0.0044923080240457,209.20553994099018,150.1309163963198,5892.0
-0.43,0.26,-0.65,-0.6979923592361058,-0.1987846300640237,-0.6879470593490035,0.0044923080240457,208.29232360528954,151.3953695695788,6466.0
-0.6900000000000001,0.31,0.8300000000000001,-0.6977651373950086,-0.2017874842573969,-0.6872761840053914,0.007554543810379,207.2557145609213,152.81138302443935,7275.0
-0.6900000000000001,0.31,0.8300000000000001,-0.6973557473553262,-0.2052957342599536,-0.6866098963837158,0.0107458509716104,206.1443041699802,154.30740701040466,7726.0
0.96,0.05,-0.56,-0.6971060525729645,-0.208863000775381,-0.6857283015579633,0.0140033858646169,204.93464063807986,155.91036869477622,8325.0
0.28,-0.16,-0.88,-0.6971060525729645,-0.208863000775381,-0.6857283015579633,0.0140033858646169,203.88163255535542,157.28486865100228,7178.0
0.19,-0.13,0.49,-0.6969817275740435,-0.2124104995613893,-0.6849065504266655,0.0011261823246259,203.03309082742862,158.37870446831263,5739.0
0.19,-0.13,0.49,-0.6969817275740435,-0.2124104995613893,-0.6849065504266655,0.0011261823246259,202.1803239342221,159.46587915241625,5728.0
0.55,0.41,-0.64,-0.6964653245326445,-0.216127139543931,-0.6842565203000065,0.0042574291683045,201.31195928164968,160.56072075754838,5793.0
0.55,0.41,-0.64,-0.6962505988624836,-0.2195949202747237,-0.6833443068292188,0.0073302726596698,200.26628319054328,161.8631082644996,6924.0
-0.38,0.07,1.33,-0.6957627237519328,-0.223123043236,-0.6826599656636148,0.0102815900788715,199.01777410405495,163.39576368641676,8195.0
-0.71,-0.45,0.6900000000000001,-0.6957627237519328,-0.223123043236,-0.6826599656636148,0.0102815900788715,197.6957242792015,164.99288045767895,8595.0
-0.96,0.26,0.1,-0.6954663349241536,-0.2265315655250873,-0.6817903777697728,0.0131113534186494,196.58258610740074,166.3175782631721,7173.0
-0.96,0.26,0.1,-0.6950600013746167,-0.2299498541397417,-0.6809980938323557,0.0160079751039132,195.67915956783196,167.3795582227022,5780.0
-0.35,0.87,-0.28,-0.6950600013746167,-0.2299498541397417,-0.6809980938323557,0.0160079751039132,194.7704694320633,168.43608353679357,5777.0
-0.35,0.87,-0.28,-0.6946344826809818,-0.233597232869744,-0.6803723600716671,0.0029529504962017,193.8592503471847,169.48404365847412,5757.0
1.33,0.36,-1.35,-0.6943071678661812,-0.2371157697901982,-0.6794677826446254,0.0060992388410631,192.75953058675762,170.7337499382382,6901.0
-0.78,0.33,0.66,-0.6943071678661812,-0.2371157697901982,-0.6794677826446254,0.0060992388410631,191.45637155184636,172.19380880914784,8113.0
-0.67,0.74,0.14,-0.6938762845439909,-0.2406041813652721,-0.678649764698176,0.0089345694963045,190.16671447868723,173.61702308351406,7962.0
0.2,1.28,0.84,-0.6934984974854391,-0.2440530394274162,-0.6777572023727317,0.0119633842856576,188.95794559159455,174.93182900148273,7404.0
0.2,1.28,0.84,-0.6934984974854391,-0.2440530394274162,-0.6777572023727317,0.0119633842856576,187.88019511164174,176.08884770141302,6555.0
0.67,0.34,-0.97,-0.692894682299841,-0.2474533846299995,-0.6770783340589115,0.0151232015052711,186.923822620001,177.10373947809913,5781.0
0.67,0.34,-0.97,-0.6925460293872355,-0.2507168002563079,-0.6763992367166406,0.0022706427193024,185.98382450922713,178.09061463457584,5650.0
0.13,1.0,-0.2,-0.6925460293872355,-0.2507168002563079,-0.6763992367166406,0.0022706427193024,184.85281414139718,179.26429400191793,6757.0
0.34,-0.27,-0.39,-0.6919738206632994,-0.2539741520416433,-0.6757492725462965,0.005681748367822,183.56728408939213,180.58045910907524,7627.0
0.78,-0.17,0.28,-0.6916053893881776,-0.2572195816005181,-0.6748617909789079,0.0090352248019833,182.32076738962402,181.8389061187363,7343.0
0.78,-0.17,0.28,-0.6913069320042209,-0.2603467470784282,-0.6739167557966504,0.0122679788518861,180.9510158672743,183.2020192481552,8011.0
-0.45,0.2,0.66,-0.6913069320042209,-0.2603467470784282,-0.6739167557966504,0.0122679788518861,179.71037054474334,184.41917665652625,7205.0
-0.43,0.25,0.74,-0.690942966679178,-0.2634152814251844,-0.6730317401911128,0.015442894922572,178.71421462777172,185.3846797607039,5751.0
-0.43,0.25,0.74,-0.690942966679178,-0.2634152814251844,-0.6730317401911128,0.015442894922572,177.69716003554464,186.3597845977024,5841.0
-0.86,0.8,0.48,-0.6907209221108035,-0.266329519999433,-0.6722856484857238,0.0022806524072263,176.64459892252233,187.3577745157676,6013.0
-0.86,0.8,0.48,-0.690078983566973,-0.2692728264616808,-0.6717554971418669,0.0052624545788367,175.45829407620823,188.46919387493236,6739.0
0.65,0.61,-0.61,-0.6895436738547136,-0.2722383913893541,-0.6710771535996316,0.0084400247213948,174.05942271386598,189.7618701544536,7896.0
0.8,0.39,-1.33,-0.6895436738547136,-0.2722383913893541,-0.6710771535996316,0.0084400247213948,172.5192665058287,191.16315723562127,8632.0
-0.18,-0.27,-0.66,-0.6890560415986668,-0.2752032287074406,-0.6703196113035607,0.0116864514383035,171.22507947481128,192.32322313970448,7205.0
-0.18,-0.27,-0.66,-0.6884746227388336,-0.2782505469739496,-0.6695940167412866,0.014939200031729,170.18881744316602,193.24082492397073,5738.0
-0.14,-0.03,0.27,-0.6884746227388336,-0.2782505469739496,-0.6695940167412866,0.014939200031729,169.14745614891368,194.1530017237728,5739.0
-0.14,-0.03,0.27,-0.6880211393185213,-0.2816483132282441,-0.6688033827448815,0.0017817787551719,168.1030331452164,195.05799201103827,5729.0
-0.31,-0.68,-0.47,-0.6878235415559404,-0.2845551466362909,-0.6677620215938921,0.0045854902770396,166.81334883805184,196.16206730516078,7038.0
1.64,1.38,-1.92,-0.6878235415559404,-0.2845551466362909,-0.6677620215938921,0.0045854902770396,165.26015683698213,197.47235391876015,8424.0
-0.88,-0.13,2.15,-0.6883774335966966,-0.2868133055891403,-0.6661922745958028,0.0079050566554908,163.75159761284544,198.7250972555826,8129.0
-2.02,0.09,2.88,-0.6884845203758598,-0.289495298326717,-0.66487569066881,0.0110387230792422,162.4103147762553,199.82277061005254,7185.0
-2.02,0.09,2.88,-0.6884845203758598,-0.289495298326717,-0.66487569066881,0.0110387230792422,161.23890657567912,200.76918340791104,6243.0
0.0,-0.37,3.89,-0.6874923997415207,-0.2927238677703075,-0.664439756577236,0.0136655557815981,160.16286721073513,201.62863379697941,5709.0
0.0,-0.37,3.89,-0.6857000710057197,-0.2963911397320157,-0.6646114388126267,0.0161040464019982,159.0801602865277,202.48395640942186,5720.0
2.0,2.51,-4.76,-0.6857000710057197,-0.2963911397320157,-0.6646114388126267,0.0161040464019982,157.78498913232534,203.49483336073172,6811.0
-3.35,-0.6900000000000001,-0.94,-0.6855972116759971,-0.2983333144872316,-0.6640363437836109,0.0030709841508443,156.34542796171272,204.60292557895866,7531.0
2.01,1.63,-3.0700000000000003,-0.6851974200849121,-0.3012665976543792,-0.6631066706288524,0.0056987730480849,154.97688730887063,205.6414705258976,7122.0
2.01,1.63,-3.0700000000000003,-0.6847396246869681,-0.3039797865865116,-0.6623080570493382,0.0087162662820505,153.45310581751937,206.78102987207797,7888.0
1.65,0.47,-1.49,-0.6847396246869681,-0.3039797865865116,-0.6623080570493382,0.0087162662820505,152.05101996157984,207.81418943046992,7220.0
-1.89,0.34,1.22,-0.6844255706206729,-0.3072472869987254,-0.6610724671611748,0.0119973361179289,150.92922613841193,208.63033982923028,5751.0
-1.89,0.34,1.22,-0.6844255706206729,-0.3072472869987254,-0.6610724671611748,0.0119973361179289,149.78500055045302,209.45334470974862,5843.0
0.95,0.9,0.25,-0.6837293188230842,-0.3110078980990134,-0.6599686493420528,0.0151554540473605,148.5643814249545,210.32088477329262,6208.0
-0.35,0.76,1.28,-0.6832777327640329,-0.3143154719122465,-0.6590402746108488,0.0018001295180083,147.19309822289293,211.28284794451676,6944.0
-0.35,0.76,1.28,-0.6826050214897654,-0.3174592788732924,-0.6582147789004734,0.0048265651561923,145.62028346022785,212.36992029231186,7926.0
-0.15,0.45,-0.9,-0.6819583319928804,-0.32030009698362,-0.6574784372113487,0.0079237554161273,143.9106446649823,213.5321436039764,8570.0
1.46,1.43,-1.42,-0.6819583319928804,-0.32030009698362,-0.6574784372113487,0.0079237554161273,142.4816016159261,214.48832882224738,7128.0
1.46,1.43,-1.42,-0.6814445823605813,-0.323179897994404,-0.6565498626188451,0.0114154543893453,141.31753737287744,215.25706406728068,5783.0
-1.21,0.47,0.78,-0.6814445823605813,-0.323179897994404,-0.6565498626188451,0.0114154543893453,140.150337470873,216.01882535279282,5778.0
1.76,-0.06,-0.55,-0.6805488598470892,-0.3263922662739123,-0.6558192380898373,0.014915254897977,138.99243391337228,216.76566452009146,5712.0
1.76,-0.06,-0.55,-0.6798125914400113,-0.3296590017834158,-0.6551156432773784,0.0018102475093029,137.60450941636768,217.6493716698506,6821.0
-0.34,-0.66,-0.65,-0.6798125914400113,-0.3296590017834158,-0.6551156432773784,0.0018102475093029,135.9220005518038,218.7040460668148,8232.0
-0.25,0.34,1.3,-0.6792880173527129,-0.3329449796343359,-0.6539805743050797,0.0049838187075901,134.26187380750815,219.72710174599933,8084.0
1.43,0.3,-0.56,-0.6784691879130085,-0.3364486719664107,-0.6530071567012236,0.0079690326693372,132.7571637717663,220.63949208443267,7295.0
1.43,0.3,-0.56,-0.6779289479715436,-0.339548224515024,-0.6519196188348626,0.0109615377159577,131.41930001397319,221.43897033683413,6461.0
-0.94,0.45,0.54,-0.6779289479715436,-0.339548224515024,-0.6519196188348626,0.0109615377159577,130.22148943418816,222.14547866103783,5765.0
-0.94,0.45,0.54,-0.6774025849821338,-0.3425317268895666,-0.6508492346603308,0.0138934400216768,129.0338673860701,222.8374094881604,5698.0
0.31,0.97,0.21,-0.6774025849821338,-0.3425317268895666,-0.6508492346603308,0.0138934400216768,127.60064433527748,223.6611847532379,6853.0
0.12,0.09,-1.34,-0.6768428045454766,-0.3452788800293452,-0.6501278911998326,0.0001949993674864,125.98337908415695,224.57613006403332,7703.0
-2.08,1.36,1.75,-0.6765988621436665,-0.3479632697780306,-0.648941411301014,0.0032538177461944,124.42692936125763,225.4422082258081,7384.0
-2.08,1.36,1.75,-0.6758169088095242,-0.3509400184003178,-0.648124835318968,0.0068415710976667,122.78311284538617,226.34168241841178,7768.0
0.91,-0.54,-0.47,-0.6758169088095242,-0.3509400184003178,-0.648124835318968,0.0068415710976667,121.3049679542277,227.13730373856205,6959.0
2.09,-0.72,-2.3000000000000003,-0.6750680928224023,-0.3539736636697289,-0.6472120746898969,0.010111669345523,120.07418339279508,227.79034326009833,5776.0
2.09,-0.72,-2.3000000000000003,-0.6750680928224023,-0.3539736636697289,-0.6472120746898969,0.010111669345523,118.82190723867052,228.44606444446526,5860.0
-2.32,0.48,1.15,-0.6748250539854161,-0.3566148659272524,-0.645956231505591,0.0133240719137654,117.51217911894987,229.12253874011574,6111.0
0.72,0.53,-0.94,-0.6740435381946509,-0.3597776044962136,-0.6449448406299808,0.016478363564712,116.05391809735379,229.8646081811045,6783.0
0.72,0.53,-0.94,-0.6733972066495215,-0.3631525581561889,-0.6439311678521388,0.0030120839659546,114.35458421337627,230.71471359535315,7877.0
-0.95,0.51,-0.54,-0.672613432174693,-0.3660097658802044,-0.6431070913208607,0.0064258253415012,112.45115567919174,231.64841373601976,8789.0
0.74,0.14,-0.39,-0.672613432174693,-0.3660097658802044,-0.6431070913208607,0.0064258253415012,110.85024620773447,232.41874475972168,7365.0
0.74,0.14,-0.39,-0.6720186270688719,-0.3687042408771771,-0.642146755701508,0.0097822172170048,109.58885467475,233.0161645274347,5786.0
-3.14,0.54,1.62,-0.6720186270688719,-0.3687042408771771,-0.642146755701508,0.0097822172170048,108.32774494694945,233.60511482993832,5770.0
1.3,1.44,1.57,-0.6716799527596412,-0.3710081868639083,-0.6411131903762752,0.0131469945734907,107.09023435553821,234.1750023074109,5648.0
1.3,1.44,1.57,-0.6705569333818695,-0.3741112690756327,-0.6404121478018837,0.0163229406633984,105.55123591841567,234.87270296076332,7005.0
0.67,-0.59,-0.5700000000000001,-0.6695944771226784,-0.3772112602198138,-0.6398024992056147,0.0027682811338864,103.6792341118073,235.70504112977528,8493.0
-0.87,-1.46,-1.61,-0.6695944771226784,-0.3772112602198138,-0.6398024992056147,0.0027682811338864,101.8104184806103,236.51826290754593,8449.0
-1.44,-0.23,1.1,-0.6689999127666372,-0.380296557237535,-0.6385788277611706,0.0055431044261587,100.21882795249171,237.1970415579184,7173.0
-1.44,-0.23,1.1,-0.6682649062598683,-0.3838097178103831,-0.6372166158345879,0.0081914638568825,98.8833632181166,237.75687262132726,6003.0
0.58,-0.27,-0.14,-0.6682649062598683,-0.3838097178103831,-0.6372166158345879,0.0081914638568825,97.59455294790112,238.2888021601085,5780.0
0.58,-0.27,-0.14,-0.6672402648562732,-0.3878073682867944,-0.635832165975416,0.0106456924627747,96.31093517002216,238.8104976056869,5744.0
-0.2,-0.37,-0.74,-0.6672402648562732,-0.3878073682867944,-0.635832165975416,0.0106456924627747,94.802084247198,239.41348087020322,6736.0
-0.1,0.21,-0.76,-0.6665428560098824,-0.3914144027844746,-0.6343110646409207,0.0128397690463625,93.07785184129894,240.08907408836663,7677.0
-0.84,1.06,-0.17,-0.6659221926611871,-0.3949296839397192,-0.6327353809111369,0.0149704979151923,91.38782155021252,240.7374421902553,7504.0
-0.84,1.06,-0.17,-0.665198602771016,-0.3984825445171004,-0.6314446312018357,0.0003978857159431,89.64985947438373,241.39004266171222,7696.0
0.8300000000000001,0.5700000000000001,-1.71,-0.665198602771016,-0.3984825445171004,-0.6314446312018357,0.0003978857159431,88.08587770041727,241.96513829423267,6908.0
2.06,1.61,-0.76,-0.6644546588364185,-0.4015672126387746,-0.6302660136869774,0.0029209716244182,86.79487950927795,242.43122507418454,5690.0
2.06,1.61,-0.76,-0.6644546588364185,-0.4015672126387746,-0.6302660136869774,0.0029209716244182,85.48662521822504,242.89562966179267,5755.0
-1.86,1.04,0.28,-0.6639637364385373,-0.4038021522538907,-0.6293331321053229,0.005982254107465,84.01309669097247,243.4092224719378,6469.0
-0.01,-0.26,-0.52,-0.6632199044576517,-0.406292081173174,-0.6284747428632224,0.0092520641027311,82.38611700527,243.96470589983699,7127.0
-0.01,-0.26,-0.52,-0.6621477585488363,-0.4090598745937395,-0.62775393497211,0.0124644283117205,80.6578817243803,244.5415222732857,7553.0
0.6900000000000001,-0.91,-1.22,-0.6613881702604885,-0.411715804473961,-0.6267503841489654,0.0154835575681567,78.7547575639505,245.16104535803274,8297.0
-0.17,-0.5,-0.5,-0.6613881702604885,-0.411715804473961,-0.6267503841489654,0.0154835575681567,77.11274685357213,245.6824663517869,7142.0
-0.17,-0.5,-0.5,-0.6608778387920319,-0.4146776205586568,-0.6255249844365879,0.001202932662378,75.78871897580122,246.09412848746928,5748.0
-1.02,-0.32,0.72,-0.6608778387920319,-0.4146776205586568,-0.6255249844365879,0.001202932662378,74.46618830775425,246.49753913358666,5732.0
-1.02,-0.17,-0.21,-0.659940688603038,-0.4182166711737217,-0.6241470685297792,0.0036797179514565,73.1609384380396,246.88808615821335,5648.0
-1.02,-0.17,-0.21,-0.6588943326898125,-0.4219388387828642,-0.6227281465084241,0.0059607232780436,71.58211366530574,247.3504619021506,6820.0
1.62,0.21,-1.0,-0.6588943326898125,-0.4219388387828642,-0.6227281465084241,0.0059607232780436,69.68204724632665,247.89244097301696,8191.0
-0.89,-0.06,-1.39,-0.6580939782682627,-0.4254548070589237,-0.6211532914278172,0.0083133306138207,67.81581011863113,248.40947223878916,8028.0
0.49,1.06,-0.67,-0.6576183739386852,-0.4286364480402472,-0.6194323493676971,0.010603500671733,66.15207753777601,248.8576955559865,7143.0
0.49,1.06,-0.67,-0.6570611282109023,-0.4316352068337086,-0.6178887549879801,0.0132366338334745,64.65304750776151,249.25134593008545,6425.0
-0.1,1.54,-0.93,-0.6570611282109023,-0.4316352068337086,-0.6178887549879801,0.0132366338334745,63.26625812549758,249.60695219243777,5935.0
-0.1,1.54,-0.93,-0.6564798152951623,-0.4341769240647414,-0.6166483045177987,0.0164170416041836,61.92879166690194,249.94214283045076,5716.0
-0.22,1.35,1.15,-0.6564798152951623,-0.4341769240647414,-0.6166483045177987,0.0164170416041836,60.307233072891535,250.33834632171704,6920.0
-1.72,-0.17,1.87,-0.6556275862286401,-0.436972719391413,-0.6157924979731527,0.0026287114077225,58.466328302347506,250.77467666182346,7843.0
0.24,-0.7000000000000001,-1.04,-0.6540246967481443,-0.440336132258503,-0.6150801921017378,0.0056695639346588,56.70603778949901,251.1785724902025,7487.0
0.24,-0.7000000000000001,-1.04,-0.6528447040841945,-0.4436559310082464,-0.613913287834842,0.0085838365688676,54.91019946902382,251.57726446217674,7626.0
0.13,-0.09,-1.33,-0.6528447040841945,-0.4436559310082464,-0.613913287834842,0.0085838365688676,53.303204694414376,251.92264362161922,6814.0
-1.3,0.89,0.97,-0.6524161607864891,-0.4466536201919329,-0.6121435582688046,0.0115741429084437,51.93363515294521,252.20853978364963,5800.0
-1.3,0.89,0.97,-0.6517624041064164,-0.4498699010562953,-0.6104215424546628,0.0144354156259401,50.548577292751084,252.48978461252403,5859.0
0.03,0.8200000000000001,0.77,-0.6517624041064164,-0.4498699010562953,-0.6104215424546628,0.0144354156259401,49.07414614423951,252.78049406592635,6230.0
0.8,-0.19,0.25,-0.6507295747679611,-0.4533454500756453,-0.6091214356907982,0.0,47.422366062058025,253.09557324670095,6971.0
0.8,-0.19,0.25,-0.6495470879683737,-0.4567765206307525,-0.6078118523035996,0.0029228259504646,45.586242412660525,253.43272184683286,7739.0
-0.59,-0.4,0.45,-0.6484129689809125,-0.460021334873726,-0.6065557236861437,0.0055809660393024,43.59462561135818,253.78289662190696,8383.0
-0.94,-0.78,-1.36,-0.6484129689809125,-0.460021334873726,-0.6065557236861437,0.0055809660393024,41.89738347283874,254.06861132011153,7135.0
-0.94,-0.78,-1.36,-0.6473353104943808,-0.4634239417549772,-0.6050881639147475,0.0079724454029307,40.524421905554824,254.2912134329863,5766.0
1.81,0.68,-2.52,-0.6473353104943808,-0.4634239417549772,-0.6050881639147475,0.0079724454029307,39.15313900397556,254.50595613096243,5754.0
-1.22,0.36,1.79,-0.6467347793327154,-0.4663887124645611,-0.6034053232368857,0.01084942286494,37.79551241393369,254.71110937956394,5692.0
-1.22,0.36,1.79,-0.6458919451799572,-0.4694351678596049,-0.6018802625330529,0.0139415889129945,36.141874091720936,254.95100497377567,6927.0
-0.5700000000000001,0.09,0.46,-0.6443674679045717,-0.4727551062708597,-0.6008485436625299,0.0165590875260599,34.160860988841144,255.2239909892898,8290.0
1.61,0.09,-2.28,-0.6443674679045717,-0.4727551062708597,-0.6008485436625299,0.0165590875260599,32.1785056385537,255.48149399686383,8287.0
0.52,-0.51,-1.99,-0.6433356789782765,-0.4761794287355987,-0.5994734402922111,0.0019875076904623,30.447649426113593,255.693548304263,7229.0
0.52,-0.51,-1.99,-0.6428313104671213,-0.4791890420043751,-0.5975963042100114,0.0049422161616265,28.98410530603537,255.86358013521317,6108.0
-0.06,1.04,0.63,-0.6428313104671213,-0.4791890420043751,-0.5975963042100114,0.0049422161616265,27.60475443394177,256.0160688953757,5753.0
-0.06,1.04,0.63,-0.6417485426289073,-0.4823595664742071,-0.596179378682997,0.0076292265429804,26.233000675078973,256.1602617026718,5718.0
-0.21,0.16,0.34,-0.6417485426289073,-0.4823595664742071,-0.596179378682997,0.0076292265429804,24.589651958266735,256.3232315194456,6846.0
0.08,-0.29,-0.17,-0.640341547927971,-0.485814322828724,-0.5948437769744733,0.0103935906414192,22.75331501266224,256.4927614104042,7645.0
-0.12,-0.21,-1.71,-0.6389976289516509,-0.4892250210655612,-0.5934386350203554,0.0130956260922029,21.01702871898531,256.6408667843556,7224.0
-0.12,-0.21,-1.71,-0.6378625928064198,-0.4926491222086371,-0.5917586962478082,0.0158050783112605,19.172494759914578,256.7852516105258,7670.0
-0.75,2.4,0.38,-0.6378625928064198,-0.4926491222086371,-0.5917586962478082,0.0158050783112605,17.49375597928777,256.90507683137974,6977.0
0.64,-0.04,-3.3200000000000003,-0.6363985385293313,-0.4962899431563591,-0.5905020869616681,0.0006912116199949,16.075013059178186,256.99775087565894,5894.0
0.64,-0.04,-3.3200000000000003,-0.6363985385293313,-0.4962899431563591,-0.5905020869616681,0.0006912116199949,14.653853418250696,257.08269988468,5902.0
1.39,0.73,0.04,-0.6349121350945535,-0.4997743651998235,-0.5891508308422909,0.0036692119899696,13.129619548706229,257.1650502897045,6328.0
-1.77,0.12,0.68,-0.6338129893740975,-0.5025979575439419,-0.5879015987443074,0.0069352553821435,11.40780098798741,257.24718089148905,7146.0
-1.77,0.12,0.68,-0.6324171194385143,-0.5058503365280383,-0.5865696569133145,0.0100030827327708,9.546382625907471,257.32298105447126,7723.0
1.15,0.16,-1.49,-0.6309635843723307,-0.5094317892346832,-0.5849804609687903,0.0127305772811616,7.544375317611157,257.38945666259724,8304.0
-0.21,0.02,-1.73,-0.6309635843723307,-0.5094317892346832,-0.5849804609687903,0.0127305772811616,5.8233501255428415,257.4341441870432,7137.0
-0.21,0.02,-1.73,-0.6299160862932552,-0.5132701207562077,-0.5826723798212611,0.0158872641233254,4.42260603579462,257.4620176955276,5808.0
-1.06,0.41,0.56,-0.6299160862932552,-0.5132701207562077,-0.5826723798212611,0.0158872641233254,3.040303907154372,257.482050932006,5731.0
0.85,0.71,-1.27,-0.6284767327303576,-0.5171461697911173,-0.5810129190634715,0.0009073964377492,1.667804083444057,257.49459883566345,5690.0
0.85,0.71,-1.27,-0.627160686248005,-0.5206762129864987,-0.5792671444330793,0.0039153844403442,1.5767327539022172e-14,257.5,6914.0
