ACC_X,ACC_Y,ACC_Z,QUAT_W,QUAT_X,QUAT_Y,QUAT_Z,X_pos,Y_pos,dt
2.78,0.35,-1.62,0.7126284436955223,0.0343707542020542,0.7006627814866365,0.0071427677471409,257.5,0.0,
2.78,0.35,-1.62,0.712419743436518,0.0343724668398971,0.7008808513712596,0.0065326002697495,257.49147640941425,2.0951316187910374,8676.0
-1.82,0.2,0.8,0.712419743436518,0.0343724668398971,0.7008808513712596,0.0065326002697495,257.4720533082623,3.7936480104711245,7034.0
0.58,-0.01,-0.15,0.7123102610103731,0.0340067554112263,0.7010153781538616,0.0059221818220627,257.44733643098306,5.207587214079154,5856.0
0.58,-0.01,-0.15,0.71213958371253,0.0336410245735257,0.7012108298129636,0.0053727952131946,257.41492308502626,6.618713857693485,5845.0
-2.02,-0.38,0.8300000000000001,0.71213958371253,0.0336410245735257,0.7012108298129636,0.0053727952131946,257.3700627681573,8.179290355206872,6465.0
1.64,1.02,0.1,0.7122119055921277,0.0332141685934091,0.7011608678799823,0.0049454920148274,257.307914587476,9.94419884375622,7313.0
1.64,1.02,0.1,0.7120653578182997,0.0330937595556095,0.7013190447522715,0.0043962189815569,257.23080113457286,11.771361334435076,7573.0
-0.48,0.18,-0.81,0.7120384063005101,0.0330314506781492,0.7013535562659886,0.003663377154693,257.1316276450081,13.768662412482605,8281.0
0.26,0.36,0.18,0.7120384063005101,0.0330314506781492,0.7013535562659886,0.003663377154693,257.0255418984734,15.624365964611101,7697.0
1.83,-0.05,-1.02,0.7120117079360556,0.0329719854459711,0.701387401514576,0.0028087246861382,256.93057478132374,17.115190403223853,6186.0
1.83,-0.05,-1.02,0.7120117079360556,0.0329719854459711,0.701387401514576,0.0028087246861382,256.83258461027424,18.52764103728039,5863.0
-0.43,0.29,0.84,0.7120378088409505,0.0332174400145336,0.7013520514833339,0.0020150285302934,256.71362801780117,20.108783900027404,6566.0
0.11,-0.07,1.39,0.7122235213196275,0.0330954345469168,0.7011713559082032,0.0010380486850508,256.56263227537556,21.951440042293346,7656.0
0.11,-0.07,1.39,0.712203876925584,0.0339522726203056,0.7011510687524269,0.0002442609541029,256.3943455712977,23.836727104742103,7838.0
-0.51,-0.2,0.42,0.7120817471009533,0.0343767813083379,0.7010909466826569,0.0151428805763193,256.2028052153874,25.814193765567328,8227.0
-0.43,-0.18,-0.1,0.7120817471009533,0.0343767813083379,0.7010909466826569,0.0151428805763193,256.0216014877513,27.553394920536835,7241.0
-0.43,-0.18,-0.1,0.7122548388713225,0.0349868857842492,0.7008978392973777,0.0145320747236497,255.86864788087155,28.939333641508917,5774.0
-0.04,-1.1,-1.12,0.7122548388713225,0.0349868857842492,0.7008978392973777,0.0145320747236497,255.70924381878402,30.315550887715517,5737.0
0.91,-1.28,-2.06,0.7122217633543362,0.035354629713834,0.7009253790761681,0.0139220303536341,255.54350746400334,31.682263066183584,5701.0
0.91,-1.28,-2.06,0.7125149210899915,0.035781450317828,0.7006081244825231,0.0137996719655787,255.33467576481988,33.32346548716542,6851.0
-0.15,0.01,-0.53,0.7127451531784232,0.0363333932608946,0.7003490543011768,0.0136173894070243,255.07172717068735,35.27979589173434,8174.0
0.89,2.68,1.11,0.7127451531784232,0.0363333932608946,0.7003490543011768,0.0136173894070243,254.7869763016884,37.28064788925843,8369.0
-3.09,2.63,2.51,0.712787746886223,0.0383475289166922,0.7002087803944419,0.01306747004486,254.53101226325833,38.989919161765904,7157.0
-3.09,2.63,2.51,0.7124937138359814,0.0417712951284658,0.7003409539959744,0.0114199301009109,254.30387478467628,40.44489176026668,6098.0
0.95,-0.52,-1.35,0.7124937138359814,0.0417712951284658,0.7003409539959744,0.0114199301009109,254.07501845004964,41.85851167453205,5930.0
0.95,-0.52,-1.35,0.7115992006467706,0.0448299556497064,0.7010940884236787,0.0091614350782778,253.8459293121746,43.22608207596965,5742.0
0.71,0.2,-1.75,0.712321362612842,0.0470931032905591,0.7002274139078735,0.007879390822934,253.5547989084639,44.9022711061304,7045.0
0.48,3.37,1.89,0.712321362612842,0.0470931032905591,0.7002274139078735,0.007879390822934,253.19452848083063,46.89115852023539,8370.0
-0.49,4.47,5.03,0.7138626144955537,0.0491097409133588,0.6985310909019552,0.0065357491016534,252.8457088399211,48.737024131945645,7779.0
-2.73,2.83,4.71,0.7144225050975614,0.0515625615103764,0.6978051866961131,0.0031157472002715,252.51062367805753,50.444374609250666,7205.0
-2.73,2.83,4.71,0.7144225050975614,0.0515625615103764,0.6978051866961131,0.0031157472002715,252.1893624365066,52.0266804040804,6686.0
3.7,-1.42,-3.95,0.7131024606354642,0.0528518231899303,0.6989271739533095,0.0138697848140048,251.90469458832138,53.38796535142094,5759.0
3.7,-1.42,-3.95,0.7134007716881932,0.0529871043479536,0.6986719456814379,0.0104507437641292,251.61827388204804,54.7219722654315,5650.0
-2.8000000000000003,-1.5,-0.74,0.7134007716881932,0.0529871043479536,0.6986719456814379,0.0104507437641292,251.27949771263235,56.25712425361958,6510.0
-0.61,-1.63,5.07,0.7147435304430697,0.0531794125960378,0.697322688385747,0.0073962171541615,250.88466466963155,57.99254291377929,7370.0
-0.61,-1.63,5.07,0.7146481298803606,0.0552692197289627,0.6972847909389608,0.004157419183152,250.47913461175116,59.719788379968634,7347.0
-1.04,-1.38,3.42,0.7135532660864825,0.0614552260191031,0.6978989995582333,0.0014064380083973,250.02386488892998,61.59802745220087,8003.0
4.22,-4.48,-6.71,0.7135532660864825,0.0614552260191031,0.6978989995582333,0.0014064380083973,249.5992127562754,63.29678500087952,7251.0
3.58,1.77,1.19,0.7140250778457506,0.0667793238273004,0.6967798678463929,0.0143710083327981,249.23909740452913,64.70024980613006,6000.0
3.58,1.77,1.19,0.7140250778457506,0.0667793238273004,0.6967798678463929,0.0143710083327981,248.871152605596,66.10143266800017,5999.0
-7.41,9.04,5.16,0.7169652683851104,0.0707547607916728,0.693359963574751,0.0143711052601928,248.47588622721224,67.57206496475797,6306.0
4.38,2.92,1.77,0.7189203857396178,0.0727176808714934,0.6911543410670712,0.0130879593830947,248.02888929682132,69.19479802835721,6970.0
4.38,2.92,1.77,0.7200767030810252,0.0753113357258064,0.6897319244295224,0.0093603853501611,247.51143648259324,71.02350885673849,7870.0
-8.4,-0.64,5.92,0.7206556907236417,0.0750275031273084,0.6892004406360099,0.0053853346453533,246.9257764301197,73.03362879100656,8670.0
0.32,0.0,2.75,0.7206556907236417,0.0750275031273084,0.6892004406360099,0.0053853346453533,246.42455396861575,74.70735707658766,7235.0
0.32,0.0,2.75,0.7192299745203963,0.0766974602616218,0.6905219866012418,0.0022648092814684,246.01640499066937,76.04063700066531,5774.0
1.56,-3.67,0.45,0.7192299745203963,0.0766974602616218,0.6905219866012418,0.0022648092814684,245.60452502440575,77.36063138015385,5726.0
-0.86,-0.48,0.9,0.7173394059457341,0.0769496188149673,0.6923017018126222,0.0148757019666166,245.19094853392858,78.66160916884667,5653.0
-0.86,-0.48,0.9,0.7158648772455894,0.0773974172302134,0.6938213090471109,0.0126138195802404,244.68319890587682,80.22706633790811,6815.0
1.34,-1.44,-2.39,0.7158648772455894,0.0773974172302134,0.6938213090471109,0.0126138195802404,244.05570289621042,82.1161609175482,8243.0
-0.8200000000000001,-1.44,-1.7,0.7155811028165894,0.079195957026607,0.6939599328008181,0.0095549646528621,243.43700961443002,83.93254642856907,7946.0
0.31,0.09,0.26,0.7158222937934304,0.0805637038974975,0.6935830356072772,0.0071067601917184,242.86617103078657,85.5702808739385,7182.0
0.31,0.09,0.26,0.7158222937934304,0.0805637038974975,0.6935830356072772,0.0071067601917184,242.34706018355902,87.02960657377702,6414.0
0.4,-0.39,-0.01,0.7161452764766938,0.0824789545766774,0.6930438159451876,0.0048408896073978,241.86246919746225,88.36739214046442,5892.0
0.4,-0.39,-0.01,0.7164133984983332,0.0847021401937459,0.6925104790514729,0.0025741605558157,241.37554063707523,89.68889776421405,5832.0
-1.03,-1.97,1.16,0.7164133984983332,0.0847021401937459,0.6925104790514729,0.0025741605558157,240.78797880022216,91.25458490017783,6925.0
-0.02,-0.65,0.5700000000000001,0.7164290675666006,0.0874770496635183,0.6921537265247273,0.0006130136626735,240.11942377999054,92.99952862012428,7738.0
2.01,0.43,-1.29,0.7158849537624763,0.0905430790124317,0.6921610732087788,0.0149576921320469,239.48164548525628,94.62975998951934,7249.0
2.01,0.43,-1.29,0.7157564171543117,0.0936847529048987,0.6919060448506431,0.0134886424339513,238.7874570745333,96.36804628027859,7751.0
-1.1,-0.5,-0.37,0.7157564171543117,0.0936847529048987,0.6919060448506431,0.0134886424339513,238.14481731614714,97.94537245556269,7053.0
-0.74,-1.26,0.56,0.7161037983611033,0.0967641542913016,0.6911462503277954,0.0122028306108802,237.60779290443287,99.24105375843277,5808.0
-0.74,-1.26,0.56,0.7161037983611033,0.0967641542913016,0.6911462503277954,0.0122028306108802,237.05768459264945,100.54801925235489,5872.0
0.56,-0.19,0.03,0.7163638868139297,0.099726684928035,0.6904815614513031,0.0106105267481857,236.46703865094045,101.92933646234847,6221.0
-0.28,-0.88,-0.12,0.7165511899681388,0.103109274981719,0.6898077968140464,0.0093847228270095,235.81337766736408,103.43259115534674,6788.0
-0.28,-0.88,-0.12,0.7168445755177577,0.1065604644993021,0.6889928478938756,0.0082205539682823,235.0527347726754,105.14971172516982,7777.0
-0.51,2.52,0.58,0.7167127371958281,0.1099519925567095,0.6886111676696155,0.0069333566734978,234.19633781431475,107.04356755248476,8607.0
0.93,3.85,-0.04,0.7167127371958281,0.1099519925567095,0.6886111676696155,0.0069333566734978,233.47065874639313,108.61722471378674,7176.0
0.93,3.85,-0.04,0.7165529969059101,0.1124907197095352,0.6883842896791362,0.0049709483341365,232.8795948791938,109.87877087455327,5769.0
0.3,1.72,-0.09,0.7165529969059101,0.1124907197095352,0.6883842896791362,0.0049709483341365,232.26357586259056,111.17500315953511,5943.0
-1.25,-1.16,0.61,0.7164732287028887,0.1139997245909745,0.6882342016098093,0.0019644540586489,231.63854885376605,112.47147498331049,5960.0
-1.25,-1.16,0.61,0.7159786000481355,0.1147653519288134,0.688469302207521,0.0146143144778264,230.88773351995962,114.004844239252,7070.0
1.22,0.38,0.74,0.7149636556304533,0.1160894595482437,0.6893502669364757,0.0121003299105841,229.99030438654916,115.80461945959871,8328.0
-1.86,-3.1,-1.72,0.7149636556304533,0.1160894595482437,0.6893502669364757,0.0121003299105841,229.07983878844811,117.59539727667331,8319.0
4.36,1.37,-3.61,0.7139658960798838,0.1178473828469205,0.6901260709784213,0.009523641470945,228.27924219508284,119.14208988782553,7212.0
4.36,1.37,-3.61,0.7137261188634811,0.1201528082647124,0.6900028533953589,0.0073751084356856,227.6027444201489,120.429401445064,6022.0
-0.9,-2.44,-1.32,0.7137261188634811,0.1201528082647124,0.6900028533953589,0.0073751084356856,226.95128228008903,121.65264268162588,5739.0
-0.9,-2.44,-1.32,0.7141372451655061,0.1235723022367998,0.688992433416824,0.005225694373198,226.29105649724755,122.87639215634347,5758.0
-0.5700000000000001,1.6,-0.88,0.7141372451655061,0.1235723022367998,0.688992433416824,0.005225694373198,225.5002913398841,124.32163369915716,6822.0
3.76,5.08,-3.97,0.7140709670062231,0.1264212441371562,0.6885530602372932,0.0038738027143194,224.58367304457138,125.96993213385903,7810.0
-1.24,0.76,2.0,0.7142079334351749,0.1299622255725563,0.6877603437540583,0.0015991565853698,223.6851589373222,127.55861268916698,7558.0
-1.24,0.76,2.0,0.7145489052193531,0.1327089709452509,0.6867397003666627,0.0140276520053394,222.76801873544906,129.15362878635128,7619.0
-3.23,-0.86,3.56,0.7145489052193531,0.1327089709452509,0.6867397003666627,0.0140276520053394,221.93887979220156,130.57328837316885,6808.0
3.3200000000000003,-0.07,-3.52,0.7135807531891071,0.1356006555055294,0.6872361864363306,0.0110179379643621,221.23092687218775,131.76921869417265,5755.0
3.3200000000000003,-0.07,-3.52,0.7132320716435142,0.1381760138796551,0.6871239478088557,0.0082511523439722,220.4843522400137,133.01466241471869,6013.0
-2.09,-1.57,-0.34,0.7132320716435142,0.1381760138796551,0.6871239478088557,0.0082511523439722,219.61535371703857,134.4445849104382,6929.0
0.37,-0.18,2.04,0.7136528698563785,0.1405129215487612,0.686240221855853,0.0054825296001051,218.6743676048591,135.96974278351394,7421.0
0.37,-0.18,2.04,0.7135759974754148,0.1437627635673698,0.6856614960197703,0.0031426922168606,217.75012075588947,137.44502504927397,7209.0
0.19,1.46,0.46,0.7134355258660439,0.1475074488852119,0.685018921630322,0.0006164122393865,216.70981302802335,139.07949862348212,8023.0
0.08,4.64,-0.08,0.7134355258660439,0.1475074488852119,0.685018921630322,0.0006164122393865,215.7594465379347,140.54931956307755,7248.0
0.08,4.64,-0.08,0.7123085231442239,0.1512545712666881,0.6852393193993906,0.0136270934569661,214.99588110345923,141.7145762035339,5769.0
3.41,-3.09,-5.2700000000000005,0.7123085231442239,0.1512545712666881,0.6852393193993906,0.0136270934569661,214.23218592380516,142.86644292593053,5723.0
-1.82,-0.86,-0.99,0.7115875623122394,0.153584932587163,0.6855478509615834,0.0088855887073328,213.47231341847834,143.99937987284167,5649.0
-1.82,-0.86,-0.99,0.7120034960629167,0.1565494074922452,0.6844715419061574,0.0064817380862325,212.54694340703296,145.36177918671584,6820.0
0.16,0.36,-2.36,0.7117810973095243,0.1594636696965893,0.6840509703948192,0.0036438251402396,211.42474988382273,146.98920074809234,8186.0
-0.12,-2.72,0.27,0.7117810973095243,0.1594636696965893,0.6840509703948192,0.0036438251402396,210.26667950653183,148.6410895052153,8354.0
2.1,-0.09,-1.37,0.7113778479943714,0.1619969356818865,0.683884088887415,0.001050323381614,209.26033518448384,150.05453048301302,7185.0
2.1,-0.09,-1.37,0.7110478016899207,0.165418872436249,0.6832411178661209,0.015139194526291,208.41934793271344,151.22045300587664,5953.0
-0.78,4.74,1.33,0.7110478016899207,0.165418872436249,0.6832411178661209,0.015139194526291,207.60144239887708,152.3413637654125,5746.0
-0.78,4.74,1.33,0.7114559464765278,0.1698122760423166,0.6817836157519876,0.012858009980634,206.75707062932435,153.4853860951608,5888.0
-0.64,3.72,1.74,0.7112670494429378,0.1733937675759745,0.6811411968530343,0.0089697097033593,205.71482354388806,154.87950598548213,7208.0
-0.67,-2.9,-2.73,0.7112670494429378,0.1733937675759745,0.6811411968530343,0.0089697097033593,204.4811694468935,156.5046368055299,8449.0
0.75,-1.35,-1.21,0.7108105487967006,0.1765573667626014,0.6808477979155297,0.0047048947664648,203.31309659475772,158.0190961657822,7920.0
-1.76,-1.63,1.37,0.7106180277564522,0.179125541381649,0.6803921411056069,0.0016103956002499,202.24865197741164,159.3792106057745,7152.0
-1.76,-1.63,1.37,0.7106180277564522,0.179125541381649,0.6803921411056069,0.0016103956002499,201.275460804991,160.60647209168914,6486.0
1.19,-0.91,0.2,0.7101783149033866,0.1824083893801753,0.6798182229209525,0.0148702491342534,200.40450286927984,161.69194546951562,5763.0
1.19,-0.91,0.2,0.7098016228073061,0.1857262586839029,0.6793638414275343,0.0123362902129828,199.54432903743864,162.75229875181003,5654.0
1.02,1.49,0.78,0.7098016228073061,0.1857262586839029,0.6793638414275343,0.0123362902129828,198.54667252203893,163.96788963216622,6512.0
-1.2,2.13,1.77,0.7099064763058671,0.1894158988850356,0.678275137592256,0.009861535010714,197.41964567450157,165.32311847335282,7299.0
-1.2,2.13,1.77,0.7092674930602193,0.1925057103397322,0.6781140866802884,0.0065161507368381,196.27617826158274,166.6790684130056,7345.0
-0.93,0.81,-0.17,0.7089890788738411,0.1952855712960439,0.6776316183000726,0.0036635448987175,194.99932997490896,168.1710775054277,8132.0
-0.39,-0.25,-1.63,0.7089890788738411,0.1952855712960439,0.6776316183000726,0.0036635448987175,193.85124501688355,169.49319987953552,7251.0
0.68,0.58,0.88,0.7089058581596477,0.1983196756569321,0.6768466624707451,0.0006213022420329,192.92932727016898,170.54185609134208,5782.0
0.68,0.58,0.88,0.7089058581596477,0.1983196756569321,0.6768466624707451,0.0006213022420329,192.00495508600642,171.5818965462868,5762.0
-1.73,-1.13,-0.07,0.7082655003844233,0.2021484471871286,0.6762524467862155,0.0133646728613876,190.9894784075979,172.71151999097717,6290.0
2.02,-0.16,-0.91,0.708050953583529,0.2057036373100878,0.6754568483671739,0.0103878159754413,189.82578642060636,173.98971466669613,7158.0
2.02,-0.16,-0.91,0.7078790944753536,0.2090527411941896,0.6746447497901207,0.0076551018656997,188.52084588764887,175.402795490281,7965.0
-0.29,0.88,0.93,0.7078790944753536,0.2090527411941896,0.6746447497901207,0.0076551018656997,187.10470817450317,176.9126286587083,8572.0
1.2,1.27,-1.29,0.7074101235593616,0.2124721251394843,0.6740945939727192,0.0047949453797597,185.91223390544042,178.16534815807702,7162.0
1.2,1.27,-1.29,0.7070931493034549,0.2154244308753012,0.6735051341915695,0.001557885673093,184.9373594309387,179.17707187782645,5818.0
-0.19,0.86,-1.03,0.7070931493034549,0.2154244308753012,0.6735051341915695,0.001557885673093,183.9650901269064,180.17518035123265,5770.0
-0.1,0.65,0.61,0.706603188837802,0.218553139505515,0.6728693091024287,0.0139050927559856,182.98777390547977,181.16766985617778,5768.0
-0.1,0.65,0.61,0.706019306033108,0.2219024794284719,0.672446883667383,0.0105459839773373,181.80255928381345,182.35701093694067,6953.0
1.26,-0.58,-0.38,0.706019306033108,0.2219024794284719,0.672446883667383,0.0105459839773373,180.3853718552139,183.75899330551474,8255.0
0.28,-0.25,0.24,0.705712673093448,0.2251211562252791,0.6717415471609787,0.0073062899523877,179.0000832812095,185.10867128613955,8009.0
-0.87,-0.4,0.86,0.7055011213165582,0.2282301439496918,0.6709416279966842,0.0040621465927519,177.7511696670709,186.30827056786333,7171.0
-0.87,-0.4,0.86,0.7055011213165582,0.2282301439496918,0.6709416279966842,0.0040621465927519,176.64257114124857,187.3596863271524,6327.0
0.55,0.16,-0.09,0.7051115496633902,0.2315767688162779,0.6702155634361465,0.0010006017556198,175.6321499998645,188.3071902143545,5736.0
0.55,0.16,-0.09,0.7046393260974324,0.2349006331737644,0.6694104884637538,0.0139538735209774,174.6191312912185,189.2469523852371,5722.0
0.61,0.9,-0.35,0.7046393260974324,0.2349006331737644,0.6694104884637538,0.0139538735209774,173.33998649149072,190.41927182701284,7185.0
-0.3,-0.66,-1.3,0.7041178964035146,0.2385258864639796,0.6687366609474504,0.0107083031203309,171.89947786970217,191.7206809609328,8039.0
0.91,-0.12,0.35,0.70361858708786,0.2421019508257239,0.6680208889079451,0.0074579684567075,170.59829985907572,192.87941851113325,7215.0
0.91,-0.12,0.35,0.7033002791729505,0.2454087740684639,0.6671757062459289,0.0044528553434349,169.20996057169543,194.09852972994227,7651.0
-0.35,-0.21,-0.35,0.7033002791729505,0.2454087740684639,0.6671757062459289,0.0044528553434349,167.9286394143925,195.20815060962732,7019.0
1.15,0.0,-0.53,0.7027961261307925,0.2489945728642363,0.6663915755229637,0.0012553293313044,166.8698718682287,196.11398691241,5770.0
1.15,0.0,-0.53,0.7027961261307925,0.2489945728642363,0.6663915755229637,0.0012553293313044,165.7949473125465,197.02356571138878,5831.0
0.03,0.17,-1.63,0.7023665340424637,0.2521686161298839,0.6654990427178705,0.0142571048222873,164.65064600553592,197.98084445208252,6178.0
1.73,0.26,-1.0,0.7028830063494333,0.2545766567443396,0.6640993527170241,0.0108745090411779,163.38138858115457,199.02957535324688,6818.0
1.73,0.26,-1.0,0.7026810371665893,0.2577964986847523,0.6631119796573874,0.0079263930781549,161.93051869415493,200.21178066098392,7750.0
-1.13,-1.27,4.7,0.70094513255994,0.2617449358944077,0.6634270994206741,0.0054766256428122,160.3003065348605,201.51938300032026,8654.0
1.87,0.49,-4.3,0.70094513255994,0.2617449358944077,0.6634270994206741,0.0054766256428122,158.91713228795533,202.61193218903102,7299.0
1.87,0.49,-4.3,0.700079901940621,0.2646090342108178,0.6632236436041141,0.0021420731340875,157.81576193168183,203.47096914774534,5784.0
5.38,-0.64,-3.0700000000000003,0.700079901940621,0.2646090342108178,0.6632236436041141,0.0021420731340875,156.71913725464074,204.31681775654465,5735.0
-1.52,0.04,-2.08,0.7003763424256463,0.2673923539348026,0.6616101242102046,0.0156955907896666,155.6264446212172,205.15033447342762,5691.0
-1.52,0.04,-2.08,0.7001412738909338,0.2705177313429739,0.6606487132984195,0.0128697801291899,154.26860875905203,206.17334054515035,7040.0
-1.48,1.14,0.23,0.6994880645803719,0.2738472410259138,0.6600242588065199,0.0095975975642008,152.62449974742108,207.3933752000036,8478.0
-0.8,-0.53,-1.29,0.6994880645803719,0.2738472410259138,0.6600242588065199,0.0095975975642008,150.99050040842604,208.58599853876362,8377.0
0.28,0.21,0.84,0.6990904857885197,0.2767417498886212,0.6592760755510612,0.0064461426098742,149.59199978599239,209.59122977841332,7132.0
0.28,0.21,0.84,0.6985183888561266,0.2798121470752901,0.6586084736652342,0.0034786772353392,148.42844036510814,210.41684364798732,5908.0
-0.39,-0.16,0.66,0.6985183888561266,0.2798121470752901,0.6586084736652342,0.0034786772353392,147.3086572532225,211.2022952011948,5664.0
-0.39,-0.16,0.66,0.6980716580371527,0.2829506992588023,0.6577496008944553,0.0005696993944808,146.1741811717793,211.98905339370668,5717.0
0.74,-1.05,-1.94,0.6980716580371527,0.2829506992588023,0.6577496008944553,0.0005696993944808,144.82352022393243,212.91406245231485,6779.0
-1.46,0.0,0.0,0.6974713419135985,0.2861209746093656,0.6568683875800578,0.013872148204439,143.28827965854308,213.95027205520248,7670.0
1.6,0.7000000000000001,-1.23,0.696814509148064,0.2894148152361852,0.6561759775891605,0.0110313642609192,141.82101807218868,214.92568211586055,7296.0
1.6,0.7000000000000001,-1.23,0.6963588133580904,0.2921483485238425,0.6554935795506719,0.007868461167888,140.2738157191427,215.938664031229,7658.0
-0.84,0.89,1.02,0.6963588133580904,0.2921483485238425,0.6554935795506719,0.007868461167888,138.85098557154248,216.8562975931557,7011.0
0.76,0.04,-0.95,0.6955837608301729,0.2950133828575743,0.6550630852084006,0.0047634023066346,137.6726443953513,217.6062797466818,5784.0
0.76,0.04,-0.95,0.6955837608301729,0.2950133828575743,0.6550630852084006,0.0047634023066346,136.47264150610818,218.3608667329045,5870.0
-0.34,-0.56,-0.5,0.6950455358663459,0.2975860379941795,0.654485849423217,0.0015893294060787,135.11373922083976,219.20430532670406,6623.0
-0.27,-0.14,0.36,0.6943958972160552,0.300370444452721,0.6537399527116518,0.0146972193748312,133.6257889656158,220.1145122960245,7223.0
-0.27,-0.14,0.36,0.6938308101156223,0.3035151575044567,0.6529460574681483,0.0117814318376677,132.06060619005515,221.05711092999286,7566.0
0.3,-0.81,-0.31,0.6933266999379837,0.3066012160247955,0.6520853305475383,0.0088602014610076,130.30906803237684,222.09411696065564,8429.0
-0.4,-0.55,-0.23,0.6933266999379837,0.3066012160247955,0.6520853305475383,0.0088602014610076,128.79454323427214,222.9758184940134,7257.0
-0.4,-0.55,-0.23,0.6928722779494507,0.3095310093555598,0.651214456616149,0.006188068406325,127.57791163732352,223.67415242325,5809.0
0.54,0.3,-0.37,0.6928722779494507,0.3095310093555598,0.651214456616149,0.006188068406325,126.36675187264034,224.36063384907467,5765.0
0.31,0.73,-0.09,0.6925205911442852,0.3119726727209088,0.6504432290233112,0.0034479173816883,125.1607622408881,225.03562739104197,5723.0
0.31,0.73,-0.09,0.6923112975336172,0.3144255131418256,0.6494931890366612,0.0005112609969785,123.7074631343004,225.8378036664272,6874.0
-0.27,-0.33,-1.72,0.6920059469669257,0.3169614963228986,0.6484437312260793,0.0135612184097789,121.95816961012994,226.78724581719047,8242.0
-2.03,0.52,1.65,0.6920059469669257,0.3169614963228986,0.6484437312260793,0.0135612184097789,120.16677748139782,227.74151046688044,8405.0
1.79,-1.17,-2.25,0.6911045592718071,0.319936840078016,0.6480065822156613,0.0101180986253655,118.61791122503261,228.55205345087205,7239.0
1.79,-1.17,-2.25,0.6908023983619027,0.3225454168128754,0.6470782929621053,0.0067958286985022,117.32204282160302,229.21995608621418,6037.0
0.37,-0.61,-1.1,0.6908023983619027,0.3225454168128754,0.6470782929621053,0.0067958286985022,116.08492957976839,229.8489484954417,5747.0
0.37,-0.61,-1.1,0.6903999290621537,0.3253697379015727,0.6461188404719989,0.0035938274797806,114.84682181286975,230.47007944521334,5736.0
-2.13,0.54,1.93,0.6895834327066723,0.328697367159912,0.6453159413123839,0.0002569955959029,113.31902226168565,231.22510502463956,7057.0
-0.5,-0.81,-1.62,0.6895834327066723,0.328697367159912,0.6453159413123839,0.0002569955959029,111.5510346425823,232.0832106598179,8138.0
0.39,0.2,-0.25,0.6889755971526556,0.3315932212189948,0.6443429952275231,0.0134412302627559,109.94057393772238,232.85042452665658,7387.0
0.39,0.2,-0.25,0.6885286386317986,0.3342203257095256,0.6435238211263163,0.0101083781807735,108.35003056701969,233.5947792141894,7272.0
-0.36,0.81,0.08,0.6885286386317986,0.3342203257095256,0.6435238211263163,0.0101083781807735,106.8790353471519,234.27147031438176,6705.0
-1.07,-0.75,0.08,0.6880014142500529,0.3367487480598028,0.6428136515414155,0.0067040332691844,105.63378843976122,234.83558661298284,5661.0
-1.07,-0.75,0.08,0.68716422462881,0.3394518990934955,0.6423126904329964,0.0034848674051423,104.36569576849682,235.40189367708487,5751.0
2.4,0.03,-0.68,0.68716422462881,0.3394518990934955,0.6423126904329964,0.0034848674051423,102.99099396609863,236.0065786410943,6219.0
-1.63,-1.3,0.07,0.6863838124414352,0.3420935887497552,0.6415466168621472,0.0163455482443225,101.47564306305689,236.66208793327897,6837.0
-1.63,-1.3,0.07,0.6856973653096027,0.3453389523052513,0.6406137822871715,0.0131951950309554,99.76847775890646,237.38681691633718,7680.0
0.18,-1.3,-0.16,0.6850690208120849,0.3488801402774587,0.6394193365330187,0.0102954607097468,97.86786937048169,238.17667842356508,8523.0
0.94,-1.38,-0.37,0.6850690208120849,0.3488801402774587,0.6394193365330187,0.0102954607097468,96.23702713646163,238.84029100622018,7291.0
0.94,-1.38,-0.37,0.6843905993275144,0.3527592833465588,0.6380516524980474,0.007777165901449,94.923677696278,239.3652970098488,5857.0
1.16,-1.1,-0.6900000000000001,0.6843905993275144,0.3527592833465588,0.6380516524980474,0.007777165901449,93.62883582475587,239.87474044196676,5762.0
-0.89,0.07,-0.13,0.6837908063028748,0.3566194131145139,0.6365701928530082,0.0055782592811655,92.33779743199624,240.37466831055144,5733.0
-0.89,0.07,-0.13,0.6831279502776766,0.3604225391943039,0.6351538406839102,0.0033757154247305,90.72618286340273,240.98757176052962,7140.0
0.26,1.02,0.17,0.6822338422427583,0.3644428210609173,0.6338277267693436,0.0009096451229903,88.80478959369037,241.7022121231421,8489.0
-0.11,0.51,-0.16,0.6822338422427583,0.3644428210609173,0.6338277267693436,0.0009096451229903,86.85048789228837,242.4113090449195,8609.0
0.19,0.0,-0.81,0.6812948034916444,0.3682516438076913,0.6324590301383729,0.0149563620123201,85.20621698156108,242.99413694097876,7224.0
0.19,0.0,-0.81,0.6805724034074756,0.3718900182369113,0.6311649950682815,0.0122379351353998,83.88437348348963,243.45361341594918,5795.0
0.11,0.75,-0.43,0.6805724034074756,0.3718900182369113,0.6311649950682815,0.0122379351353998,82.57057436912903,243.90233752129586,5749.0
0.11,0.75,-0.43,0.6799852163905525,0.3751193123963983,0.6299345506642784,0.0093844998236764,81.25414590364674,244.34404795997975,5750.0
1.61,0.81,-0.67,0.6793422474450778,0.3780721334835059,0.6289021785491941,0.0061337211852691,79.6839463170393,244.86061075506447,6845.0
-0.62,0.05,0.07,0.6793422474450778,0.3780721334835059,0.6289021785491941,0.0061337211852691,77.86765877816646,245.44424563718547,7900.0
0.37,0.07,-0.23,0.6786385138483669,0.3810645409393073,0.6278778163839676,0.0030051378164251,76.25033293237549,245.95149263157947,7019.0
0.37,0.07,-0.23,0.6776559435329904,0.383989773620518,0.6271636755658572,0.0,74.61421772267796,246.45277136529182,7086.0
0.34,0.14,-0.59,0.6776559435329904,0.383989773620518,0.6271636755658572,0.0,73.01394495222571,246.9315974971882,6917.0
-0.32,0.1,0.29,0.6768851113249738,0.3866698831744191,0.6262022172391143,0.0135547274880787,71.67389812635899,247.32388143358156,5782.0
-0.32,0.1,0.29,0.6768851113249738,0.3866698831744191,0.6262022172391143,0.0135547274880787,70.31385609669591,247.7139714283656,5859.0
0.67,-1.29,-0.52,0.6759383400348622,0.3898282608969244,0.6253249163193516,0.0104898287493286,68.80602798731667,248.13701963352543,6485.0
0.11,-1.08,-0.2,0.6749667225339264,0.3932055265169927,0.6242982754514497,0.0078102917134905,67.13060817701563,248.59551775079132,7193.0
0.11,-1.08,-0.2,0.6741335844466742,0.3966882938201947,0.623020054703032,0.0053215885722815,65.3404867167815,249.07201929484992,7671.0
-0.5700000000000001,-1.04,-0.52,0.6733759385053851,0.400277279070535,0.6215575557375879,0.0030249309737546,63.392050559182536,249.57503466072492,8333.0
0.68,-0.26,-0.4,0.6733759385053851,0.400277279070535,0.6215575557375879,0.0030249309737546,61.71854161932864,249.99414317216156,7144.0
0.68,-0.26,-0.4,0.6725680740765838,0.4040805839456007,0.6199763838057685,0.0005923970118114,60.37426180247318,250.322189411579,5730.0
-0.71,0.24,-1.33,0.6725680740765838,0.4040805839456007,0.6199763838057685,0.0005923970118114,59.029413868052565,250.64273039207453,5725.0
1.67,1.73,-1.89,0.6716468692603075,0.407691494100828,0.6184210286990748,0.015282667091839,57.690160207702434,250.9543691893202,5694.0
1.67,1.73,-1.89,0.6711285223031984,0.4105261840604527,0.6171744062104204,0.0122682953462795,56.06646330725526,251.3221074482231,6894.0
1.65,1.49,-1.89,0.6711285223031984,0.4105261840604527,0.6171744062104204,0.0122682953462795,54.12764133589261,251.74679430613008,8219.0
-1.46,1.28,1.03,0.6708001859345192,0.4126527583981232,0.6161717512946524,0.0087854677232192,52.229823991255046,252.14736858797977,8032.0
-0.38,-1.21,0.63,0.6697284810654123,0.4153719016801386,0.6155495373680029,0.0053583570689745,50.538621243802964,252.49177761419367,7147.0
-0.38,-1.21,0.63,0.6697284810654123,0.4153719016801386,0.6155495373680029,0.0053583570689745,49.04761928573516,252.78564247678622,6293.0
1.06,-2.32,-0.96,0.6681245795255679,0.4187867927583423,0.6149978778817541,0.0021860114142716,47.67214722434304,253.04864429397873,5799.0
1.06,-2.32,-0.96,0.6669226466484013,0.4221146916448322,0.6138101948721665,0.0164443046697955,46.33137287702523,253.29755997113367,5647.0
0.29,-2.15,-0.8,0.6669226466484013,0.4221146916448322,0.6138101948721665,0.0164443046697955,44.688720980987235,253.59252397711467,6911.0
-0.61,-2.06,-0.29,0.6662104401017488,0.4258649181720454,0.6120480689626607,0.0141379718782178,42.80917794645399,253.91656953327964,7898.0
0.58,1.51,-1.97,0.6655057446150041,0.4296092683594761,0.6102351537266348,0.0122897347528224,41.074622242271616,254.2029217134506,7280.0
0.58,1.51,-1.97,0.6649869312758311,0.4329729909536935,0.6084630421173854,0.0099748039691374,39.25581429610928,254.49013938451404,7625.0
0.48,1.65,-0.87,0.6649869312758311,0.4329729909536935,0.6084630421173854,0.0099748039691374,37.585991768012,254.74211120820783,6993.0
0.0,1.45,-0.64,0.6643131412972696,0.4361282024152667,0.6069839226286368,0.007124537047089,36.20793912746662,254.9416308572252,5766.0
0.0,1.45,-0.64,0.6643131412972696,0.4361282024152667,0.6069839226286368,0.007124537047089,34.79963664985543,255.13767908530883,5888.0
-0.21,1.27,0.36,0.6632463468743577,0.439008137913016,0.6061032766751695,0.0038673256377513,33.30598498419708,255.3369565186999,6240.0
0.42,-0.8300000000000001,-0.85,0.6618914164932802,0.4420400853363961,0.605392562860618,0.0004007010895933,31.676032060002264,255.5442799065041,6804.0
0.42,-0.8300000000000001,-0.85,0.6604074778427266,0.4454439743196839,0.6043591219148143,0.013844880282909,29.819568858101583,255.76755719425583,7743.0
0.2,-2.08,-0.76,0.6593211951262944,0.4488795865234077,0.6030605486506658,0.0109842214547655,27.752191122126995,256.00012868731324,8615.0
-0.2,-1.3,-0.23,0.6593211951262944,0.4488795865234077,0.6030605486506658,0.0109842214547655,26.013851958198813,256.1826096874979,7238.0
-0.2,-1.3,-0.23,0.6582890159144292,0.4523599573554792,0.6016266731979484,0.0084490593873095,24.621688786243375,256.3201561354732,5793.0
-0.61,-0.99,-0.47,0.6582890159144292,0.4523599573554792,0.6016266731979484,0.0084490593873095,23.237457031970195,256.44935287632785,5757.0
-1.91,-0.05,0.9,0.6574635506733455,0.4557661950541941,0.599989204331803,0.0056400059494036,21.85687902906427,256.5707053408648,5739.0
-1.91,-0.05,0.9,0.6564851472448034,0.4591026185903494,0.59853428222432,0.002958048794549,20.188230793396915,256.7073924479631,6933.0
-0.63,1.08,1.37,0.654801729017413,0.4625614187713468,0.5977219730339872,0.0002692441319972,18.181263812908945,256.85733714683994,8334.0
1.51,1.35,-1.29,0.654801729017413,0.4625614187713468,0.5977219730339872,0.0002692441319972,16.174391265912398,256.991515554847,8329.0
-0.89,0.79,-0.34,0.6537228015482947,0.4649998564678507,0.5968363138169037,0.014423825088291,14.437063785536731,257.09496531292154,7207.0
-0.89,0.79,-0.34,0.6527661731663924,0.4675153324208571,0.5959892208825021,0.0110718432515553,12.963178257328682,257.17349398697513,6112.0
-0.26,-0.81,-0.14,0.6527661731663924,0.4675153324208571,0.5959892208825021,0.0110718432515553,11.579816626216783,257.23949511477275,5735.0
-0.26,-0.81,-0.14,0.6514008699247721,0.4709858879919067,0.5948014171969579,0.0077765078419338,10.198533016196306,257.29795942509446,5725.0
0.55,-1.27,-1.37,0.6514008699247721,0.4709858879919067,0.5948014171969579,0.0077765078419338,8.546159306475573,257.3581418201265,6847.0
-0.19,0.65,0.59,0.6502219496732692,0.4750866552398691,0.592859384172461,0.0046729834941626,6.706586263358016,257.4126486804643,7621.0
-0.49,-2.71,-2.58,0.6486403318679319,0.4803411618863026,0.5903698816405157,0.0012210338813661,4.9610754720478,257.45220474907694,7230.0
-0.49,-2.71,-2.58,0.6472093308106707,0.4837767479044497,0.5889278860336392,0.015623231117386,3.1057090532193157,257.48127033102185,7684.0
1.39,0.62,-0.21,0.6472093308106707,0.4837767479044497,0.5889278860336392,0.015623231117386,1.4168062258121656,257.496102223157,6994.0
-0.68,1.28,0.32,0.6464433083564337,0.4868050039885307,0.5873356447451394,0.0129914427500082,1.5767327539022172e-14,257.5,5867.0
