ACC_X,ACC_Y,ACC_Z,QUAT_W,QUAT_X,QUAT_Y,QUAT_Z,X_pos,Y_pos,dt
0.05,-1.3,0.07,-0.7100225388925486,-0.0663086981148575,-0.7010387797931164,0.0039724104861435,257.5,0.0,
0.05,-1.3,0.07,-0.7100938544494169,-0.0660651912092107,-0.7009877365121621,0.0042780419839451,257.49305519278585,1.891170929593377,7826.0
-2.03,0.19,1.38,-0.7098650434461338,-0.0657610664440843,-0.7012476546277175,0.0043392525255854,257.4709975837586,3.8646349406095455,8167.0
2.91,0.8,-1.17,-0.7099138838972172,-0.0653321230962573,-0.701235528911559,0.0047669837245164,257.42828033092735,6.077045816963493,9157.0
1.43,0.85,-0.15,-0.7099138838972172,-0.0653321230962573,-0.701235528911559,0.0047669837245164,257.3774371682294,7.943855280286604,7728.0
1.43,0.85,-0.15,-0.7097111138161047,-0.0650914860673571,-0.7014600803709468,0.0051950951321364,257.3307799750989,9.333792230772977,5755.0
0.09,-0.48,-1.06,-0.7097111138161047,-0.0650914860673571,-0.7014600803709468,0.0051950951321364,257.27690839221776,10.716455017513422,5726.0
-1.05,-0.43,0.8,-0.7095874064906407,-0.0644190462050934,-0.7016419833344147,0.0058673894076745,257.21561903840603,12.098566968429628,5725.0
-1.05,-0.43,0.8,-0.7095412234787895,-0.0640536826777303,-0.7017178729227308,0.0063564723267976,257.1322196574486,13.75760204518165,6874.0
0.8,0.43,0.6,-0.7093342225089317,-0.0638736977614677,-0.7019383206628671,0.0069069166000438,257.0115628110734,15.85265218850383,8684.0
0.79,0.43,0.16,-0.7093342225089317,-0.0638736977614677,-0.7019383206628671,0.0069069166000438,256.86609880165435,18.057056416225233,9142.0
-0.74,-0.41,-0.55,-0.7092834460078843,-0.0635690092940537,-0.702009684367507,0.007640505924766,256.73644134497493,19.815390117740435,7296.0
-0.74,-0.41,-0.55,-0.7094419629296062,-0.0633277506113279,-0.7018621935514163,0.0084355497918564,256.62438352772665,21.21734618217547,5820.0
1.0,-0.3,-0.65,-0.7094419629296062,-0.0633277506113279,-0.7018621935514163,0.0084355497918564,256.5061130322357,22.602300261122227,5752.0
-0.43,-0.2,-0.47,-0.7095898011370202,-0.0633300339402096,-0.7017041115826891,0.0091082770821343,256.38007559564545,23.98972358263268,5765.0
-0.43,-0.2,-0.47,-0.7096479710962673,-0.0632686407170847,-0.7016400561842498,0.0099029176774567,256.21323717755547,25.71044719559904,7154.0
0.3,0.74,0.12,-0.7096255897790741,-0.0643724798447075,-0.7015561051261763,0.0103313856540888,255.9998927839562,27.754367126687338,8504.0
-1.67,0.06,-0.17,-0.7096255897790741,-0.0643724798447075,-0.7015561051261763,0.0103313856540888,255.77521728876243,29.75379338649724,8326.0
2.2,-0.55,-1.28,-0.709327131288587,-0.0654123959733507,-0.7017466293253203,0.0113096198645512,255.5678035244177,31.485676135421272,7218.0
2.2,-0.55,-1.28,-0.7094102978920509,-0.066086912445821,-0.7015850205626659,0.0121658608480281,255.38352760856353,32.94698508522547,6095.0
0.64,0.5700000000000001,0.54,-0.7094102978920509,-0.066086912445821,-0.7015850205626659,0.0121658608480281,255.202216077835,34.323154123157316,5744.0
0.64,0.5700000000000001,0.54,-0.7098217357441361,-0.0656019571450007,-0.7012011616924632,0.0129002916659787,255.0145273684602,35.69090683971001,5713.0
1.26,-0.28,-0.09,-0.7098217357441361,-0.0656019571450007,-0.7012011616924632,0.0129002916659787,254.78251829643128,37.311102510226796,6773.0
-0.72,-1.53,-0.22,-0.7099513139395753,-0.0659083290067914,-0.7010249539813271,0.0137563766479852,254.51157737402178,39.116581938959435,7555.0
0.28,1.24,1.38,-0.7101388864748588,-0.06628125993962,-0.7007836901918681,0.0145525275513187,254.22699744848245,40.92534383886465,7577.0
0.28,1.24,1.38,-0.7103256665692116,-0.0686050957984553,-0.7003589726163165,0.015102904333528,253.9166385959414,42.80876830905168,7899.0
-2.12,2.57,2.01,-0.7103256665692116,-0.0686050957984553,-0.7003589726163165,0.015102904333528,253.6354896506211,44.44421660564714,6867.0
0.8300000000000001,-1.48,-2.45,-0.7100083838722395,-0.0717408764133118,-0.7005285579182213,0.0010397228465697,253.38951863854933,45.825777070599294,5807.0
0.8300000000000001,-1.48,-2.45,-0.7093346641138272,-0.0752945564822041,-0.7008326792632777,0.0029359372145782,253.13402850532253,47.216666683138136,5852.0
2.21,-0.5700000000000001,-2.18,-0.7093346641138272,-0.0752945564822041,-0.7008326792632777,0.0029359372145782,252.84363174550043,48.7477987784656,6449.0
-0.15,1.5,0.26,-0.7097049369517627,-0.0779317436370061,-0.7001622744655988,0.0042819639360992,252.51765811893813,50.40914934936981,7006.0
-0.15,1.5,0.26,-0.7108210527102792,-0.0801424889448718,-0.6987690906323099,0.0056895049403611,252.15782668213976,52.179310487394986,7475.0
0.35,3.89,3.47,-0.7108677156150344,-0.0822349982601658,-0.6984468044194885,0.0087497059160741,251.74293057491226,54.14560836812991,8316.0
-1.8,-1.77,-0.39,-0.7108677156150344,-0.0822349982601658,-0.6984468044194885,0.0087497059160741,251.3742100502249,55.832396703217064,7145.0
-1.8,-1.77,-0.39,-0.7095594921211144,-0.0843416699855857,-0.6994605258311132,0.0129144356799409,251.0697537085817,57.18591411101269,5741.0
3.28,-2.5500000000000003,-6.98,-0.7095594921211144,-0.0843416699855857,-0.6994605258311132,0.0129144356799409,250.75866865703645,58.53494762405279,5729.0
3.95,1.65,-3.66,-0.7097154831704597,-0.0848426478932428,-0.6991866697233907,0.0156095780755966,250.4393797244395,59.88628460038233,5746.0
3.95,1.65,-3.66,-0.711596647674245,-0.0857345358643668,-0.6973279713482469,0.00367433725133,250.04946080882232,61.49404157491381,6846.0
-1.99,-1.75,3.17,-0.711596647674245,-0.0857345358643668,-0.6973279713482469,0.00367433725133,249.5718750395034,63.40448871544113,8149.0
6.26,1.58,-0.64,-0.7122786921745792,-0.0901680628552615,-0.6960459906415328,0.0069831244330841,249.07270441138476,65.33787505879691,8263.0
0.18,-6.45,-7.51,-0.710450332454439,-0.0964423305979549,-0.6970317362657782,0.0102937176241781,248.61647859851868,67.05293855807,7344.0
0.18,-6.45,-7.51,-0.7105251630380485,-0.1010045258937896,-0.6962447901416571,0.0139739271260825,248.21846193551895,68.51164247312519,6257.0
5.0200000000000005,0.15,-0.6,-0.7105251630380485,-0.1010045258937896,-0.6962447901416571,0.0139739271260825,247.84396955359387,69.8542536708914,5768.0
5.0200000000000005,0.15,-0.6,-0.7137847655576989,-0.1022932142981108,-0.6927009634495203,0.014587049132984,247.4654218683758,71.18367073639001,5720.0
-3.42,6.8500000000000005,4.13,-0.7137847655576989,-0.1022932142981108,-0.6927009634495203,0.014587049132984,246.99314564810447,72.80546684730655,6990.0
-3.23,-1.56,3.66,-0.7163449074712924,-0.1025714678363122,-0.6901655788603508,0.0007357188368414,246.44470143681028,74.64086771817058,7927.0
-1.0,-1.46,2.81,-0.7176725049261166,-0.103286941141405,-0.6886613866601519,0.0048454087590089,245.915464879381,76.36644638293654,7469.0
-1.0,-1.46,2.81,-0.7176868789348378,-0.1049719823779712,-0.6883609832149838,0.0080983645084115,245.3645442410506,78.11843847249843,7600.0
-1.92,-3.93,2.49,-0.7176868789348378,-0.1049719823779712,-0.6883609832149838,0.0080983645084115,244.86058569940914,79.6840233104624,6806.0
3.24,0.41,-0.9,-0.7163374200757144,-0.1063490747015517,-0.6895200250124842,0.0106164973591277,244.42779460670977,81.00187172960948,5740.0
3.24,0.41,-0.9,-0.7143429190579574,-0.1086336426439199,-0.691204566924196,0.0122136129300226,243.98203909976527,82.3347714924904,5816.0
0.32,0.62,-1.46,-0.7143429190579574,-0.1086336426439199,-0.691204566924196,0.0122136129300226,243.48367526838976,83.79707559215485,6393.0
-0.21,0.12,-1.65,-0.7133174793933049,-0.1111105540190948,-0.6918320131465187,0.0141804077228789,242.9199266521663,85.41755812071746,7100.0
-0.21,0.12,-1.65,-0.713011601187717,-0.1136053278957261,-0.6918871510276469,0.0006754911388394,242.30117389699214,87.1572781134173,7641.0
1.98,-0.44,-1.14,-0.7133375334598738,-0.1155319356326866,-0.6912261582191682,0.0028867628786476,241.60390824901228,89.07188961059977,8432.0
2.93,0.43,-1.91,-0.7133375334598738,-0.1155319356326866,-0.6912261582191682,0.0028867628786476,240.98947824533556,90.72111868270217,7283.0
2.93,0.43,-1.91,-0.7136477626843782,-0.117589688169585,-0.6905475940575423,0.004853492876383,240.493402950476,92.02811058203889,5785.0
-1.38,-0.5700000000000001,0.25,-0.7136477626843782,-0.117589688169585,-0.6905475940575423,0.004853492876383,239.99505640372263,93.32000268845896,5730.0
-0.73,-1.79,1.64,-0.7142674559860126,-0.1194645043824149,-0.6895633763760688,0.0072514462536651,239.49056915414621,94.60717354526085,5721.0
-0.73,-1.79,1.64,-0.7144761928245221,-0.122193622792081,-0.6888450355285977,0.0092198407539296,238.86706702657474,96.17054793501931,6965.0
-0.41,-1.22,1.23,-0.7141816993378777,-0.1251062889001102,-0.6886071459312704,0.0106355714888054,238.10797179806787,98.03491095630434,8330.0
-0.78,-0.47,0.27,-0.7141816993378777,-0.1251062889001102,-0.6886071459312704,0.0106355714888054,237.32223042672965,99.92201431757793,8459.0
1.21,1.01,-0.66,-0.7139372992734269,-0.1283759112024556,-0.6882375239464985,0.0119276469220672,236.64660490652395,101.5117450653645,7148.0
1.21,1.01,-0.66,-0.7139187893393569,-0.1314077909404139,-0.6876618278365226,0.0131592266079778,236.0828459054091,102.81604869475805,5880.0
-2.22,2.1,1.06,-0.7139187893393569,-0.1314077909404139,-0.6876618278365226,0.0131592266079778,235.525184834709,104.08716207379355,5744.0
-2.22,2.1,1.06,-0.7138511615424032,-0.134196884163481,-0.6871593889819309,0.0148219290024743,234.96127314445727,105.35392789229901,5738.0
1.92,1.91,-0.35,-0.7136665534528683,-0.1363466749246966,-0.6870863352365015,0.0014151505068899,234.27474466256467,106.8718579107247,6894.0
1.48,-0.8300000000000001,0.28,-0.7136665534528683,-0.1363466749246966,-0.6870863352365015,0.0014151505068899,233.465378804613,108.62857312704864,8004.0
-3.18,-1.54,1.32,-0.7131782808005241,-0.1382409958296347,-0.6872042379509667,0.0040622910617791,232.68260264686924,110.29531461253993,7620.0
-3.18,-1.54,1.32,-0.7122553459049824,-0.139569787290742,-0.6878752683720606,0.0063412827926539,231.9045256247628,111.9220308730758,7462.0
3.25,0.65,-0.9,-0.7122553459049824,-0.139569787290742,-0.6878752683720606,0.0063412827926539,231.19259518790903,113.38533384119663,6734.0
-0.95,-0.21,-0.77,-0.7112955775017442,-0.1415201071081392,-0.6884479013759306,0.0083754284450421,230.57426603248643,114.6375062690225,5779.0
-0.95,-0.21,-0.77,-0.7112955775017442,-0.1415201071081392,-0.6884479013759306,0.0083754284450421,229.94621853048764,115.89213339795427,5806.0
-0.59,-0.67,-0.09,-0.710800254579931,-0.1432811675321015,-0.6885627216998413,0.010718367648575,229.22002884265567,117.32190067234721,6636.0
-0.38,-1.0,-0.19,-0.7103944851160735,-0.1452953591728425,-0.6885200777766507,0.0130014083059668,228.407561468165,118.89590347933111,7330.0
-0.38,-1.0,-0.19,-0.7099738379348782,-0.147677516771592,-0.688401579641866,0.0152238508524971,227.57252750108634,120.48649188505449,7434.0
1.45,0.51,-2.7,-0.7100167424248169,-0.1500808294452457,-0.6880040653040476,0.0015415040000538,226.63252599850273,122.24544228533831,8253.0
-1.69,-0.88,2.44,-0.7100167424248169,-0.1500808294452457,-0.6880040653040476,0.0015415040000538,225.7965908827007,123.78267061972076,7241.0
0.41,1.2,-3.52,-0.7098048856743918,-0.1531495942934927,-0.6875386740191558,0.0035773968864368,225.12523730547585,124.99951011165278,5751.0
0.41,1.2,-3.52,-0.7098048856743918,-0.1531495942934927,-0.6875386740191558,0.0035773968864368,224.44898435154013,126.20975962088701,5737.0
-3.22,-0.18,5.44,-0.7100245023505888,-0.1560486631132909,-0.6866387991793996,0.0064171850390598,223.77698629678198,127.39745053936464,5647.0
-3.22,-0.18,5.44,-0.7097700107123747,-0.1587554106924278,-0.6862529767023376,0.0089500523135311,222.96488151055885,128.81347605348768,6755.0
1.21,0.39,-0.55,-0.7081880326970929,-0.1620409310949748,-0.6870683686595618,0.0122271739164653,221.97301953680392,130.51524277920058,8151.0
4.79,-0.37,-7.65,-0.7081880326970929,-0.1620409310949748,-0.6870683686595618,0.0122271739164653,220.94272997553054,132.2518811622723,8356.0
-2.39,-0.36,1.6,-0.7089118961564923,-0.1647166737975604,-0.6856192532376324,0.0154460496809415,220.02373951187874,133.7751996866718,7362.0
-2.39,-0.36,1.6,-0.7092911491303865,-0.1681429253647072,-0.684564248341459,0.0024108728269204,219.24912908613766,135.0409915357931,6141.0
3.51,-0.59,-1.16,-0.7092911491303865,-0.1681429253647072,-0.684564248341459,0.0024108728269204,218.520049071085,136.2176132296063,5728.0
3.51,-0.59,-1.16,-0.7086362956374981,-0.1717475120427066,-0.6843306520534925,0.0053806386560012,217.7823337885174,137.39397763230667,5746.0
-1.7,-0.23,-0.91,-0.7082471085343047,-0.1755304487561651,-0.6837458544957282,0.0081670846795254,216.87715043971772,138.81841238520215,6984.0
0.94,1.58,0.13,-0.7082471085343047,-0.1755304487561651,-0.6837458544957282,0.0081670846795254,215.8078807202287,140.47493946979847,8159.0
-1.99,-0.07,-0.22,-0.7078207640463556,-0.1782861466200371,-0.6834302287101423,0.011266693987794,214.78649247021553,142.03173114604368,7705.0
2.22,0.44,-2.21,-0.7074963948805176,-0.1815808324395726,-0.6828479735602755,0.0139963397446601,213.78930567447537,143.52833441249757,7442.0
2.22,0.44,-2.21,-0.7074963948805176,-0.1815808324395726,-0.6828479735602755,0.0139963397446601,212.87269595076575,144.8843170210387,6773.0
-0.91,0.53,0.75,-0.7074708455863429,-0.184676166770086,-0.6821863234245324,0.001239437360873,212.08736923381116,146.03149595714297,5753.0
-0.91,0.53,0.75,-0.7073333226224917,-0.187745906460458,-0.6814779583576267,0.0043402290132866,211.30967125137596,147.15458822488483,5653.0
-0.2,-0.88,-2.12,-0.7073333226224917,-0.187745906460458,-0.6814779583576267,0.0043402290132866,210.40921450975353,148.43925508230137,6492.0
0.66,1.62,0.51,-0.7067831274134244,-0.1915070231128975,-0.6809758965695742,0.0073823569000436,209.37596554298514,149.89314545015958,7381.0
0.66,1.62,0.51,-0.7065266078550897,-0.1947883056975286,-0.6802692932247345,0.0105525850760292,208.33522708905954,151.33632463407451,7363.0
-1.27,1.31,0.92,-0.7061707673681356,-0.1980010911494825,-0.6796505459375116,0.0139122473078682,207.19805525390484,152.8895545778056,7966.0
2.18,-0.1,-1.05,-0.7061707673681356,-0.1980010911494825,-0.6796505459375116,0.0139122473078682,206.14057415528325,154.3123899333108,7336.0
0.18,-0.07,0.6,-0.7058114704373555,-0.2012519849661991,-0.6792099109668387,0.0013052167029926,205.28124993308236,155.4537179546098,5912.0
0.18,-0.07,0.6,-0.7058114704373555,-0.2012519849661991,-0.6792099109668387,0.0013052167029926,204.44352472544804,156.55380927283474,5722.0
1.61,-0.71,-1.2,-0.705401168108884,-0.2044749220437283,-0.6786602263574232,0.0044153648008226,203.5461872185576,157.7187359472168,6085.0
1.61,-0.71,-1.2,-0.705259217976197,-0.2076451394376715,-0.6778179514218028,0.0074670113073181,202.51123187538093,159.0454367918668,6963.0
-1.77,-0.03,1.38,-0.7048426470586199,-0.2111228174344828,-0.6771370576282616,0.0104596382568543,201.3146327186059,160.55736872960023,7979.0
1.26,-0.37,-0.54,-0.7048426470586199,-0.2111228174344828,-0.6771370576282616,0.0104596382568543,200.0154614917864,162.17294831206505,8579.0
-0.41,0.63,0.16,-0.7046730860929418,-0.2142923812022383,-0.6762668867242729,0.0133309795282787,198.92048180912954,163.5141948481041,7165.0
-0.41,0.63,0.16,-0.7043277548757466,-0.2177568461480777,-0.675650930017998,0.0004363864652266,198.02844361027155,164.59339452509477,5794.0
-0.03,-0.09,-1.08,-0.7043277548757466,-0.2177568461480777,-0.675650930017998,0.0004363864652266,197.13723570877744,165.65977271836977,5751.0
-0.03,-0.09,-1.08,-0.7040186259368713,-0.2212612144425024,-0.6748248711133328,0.0035556496259437,196.2418500694846,166.7194838082998,5741.0
0.31,0.11,0.15,-0.7035395568312868,-0.2249628748842123,-0.6740771603425664,0.0066165551436533,195.16872987158087,167.9744530585348,6833.0
-0.77,-0.26,0.8300000000000001,-0.7035395568312868,-0.2249628748842123,-0.6740771603425664,0.0066165551436533,193.8682648219348,169.47373216794443,8213.0
0.31,0.02,-0.28,-0.7031855406058046,-0.2283572869474881,-0.6732667385139428,0.0097439104933829,192.61531404400355,170.89643295203643,7845.0
-1.07,0.24,0.1,-0.7027746963759955,-0.2316331398763286,-0.672523633316054,0.0128754524593965,191.45942066247852,172.19041854757222,7180.0
-1.07,0.24,0.1,-0.7027746963759955,-0.2316331398763286,-0.672523633316054,0.0128754524593965,190.36759002813815,173.3967435302022,6733.0
2.17,-0.02,-1.16,-0.7023806732809034,-0.2350858294775991,-0.6716737985074261,0.015822483335417,189.40147931032797,174.45151084200847,5919.0
2.17,-0.02,-1.16,-0.7023365688049367,-0.2384101230352022,-0.6707279806892168,0.0028166068617968,188.46213213766265,175.46587916209288,5721.0
-1.31,-0.64,0.23,-0.7023365688049367,-0.2384101230352022,-0.6707279806892168,0.0028166068617968,187.30605834703235,176.6994355013567,6996.0
1.61,0.35,-1.22,-0.7016876106839828,-0.242121055239582,-0.6700603129871413,0.0055739197921166,186.01529530870235,178.05774319365125,7754.0
0.74,0.59,-0.12,-0.7013843936533642,-0.2453466673653431,-0.6691728516288977,0.0085228982788471,184.79295523476443,179.32599838172473,7289.0
0.74,0.59,-0.12,-0.7009232368193121,-0.2485245403520563,-0.6684388280627224,0.0114761521282932,183.4670379635712,180.68230677316893,7849.0
-1.66,0.08,1.62,-0.7009232368193121,-0.2485245403520563,-0.6684388280627224,0.0114761521282932,182.26658192757714,181.89321898421008,7056.0
0.74,0.49,-0.84,-0.7002748064074713,-0.2516445894519186,-0.6678936073657781,0.0144334801930028,181.28257828907797,182.87393693160408,5749.0
0.74,0.49,-0.84,-0.7002748064074713,-0.2516445894519186,-0.6678936073657781,0.0144334801930028,180.27759636798663,183.86472812309947,5840.0
-0.8200000000000001,-0.54,-0.43,-0.6998845708624455,-0.2545662896621638,-0.6673493283149495,0.0015702337136822,179.21723204221118,184.89844168929125,6128.0
1.56,0.41,-1.09,-0.6993195914145336,-0.2577664609375339,-0.6666980861166599,0.0047140903609644,178.04499926397386,186.02749322906965,6735.0
1.56,0.41,-1.09,-0.6989314164524103,-0.2609276856668704,-0.6658436723201119,0.0079888659787108,176.6878336830769,187.31700250746422,7747.0
-0.49,-0.16,-0.07,-0.6989314164524103,-0.2609276856668704,-0.6658436723201119,0.0079888659787108,175.17968665936522,188.72818385690735,8547.0
-0.19,0.07,-0.17,-0.6984664045785924,-0.2644036862758078,-0.6649123177250197,0.0112686332960403,173.89940287748428,189.90852450286275,7206.0
-0.19,0.07,-0.17,-0.6978739637852065,-0.2678218127697854,-0.6641048526008722,0.0144274747410681,172.85454514771112,190.86004354442002,5848.0
0.02,0.0,0.39,-0.6978739637852065,-0.2678218127697854,-0.6641048526008722,0.0144274747410681,171.81366106075856,191.79759089440822,5797.0
0.48,-0.02,-0.18,-0.6974011079685987,-0.271292121030917,-0.6633477036550944,0.0014504227763159,170.78812919734332,192.71135131400945,5684.0
0.48,-0.02,-0.18,-0.6968296195506549,-0.2744780378068833,-0.6626224233006364,0.0046703552075671,169.53285425929832,193.8165661822939,6921.0
0.12,0.34,0.04,-0.6968296195506549,-0.2744780378068833,-0.6626224233006364,0.0046703552075671,168.0136456591548,195.13499140933175,8324.0
-0.03,0.38,-0.48,-0.6961761384377886,-0.277687170363172,-0.6619390032383256,0.0080855227039322,166.53358569055274,196.3996304402005,8056.0
0.0,-1.2,-0.05,-0.6955438685855565,-0.2811638563403299,-0.661085963996962,0.0114438178541937,165.20458714861414,197.5188456453104,7190.0
0.0,-1.2,-0.05,-0.695083077936351,-0.2843349128204953,-0.6601580953202154,0.0142989965058816,164.02385210776228,198.50044317263104,6354.0
1.02,0.32,-1.31,-0.695083077936351,-0.2843349128204953,-0.6601580953202154,0.0142989965058816,162.94621098380873,199.3860133660837,5772.0
1.02,0.32,-1.31,-0.695148809806027,-0.2870908850993732,-0.6590486985096135,0.0013300041003941,161.87769605500415,200.25449188451105,5698.0
-0.09,0.35,-0.33,-0.695148809806027,-0.2870908850993732,-0.6590486985096135,0.0013300041003941,160.5817390756817,201.29519387066767,6878.0
0.44,-0.36,1.65,-0.694859806548402,-0.2905074341736294,-0.6578411852179634,0.0045005515658581,159.13132485349183,202.4437488547682,7656.0
-1.84,0.18,1.33,-0.6937902781286056,-0.2941757058963372,-0.6573117293060061,0.0075494735824162,157.76018418272332,203.51406410033,7198.0
-1.84,0.18,1.33,-0.6926602474546991,-0.2977613712706268,-0.6568526966238605,0.0102216590137677,156.2602898524335,204.66795502773138,7831.0
2.59,-0.41,-3.02,-0.6926602474546991,-0.2977613712706268,-0.6568526966238605,0.0102216590137677,154.8915649664566,205.70574396997756,7108.0
0.22,0.67,0.1,-0.6924941841308346,-0.3002777790808629,-0.6558331010733531,0.0129616307516919,153.7488596850608,206.56122130144246,5907.0
0.22,0.67,0.1,-0.6924941841308346,-0.3002777790808629,-0.6558331010733531,0.0129616307516919,152.59812062059171,207.41278548600457,5924.0
1.27,-0.4,-1.25,-0.6919191991814617,-0.3033227258611867,-0.6549736009161893,0.0158974174979657,151.35880799005875,208.3188931514099,6353.0
2.09,0.02,-2.08,-0.6913633962949499,-0.3066644120188794,-0.6541919524138736,0.002545989306923,149.96249883038087,209.32629778541448,7125.0
2.09,0.02,-2.08,-0.6911278389575587,-0.3098862286771354,-0.6529017416700831,0.0056702044309755,148.45623628525865,210.39723360352306,7648.0
-1.66,-0.14,0.53,-0.6904361562135313,-0.3133998621896477,-0.6519227245222704,0.008671898526509,146.80576525705743,211.55216209552137,8336.0
-1.11,0.5,1.26,-0.6904361562135313,-0.3133998621896477,-0.6519227245222704,0.008671898526509,145.3803593827934,212.53423513808272,7163.0
-1.11,0.5,1.26,-0.689670945574847,-0.3166257228388687,-0.6511218755094011,0.0119348942090039,144.2231700371165,213.3211832529648,5791.0
0.0,0.59,0.26,-0.689670945574847,-0.3166257228388687,-0.6511218755094011,0.0119348942090039,143.07036075625152,214.09605758415088,5748.0
-0.14,0.38,0.07,-0.6889375744834509,-0.3196471005416586,-0.6503473588673881,0.0154616426806079,141.9252850771867,214.85684409801632,5689.0
-0.14,0.38,0.07,-0.6883281634459655,-0.3226398342553154,-0.6496932586303013,0.0025586029679247,140.54763902061976,215.76054126213523,6818.0
0.26,-0.6,-0.12,-0.6883281634459655,-0.3226398342553154,-0.6496932586303013,0.0025586029679247,138.88557108745024,216.83414893349433,8188.0
-1.06,-0.54,0.6,-0.6877262966383906,-0.3255493940511711,-0.6488575943982133,0.0058271036307349,137.24024901121552,217.87924190096575,8066.0
0.32,-0.66,-0.6900000000000001,-0.6869760662981296,-0.3284896752918375,-0.6481341651806947,0.008973376495777,135.76944756575122,218.79878223539257,7178.0
0.32,-0.66,-0.6900000000000001,-0.6864629005866282,-0.3312985437971353,-0.6471997888895238,0.0119329064961787,134.48027378782183,219.59350163871534,6267.0
0.23,-0.19,-0.6,-0.6864629005866282,-0.3312985437971353,-0.6471997888895238,0.0119329064961787,133.22284668363238,220.35862388731098,6091.0
0.23,-0.19,-0.6,-0.6859859101899582,-0.3340352620807041,-0.6462381540907741,0.0148331690774015,131.96127407646676,221.11642214931848,6090.0
-0.77,0.49,0.8300000000000001,-0.6853181254413863,-0.3369700416062045,-0.6455914017266525,0.0014142199380649,130.48711938440147,221.9895530757269,7090.0
0.37,0.63,-0.22,-0.6853181254413863,-0.3369700416062045,-0.6455914017266525,0.0014142199380649,128.7496512016502,223.0017428529504,8321.0
-0.32,0.96,1.48,-0.6849832571982253,-0.3395637997402569,-0.6445727841573153,0.0045043520905472,127.11594097878864,223.9370169245744,7790.0
-0.85,-0.26,0.14,-0.6842531443339558,-0.3421909906516638,-0.6439271729205632,0.0077946366469976,125.5611033827222,224.81249813414144,7384.0
-0.85,-0.26,0.14,-0.6842531443339558,-0.3421909906516638,-0.6439271729205632,0.0077946366469976,124.15312025457618,225.59311321725392,6662.0
1.55,-0.93,-1.65,-0.6835792633069602,-0.3447880691352057,-0.6432132017250192,0.0108330644501055,122.93398026265255,226.2597765772382,5750.0
1.55,-0.93,-1.65,-0.6832195133921324,-0.3478067590851105,-0.6419061641318372,0.014072359591788,121.72361188453024,226.91322638793943,5692.0
-0.07,1.09,1.31,-0.6832195133921324,-0.3478067590851105,-0.6419061641318372,0.014072359591788,120.36303150253843,227.63784976914306,6379.0
1.85,-0.51,-0.89,-0.6823632329221606,-0.3510700020110983,-0.6411939414492096,0.0007755596509818,118.83416568351217,228.43968802794225,7144.0
1.85,-0.51,-0.89,-0.6817387818709452,-0.3542945401466542,-0.6400722946805789,0.0038819708562452,117.23046757775505,229.26680412022347,7467.0
-0.46,-0.68,-0.93,-0.6812659830699457,-0.3572452859220287,-0.6389094897789728,0.0068651197077112,115.44824086672769,230.16940213846416,8267.0
-0.93,0.67,0.99,-0.6812659830699457,-0.3572452859220287,-0.6389094897789728,0.0068651197077112,113.86328385645702,230.95757746699695,7325.0
0.96,0.34,-0.49,-0.6805481973487226,-0.360469465300457,-0.6378234891413482,0.0098545609218829,112.60687075808539,231.57275888599648,5789.0
0.96,0.34,-0.49,-0.6799520896797435,-0.36353681312488,-0.6366599892772628,0.0130460452487236,111.21005961042167,232.24679253209604,6418.0
-1.43,0.6900000000000001,0.35,-0.6799520896797435,-0.36353681312488,-0.6366599892772628,0.0130460452487236,109.65356068643982,232.9857219418934,7130.0
1.17,0.1,-0.8200000000000001,-0.6790832403392569,-0.3660551093618214,-0.6360638044440811,0.0165059467029828,108.0612254719587,233.72852104417746,7271.0
1.17,0.1,-0.8200000000000001,-0.6786157635760288,-0.3685271451027091,-0.6353400172413473,0.0033839681344412,106.39696455878241,234.49080138179664,7575.0
1.68,-0.32,-0.94,-0.6781095457663324,-0.3708197775493608,-0.6345181855167239,0.0068416933127188,104.58314731822931,235.30536606081372,8228.0
-4.51,-0.23,0.99,-0.6781095457663324,-0.3708197775493608,-0.6345181855167239,0.0068416933127188,102.99304241760842,236.00568470603565,7190.0
-4.51,-0.23,0.99,-0.6771590804234927,-0.3735172690456205,-0.6339028447244104,0.0103736673848478,101.70803264600129,236.56230911808402,5795.0
-1.5,-1.23,0.58,-0.6771590804234927,-0.3735172690456205,-0.6339028447244104,0.0103736673848478,100.42958306838608,237.10788440013997,5752.0
-0.54,-2.33,-1.02,-0.6760324484072626,-0.3768799253439522,-0.6330537671462019,0.0135859661129189,99.13504859849714,237.65204004883614,5811.0
-0.54,-2.33,-1.02,-0.6752404499617325,-0.3803499271257285,-0.6317588096766011,0.0162810953849589,97.60795320061041,238.28331345687522,6838.0
2.44,-1.55,-1.19,-0.674634964802116,-0.3843462223069783,-0.630191660145025,0.002029075764904,95.7868724339746,239.02118121479836,8131.0
1.58,-0.49,0.08,-0.674634964802116,-0.3843462223069783,-0.630191660145025,0.002029075764904,93.81890293477805,239.80046591304756,8759.0
-1.03,-0.06,-0.7000000000000001,-0.6736110057796427,-0.3885889804808752,-0.6286730353464194,0.0041269564683572,92.15200458640352,240.44595661126738,7397.0
-1.03,-0.06,-0.7000000000000001,-0.6727124380360814,-0.3927707061957083,-0.6270170312227933,0.0062282118325141,90.83735433601055,240.9456890198164,5820.0
0.48,0.75,0.25,-0.6727124380360814,-0.3927707061957083,-0.6270170312227933,0.0062282118325141,89.46901149989444,241.45713073179627,6045.0
0.1,0.25,0.2,-0.6716488773598824,-0.3969132531408684,-0.6255205888893864,0.0084645081261649,88.0837106996292,241.96592716616945,6107.0
0.1,0.25,0.2,-0.6706193026112263,-0.4008873002780261,-0.6240549028902039,0.0107052146044099,86.47498843587842,242.54551402781024,7076.0
2.21,0.7000000000000001,-1.42,-0.6706193026112263,-0.4008873002780261,-0.6240549028902039,0.0107052146044099,84.57560418189182,243.21434410262066,8333.0
-0.81,0.58,-0.66,-0.6698559445275408,-0.4044512484771254,-0.6225209479567458,0.0134115823617252,82.73512605945427,243.84656839071206,8053.0
0.86,1.64,-0.74,-0.669234670338086,-0.4074117436460221,-0.6211877280341125,0.0163227968375142,81.08329950504447,244.4007948869546,7210.0
0.86,1.64,-0.74,-0.6687185156238625,-0.4098661143567449,-0.6203361212948418,0.0029003070169985,79.63484603582553,244.87658380672164,6309.0
0.5,1.23,-0.05,-0.6687185156238625,-0.4098661143567449,-0.6203361212948418,0.0029003070169985,78.31321868813073,245.30244552124833,5746.0
0.5,1.23,-0.05,-0.6679517466117082,-0.4119409862479797,-0.6197599325153901,0.006535602185665,77.00038288861545,245.717705985968,5698.0
-0.62,0.23,0.3,-0.6679517466117082,-0.4119409862479797,-0.6197599325153901,0.006535602185665,75.42891613392472,246.2046478254652,6808.0
-0.45,-1.67,0.24,-0.6669044061509832,-0.4143441968224657,-0.6192353195211766,0.0102478618968377,73.70364896513487,246.72661414858382,7459.0
0.29,-1.44,-0.55,-0.6657789793539947,-0.417328297290204,-0.618379382136389,0.0135049131737312,72.07198220785688,247.208170133251,7040.0
0.29,-1.44,-0.55,-0.6648577553811659,-0.4206148256055108,-0.6170696543314379,0.0165037963403359,70.24515481293486,247.73346206216635,7866.0
0.12,-1.99,-0.62,-0.6648577553811659,-0.4206148256055108,-0.6170696543314379,0.0165037963403359,68.57360346496719,248.20135154311598,7183.0
-0.06,-0.97,0.25,-0.6641976628065588,-0.4243724701416668,-0.6154230317582202,0.0019908012672791,67.23747429709285,248.56663503002125,5732.0
-0.06,-0.97,0.25,-0.6641976628065588,-0.4243724701416668,-0.6154230317582202,0.0019908012672791,65.8435658056989,248.93950036502966,5971.0
-0.6900000000000001,-0.47,0.04,-0.6633926444998771,-0.4282695005742098,-0.6135784190918967,0.0041179759670597,64.32685719767638,249.33572837254943,6487.0
0.38,0.41,-0.31,-0.6623134818080609,-0.4322585881370755,-0.6119287347977729,0.0060488284669343,62.714955325092454,249.74603976554195,6883.0
0.38,0.41,-0.31,-0.6614181184338819,-0.4362219475529031,-0.6100587553851032,0.0080498483535002,60.89406810796215,250.19624791203975,7762.0
0.08,0.17,-0.84,-0.6605883484588155,-0.4400370772798239,-0.6081807849268511,0.0103216929446689,58.85659271607735,250.68336900132365,8669.0
0.68,1.45,-1.37,-0.6605883484588155,-0.4400370772798239,-0.6081807849268511,0.0103216929446689,57.15057055626938,251.0778012590776,7246.0
0.68,1.45,-1.37,-0.6598418807601191,-0.4432948029881814,-0.6065718329954091,0.0130008251741157,55.782855434247,251.38520847416999,5801.0
1.05,1.85,-1.02,-0.6598418807601191,-0.4432948029881814,-0.6065718329954091,0.0130008251741157,54.42458828211123,251.68276498465818,5754.0
0.24,1.48,-0.8300000000000001,-0.6591185687283926,-0.4457997045582939,-0.6054383287306588,0.0164245510440827,53.07986798754793,251.96979504381966,5690.0
0.24,1.48,-0.8300000000000001,-0.65845723866533,-0.4478231626233629,-0.6048789932192787,0.0031437921797308,51.44763452783386,252.30812690337672,6898.0
0.09,1.81,0.49,-0.65845723866533,-0.4478231626233629,-0.6048789932192787,0.0031437921797308,49.50238289107022,252.69698076571055,8209.0
-0.3,-1.61,0.54,-0.6571685000959189,-0.450262267602424,-0.6044368922680755,0.0070353479312878,47.59765474426158,253.0626666714118,8026.0
0.98,-1.64,-0.76,-0.6555366140499217,-0.4531516792587901,-0.6040009277370606,0.01040108252408,45.891407487425624,253.37764052659236,7180.0
0.98,-1.64,-0.76,-0.6555366140499217,-0.4531516792587901,-0.6040009277370606,0.01040108252408,44.39756241064584,253.64366038202652,6279.0
0.21,-2.93,-0.86,-0.6542565140005129,-0.456353326476734,-0.6029159247753288,0.0135071445474633,43.02440676026539,253.8801891107836,5766.0
0.21,-2.93,-0.86,-0.6533808506490375,-0.459896158879409,-0.6011076915721941,0.0160788738987973,41.64426797094656,254.11022203989353,5790.0
-0.26,-1.98,-0.01,-0.6533808506490375,-0.459896158879409,-0.6011076915721941,0.0160788738987973,39.966190418554696,254.37954639362778,7033.0
-0.34,-0.12,-1.07,-0.6526150203614158,-0.4639021940401891,-0.599072301972631,0.0008755413069864,38.06005367080622,254.67171479097428,7980.0
0.56,1.81,-1.43,-0.6518250532998422,-0.4678041230507658,-0.596888401961748,0.002763684300444,36.26877718995589,254.93298296051324,7491.0
0.56,1.81,-1.43,-0.6508935996178024,-0.4714507710658338,-0.5950159531187313,0.0052638362644052,34.46828440659815,255.1826549161715,7522.0
0.38,1.78,-1.04,-0.6508935996178024,-0.4714507710658338,-0.5950159531187313,0.0052638362644052,32.83361876396464,255.39812739889584,6823.0
0.5700000000000001,1.44,-1.3,-0.6497211170024445,-0.47484038368967,-0.5935673730368666,0.0081764175930624,31.44274412024783,255.57308904144938,5801.0
0.5700000000000001,1.44,-1.3,-0.6486063324639808,-0.4776211940999633,-0.5924912573635175,0.0119134538210875,30.038457392264164,255.74194235106046,5853.0
-1.78,-0.21,1.04,-0.6486063324639808,-0.4776211940999633,-0.5924912573635175,0.0119134538210875,28.54272383504348,255.91319410314983,6230.0
-1.31,-0.47,0.96,-0.647326379423616,-0.4806133958665704,-0.5913938005563681,0.0152543396910676,26.896051653481745,256.09149225511817,6854.0
-1.31,-0.47,0.96,-0.6458483840131325,-0.4837581629386558,-0.5906412831612057,0.000882770370326,25.04720927778993,256.2789248209743,7690.0
2.27,-0.32,-1.26,-0.6448429366537467,-0.4865738180382769,-0.5894113373105546,0.0042168824040219,22.994890803898574,256.4712167026093,8530.0
-2.68,-1.03,1.56,-0.6448429366537467,-0.4865738180382769,-0.5894113373105546,0.0042168824040219,21.253230053153644,256.6214141733065,7234.0
-2.68,-1.03,1.56,-0.6434185038807982,-0.4899025403212217,-0.5881827246231157,0.0070151482904331,19.86020426577655,256.73297857213754,5783.0
1.13,-0.88,-0.38,-0.6434185038807982,-0.4899025403212217,-0.5881827246231157,0.0070151482904331,18.47599376663773,256.8363051718646,5744.0
0.78,0.11,-1.93,-0.6418400052913575,-0.493397883595906,-0.5869498316740683,0.0094779305997555,17.07798468534526,256.93305049971116,5799.0
0.78,0.11,-1.93,-0.6408762588382662,-0.496464018539637,-0.5853646033475874,0.0122221234106168,15.383017188718396,257.0400995606942,7028.0
-0.38,0.74,-1.56,-0.6397269114626674,-0.499624256312282,-0.5838636272958226,0.0151111209313007,13.378248948579703,257.1522359519159,8309.0
-0.67,0.33,-0.81,-0.6397269114626674,-0.499624256312282,-0.5838636272958226,0.0151111209313007,11.35914779893542,257.24933384030743,8365.0
0.19,-0.39,-0.54,-0.6384423245644429,-0.5030961134991775,-0.5824818719124581,0.0007534455069422,9.61464607918525,257.3204394928083,7225.0
0.19,-0.39,-0.54,-0.6369904500283808,-0.5068481900710476,-0.5808035702682037,0.0039104421811112,8.148195134493573,257.3710491023616,6072.0
1.01,1.73,0.88,-0.6369904500283808,-0.5068481900710476,-0.5808035702682037,0.0039104421811112,6.7575748461221,257.4113151790322,5757.0
1.01,1.73,0.88,-0.6353969034687194,-0.5116718465405827,-0.578277168853563,0.0076297118439017,5.371589346302561,257.4439667731499,5737.0
-1.43,-0.3,1.21,-0.6353969034687194,-0.5116718465405827,-0.578277168853563,0.0076297118439017,3.726181969363732,257.47303852623327,6810.0
1.0,-0.18,0.13,-0.633622604978779,-0.5151324927144653,-0.5770971069142807,0.0109470818419673,1.8380083387184887,257.49344015983553,7814.0
-2.16,-0.48,1.03,-0.6324717940792174,-0.5180035016488314,-0.5757203454827068,0.014067187744457,1.5767327539022172e-14,257.5,7606.0
