ACC_X,ACC_Y,ACC_Z,QUAT_W,QUAT_X,QUAT_Y,QUAT_Z,X_pos,Y_pos,dt
-1.79,0.46,0.55,0.7122065229415726,0.0133042863754295,0.7017095630490319,0.0137314882315213,257.5,0.0,
1.03,1.02,0.5,0.7117292999854304,0.012938313462263,0.7022086542301803,0.0133044921451572,257.4918935429197,2.0432228663851295,8464.0
-1.0,0.62,1.67,0.7117977875920894,0.0126943273445215,0.7021549812438471,0.0126943273445215,257.4687852218522,4.009318693212143,8145.0
0.35,-1.42,-1.45,0.7116271821233693,0.0122673296403771,0.7023503955296513,0.0118401092051401,257.43675940236284,5.70656713006579,7032.0
0.35,-1.42,-1.45,0.7115721951112572,0.0120233058098394,0.702417393733207,0.0114129857179693,257.38863137745557,7.572478962683747,7732.0
0.89,-0.73,-2.48,0.7115721951112572,0.0120233058098394,0.702417393733207,0.0114129857179693,257.3319336508555,9.301931171090509,7168.0
-1.34,0.7000000000000001,1.88,0.711637820944104,0.0117792538115104,0.7023608956624999,0.011046864973489,257.27780171873053,10.69498680586331,5775.0
-1.34,0.7000000000000001,1.88,0.711637820944104,0.0117792538115104,0.7023608956624999,0.011046864973489,257.2151077850608,12.109431329321671,5865.0
-0.09,0.86,-0.39,0.7114614074724992,0.0118403974478566,0.702550592898339,0.0102535400579377,257.1406838299791,13.598482248058206,6176.0
-0.47,-0.32,0.03,0.7115922022282505,0.0116574415151896,0.702437143446688,0.0090940250563521,257.0470539716556,15.26636972213028,6920.0
-0.47,-0.32,0.03,0.7116572853761349,0.0118406100654348,0.7023801063557942,0.0081175316427981,256.92161566209023,17.24915666289805,8230.0
0.99,-0.86,-1.2,0.711845363594492,0.0116575893377817,0.702201912728683,0.007263105398932,256.76846205869856,19.396053516390104,8916.0
-0.37,-0.75,0.03,0.711845363594492,0.0116575893377817,0.702201912728683,0.007263105398932,256.62828115695714,21.170151402995845,7372.0
0.28,0.34,0.58,0.7118441928393675,0.0120848109562029,0.7022007578339126,0.0067748182633258,256.50484406750377,22.61669670631839,6014.0
0.28,0.34,0.58,0.7118441928393675,0.0120848109562029,0.7022007578339126,0.0067748182633258,256.37845823449106,24.007002172393896,5783.0
-0.23,0.21,-0.1,0.7118112252524733,0.0127566923407448,0.7022284467955502,0.0061036805458109,256.2441319476657,25.400685864505043,5800.0
-0.23,0.21,-0.1,0.7119940478696332,0.0130008343074352,0.702045052601502,0.005310199928389,256.07415833845124,27.060588154247657,6912.0
0.34,0.39,0.81,0.712049856131635,0.0137942111679881,0.7019788612523516,0.004516688612527,255.85870351507728,29.027122413077574,8195.0
-0.3,-0.89,-0.41,0.712049856131635,0.0137942111679881,0.7019788612523516,0.004516688612527,255.61519523845752,31.09858458523865,8640.0
1.06,-0.78,-1.89,0.7121981553011794,0.0142830277974353,0.7018215966449228,0.0040285463018407,255.39955246118376,32.822531935044836,7197.0
1.06,-0.78,-1.89,0.7125555836061503,0.0148932296042402,0.7014466992292171,0.0039064208798007,255.21830099898435,34.203345380120666,5769.0
-2.09,0.05,0.58,0.7125555836061503,0.0148932296042402,0.7014466992292171,0.0039064208798007,255.02948416957386,35.58387562086344,5772.0
-2.09,0.05,0.58,0.7125455384010434,0.0158696111002459,0.7014368106308713,0.0036622179462106,254.83396212163564,36.958108033133655,5750.0
1.78,2.22,0.23,0.7131173075012971,0.0187999769503038,0.7007874524884354,0.0026857109929005,254.59068340351985,38.59836685831052,6869.0
0.3,4.29,1.01,0.7131173075012971,0.0187999769503038,0.7007874524884354,0.0026857109929005,254.29187582217568,40.520265187177486,8057.0
-0.38,-1.13,-1.4,0.7122737168511237,0.0211790042628397,0.7014095590448256,0.0155638215764384,253.97481912835616,42.462233204563866,8151.0
3.5,-1.81,-4.13,0.7117716449953011,0.0237440330934887,0.7018833844268045,0.0133064247156312,253.67209898974852,44.23478488853797,7449.0
3.5,-1.81,-4.13,0.7117716449953011,0.0237440330934887,0.7018833844268045,0.0133064247156312,253.40392966308437,45.74602093413806,6358.0
1.72,0.71,-1.31,0.7130258538007598,0.0254543087950446,0.7005733861887955,0.01196413554875,253.1530774883068,47.11442834418487,5763.0
1.72,0.71,-1.31,0.7144828603121638,0.0274707183134376,0.6990382120159423,0.0102557348370167,252.89847119372942,48.46249341371533,5683.0
-0.94,2.67,3.16,0.7144828603121638,0.0274707183134376,0.6990382120159423,0.0102557348370167,252.58758043187925,50.05760892780361,6732.0
0.65,1.0,2.15,0.7135948645757938,0.0291836366587294,0.699918850744088,0.0066548460163211,252.2350590598919,51.804681072783744,7383.0
0.65,1.0,2.15,0.7124558634544558,0.0307745762068088,0.7010375187110565,0.00244242668308,251.881743712639,53.49614177004211,7158.0
3.82,-4.91,-6.11,0.7138273522115531,0.0307120997487307,0.6994787569015098,0.0153865788005569,251.4722517090841,55.38913810814399,8023.0
0.91,-1.02,-0.31,0.7138273522115531,0.0307120997487307,0.6994787569015098,0.0153865788005569,251.09281301618205,57.08457980593924,7197.0
1.28,-0.41,4.63,0.7146339484864882,0.0321197519357338,0.6986351366857995,0.0132509242776696,250.78111881364853,58.43868963772797,5756.0
1.28,-0.41,4.63,0.7146339484864882,0.0321197519357338,0.6986351366857995,0.0132509242776696,250.4622902945312,59.79039337902023,5753.0
-1.14,-1.7,-1.16,0.7139251297764841,0.0372535782004837,0.6991458413756365,0.0108707162617805,250.1420788302365,61.1162040582344,5650.0
-1.14,-1.7,-1.16,0.7134442303944167,0.0431205912728754,0.6993353683773711,0.0082454388411305,249.7500315949376,62.6990567578784,6755.0
0.4,-2.87,-8.48,0.7150233988338682,0.0495373292716783,0.6973096805986195,0.0068411601460271,249.25884454300265,64.62413184784172,8230.0
5.32,-0.12,-1.41,0.7150233988338682,0.0495373292716783,0.6973096805986195,0.0068411601460271,248.71497334553843,66.68667058511845,8836.0
-3.93,6.43,4.08,0.7174901608898968,0.0522266377967701,0.6945837408035942,0.0058029597551966,248.2494996564504,68.39909297879639,7351.0
-3.93,6.43,4.08,0.7188201794777465,0.053822928618043,0.6931000285717349,0.0036044867065431,247.87568028314539,69.74164555104707,5773.0
5.33,0.75,-0.5700000000000001,0.7188201794777465,0.053822928618043,0.6931000285717349,0.0036044867065431,247.49453369952624,71.0823873322644,5774.0
5.33,0.75,-0.5700000000000001,0.7200986917865605,0.0542594517018638,0.6917469062126136,6.11029861507476e-05,247.11109088971398,72.4041349599283,5701.0
3.99,3.45,0.33,0.7213603441573392,0.0545114729742753,0.6903156936293886,0.0114889651560131,246.63256844891416,74.01774233446778,6972.0
-10.41,0.7000000000000001,6.04,0.7213603441573392,0.0545114729742753,0.6903156936293886,0.0114889651560131,246.0471691162147,75.94103350558805,8328.0
2.94,-3.58,-1.07,0.7200686538541965,0.0554416187644954,0.6916448912020572,0.0073962909266857,245.48520907149376,77.73842117720805,7801.0
-0.65,2.09,1.82,0.7187551518452474,0.0541695359420627,0.6931377302202764,0.0040963418827519,244.96151454187444,79.37320954422239,7111.0
-0.65,2.09,1.82,0.7187551518452474,0.0541695359420627,0.6931377302202764,0.0040963418827519,244.4726867816837,80.86628109258378,6508.0
-1.3,-2.01,0.04,0.7179200962591528,0.0557702834572697,0.6938875070061845,0.0007338195191746,244.03083247957005,82.19004075511845,5781.0
-1.3,-2.01,0.04,0.7171646774208368,0.0566343588002468,0.6944742377719257,0.0131494461577247,243.585881256317,83.49951169068852,5729.0
4.3,-0.68,-1.12,0.7171646774208368,0.0566343588002468,0.6944742377719257,0.0131494461577247,243.06537006532255,85.00279921865982,6590.0
2.6,-0.09,-2.0,0.7168671015385856,0.0579292725622528,0.6947230712666368,0.0102767875295231,242.47161187049858,86.68199026858055,7378.0
2.6,-0.09,-2.0,0.7168060779707336,0.0591678597864019,0.694717559477568,0.0074648178841169,241.86956650965374,88.34796430270583,7338.0
0.8,0.4,-0.8200000000000001,0.7169719776792082,0.0605891812123274,0.6944499386023026,0.004406485906351,241.19264300695224,90.17959280968668,8089.0
-1.71,-2.03,1.05,0.7169719776792082,0.0605891812123274,0.6944499386023026,0.004406485906351,240.57302360890745,91.81977081036555,7263.0
0.17,-1.45,0.61,0.7167727367684318,0.0625569374019929,0.6944921837211466,0.0020199402487923,240.06933107897413,93.12876180479317,5810.0
0.17,-1.45,0.61,0.7167727367684318,0.0625569374019929,0.6944921837211466,0.0020199402487923,239.55842767706986,94.43521445356122,5811.0
0.41,-0.61,-0.91,0.7162460493261946,0.0649574372454989,0.6948180540048707,0.0,239.00943688024714,95.81617338522325,6156.0
0.41,-0.61,-0.91,0.7159164757485069,0.0673486806912988,0.6947934804407814,0.0137758665050384,238.3786107465608,97.37498620559406,6966.0
1.45,-0.32,-1.37,0.7162076640749231,0.0698082025517623,0.6942854390630538,0.0118796414868788,237.6489507756041,99.1424540509993,7921.0
-0.58,-0.24,0.0,0.7162076640749231,0.0698082025517623,0.6942854390630538,0.0118796414868788,236.83735895571414,101.06589633937958,8648.0
-0.39,-2.02,0.76,0.7162236946113573,0.0727615656916617,0.6939909939833495,0.0102895143402349,236.15218613458055,102.65668504222423,7175.0
-0.39,-2.02,0.76,0.7159950869312397,0.0761384115882907,0.693882483082991,0.009004301290007,235.5966455601907,103.92531260855502,5737.0
1.04,-1.12,-0.36,0.7159950869312397,0.0761384115882907,0.693882483082991,0.009004301290007,235.0343884959526,105.19071358410693,5736.0
-1.54,-1.91,0.89,0.7158891899225938,0.0798223185409156,0.6935903994783165,0.007963853730099,234.46583395248058,106.4519737203956,5731.0
-1.54,-1.91,0.89,0.715788085440033,0.0836842284073164,0.6932435788120005,0.0075965185377066,233.77495979463941,107.96072514120459,6874.0
3.02,0.22,-1.78,0.715788085440033,0.0836842284073164,0.6932435788120005,0.0075965185377066,232.9243300221986,109.78390812732948,8334.0
-1.41,0.03,-0.13,0.7163216117961883,0.0873652598718238,0.6922440892648932,0.0069843195128947,232.09661054921006,111.52315172899443,7979.0
0.71,0.02,-0.2,0.716717701514725,0.0915962526726375,0.6912913169935582,0.0064944500222739,231.32911791940688,113.1065391682954,7289.0
0.71,0.02,-0.2,0.716717701514725,0.0915962526726375,0.6912913169935582,0.0064944500222739,230.6286118072307,114.52813373084223,6565.0
-2.39,2.13,1.58,0.7171299785215626,0.0954008353176754,0.6903540215313094,0.0058821324280647,230.01299207423915,115.75955026284434,5703.0
-2.39,2.13,1.58,0.7169444198551623,0.0990241181611916,0.6900436847853831,0.004963461368228,229.3892619154785,116.99066850767198,5717.0
-1.34,5.67,1.77,0.7169444198551623,0.0990241181611916,0.6900436847853831,0.004963461368228,228.62380382816028,118.47956078219941,6935.0
-2.46,6.45,-2.04,0.7162543384691503,0.1012538222788838,0.6904505496196285,0.0023290830790542,227.77745165811453,120.09863661230841,7568.0
7.55,0.07,-1.76,0.7160648727963042,0.1033021670087134,0.6901933508510952,0.0145910479217055,226.9811065516037,121.59698708689102,7029.0
7.55,0.07,-1.76,0.7167542108807067,0.1047592154872708,0.6893377183029491,0.0101201818240045,226.07790255511966,123.2681304160886,7869.0
-13.5,-4.46,3.67,0.7167542108807067,0.1047592154872708,0.6893377183029491,0.0101201818240045,225.2404721933307,124.79174526436204,7202.0
5.82,-0.49,-2.94,0.7152691404549264,0.1055908552687363,0.6907887504187696,0.0071784602361662,224.5654484079152,126.0024181567639,5742.0
5.82,-0.49,-2.94,0.7152691404549264,0.1055908552687363,0.6907887504187696,0.0071784602361662,223.87318329089572,127.2283294050543,5832.0
-0.71,-1.63,-4.5200000000000005,0.7144222562716183,0.1070405854757476,0.6914674518175302,0.0039894713623415,223.16061709479482,128.47407901156703,5945.0
-0.71,-1.63,-4.5200000000000005,0.7146601846332868,0.1106891429339245,0.6906560499204945,0.001718966168691,222.34084800295565,129.88763339643452,6769.0
2.91,0.7000000000000001,-3.13,0.7154549389421327,0.1144531416227373,0.6890521219368876,0.0152276712030251,221.36329186529656,131.5467331960757,7977.0
-4.25,-2.4,1.38,0.7154549389421327,0.1144531416227373,0.6890521219368876,0.0152276712030251,220.28089717152045,133.35132673247026,8717.0
5.08,0.97,0.03,0.7158459977806324,0.1186424009361055,0.6879662617428519,0.0138170497984594,219.3595907450007,134.86148430217503,7328.0
5.08,0.97,0.03,0.7158821173758892,0.1229683396813839,0.6871976944831788,0.0122845494187196,218.6222835044182,136.05347167681458,5806.0
0.55,6.8100000000000005,0.45,0.7158821173758892,0.1229683396813839,0.6871976944831788,0.0122845494187196,217.87927111217883,137.2402026362016,5800.0
9.65,-0.17,-4.15,0.7138565287026829,0.1261662752605551,0.6887830555870929,0.0082963697808937,217.1412359901498,138.40496245680671,5712.0
9.65,-0.17,-4.15,0.7144158948385417,0.1289490559026013,0.6877282981472069,0.003443560863398,216.22435970040533,139.83302997557382,7030.0
-11.26,-4.2700000000000005,0.78,0.7141738327647308,0.131627939205626,0.6874791946267674,0.0014762011873528,215.10773369389383,141.54473817516796,8466.0
5.76,3.41,-3.4,0.7141738327647308,0.131627939205626,0.6874791946267674,0.0014762011873528,214.00226430179276,143.21061718219647,8282.0
-0.49,-2.29,1.8,0.7141205529981655,0.1334592003664501,0.6870472251229981,0.0136597245188344,213.03303879047854,144.64845102417954,7183.0
-0.49,-2.29,1.8,0.7141205529981655,0.1334592003664501,0.6870472251229981,0.0136597245188344,212.18936710974074,145.883249503045,6195.0
-0.26,-1.91,0.08,0.7136896899093274,0.1351055514748575,0.6872225431511547,0.0108946162237128,211.3952066164486,147.03168576735084,5784.0
-0.26,-1.91,0.08,0.7133307909370366,0.1380362189954113,0.6870411096207829,0.0089274093462687,210.60038688370236,148.1679015321297,5744.0
3.14,0.3,-1.91,0.7133307909370366,0.1380362189954113,0.6870411096207829,0.0089274093462687,209.63739464407672,149.5272977313628,6901.0
-0.87,-1.03,1.25,0.7140050213972959,0.1420249788098131,0.6855507541769431,0.0067748255286554,208.54065674971025,151.05311808234717,7784.0
-0.91,6.49,0.27,0.7138672740744892,0.146679149082789,0.684728577091642,0.0050515288638339,207.4814345824572,152.5047681340014,7444.0
-0.91,6.49,0.27,0.7127980149743172,0.1511753009451841,0.6848801954357242,0.0020337484432087,206.35941664320669,154.01961291561352,7809.0
5.13,0.11,-5.75,0.7127980149743172,0.1511753009451841,0.6848801954357242,0.0020337484432087,205.3382635508107,155.3784010792292,7041.0
-3.31,2.54,-1.4,0.7131335116888103,0.1544526583763159,0.683661108214208,0.0138729932673337,204.48831571978786,156.49529939932498,5814.0
-3.31,2.54,-1.4,0.7132780053049017,0.1573271268512671,0.6829231243594808,0.0099332029110015,203.6206195410371,157.62262939604906,5893.0
1.35,0.76,-2.23,0.7132780053049017,0.1573271268512671,0.6829231243594808,0.0099332029110015,202.6179106476901,158.90950973671985,6758.0
-2.1,-2.38,3.85,0.7133443836948177,0.1602015297003939,0.6822300981576314,0.0061117346590901,201.49092922073189,160.33607030785683,7531.0
-2.1,-2.38,3.85,0.7124764828327681,0.16392826921874,0.6822726683459693,0.0029647916060661,200.3846841191305,161.7165061781768,7328.0
-0.35,-1.35,-0.5,0.7118405368633028,0.1678262932396467,0.6819951393541904,0.0001235834265387,199.1704810816482,163.20958754222994,7972.0
4.5,-1.45,-2.58,0.7118405368633028,0.1678262932396467,0.6819951393541904,0.0001235834265387,198.066765494895,164.5472771163056,7184.0
4.5,-1.45,-2.58,0.7123562605126113,0.1710273121768672,0.6805242887847158,0.0135981238449262,197.19117050974504,165.5955683978187,5658.0
-3.02,0.33,3.3000000000000003,0.7123562605126113,0.1710273121768672,0.6805242887847158,0.0135981238449262,196.30987116496047,166.63938454998151,5659.0
0.16,1.62,-0.42,0.7121176539001471,0.1751230632029538,0.6797767774682457,0.0111307031696792,195.41361438561086,167.6895026909907,5719.0
0.16,1.62,-0.42,0.7114650386634617,0.1781292152632495,0.6797247512615697,0.0078577319688894,194.3281278473557,168.9462302844955,6879.0
1.47,-0.25,-3.66,0.7114876975609115,0.1807041320090751,0.6790488605712728,0.0048905880194302,193.01804356370556,170.44144114281437,8235.0
-0.7000000000000001,0.96,-1.52,0.7114876975609115,0.1807041320090751,0.6790488605712728,0.0048905880194302,191.6753390640927,171.95003458756588,8366.0
1.19,-0.04,-0.41,0.7114064902637545,0.183518842995952,0.6783941570484854,0.0017342313884193,190.49051358492375,173.26169292186884,7322.0
1.19,-0.04,-0.41,0.7110097663162809,0.1871404474703824,0.6776715011708949,0.0143143852204166,189.50229330223203,174.34199388900777,6065.0
-0.87,-1.33,-0.22,0.7110097663162809,0.1871404474703824,0.6776715011708949,0.0143143852204166,188.57256326157935,175.34719383257226,5672.0
-0.87,-1.33,-0.22,0.7104081174962427,0.1911492604504203,0.6772375517028678,0.0114701956481763,187.62692019749832,176.35869362524093,5736.0
2.41,0.42,-0.9,0.7104898807307577,0.1944805532254366,0.6762464148996761,0.0084988311935836,186.46354692136362,177.58827570958738,7012.0
-0.48,0.33,1.11,0.7104898807307577,0.1944805532254366,0.6762464148996761,0.0084988311935836,185.08597197944601,179.023554250338,8241.0
1.81,1.48,-1.43,0.7102537307099726,0.1978133915732484,0.6755572494142569,0.0056482643969769,183.77616453709365,180.36787781651998,7775.0
-0.08,-0.61,-3.01,0.7096328801332596,0.2007914494548248,0.6753498983519225,0.002546380893179,182.535786145469,181.62306234687162,7310.0
-0.08,-0.61,-3.01,0.7096328801332596,0.2007914494548248,0.6753498983519225,0.002546380893179,181.40440462926088,182.75309020945005,6624.0
-0.6,0.94,1.67,0.7094241850599015,0.2033761371376944,0.6746271680122055,0.0152858324888092,180.409222519555,183.7355774745046,5793.0
-0.6,0.94,1.67,0.7091181711169294,0.2065670435330094,0.6740477880487123,0.0118766722801941,179.41114364928143,184.71029081904695,5779.0
0.1,-0.72,-0.24,0.7091181711169294,0.2065670435330094,0.6740477880487123,0.0118766722801941,178.28521240458437,185.7972901789804,6483.0
-0.93,-0.8200000000000001,0.67,0.7088446371702016,0.2096293524075148,0.6734397391233402,0.0085867766792036,177.02335841867824,186.99994805927668,7221.0
-0.93,-0.8200000000000001,0.67,0.7086873914053766,0.212817914586503,0.6726366095020457,0.0055414846103565,175.71227940195143,188.23242246587213,7454.0
0.04,-0.05,0.5700000000000001,0.7082845187083029,0.2161174241709123,0.6720261327563077,0.0026788841854566,174.26931943612078,189.56912803320927,8148.0
0.03,0.49,-1.14,0.7082845187083029,0.2161174241709123,0.6720261327563077,0.0026788841854566,172.9580602974807,190.7662427635797,7355.0
0.03,0.49,-1.14,0.7077288116059051,0.2193498051824185,0.6713886762204688,0.0155832484500155,171.89953459909148,191.72063009654374,5904.0
-0.01,-0.54,-1.93,0.7077288116059051,0.2193498051824185,0.6713886762204688,0.0155832484500155,170.86698865667287,192.64143424351994,5731.0
-0.71,-0.28,-0.09,0.7074612840599335,0.2228047704692366,0.6705974488563167,0.0124750711348956,169.782144815784,193.59822649433582,5992.0
-0.71,-0.28,-0.09,0.7071267997300088,0.2262206499136257,0.6698603184942377,0.0091137458298535,168.50199719694598,194.71344827885005,7033.0
0.72,0.38,0.84,0.7066946011120607,0.2295679889584392,0.6692141131188462,0.0058094756389482,167.01396763776486,195.99128708667544,8125.0
-0.42,-0.6,0.46,0.7066946011120607,0.2295679889584392,0.6692141131188462,0.0058094756389482,165.4324608093431,197.32802869984073,8578.0
-0.05,-0.45,-0.26,0.7061327157723974,0.2330437999645447,0.6686256664218806,0.0026254934545361,164.10902797518395,198.43003033069436,7134.0
-0.05,-0.45,-0.26,0.7061154628709767,0.2355594679043403,0.6675852896821627,0.0155746966298939,163.03886496063942,199.31025691706486,5740.0
1.75,-1.17,1.51,0.7061154628709767,0.2355594679043403,0.6675852896821627,0.0155746966298939,161.9637931147403,200.1848638630943,5741.0
1.75,-1.17,1.51,0.7066560973894463,0.2378055198850657,0.666281114413435,0.012456777693374,160.9009927857487,201.04009679802795,5651.0
-3.48,-0.95,5.12,0.7056396326966025,0.241894218131926,0.6659293959551108,0.0098962419639679,159.61819650593753,202.0600933984539,6789.0
-3.02,0.59,2.61,0.7056396326966025,0.241894218131926,0.6659293959551108,0.0098962419639679,158.06074396649686,203.28072022884396,8197.0
5.19,-0.61,-3.08,0.7037710133537407,0.2453921907089326,0.6666644547586735,0.0068947997389482,156.5658379254602,204.43431315387966,7822.0
-1.85,1.6,-0.56,0.7035018071444064,0.2482172671306657,0.6659273459335727,0.0037637189860601,155.17639042545363,205.49096781738896,7231.0
-1.85,1.6,-0.56,0.7035018071444064,0.2482172671306657,0.6659273459335727,0.0037637189860601,153.8713826781802,206.46996777426256,6758.0
0.64,2.27,-1.26,0.7037658275059622,0.2508652468154223,0.664664239123173,0.0013180310690827,152.72117705736338,207.32219388722828,5930.0
0.64,2.27,-1.26,0.7031232160111355,0.2538654791529262,0.664057325849552,0.0140687450099592,151.59766978577235,208.14513329771592,5769.0
1.84,-0.31,-1.51,0.7031232160111355,0.2538654791529262,0.664057325849552,0.0140687450099592,150.21631885466388,209.14422667086453,7062.0
-1.67,-1.81,-0.03,0.7026994028532381,0.2573672710038608,0.6632204956254841,0.0106869653323537,148.67586727726578,210.24209019450137,7836.0
1.19,-0.18,0.36,0.7020654321119462,0.2608839916638208,0.6625585242834245,0.0077378179345671,147.2428735131541,211.24816259458754,7253.0
1.19,-0.18,0.36,0.7015110310224029,0.2645382170291785,0.6617232744392423,0.0049105142618457,145.70097973885507,212.31456498115654,7766.0
0.03,0.28,-0.67,0.7015110310224029,0.2645382170291785,0.6617232744392423,0.0049105142618457,144.29035474967145,213.27574528345684,7071.0
-1.13,0.6,-0.16,0.7012156704911029,0.2675707953796688,0.6608311920737806,0.0021420784183915,143.15363451136088,214.0403862036034,5675.0
-1.13,0.6,-0.16,0.7012156704911029,0.2675707953796688,0.6608311920737806,0.0021420784183915,141.99574519604886,214.8102845448019,5760.0
1.16,0.77,-0.41,0.7005369501692086,0.2706448098520889,0.6601262063734507,0.0152564742567448,140.77166522031897,215.61444355863185,6067.0
-1.41,0.18,-0.13,0.7000878960217176,0.2735990191212409,0.6594518793441164,0.0119888869079879,139.37926382010872,216.51713746714032,6874.0
-1.41,0.18,-0.13,0.6995008731062542,0.2765542003730847,0.6588924349149106,0.0087784959698238,137.7541464515617,217.55469458368785,7987.0
1.42,0.66,-0.86,0.6995008731062542,0.2765542003730847,0.6588924349149106,0.0087784959698238,136.00714843952412,218.65110466985814,8544.0
0.27,-0.56,-0.51,0.6989258124635225,0.2795450382338727,0.6582773593689092,0.0053102178226244,134.54835119446759,219.55179614580751,7102.0
0.27,-0.56,-0.51,0.6985958703725831,0.282450137246917,0.6574052253574078,0.0020247321666445,133.326957559281,220.29564768280304,5924.0
0.0,-1.0,0.16,0.6985958703725831,0.282450137246917,0.6574052253574078,0.0020247321666445,132.1012444362992,221.03282837257711,5925.0
0.89,-0.64,-0.84,0.6978600418901607,0.2856407448477012,0.6566381121859147,0.0150703829026275,130.9074206471355,221.741960890387,5752.0
0.89,-0.64,-0.84,0.6973988812707715,0.2886181847789071,0.6558870430998923,0.0121049787643327,129.45173913036575,222.59491736363552,6989.0
-0.47,0.05,0.55,0.6973988812707715,0.2886181847789071,0.6558870430998923,0.0121049787643327,127.7348612593035,223.5845594379596,8209.0
0.18,0.6900000000000001,0.31,0.6970138109385495,0.2914531314280312,0.6550876912706651,0.009323963072888,126.04136398467452,224.54359168073088,8062.0
0.92,0.41,-0.59,0.696610472274063,0.2941850841627639,0.6543300954824357,0.0064118889729044,124.51925630220576,225.3912261157155,7217.0
0.92,0.41,-0.59,0.696610472274063,0.2941850841627639,0.6543300954824357,0.0064118889729044,123.20136200591189,226.11429499235172,6227.0
0.17,1.69,0.12,0.6963293961001258,0.2965753303827907,0.6535712132921527,0.0036214211293528,121.98302997329908,226.77387503531622,5739.0
0.17,1.69,0.12,0.696123376150417,0.2991562544684416,0.6526236146588325,0.0004451729977208,120.77161407863949,227.42134295804377,5690.0
-1.53,0.6900000000000001,1.01,0.696123376150417,0.2991562544684416,0.6526236146588325,0.0004451729977208,119.31680459639726,228.18797106969762,6812.0
1.82,-0.06,-0.96,0.6954297259555927,0.3017878563620563,0.6520170876854129,0.0132402181234565,117.66928433276625,229.04189469312075,7687.0
-1.02,-0.14,1.02,0.6950179971121822,0.3046837561152891,0.6511731060418372,0.0095592059019647,116.14472784586009,229.81873769040482,7088.0
-1.02,-0.14,1.02,0.6945180933374323,0.3077390724956161,0.6503093086692188,0.006251747326818,114.4870515584719,230.64900829062282,7680.0
1.23,0.08,-0.21,0.6945180933374323,0.3077390724956161,0.6503093086692188,0.006251747326818,112.93344597717014,231.41367025247578,7173.0
0.05,-0.94,-2.04,0.6938190080816898,0.3110531420493245,0.6495014386745391,0.0030013339512047,111.65194701869169,232.0346800091212,5899.0
0.05,-0.94,-2.04,0.6938190080816898,0.3110531420493245,0.6495014386745391,0.0030013339512047,110.34980264108657,232.65676662644748,5978.0
-0.85,1.01,1.05,0.6934145666249735,0.314177512398928,0.6482307787352171,0.016296840045103,108.96042700913286,233.31068416595807,6361.0
0.6900000000000001,-0.67,-1.41,0.6928209782308469,0.3168205267521612,0.6476523005476833,0.0130515725883362,107.45640179030745,234.00720440678748,6866.0
0.6900000000000001,-0.67,-1.41,0.6925045202103519,0.3192873689649098,0.646837139253084,0.0097355426444666,105.77803836194849,234.77064680299824,7638.0
-1.27,1.51,1.15,0.6920696880324487,0.3215424759572661,0.646226643105341,0.0064116146751199,103.86854603128913,235.6216780038415,8660.0
1.55,0.71,0.51,0.6920696880324487,0.3215424759572661,0.646226643105341,0.0064116146751199,102.26113753278797,236.32373928681017,7266.0
1.55,0.71,0.51,0.691254333693734,0.324314347494497,0.6457399092334019,0.0027603952775659,100.98662488264912,236.87117088158092,5746.0
-0.6900000000000001,-1.18,-0.29,0.691254333693734,0.324314347494497,0.6457399092334019,0.0027603952775659,99.71163010060995,237.41070073330548,5735.0
0.93,-0.9,-0.04,0.6903579507877029,0.3274445380876893,0.6449295189925702,0.0158710362848624,98.43352990047589,237.94346007262337,5736.0
0.93,-0.9,-0.04,0.6899253912738722,0.3306830539379989,0.6438060079489266,0.0128645420711145,96.89252182561148,238.5751227900206,6899.0
-1.9,-1.75,-0.09,0.6899253912738722,0.3306830539379989,0.6438060079489266,0.0128645420711145,95.05766614870608,239.3121185948617,8191.0
1.6,-0.61,-0.14,0.68937860946551,0.3345485434559437,0.642441371555698,0.0101729541697534,93.23453236822866,240.02827328062358,8114.0
-1.74,0.06,0.89,0.6888033147672835,0.3384409214292986,0.6410529867438428,0.0076684062547765,91.61292112633356,240.6518703079205,7197.0
-1.74,0.06,0.89,0.6888033147672835,0.3384409214292986,0.6410529867438428,0.0076684062547765,90.20175180583716,241.1843568127049,6248.0
0.24,0.17,-0.96,0.6878656179945984,0.3425784889168673,0.6398839922878685,0.0054172803217275,88.86180822378864,241.68125504308065,5920.0
0.24,0.17,-0.96,0.6870521992275864,0.3465273140115464,0.6386455153928574,0.0031625700105356,87.5250303641352,242.16857570658752,5894.0
0.54,0.55,-0.74,0.6870521992275864,0.3465273140115464,0.6386455153928574,0.0031625700105356,85.95328270676471,242.7308863575688,6915.0
0.42,0.58,-0.09,0.6864271964638639,0.3500610745000638,0.6373966824307308,0.0006459883271822,84.15277589746061,243.36096710185834,7902.0
-0.97,0.06,0.0,0.6855684609741318,0.3535497825715885,0.636234429499713,0.0142894114755524,82.42632868221041,243.9511228504026,7558.0
-0.97,0.06,0.0,0.6847487615419625,0.3571307813032655,0.6351724334378847,0.0115203477839763,80.70766384321098,244.5250968652732,7506.0
0.56,0.46,-1.26,0.6847487615419625,0.3571307813032655,0.6351724334378847,0.0115203477839763,79.17109110577351,245.02691348731736,6696.0
0.14,0.51,-0.61,0.6842003613451187,0.3602418569203466,0.6340515848601641,0.0086172962176989,77.85118173486971,245.44947240213062,5741.0
0.14,0.51,-0.61,0.6842003613451187,0.3602418569203466,0.6340515848601641,0.0086172962176989,76.52786473863021,245.86528001844002,5746.0
-0.19,1.05,0.5700000000000001,0.6838244353503704,0.3627992854216109,0.6330338327247453,0.0053839336116563,75.10581355159367,246.3034038959942,6164.0
-1.44,-0.07,1.05,0.683173808770778,0.3655197448200341,0.6321906887132572,0.0019483994926441,73.50266341654621,246.78656460730173,6936.0
-1.44,-0.07,1.05,0.6820491134624963,0.3686576237685752,0.6313993270576074,0.0153444795783745,71.69308950547476,247.31831900843898,7813.0
-0.43,-1.4,-0.76,0.6810813513345824,0.3720788496825454,0.6305031032234316,0.0123028171081177,69.70260461416125,247.88666142009723,8575.0
0.29,-1.46,-0.74,0.6810813513345824,0.3720788496825454,0.6305031032234316,0.0123028171081177,68.0257139252824,248.35207316419897,7209.0
0.29,-1.46,-0.74,0.6803579585074071,0.3756597673398335,0.6292056744897541,0.0096439974963218,66.68503840620214,248.71541096756215,5754.0
0.77,-0.6,-0.19,0.6803579585074071,0.3756597673398335,0.6292056744897541,0.0096439974963218,65.31183312432292,249.0795343940176,5885.0
-1.39,-1.06,0.11,0.6796985770170512,0.3792771543377941,0.6277803285470798,0.0071094083960136,63.93593829965234,249.43625597282974,5888.0
-1.39,-1.06,0.11,0.6789080551725519,0.3830608142069744,0.6263579605173688,0.0048959715517251,62.30937404466559,249.8475373225879,6950.0
1.11,0.85,-1.24,0.6783370913729382,0.3863796571898837,0.6249509625171737,0.0024177316617665,60.361051739487074,250.32537512785828,8310.0
0.53,0.73,-0.1,0.6783370913729382,0.3863796571898837,0.6249509625171737,0.0024177316617665,58.41235753261042,250.78725343901053,8296.0
-1.9,0.48,1.58,0.677853332565452,0.3891295450575966,0.6235622714799242,0.0162219074086878,56.75568075216626,251.16735994622826,7041.0
-1.9,0.48,1.58,0.6768192524469545,0.3924700319220705,0.62266061463625,0.0132940791723978,55.358489789064436,251.47900033258057,5930.0
1.6,-0.45,-3.2,0.6768192524469545,0.3924700319220705,0.62266061463625,0.0132940791723978,54.00868411136345,251.77234169097875,5722.0
1.6,-0.45,-3.2,0.6756241848983239,0.3958679115396487,0.6218627262261622,0.0103589152075628,52.658505795962654,252.05819123237507,5717.0
1.29,0.16,-1.29,0.6756241848983239,0.3958679115396487,0.6218627262261622,0.0103589152075628,51.056978520044964,252.38746986410334,6773.0
-1.94,-0.33,2.14,0.6752834155990066,0.3984999351240492,0.6205963569567772,0.0070902789115975,49.2313887401841,252.74991664234605,7710.0
-1.47,-0.8200000000000001,1.21,0.6746606158630897,0.401588395430928,0.6193099154288383,0.0038784932608323,47.484848169891926,253.08385802789223,7366.0
-1.47,-0.8200000000000001,1.21,0.6733345895626957,0.4052379204971735,0.6183859595504937,0.001250328108062,45.676412937017254,253.41648585127032,7617.0
0.38,-1.41,-0.6,0.6733345895626957,0.4052379204971735,0.6183859595504937,0.001250328108062,44.03096277126794,253.7075566817733,6922.0
-0.92,-0.44,0.07,0.6722365588723522,0.408703492828037,0.6171060474304397,0.0154786979556146,42.66508021834386,253.940821708449,5740.0
-0.92,-0.44,0.07,0.6722365588723522,0.408703492828037,0.6171060474304397,0.0154786979556146,41.259837066341,254.17292508302097,5900.0
-0.77,0.26,-1.78,0.6714740976258458,0.412154809923327,0.6156937474106586,0.0131209098023903,39.71619102508008,254.41869854721637,6475.0
1.64,1.58,-2.39,0.6707231415649095,0.4155144051257178,0.6142960741598128,0.0108894340606326,38.01637289645446,254.6782389443545,7123.0
1.64,1.58,-2.39,0.6701385117770087,0.4182584085533883,0.6131152879884504,0.0079951449344328,36.175044113885576,254.94630058770895,7708.0
-1.69,0.8,1.31,0.6697009390904374,0.4205483663952301,0.6120616586608157,0.0044999667844021,34.17080505855011,255.2226598122717,8381.0
-0.64,0.32,2.1,0.6697009390904374,0.4205483663952301,0.6120616586608157,0.0044999667844021,32.46119187416969,255.44573009175224,7142.0
-0.64,0.32,2.1,0.6684326270974054,0.4234864651152508,0.6114375785842417,0.0010603729955937,31.0834873929563,255.61703153642154,5751.0
-0.07,-1.02,-0.7000000000000001,0.6684326270974054,0.4234864651152508,0.6114375785842417,0.0010603729955937,29.707756873453413,255.78056842056588,5739.0
1.19,-2.47,-0.94,0.6668244507666855,0.4268525942805853,0.6106805927503026,0.0145336937418296,28.343403230431257,255.93534631487927,5688.0
1.19,-2.47,-0.94,0.6658575710676473,0.4301063823491548,0.6095111764697663,0.0117609809479067,26.717267577893836,256.11020599181757,6775.0
-0.32,-1.82,-2.43,0.6658575710676473,0.4301063823491548,0.6095111764697663,0.0117609809479067,24.742141246452,256.3085571075235,8223.0
2.6,0.81,-1.67,0.6648189588080546,0.4336585406009127,0.6081593856456596,0.0099087751187756,22.75905213677225,256.4922524089873,8250.0
-1.9,1.22,-1.03,0.6643164467323325,0.4367314836684202,0.6065382227079171,0.0077880785839361,21.037344621155903,256.6392022495603,7158.0
-1.9,1.22,-1.03,0.6637719066859555,0.4399154975937743,0.6048588177792904,0.0051982137270586,19.5491468919887,256.75685162385724,6184.0
-0.27,1.52,0.0,0.6637719066859555,0.4399154975937743,0.6048588177792904,0.0051982137270586,18.157818697904105,256.8589955990135,5779.0
-0.27,1.52,0.0,0.6625721542907275,0.44311597952112,0.6038547831149127,0.0024020742753742,16.75800809449834,256.9541187930342,5812.0
-0.3,0.11,-1.24,0.6625721542907275,0.44311597952112,0.6038547831149127,0.0024020742753742,15.043217010657306,257.06021011033636,7117.0
0.05,-0.07,0.8300000000000001,0.6611523186700637,0.4458017453427655,0.6032221458265119,0.0161696676218449,13.084258969760642,257.1673621733758,8127.0
-0.6,-0.6,-0.79,0.6600485089627002,0.4483297860959135,0.6026355303850444,0.0129145744353001,11.247782445220407,257.2542271568438,7616.0
-0.6,-0.6,-0.79,0.6587381311203532,0.4513116873501331,0.6019052961228907,0.0095838389205626,9.446677615793506,257.3266606514437,7467.0
0.27,-1.19,-0.13,0.6587381311203532,0.4513116873501331,0.6019052961228907,0.0095838389205626,7.8294593192010655,257.3809425088986,6703.0
-1.23,1.3,1.2,0.6575802529947816,0.4551446050380335,0.600326404285529,0.0063093338554158,6.456400195881955,257.41904532592497,5690.0
-1.23,1.3,1.2,0.6575802529947816,0.4551446050380335,0.600326404285529,0.0063093338554158,5.063366061856039,257.4502132920531,5772.0
-0.75,-0.81,-0.75,0.6567357040776668,0.460165410421909,0.5974419287683719,0.0030251926178211,3.5622866765318952,257.47535826489144,6219.0
1.18,-1.43,-2.08,0.6549240798248018,0.4641962921866785,0.5960832445280423,0.0167635789346603,1.8819696136635176,257.4931226079121,6961.0
1.18,-1.43,-2.08,0.6540172013492372,0.4670010466700511,0.5949594682926521,0.0139554232222752,1.5767327539022172e-14,257.5,7796.0
