ACC_X,ACC_Y,ACC_Z,QUAT_W,QUAT_X,QUAT_Y,QUAT_Z,X_pos,Y_pos,dt
-1.25,-0.8300000000000001,0.6,0.7227228470590749,0.0565848039884934,0.6887231320411775,0.0114146260473012,257.5,0.0,
1.66,-0.2,-0.11,0.722531891947207,0.0562837448779422,0.6889569899050505,0.0108660592063706,257.491964630964,2.034244450989366,8412.0
1.66,-0.2,-0.11,0.7225254811097453,0.0557948876085085,0.6890119217037594,0.0103165601814419,257.4702247223635,3.915786181041336,7781.0
-0.97,-1.46,0.28,0.7225254811097453,0.0557948876085085,0.6890119217037594,0.0103165601814419,257.44028593480834,5.545194117803712,6739.0
-0.29,-0.24,-1.24,0.7226044490528938,0.0553689478154071,0.6889679658706563,0.0100115848310107,257.4069264906171,6.9227302889870925,5698.0
-0.29,-0.24,-1.24,0.7227431991182446,0.0549428903797972,0.6888617500507029,0.0096455296444533,257.3654857670902,8.322063197890602,5789.0
-0.5700000000000001,0.7000000000000001,0.29,0.7227431991182446,0.0549428903797972,0.6888617500507029,0.0096455296444533,257.30854924449295,9.927763378240392,6644.0
0.38,0.49,-0.09,0.7227006430479884,0.0546390501375189,0.6889404254769851,0.0089131858324891,257.2328903548543,11.725618094049223,7441.0
0.38,0.49,-0.09,0.7226705295164132,0.0548245446908624,0.688969918526039,0.0078756862640548,257.14322046461467,13.5504305867584,7555.0
-0.01,-0.3,-0.68,0.7227957650722745,0.0548247822480701,0.6888507996714649,0.0067157305649083,257.03271719859356,15.505879191707372,8099.0
0.52,-0.59,-0.91,0.7227957650722745,0.0548247822480701,0.6888507996714649,0.0067157305649083,256.9164260807817,17.32628090151523,7543.0
1.18,-0.51,0.45,0.722886014875415,0.0549491058604622,0.6887565146798612,0.0055559651481134,256.81074411414374,18.827950168294723,6225.0
1.18,-0.51,0.45,0.722886014875415,0.0549491058604622,0.6887565146798612,0.0055559651481134,256.69988931308103,20.283412598770326,6036.0
-1.3,-0.78,0.3,0.7227956187816015,0.0566000623931867,0.6887256783119162,0.0044571785919122,256.5724375490599,21.836535671524626,6444.0
1.17,-1.96,-1.98,0.7225481641790706,0.0576377781802469,0.6889057745844561,0.003297076294209,256.42733599206156,23.479168554579456,6819.0
1.17,-1.96,-1.98,0.7228203670058565,0.0583116616396851,0.688566082000764,0.0026866105886347,256.2487988814413,25.35356132417425,7786.0
-1.02,-1.58,-0.89,0.7228284422568939,0.0588618532130128,0.688512714553872,0.0021371004797255,256.03459046388946,27.432434926349934,8642.0
0.1,-1.66,-1.33,0.7228284422568939,0.0588618532130128,0.688512714553872,0.0021371004797255,255.84360148395663,29.15993106504866,7187.0
0.1,-1.66,-1.33,0.7227932178313446,0.059718828000258,0.688476263499908,0.0020150524785363,255.6827792911652,30.537949733820046,5737.0
0.87,-0.93,-1.78,0.7227932178313446,0.059718828000258,0.688476263499908,0.0020150524785363,255.51456487455056,31.914841954317968,5736.0
-0.74,0.65,0.5700000000000001,0.7230300017530541,0.0604509502352439,0.6881638476274741,0.0019539701086139,255.33743476078232,33.30231838450935,5784.0
-0.74,0.65,0.5700000000000001,0.7231511474840837,0.0631375737987454,0.6877965486161208,0.0014044141173802,255.11019648446873,35.00053784809243,7085.0
-1.5,1.99,2.49,0.7222559045990529,0.0666143538690985,0.6882465598647836,0.0150202851070561,254.82722676013825,37.004520017655544,8369.0
0.86,-1.35,-2.24,0.7222559045990529,0.0666143538690985,0.6882465598647836,0.0150202851070561,254.53345860835267,38.97394576983457,8234.0
2.87,-1.25,-4.33,0.7216558339258096,0.0696131029510427,0.688620142086762,0.0130066587092737,254.265673616643,40.68436088074615,7159.0
2.87,-1.25,-4.33,0.7225209853865071,0.0710856586078855,0.6875888576169963,0.0114811888473217,254.00559864055555,42.27772296674692,6676.0
1.32,1.4,-0.6,0.7225209853865071,0.0710856586078855,0.6875888576169963,0.0114811888473217,253.74875246669373,43.79292889949908,6355.0
-1.39,1.65,4.62,0.7238195303147648,0.0734141486320434,0.686013076069145,0.0090393460878056,253.50678762028065,45.172542882219155,5792.0
-1.39,1.65,4.62,0.7235346832559296,0.075322379639865,0.686148392631763,0.0049481855237867,253.20685480629936,46.82455209718122,6943.0
-1.82,-0.81,3.13,0.7235346832559296,0.075322379639865,0.686148392631763,0.0049481855237867,252.83495352086229,48.792789201924116,8283.0
1.87,-4.6000000000000005,-3.72,0.7221290571887395,0.0778401234333238,0.6873637273350809,0.0012830789576921,252.46066303031284,50.69382232871018,8012.0
2.04,-3.22,-3.26,0.7222545648263131,0.077962678683561,0.6870613807183733,0.0147249259896067,252.1175234330268,52.37369929647106,7090.0
2.04,-3.22,-3.26,0.7222545648263131,0.077962678683561,0.6870613807183733,0.0147249259896067,251.80212560501678,53.86965324554582,6322.0
7.09,2.43,-0.8,0.7232283602838524,0.0779077525652172,0.686077055531184,0.0130151774873657,251.50703733736535,55.230971110248575,5760.0
7.09,2.43,-0.8,0.7239566759056523,0.0822594703502454,0.6848437033765609,0.0104504973476166,251.204004806414,56.59326787895481,5771.0
-4.13,-3.81,5.6000000000000005,0.7239566759056523,0.0822594703502454,0.6848437033765609,0.0104504973476166,250.8247304190891,58.251219817195896,7033.0
-5.3,-2.5500000000000003,1.42,0.7234835493128916,0.0893657442628799,0.684485365427996,0.0080685897692887,250.39518978226184,60.07078269762326,7731.0
3.22,-0.64,-7.59,0.7220767074405396,0.0951194849964002,0.6852148504657135,0.0061742082163473,249.97115311735746,61.8115896024251,7409.0
3.22,-0.64,-7.59,0.7233122621294068,0.1001424634745979,0.683206367111497,0.0044630035614442,249.50388996507337,63.67149199050192,7930.0
-1.43,2.16,2.47,0.7233122621294068,0.1001424634745979,0.683206367111497,0.0044630035614442,249.07851486237774,65.31572118527268,7023.0
-2.0,3.85,2.81,0.7252463441560119,0.1018071969496467,0.6809158830217813,0.0025681094726037,248.70062736577404,66.74015244116855,6094.0
-2.0,3.85,2.81,0.7261564225176669,0.1015787281288398,0.6799842733681942,0.0,248.31241728925963,68.17032653555795,6128.0
4.05,1.68,0.4,0.7261564225176669,0.1015787281288398,0.6799842733681942,0.0,247.89675688892373,69.66669163921759,6422.0
0.27,3.96,1.89,0.7271389658064241,0.1016575505695051,0.6788179880988976,0.0118661641458989,247.41767450101324,71.34945230701257,7235.0
0.27,3.96,1.89,0.7269106999743192,0.1024895136748303,0.679000676566921,0.007403720092331,246.90562314992565,73.1017322431343,7549.0
3.34,-3.65,-0.04,0.7253613840365162,0.1020842717324425,0.680745416354891,0.0039169025125157,246.3396499235939,74.986844683059,8139.0
0.02,-1.28,1.36,0.7253613840365162,0.1020842717324425,0.680745416354891,0.0039169025125157,245.83244491457273,76.63327624030936,7124.0
0.02,-1.28,1.36,0.7239059599335455,0.102663027045121,0.6822163228329329,0.0011631469969333,245.416941442941,77.95367119508911,5724.0
0.48,-0.7000000000000001,-1.28,0.7239059599335455,0.102663027045121,0.6822163228329329,0.0011631469969333,244.99419713575182,79.27227365105898,5726.0
1.51,-2.01,-3.51,0.7233476931469979,0.1040788047693522,0.6824508451552759,0.014020027230695,244.56081076518234,80.59937864448258,5773.0
1.51,-2.01,-3.51,0.7236559167739631,0.1055140174834169,0.681952465870767,0.0113903698502121,244.02227313873556,82.2154499604809,7044.0
-2.81,-2.09,0.81,0.7236779955028386,0.1074338725443909,0.6816599586924326,0.009371369725936,243.37843039505344,84.10225691644743,8244.0
2.9,0.28,-0.92,0.7236779955028386,0.1074338725443909,0.6816599586924326,0.009371369725936,242.71313427301618,86.00339790594803,8329.0
-0.91,-1.37,0.01,0.7237064746460717,0.1096005149531721,0.6813120887614461,0.0071065733563823,242.12135851968125,87.65556313539932,7257.0
-0.91,-1.37,0.01,0.7237814638813191,0.1121947054153991,0.680827619809121,0.0051471082768397,241.62476166541802,89.01530514540705,5986.0
-0.58,-1.68,0.13,0.7237814638813191,0.1121947054153991,0.680827619809121,0.0051471082768397,241.1300330014788,90.3468714715996,5874.0
-0.58,-1.68,0.13,0.7236696625993442,0.1147894036287747,0.6805240458590038,0.0035546104700848,240.6258999155222,91.6811119579441,5898.0
0.0,-0.8300000000000001,-0.65,0.7237265636103062,0.1177404072404639,0.6799646423350895,0.0022677746319089,240.0234236102011,93.24701667312452,6938.0
3.14,0.16,-2.01,0.7237265636103062,0.1177404072404639,0.6799646423350895,0.0022677746319089,239.29965054512553,95.08904904867232,8184.0
-2.82,-1.08,-0.46,0.7243913241242095,0.1204560338414209,0.6787835433720378,0.0006743085863896,238.59595243871576,96.84121787680128,7808.0
1.9,-1.18,-0.23,0.7248409591369235,0.1235858739529801,0.6775767186519296,0.0148965115925467,237.92347327984615,98.48183011324646,7332.0
1.9,-1.18,-0.23,0.7248409591369235,0.1235858739529801,0.6775767186519296,0.0148965115925467,237.30829557912216,99.9551041684815,6602.0
-0.12,-0.79,0.19,0.7253709436577532,0.1270977910745095,0.6763834207110417,0.0137336735169754,236.76716567151308,101.2302289826427,5728.0
-0.12,-0.79,0.19,0.7256100309530233,0.131031657609144,0.6753924700817604,0.0128762976592982,236.21215636524724,102.51861872499062,5801.0
0.75,-1.13,0.74,0.7256100309530233,0.131031657609144,0.6753924700817604,0.0128762976592982,235.54472946595706,104.04292585663427,6881.0
-3.59,2.01,1.63,0.7256693616364558,0.1348442560620725,0.6745892046106684,0.0122641433435263,234.80794574612446,105.69521566506724,7481.0
1.4,2.09,-1.49,0.7252110500573699,0.1378667602984327,0.6744922730258734,0.0110391534046787,234.08910014007805,107.27787840747274,7188.0
1.4,2.09,-1.49,0.7252505337530984,0.1398110274423372,0.6740866913279517,0.0084659595379739,233.27497182681134,109.03686312069135,8015.0
-0.4,2.76,-0.08,0.7252505337530984,0.1398110274423372,0.6740866913279517,0.0084659595379739,232.52529249232356,110.6265716333982,7268.0
-2.51,-0.7000000000000001,1.44,0.7251540548415295,0.1410294531166075,0.6739710418305414,0.0050323825742218,231.92903229799234,111.87123838286954,5707.0
-2.51,-0.7000000000000001,1.44,0.7251540548415295,0.1410294531166075,0.6739710418305414,0.0050323825742218,231.29497587000918,113.17634089018726,6000.0
-1.64,-3.34,0.95,0.7243688452074684,0.1419392126552815,0.6746410068637062,0.0015962022184417,230.62163577080253,114.54218050307622,6297.0
-1.1,-1.16,0.17,0.7226750797719874,0.14215250315848,0.6762529232329763,0.0146757875831,229.88490810420043,116.01370188871365,6805.0
-1.1,-1.16,0.17,0.7212840622291611,0.1444779521685391,0.6773018284907792,0.0117326908436186,229.01553622283166,117.72057665747681,7921.0
4.2700000000000005,-2.34,-5.19,0.7212840622291611,0.1444779521685391,0.6773018284907792,0.0117326908436186,228.06762258533402,119.54668346831556,8508.0
0.24,-3.37,-2.35,0.7207976262121837,0.146556039089178,0.6774145806788673,0.0090330137300248,227.26941160560526,121.05727796560596,7065.0
0.24,-3.37,-2.35,0.7211763151092876,0.1492873077723248,0.6764331450564871,0.0074981686077495,226.61743673142172,122.27341235640753,5706.0
-2.56,-2.02,1.82,0.7211763151092876,0.1492873077723248,0.6764331450564871,0.0074981686077495,225.95907026867107,123.48582332931085,5705.0
-2.56,-2.02,1.82,0.7208614451135672,0.1539214682838212,0.675742292669348,0.006269963963638,225.28391132967045,124.71330841576288,5793.0
-4.64,1.72,-1.38,0.720513628929925,0.1584269301836533,0.6750819248532002,0.0050411363116257,224.45088850408695,126.20637325319954,7070.0
5.32,2.96,-4.98,0.720513628929925,0.1584269301836533,0.6750819248532002,0.0050411363116257,223.45106324619397,127.96824736685825,8377.0
-1.61,4.39,-2.21,0.7206830420283838,0.1617370424553843,0.6741298324699329,0.0024598789727054,222.47735695119988,129.65367578286543,8049.0
-0.2,1.54,-0.39,0.7205216645719411,0.1646414460246361,0.6734548834774543,0.0141507969303685,221.60642113511273,131.13673822269283,7112.0
-0.2,1.54,-0.39,0.7205216645719411,0.1646414460246361,0.6734548834774543,0.0141507969303685,220.82741046259042,132.44434600384648,6294.0
0.75,-2.41,-0.8300000000000001,0.7199029804856687,0.1680019868090807,0.6733623055030139,0.0099114400426024,220.10660152398876,133.63881908173246,5769.0
0.75,-2.41,-0.8300000000000001,0.719228710021788,0.1710924264806068,0.6733453919051385,0.0065899530717872,219.36907447980244,134.84605727226466,5850.0
-0.25,-2.8000000000000003,0.7000000000000001,0.719228710021788,0.1710924264806068,0.6733453919051385,0.0065899530717872,218.48451892457663,136.27459407496434,6948.0
-0.54,-2.62,0.56,0.7188671146204038,0.1736938712706709,0.6730868569566547,0.0038201560903801,217.5153656640281,137.81623888368213,7530.0
1.81,0.03,-1.91,0.7185803204089659,0.1767637326471322,0.6726020273285055,0.0018489930193214,216.60205365275343,139.24726336057643,7020.0
1.81,0.03,-1.91,0.7185883258834005,0.1804946914460493,0.6714303890814102,0.0152878017345014,215.57661934031265,140.82958209766136,7797.0
0.81,0.64,-1.59,0.7185883258834005,0.1804946914460493,0.6714303890814102,0.0152878017345014,214.6182312668217,142.285855965732,7209.0
0.24,-0.4,-1.7,0.7180597399809734,0.1844183664785355,0.6709991334180562,0.0118422496200263,213.84486689650953,143.44553984705877,5764.0
0.24,-0.4,-1.7,0.7180597399809734,0.1844183664785355,0.6709991334180562,0.0118422496200263,213.05138360645475,144.62142975152491,5866.0
-1.76,-1.91,-0.03,0.7178420743263775,0.1881002959548485,0.6702615860779562,0.0083929265911612,212.19678833309584,145.87245463458592,6265.0
1.39,-1.1,-0.23,0.7173908770135909,0.1915882512585568,0.6697870930237916,0.0054333761233493,211.24278794579007,147.25058417843363,6931.0
1.39,-1.1,-0.23,0.7169661711831715,0.195193684926236,0.6692178425603929,0.0025325762917644,210.14771396670912,148.80923464142342,7877.0
0.52,-0.85,0.35,0.7164588781144828,0.1986559114392464,0.6685713722465463,0.0153240018777396,208.93334353987694,150.50949457508574,8640.0
-1.12,0.49,0.03,0.7164588781144828,0.1986559114392464,0.6685713722465463,0.0153240018777396,207.91499408415314,151.9131503030155,7171.0
-1.12,0.49,0.03,0.7164588781144828,0.1986559114392464,0.6685713722465463,0.0153240018777396,207.08659536256766,153.0404914430824,5785.0
-1.12,0.49,0.03,0.7160378386063075,0.2018531810610943,0.6681247558123264,0.0124264898601163,206.2520841255785,154.1633153310322,5785.0
0.71,-0.49,-0.88,0.7156751101738714,0.2051766932106077,0.6675510621431652,0.0093402715329519,205.39573415451656,155.3024223607834,5893.0
0.91,-0.93,-0.19,0.7153297884640907,0.2088802592201337,0.6668076778778433,0.0063128256119862,204.3559280155514,156.66813551230757,7098.0
0.59,-0.6900000000000001,0.2,0.7147381985670103,0.2125081432454283,0.6663170540396428,0.0033436595965189,203.13342779419298,158.24999372063618,8267.0
-0.15,-0.89,-0.13,0.7147381985670103,0.2125081432454283,0.6663170540396428,0.0033436595965189,201.90873919523497,159.8096087117123,8200.0
-0.22,-0.43,-0.19,0.7143075936421394,0.2159649845131394,0.6656752032684118,0.0005575688068325,200.83972244108494,161.151034404958,7093.0
-0.22,-0.43,-0.19,0.7138472353585523,0.2192734431931375,0.6649476461331748,0.0136348664506755,199.91994185143548,162.29068627040388,6056.0
-0.02,0.28,-0.2,0.7138472353585523,0.2192734431931375,0.6649476461331748,0.0136348664506755,199.04203174832273,163.3662131454962,5741.0
-0.02,0.28,-0.2,0.7133194088215433,0.2228076706855433,0.6643922582034265,0.0107280064092955,198.1538570755749,164.44238786296137,5770.0
-0.14,-0.24,-0.86,0.7133194088215433,0.2228076706855433,0.6643922582034265,0.0107280064092955,197.06137971601856,165.75000037532172,7046.0
-0.63,-0.45,0.52,0.7128957100534783,0.2263397345757257,0.6636941175319458,0.0077556104226879,195.80770077279374,167.22916706744692,8018.0
0.08,-0.81,-0.4,0.712355026942861,0.2299401324441269,0.6630644045992765,0.0048421518171279,194.60596169499092,168.62612393329724,7620.0
0.08,-0.81,-0.4,0.7118697103884905,0.2332940085698604,0.662428275132471,0.0020497077430259,193.40207999810116,170.00554535781495,7571.0
-1.24,-0.53,0.25,0.7118697103884905,0.2332940085698604,0.662428275132471,0.0020497077430259,192.32500344660676,171.2230797797502,6722.0
0.46,-0.35,-0.76,0.711438068239022,0.2366281914450341,0.6615398440451242,0.0150999607460985,191.40761775629292,172.24800104750372,5688.0
0.46,-0.35,-0.76,0.711438068239022,0.2366281914450341,0.6615398440451242,0.0150999607460985,190.4733791797922,173.28052926924912,5758.0
-0.6900000000000001,-0.45,-0.29,0.7109223294155044,0.2401865452625584,0.6608705124503582,0.0122487055181786,189.40075521940423,174.45229698206703,6569.0
-0.07,0.5700000000000001,-0.07,0.7104825633549515,0.2435673586282517,0.6601515306269168,0.0094565104754774,188.19008138722631,175.75762648451172,7362.0
-0.07,0.5700000000000001,-0.07,0.7098073709988043,0.2470194394074071,0.6596315473691747,0.0064120469402628,186.93948075789754,177.08721166128186,7548.0
0.54,-0.53,-0.52,0.7094049089774147,0.2500484110146946,0.6589467094453014,0.0031147036748218,185.57641226875182,178.51511199183741,8163.0
-1.6,-0.98,1.17,0.7094049089774147,0.2500484110146946,0.6589467094453014,0.0031147036748218,184.37403933434283,179.75667892887375,7147.0
-1.6,-0.98,1.17,0.7090051409763992,0.2531448810889007,0.6582016250720766,0.0,183.40473197430248,180.74555122999368,5726.0
-0.6,-0.91,1.04,0.7090051409763992,0.2531448810889007,0.6582016250720766,0.0,182.43046230728248,181.7288541271066,5724.0
1.93,0.01,-0.6,0.7082352811285595,0.2562020548499579,0.657718322893782,0.0130346225568746,181.4438856232065,182.71389210991254,5765.0
1.93,0.01,-0.6,0.7079348754627325,0.2588209405398882,0.6570694145174687,0.0099858573634873,180.23777751260792,183.90376167255428,7006.0
-0.26,-0.31,-0.21,0.7074128343092092,0.2617433732312083,0.6565130850409118,0.0069323584893018,178.81307886008096,185.289321949697,8218.0
0.77,-0.14,-1.68,0.7074128343092092,0.2617433732312083,0.6565130850409118,0.0069323584893018,177.3608992876647,186.67983662910908,8314.0
-0.15,-0.3,-0.87,0.7069665786688192,0.264674987682324,0.6558439954517847,0.0037498227298558,176.0929706781217,187.87633080767299,7209.0
-0.15,-0.3,-0.87,0.7064918108303048,0.2676863447551084,0.6551435657265795,0.0005003483079534,175.02584964005993,188.87086053114476,6032.0
-0.19,-0.26,0.46,0.7064918108303048,0.2676863447551084,0.6551435657265795,0.0005003483079534,173.99572231162634,189.8202797839457,5793.0
-0.19,-0.26,0.46,0.7058017388519635,0.2709182237533383,0.6544217754189557,0.0133925848656073,172.9652821037363,190.75969486968393,5766.0
1.16,-0.56,-0.72,0.7053066924566793,0.2740563031602228,0.6537019406733102,0.0104587300337653,171.69975144697415,191.89957100798142,7043.0
-1.05,-0.37,-0.01,0.7053066924566793,0.2740563031602228,0.6537019406733102,0.0104587300337653,170.20470537576327,193.22683112846835,8267.0
-0.12,-0.32,0.81,0.7049642042724004,0.277272549760055,0.6527562399979596,0.0073956059836542,168.76607643113832,194.48460465044317,7902.0
0.6,-0.42,-0.87,0.704388174807839,0.2806639731337441,0.6519557543520155,0.004327556233794,167.4078396062547,195.65496476799788,7414.0
0.6,-0.42,-0.87,0.704388174807839,0.2806639731337441,0.6519557543520155,0.004327556233794,166.18838669030816,196.6918151049316,6619.0
2.41,-1.36,2.04,0.7042477107136021,0.283205496500871,0.651021145768403,0.0011298091615726,165.1228923342763,197.58714641181243,5755.0
2.41,-1.36,2.04,0.7046751796643148,0.2852241724623989,0.6495272335242606,0.0139440137165057,164.0551840669636,198.47454894961896,5741.0
-4.98,-2.11,6.04,0.7046751796643148,0.2852241724623989,0.6495272335242606,0.0139440137165057,162.773300893932,199.527197434569,6859.0
-2.28,1.22,0.07,0.703517996451723,0.2887226796229422,0.649280366387596,0.0116896862015383,161.33656467007958,200.6907145347219,7645.0
6.48,-0.37,-1.73,0.7016548040611202,0.2918058878590658,0.6499598816860874,0.0090560447956261,159.9572806374727,201.79176982985405,7298.0
6.48,-0.37,-1.73,0.7013132519855029,0.2942595093369436,0.6492592168578767,0.0057907753709088,158.44679512783594,202.97995741875005,7947.0
-2.23,0.71,-0.49,0.7013132519855029,0.2942595093369436,0.6492592168578767,0.0057907753709088,157.0743101563935,204.04389500520006,7181.0
1.57,0.37,-1.23,0.7013610162446611,0.2974612140556334,0.647763833699384,0.0034009963072208,155.96247807079078,204.89498635647018,5790.0
1.57,0.37,-1.23,0.7013610162446611,0.2974612140556334,0.647763833699384,0.0034009963072208,154.822654020107,205.757614202173,5911.0
1.49,-0.18,-1.79,0.70054058978844,0.3007269348461982,0.6471522615941977,0.0003781935881528,153.610136667216,206.66440407839767,6261.0
-1.7,-1.49,-0.03,0.700080032057689,0.3039273377594112,0.6460190672466024,0.0132471442360889,152.26342895900515,207.65860974601077,6922.0
-1.7,-1.49,-0.03,0.6994335925146601,0.3075134063669022,0.645077394017041,0.0101641671987417,150.72564620263307,208.77746424554226,7864.0
1.23,-0.56,-0.3,0.6985365637906618,0.3110715064261807,0.6443849730924621,0.0070137999620772,149.01402202323666,210.00255055703096,8704.0
-0.2,-0.85,-0.43,0.6985365637906618,0.3110715064261807,0.6443849730924621,0.0070137999620772,147.58052008831808,211.01241691062057,7251.0
-0.2,-0.85,-0.43,0.6979372505546256,0.314185598111216,0.6435492444403652,0.0039209957896327,146.44326916647157,211.80325520594897,5728.0
0.3,0.21,-0.24,0.6979372505546256,0.314185598111216,0.6435492444403652,0.0039209957896327,145.30217978143563,212.58769143758855,5726.0
-0.17,-0.25,-0.63,0.6972618091543352,0.3172996958324875,0.6427644945499523,0.0008228398256178,144.14566705942067,213.37356131441086,5782.0
-0.17,-0.25,-0.63,0.6963673341537886,0.3205962956565382,0.6419527485049117,0.0136828294530354,142.72817211482314,214.324331061038,7058.0
0.18,-1.07,-0.19,0.6953997932696288,0.3240802720343824,0.6413124381443444,0.010462384051198,141.0301559728197,215.44545738140351,8414.0
1.21,-1.15,-1.19,0.6953997932696288,0.3240802720343824,0.6413124381443444,0.010462384051198,139.3365529200584,216.54462593275264,8349.0
-0.79,-0.29,1.06,0.6947815152957252,0.3273032131524668,0.6403896491581134,0.0072353240836496,137.89773603517847,217.46370822822882,7060.0
-0.79,-0.29,1.06,0.6939946231554416,0.3306400012379015,0.6395549534031109,0.004256076865118,136.67427686377454,218.2347177782772,5980.0
1.48,-1.09,-0.86,0.6939946231554416,0.3306400012379015,0.6395549534031109,0.004256076865118,135.4874331233496,218.97352686031678,5781.0
1.48,-1.09,-0.86,0.6930544418208354,0.334034312203162,0.6388231383740716,0.0012715428709674,134.30216676887892,219.7024760925198,5754.0
-1.09,-0.78,0.56,0.6930544418208354,0.334034312203162,0.6388231383740716,0.0012715428709674,132.8561956095838,220.5798750751029,6994.0
0.88,0.26,0.29,0.6923473713786503,0.337075571913627,0.6378223118977182,0.0147605761955382,131.20582763682503,221.56552257545795,7949.0
-0.6,-0.59,-0.94,0.6916391023518366,0.340183784620524,0.637000823204624,0.011844661913032,129.6373782881572,222.4868538825906,7522.0
-0.6,-0.59,-0.94,0.6910320866387117,0.3428391066251273,0.6362823575829423,0.0089868589020529,128.0586831918019,223.3992472216093,7540.0
-0.12,0.18,-0.03,0.6910320866387117,0.3428391066251273,0.6362823575829423,0.0089868589020529,126.64626236294104,224.2029755143698,6720.0
0.29,-0.56,0.65,0.6904897192987557,0.3452129604661893,0.6356231242144972,0.0059332480730651,125.43054303894051,224.88536829450797,5765.0
0.29,-0.56,0.65,0.6904897192987557,0.3452129604661893,0.6356231242144972,0.0059332480730651,124.18233654691677,225.57703183114253,5901.0
-0.54,-1.02,0.3,0.6898398512849784,0.3483046240426099,0.6346628811396144,0.0028099382944398,122.77155445837548,226.34795209118667,6648.0
1.06,-0.99,-1.16,0.6888609453226839,0.3512692294946624,0.6338952361950622,0.0160423174314338,121.2130593895409,227.18636454115733,7318.0
1.06,-0.99,-1.16,0.6883371315004717,0.3543730245730191,0.6328044026090869,0.0130514708454406,119.61307662905493,228.03280882217769,7485.0
-0.68,-0.09,1.06,0.6877243374566384,0.3574066046508519,0.6318175168402267,0.0101183020130504,117.85455013036022,228.94662044583757,8195.0
0.98,-0.4,-0.5,0.6877243374566384,0.3574066046508519,0.6318175168402267,0.0101183020130504,116.31283332970807,229.73370410720224,7158.0
0.98,-0.4,-0.5,0.6869082951181962,0.3605691638708336,0.6309479608854428,0.0071793326850725,115.05866768482197,230.36439175921635,5805.0
-0.26,0.01,-0.56,0.6869082951181962,0.3605691638708336,0.6309479608854428,0.0071793326850725,113.8017331550068,230.98791208830954,5802.0
-0.05,-0.2,-0.71,0.6861723577847245,0.3638452509716064,0.6298950588249187,0.0040427250107956,112.5522951536777,231.5992894109121,5752.0
-0.05,-0.2,-0.71,0.6855275986041676,0.3666297446569191,0.6289945382750824,0.0006424211401032,111.02428730857072,232.33565724533963,7014.0
-0.12,-0.95,-0.62,0.6847588333578369,0.369097164379189,0.6282368111471562,0.0138250680037501,109.19654561402477,233.20026677935897,8361.0
-2.1,-0.05,0.65,0.6847588333578369,0.369097164379189,0.6282368111471562,0.0138250680037501,107.31327188044257,234.07287685315916,8583.0
0.8300000000000001,0.8300000000000001,1.28,0.684275729295343,0.3712340668717067,0.6275638838099998,0.0107501455119776,105.74549133456694,234.7853084466978,7121.0
0.8300000000000001,0.8300000000000001,1.28,0.6832818239001732,0.3738298463118839,0.6271525709890112,0.0075397503910516,104.49378180190118,235.34506488290054,5670.0
0.28,-0.91,0.11,0.6832818239001732,0.3738298463118839,0.6271525709890112,0.0075397503910516,103.23910936333378,235.89814814420566,5670.0
0.28,-0.91,0.11,0.6821756475303249,0.3766709004333715,0.6266879849108149,0.004193834965428,101.95508441932309,236.4559383078562,5789.0
0.96,-2.33,-0.54,0.6814680159767407,0.3795477189059235,0.6257338520468764,0.0014208013979803,100.38351250876624,237.12739280058383,7067.0
-0.97,-1.2,1.43,0.6814680159767407,0.3795477189059235,0.6257338520468764,0.0014208013979803,98.54461441167916,237.89747575469033,8244.0
-0.2,-1.42,-0.19,0.6806476685323305,0.3828481568919033,0.6244225003189686,0.0155750178614025,96.82373973371065,238.60304571396122,7691.0
1.0,-1.16,-1.73,0.6796004953022846,0.3867539933296214,0.6232042608234502,0.013452312811465,95.1951152361611,239.25747644571948,7258.0
1.0,-1.16,-1.73,0.6796004953022846,0.3867539933296214,0.6232042608234502,0.013452312811465,93.69790922280079,239.8477679847694,6655.0
0.0,0.58,1.25,0.6790552047783144,0.3901767967213496,0.6217067240392441,0.0112625684521424,92.39006953382075,240.3545819233238,5800.0
0.0,0.58,1.25,0.6781775758144063,0.3937303759480333,0.6204589570303165,0.0090691432432913,91.08084580981779,240.85375132342904,5794.0
-0.29,0.12,0.41,0.6781775758144063,0.3937303759480333,0.6204589570303165,0.0090691432432913,89.60072335365031,241.40828563763637,6536.0
-0.2,-1.68,-2.43,0.6768764925428052,0.3973083473469646,0.6196272642942136,0.0068076658732753,87.89245763347138,242.03546411868746,7525.0
1.64,-0.58,-1.86,0.6759863449917264,0.400803191880773,0.6183672362997842,0.0046069332400088,86.16772439123038,242.65484391051615,7578.0
1.64,-0.58,-1.86,0.6756052470359439,0.4036226675313267,0.6169614387043609,0.0022080725174682,84.34038326829983,243.29601260636454,8008.0
0.4,1.24,-0.04,0.6756052470359439,0.4036226675313267,0.6169614387043609,0.0022080725174682,82.70067225719443,243.85825556705706,7168.0
-0.41,0.41,0.67,0.6750300966299465,0.4060321632849235,0.6158089469737561,0.015861647108793,81.3787219911379,244.30258616537216,5767.0
-0.41,0.41,0.67,0.6750300966299465,0.4060321632849235,0.6158089469737561,0.015861647108793,80.04656983547953,244.74230663613042,5801.0
-0.1,0.11,0.49,0.6744041204109347,0.4082484936991972,0.6151065474262458,0.0124974028683427,78.64019929771334,245.19781616975288,6113.0
-0.1,0.11,0.49,0.6735070777366947,0.4107004835787199,0.6145189905062961,0.0089296883431653,77.04573553203284,245.70348926364082,6917.0
-0.86,-0.8300000000000001,0.49,0.6723674860962958,0.4135487488490951,0.6138950734453902,0.0056775668533803,75.20705784278363,246.27250851573382,7959.0
0.8300000000000001,-1.67,-0.4,0.6723674860962958,0.4135487488490951,0.6138950734453902,0.0056775668533803,73.20073886031568,246.87628851370857,8664.0
-1.34,-2.32,-0.45,0.6713442310979388,0.4166581179281319,0.6129323826695634,0.0026135055225223,71.53415882155687,247.36433478109225,7181.0
-1.34,-2.32,-0.45,0.6703896503197512,0.4199172709689906,0.6115319110467266,0.0166109619726091,70.19966547566862,247.7463561126666,5740.0
1.51,-1.31,-0.07,0.6703896503197512,0.4199172709689906,0.6115319110467266,0.0166109619726091,68.8540443133034,248.12370016123342,5779.0
-0.75,-0.73,0.04,0.6697099837613237,0.423298607526952,0.6100056333028362,0.0141405040559575,67.50546153562736,248.49398918859572,5783.0
-0.75,-0.73,0.04,0.6688567763408594,0.4269465864652272,0.6084447516752763,0.0119251502051367,65.9099254631884,248.92193901992036,6831.0
0.79,0.39,0.13,0.6688567763408594,0.4269465864652272,0.6084447516752763,0.0119251502051367,63.98261872185003,249.4242861100225,8236.0
0.18,-0.17,0.21,0.6678174471898151,0.4305432132771419,0.6070888842812647,0.009771658610555,62.09419908464965,249.90110131817323,8054.0
-0.9,-0.22,-0.32,0.6667177681463573,0.4341937099763693,0.6057310798233988,0.0072868917156602,60.40794266170868,250.3140636548009,7179.0
-0.9,-0.22,-0.32,0.6667177681463573,0.4341937099763693,0.6057310798233988,0.0072868917156602,58.906818960600134,250.67157134374668,6381.0
2.72,0.84,-1.84,0.6655377776103059,0.4378434253769221,0.6044250077468003,0.0047970238710063,57.554209516372666,250.98558318546003,5742.0
2.72,0.84,-1.84,0.6645003968947705,0.4412240532594025,0.6031224273568216,0.0019735681523456,56.188834409625336,251.2947768810321,5789.0
-0.26,0.65,-1.3,0.6645003968947705,0.4412240532594025,0.6031224273568216,0.0019735681523456,54.52947724351558,251.6600606205699,7026.0
-1.52,0.81,1.5,0.6637961370527489,0.44371646116774,0.6018760845738778,0.0153482683272095,52.73377914609455,252.04245383857642,7592.0
-0.94,-0.38,2.69,0.6630073035145729,0.4462054327464481,0.6009885090769475,0.011612029596832,51.06577134178578,252.38569095190093,7042.0
-0.94,-0.38,2.69,0.661322094036382,0.4495589497275994,0.600403024129144,0.0081269475038939,49.199236709841834,252.7561771889442,7869.0
0.8200000000000001,-2.11,-0.63,0.661322094036382,0.4495589497275994,0.600403024129144,0.0081269475038939,47.493311263805474,253.08226999376961,7182.0
-0.53,-2.5,0.42,0.6598941338959096,0.45292041978517,0.5994826885688299,0.0048302689034795,46.119540887480966,253.3362152325008,5777.0
-0.53,-2.5,0.42,0.6598941338959096,0.45292041978517,0.5994826885688299,0.0048302689034795,44.71297681803581,253.5882483556164,5909.0
-0.7000000000000001,-2.12,0.79,0.6589256359375207,0.4563321717612752,0.5979753458648766,0.0018550088282978,43.259026829899184,253.8403171242308,6102.0
0.02,-1.09,-0.18,0.657642505647509,0.4601309596928836,0.5962475101611099,0.0165753227555073,41.632316877582355,254.1121803286977,6820.0
0.02,-1.09,-0.18,0.6565293129090328,0.4641429308082256,0.5944135303473372,0.0145998634226207,39.7403787581194,254.41492152812344,7923.0
-0.52,1.11,-1.53,0.6565293129090328,0.4641429308082256,0.5944135303473372,0.0145998634226207,37.68716317843282,254.7271633170718,8588.0
0.73,1.66,-0.92,0.6557467290886987,0.4678970785758502,0.5923773632509132,0.0125543083263537,35.97562874947481,254.97451664054577,7151.0
0.73,1.66,-0.92,0.6548666631560496,0.4713151256003781,0.5906901291918384,0.0098426186805215,34.622674618157866,255.1617534080787,5648.0
1.96,2.26,-0.68,0.6548666631560496,0.4713151256003781,0.5906901291918384,0.0098426186805215,33.2685065672835,255.3418423815075,5649.0
1.96,2.26,-0.68,0.6538595570530504,0.4740748235071882,0.5896459656717199,0.0061948796664561,31.88100669386588,255.51878876549503,5784.0
-1.71,-0.31,2.11,0.6523468930401092,0.477200059222958,0.5888269746424224,0.0025354589276387,30.216641965171966,255.72095054638876,6933.0
2.48,-2.27,-2.14,0.6523468930401092,0.477200059222958,0.5888269746424224,0.0025354589276387,28.245506491102017,255.94616887748313,8204.0
2.34,-2.07,-3.84,0.6499737569235199,0.4810513819096896,0.5883227675452022,6.679413800467782e-05,26.374933168116304,256.1456868666295,7779.0
-1.73,-0.29,1.31,0.6488522894398636,0.4840315048696591,0.5869358405506103,0.0145095781954297,24.68253196456471,256.3143043527189,7033.0
-1.73,-0.29,1.31,0.6488522894398636,0.4840315048696591,0.5869358405506103,0.0145095781954297,23.13958957899469,256.45820204102597,6408.0
-1.24,-0.24,2.18,0.6483897491195646,0.4871627235227129,0.5849166510025317,0.0116501256037592,21.74858475870345,256.57990774999024,5774.0
-1.24,-0.24,2.18,0.6468199395299865,0.4912480141777482,0.5832774211181287,0.0093168882481521,20.3470564584886,256.6948524872968,5815.0
1.65,0.91,-1.06,0.6468199395299865,0.4912480141777482,0.5832774211181287,0.0093168882481521,18.737264677700512,256.8173765779835,6676.0
-0.37,0.72,-0.46,0.6450991975274785,0.49486234468121,0.5821594172819224,0.0069783978097418,16.9904031111302,256.93885693316474,7241.0
-0.37,0.72,-0.46,0.643949911970586,0.4975274077251611,0.5811878105638734,0.0039646295321156,15.246135503993747,257.04825490983956,7227.0
-0.72,0.29,0.12,0.6423831710979927,0.5003940142766262,0.5804732069863068,0.0007402278317701,13.30241004518897,257.1561702292785,8050.0
1.2,-1.45,-1.53,0.6423831710979927,0.5003940142766262,0.5804732069863068,0.0007402278317701,11.570522797526221,257.239913314773,7170.0
1.2,-1.45,-1.53,0.6409023140598222,0.5034216914854756,0.5793056037495512,0.0146915567260821,10.205895762497944,257.297667482014,5648.0
-1.37,-2.28,0.32,0.6409023140598222,0.5034216914854756,0.5793056037495512,0.0146915567260821,8.834214359029684,257.3484149099402,5676.0
0.56,-1.18,0.34,0.6395741297140024,0.5068132271024107,0.5778845186377468,0.0116089858918117,7.437383971178851,257.39257044379747,5779.0
0.56,-1.18,0.34,0.6382271865823178,0.5106358134070301,0.5760534242299531,0.0089205832940349,5.758435913156247,257.4356044059059,6945.0
-0.03,-1.08,-0.54,0.6370087826561744,0.5143301207743342,0.5741469641850053,0.0062929484583624,3.771913955837219,257.47237262492797,8216.0
0.16,0.8200000000000001,0.5700000000000001,0.6370087826561744,0.5143301207743342,0.5741469641850053,0.0062929484583624,1.7539722278295338,257.4940263024057,8345.0
-0.39,-0.59,-1.5,0.6357303942104521,0.5178268676781362,0.5724419495086228,0.003523553666483,1.5767327539022172e-14,257.5,7253.0
