ACC_X,ACC_Y,ACC_Z,QUAT_W,QUAT_X,QUAT_Y,QUAT_Z,X_pos,Y_pos,dt
-1.41,-0.55,1.56,-0.701992028828526,-0.0470400723395901,-0.7106170615982037,0.0042207607170763,257.5,0.0,
1.79,-1.42,-2.4,-0.7016591986789144,-0.0477152724472147,-0.7108963860372854,0.0048938740971502,257.49418572471893,1.7304097676430832,6620.0
1.79,-1.42,-2.4,-0.7019088817707566,-0.0485108718183902,-0.7105955700408846,0.0049550827456363,257.47732961210227,3.416831254371014,6452.0
1.19,0.13,-0.89,-0.7019088817707566,-0.0485108718183902,-0.7105955700408846,0.0049550827456363,257.4469433947424,5.226981605507257,6926.0
0.72,4.44,1.34,-0.7021601306112109,-0.0492454177680802,-0.7102963300685459,0.005016303424823,257.4000154817922,7.175097906868617,7455.0
-0.81,2.62,1.11,-0.7022895742994227,-0.0524270178723523,-0.709936455552683,0.0055669295523734,257.34267865918656,8.999763358814329,6984.0
-0.81,2.62,1.11,-0.702048432011908,-0.0552509790924484,-0.7099414290251149,0.0076482529197741,257.2630616961476,11.04387100269543,7826.0
1.69,0.66,0.17,-0.702048432011908,-0.0552509790924484,-0.7099414290251149,0.0076482529197741,257.17606304398134,12.912110485823954,7155.0
1.69,0.66,0.17,-0.701567946126848,-0.0584384987833528,-0.7101348464720515,0.0097907432516612,257.09766028945677,14.388991406178656,5658.0
-1.3,-0.56,-1.55,-0.701567946126848,-0.0584384987833528,-0.7101348464720515,0.0097907432516612,257.0108085543178,15.864875866384317,5656.0
1.92,2.38,1.75,-0.7017645378427405,-0.0600358429950055,-0.7097815566320838,0.0115053399419582,256.90750115504585,17.458117031057906,6108.0
1.92,2.38,1.75,-0.7030317195113716,-0.0616361606780385,-0.7083567899969617,0.013343280067341,256.76564280161944,19.433339308291377,7576.0
-3.88,3.92,6.1000000000000005,-0.7030160756870122,-0.0626971312927626,-0.708404110407484,0.0010408703437275,256.59156758839765,21.610586353192016,8356.0
-2.26,2.1,4.64,-0.7015235647328883,-0.0648606124543503,-0.7096694206879672,0.0052059981667797,256.3932280928923,23.84874395237832,8596.0
1.3,-3.03,-5.0,-0.7015235647328883,-0.0648606124543503,-0.7096694206879672,0.0052059981667797,256.20750096093406,25.767546475226677,7375.0
1.3,-3.03,-5.0,-0.701766483346026,-0.0645710932733925,-0.7094243454515041,0.0084542797644479,256.0526231650111,27.263605233292708,5754.0
-2.11,-2.41,-1.3,-0.701766483346026,-0.0645710932733925,-0.7094243454515041,0.0084542797644479,255.8893015107212,28.756136255679735,5744.0
4.96,3.66,1.22,-0.7027492289910682,-0.0649502295518817,-0.7083864187257598,0.0106616414547428,255.71592869087308,30.259111252056314,5788.0
4.96,3.66,1.22,-0.7039040187390838,-0.0704823353548059,-0.706662023166011,0.0134222882110456,255.49719253802624,32.05362078122763,6916.0
-4.46,-3.18,6.43,-0.7032172873845988,-0.0777401499916016,-0.7067119155782275,0.0004291648658842,255.22288350160528,34.16913427533714,8161.0
2.57,-2.03,-8.76,-0.7032172873845988,-0.0777401499916016,-0.7067119155782275,0.0004291648658842,254.92648929993143,36.314391819386735,8285.0
5.96,1.67,-1.94,-0.7024176640046955,-0.0830882527041783,-0.7068940052942932,0.002575429235111,254.6576752852268,38.153878155752295,7112.0
5.96,1.67,-1.94,-0.7024176640046955,-0.0830882527041783,-0.7068940052942932,0.002575429235111,254.42379237947125,39.683546606215764,5920.0
-0.99,4.8100000000000005,2.66,-0.7049940448499618,-0.0861618504709634,-0.7039515171218432,0.003434208986743,254.1899603111531,41.154757647378005,5699.0
-0.99,4.8100000000000005,2.66,-0.7077949034113359,-0.0862970042547443,-0.7011094922785945,0.004968057814239,253.94679884744428,42.6294892666527,5718.0
-0.8300000000000001,4.8100000000000005,2.73,-0.7077949034113359,-0.0862970042547443,-0.7011094922785945,0.004968057814239,253.6408542236825,44.41359103563493,6925.0
-1.07,2.02,3.31,-0.70965666373172,-0.0870582524280548,-0.6991041482858952,0.0078530347503812,253.26610373460852,46.50301817184034,8121.0
-6.32,-1.91,4.66,-0.7107792300823986,-0.0871519304651589,-0.6978905643093821,0.0120907959870678,252.89330867781808,48.48942591932606,7732.0
-6.32,-1.91,4.66,-0.7101770880516645,-0.0879354595840885,-0.6985096737213734,0.0003070372192181,252.51824669885562,50.40620085005308,7472.0
1.64,-2.13,1.19,-0.7101770880516645,-0.0879354595840885,-0.6985096737213734,0.0003070372192181,252.17180333098514,52.111722335756184,6658.0
0.89,-0.5700000000000001,1.14,-0.7084307005286756,-0.0880240348441508,-0.7002609889904536,0.0035013049449522,251.86725223093308,53.56432818247179,5678.0
0.89,-0.5700000000000001,1.14,-0.7084307005286756,-0.0880240348441508,-0.7002609889904536,0.0035013049449522,251.54947397493657,55.03737042167537,5765.0
0.71,-1.62,-0.8,-0.7069949463005859,-0.0883590068468836,-0.7016491649405867,0.0062674678013783,251.18689073825885,56.66917964154772,6395.0
-0.59,0.35,0.76,-0.7063883133891563,-0.0899274366940772,-0.7020240973910158,0.0095275137987573,250.77745544811623,58.45440820817606,7007.0
-0.59,0.35,0.76,-0.7058170037192371,-0.0908787813831372,-0.7024351816785925,0.0121745593463201,250.3210494031794,60.378988279790036,7567.0
0.38,0.36,-0.84,-0.7055791054477243,-0.0922566821976627,-0.7024423782530038,0.0148840780612229,249.80122776372582,62.4947726432793,8335.0
1.69,0.89,-1.67,-0.7055791054477243,-0.0922566821976627,-0.7024423782530038,0.0148840780612229,249.3434737206655,64.29682817147204,7113.0
1.69,0.89,-1.67,-0.7059880977590572,-0.0932866692410643,-0.7020498742554767,0.0020921812362771,248.96540025498854,65.74556620695691,5728.0
-2.01,-1.78,2.49,-0.7059880977590572,-0.0932866692410643,-0.7020498742554767,0.0020921812362771,248.57897760039242,67.19182908020592,5727.0
0.65,-1.09,0.77,-0.7060226678757334,-0.0949775916767442,-0.7017754521753475,0.0047396465062276,248.18080892377682,68.64791389357565,5775.0
0.65,-1.09,0.77,-0.705231555437451,-0.0974665228092792,-0.702214587896292,0.0065880719776329,247.68345862445094,70.42126329333996,7046.0
4.05,0.81,-0.89,-0.7050202269186806,-0.0998901823953616,-0.7020641672670299,0.0086218406506477,247.0747155667825,72.52816644306908,8390.0
-4.61,-1.91,0.62,-0.7050202269186806,-0.0998901823953616,-0.7020641672670299,0.0086218406506477,246.43986726661535,74.65682702615356,8498.0
-2.6,-2.17,1.06,-0.7049674567965976,-0.1026191160352233,-0.7017028630691865,0.0101633578306193,245.88421853045102,76.4669933871432,7244.0
-2.6,-2.17,1.06,-0.7053173380769954,-0.1051691733138916,-0.7009429905050644,0.0120756637196969,245.41795793530045,77.95047095987996,5949.0
0.58,-0.29,0.55,-0.7053173380769954,-0.1051691733138916,-0.7009429905050644,0.0120756637196969,244.96048019819153,79.37640166366457,5729.0
0.58,-0.29,0.55,-0.7052577490343792,-0.1086386554432163,-0.700451274204787,0.0133102379896396,244.49348722934383,80.80337061307955,5744.0
1.15,-0.71,-0.32,-0.7052157634171342,-0.1121640032700501,-0.6999157061197582,0.0144210861347207,243.9144009480199,82.53493206011977,6985.0
-1.0,-0.77,1.31,-0.7052157634171342,-0.1121640032700501,-0.6999157061197582,0.0144210861347207,243.23112671658103,84.52732691965657,8058.0
1.16,2.4,-1.54,-0.7049751623782455,-0.1161809915267522,-0.6994896938127914,0.015038812696301,242.58028083666485,86.3774122627253,7503.0
1.16,2.4,-1.54,-0.7050664997420434,-0.1201306589734454,-0.698717881027695,0.0155941799488361,241.92467541955853,88.19694679035811,7399.0
-0.15,0.13,-0.72,-0.7050664997420434,-0.1201306589734454,-0.698717881027695,0.0155941799488361,241.31713327665477,89.84593027587414,6723.0
0.47,3.0,0.79,-0.7056847080352637,-0.123553394627177,-0.6976697672660357,0.0007398406863902,240.7973995851323,91.22972296920635,5655.0
0.47,3.0,0.79,-0.7060756143588165,-0.1267236146294644,-0.6967023834957126,0.0020349777531738,240.26145694064266,92.63197238944934,5743.0
-2.88,4.68,2.59,-0.7060756143588165,-0.1267236146294644,-0.6967023834957126,0.0020349777531738,239.6425333653394,94.22158034252128,6526.0
-1.18,3.9,-2.66,-0.7054631209199339,-0.1293595806723593,-0.6968268112899242,0.0045032185927907,238.96316831013513,95.9315078125119,7039.0
-1.18,3.9,-2.66,-0.7049159496384815,-0.1301582680605461,-0.6972014956282547,0.0078996009064722,238.21784739337636,97.76761827551105,7581.0
1.1,-0.74,0.27,-0.7045863528871941,-0.1307899995981662,-0.6973614095666155,0.0117945655917137,237.36469169387144,99.82110566945926,8507.0
-1.82,-3.09,0.1,-0.7045863528871941,-0.1307899995981662,-0.6973614095666155,0.0117945655917137,236.63197566368302,101.54584232504118,7169.0
-1.82,-3.09,0.1,-0.7038994901459515,-0.1325757684617528,-0.6976599036526445,0.0148267401821158,236.03335086260023,102.92962294972546,5768.0
1.7,-2.33,-2.02,-0.7038994901459515,-0.1325757684617528,-0.6976599036526445,0.0148267401821158,235.42705759305287,104.30891885681385,5764.0
-0.39,-0.31,-3.5500000000000003,-0.7035164855511208,-0.1357956175325788,-0.6975827671700887,0.0015452391617271,234.81538627245772,105.6786845570878,5739.0
-0.39,-0.31,-3.5500000000000003,-0.7037788480222372,-0.1402858829976681,-0.6964214129950347,0.0035241495508449,234.0722571915517,107.31462348278579,6874.0
-0.21,4.86,-1.9,-0.7044274865327169,-0.1444234068885674,-0.6949023453503447,0.0058758987813335,233.16732457843693,109.26686940209206,8232.0
0.2,4.93,0.06,-0.7044274865327169,-0.1444234068885674,-0.6949023453503447,0.0058758987813335,232.2310930121138,111.24283994216866,8365.0
0.48,-0.59,1.74,-0.7046202283411693,-0.1479795314856158,-0.6939132191621599,0.0098405460084537,231.41814447832667,112.92427731098537,7145.0
0.48,-0.59,1.74,-0.7041588899436243,-0.1514220304232332,-0.693568637509116,0.0139345426769846,230.7394121142525,114.30474048423862,5885.0
-1.3,-1.98,-1.56,-0.7041588899436243,-0.1514220304232332,-0.693568637509116,0.0139345426769846,230.08026933723536,115.6257742101874,5648.0
-1.3,-1.98,-1.56,-0.703141865356167,-0.1551795549842977,-0.6939079381626125,0.0016112893089423,229.40489689128862,116.96000719176291,5721.0
1.77,0.36,-3.09,-0.7027548903727626,-0.1580485455761577,-0.6936402822128195,0.0044022937371154,228.56307810270977,118.59666659824215,7041.0
-0.08,0.27,1.78,-0.7027548903727626,-0.1580485455761577,-0.6936402822128195,0.0044022937371154,227.57653685813054,120.47891878523794,8130.0
1.74,-0.96,-1.95,-0.7027361447490266,-0.1613538764558808,-0.6928725283105471,0.0073822034979814,226.5984621112774,122.30857275270601,7937.0
-0.97,0.0,0.88,-0.7022752889621898,-0.1646132284185723,-0.6925300865256453,0.0106762727330295,225.64069871648883,124.06661550447288,7659.0
-0.97,0.0,0.88,-0.7022752889621898,-0.1646132284185723,-0.6925300865256453,0.0106762727330295,224.79613467262237,125.59039707019095,6665.0
0.09,-0.46,0.29,-0.7022659171785485,-0.1678656503478613,-0.6917083291063559,0.0135385541161057,224.05615477311454,126.90582929198385,5774.0
0.09,-0.46,0.29,-0.7018911550348005,-0.1717598187265328,-0.6912649144406482,0.0004349923050237,223.31407395936725,128.20715413607093,5731.0
0.97,0.8,-2.57,-0.7018911550348005,-0.1717598187265328,-0.6912649144406482,0.0004349923050237,222.46814338415635,129.66948437934985,6463.0
-0.36,1.55,0.31,-0.7020005920409046,-0.1753291709817864,-0.6902498071772316,0.003170846709245,221.52167062119491,131.27985163457046,7146.0
-0.36,1.55,0.31,-0.7016986713521789,-0.1788619274880321,-0.6896293795495082,0.0062212844343663,220.52441284313306,132.9482355662963,7436.0
2.3000000000000003,0.85,-2.36,-0.7014687502419782,-0.1819498763827582,-0.6890192205544818,0.0093993949140596,219.42873275813068,134.74895636019178,8064.0
-2.22,0.76,2.32,-0.7014687502419782,-0.1819498763827582,-0.6890192205544818,0.0093993949140596,218.45974743280505,136.31430134653894,7043.0
-2.22,0.76,2.32,-0.7012356792353804,-0.1851815308551062,-0.6883421114967302,0.01270670443809,217.65967448016457,137.58821208660575,5755.0
0.76,0.12,0.27,-0.7012356792353804,-0.1851815308551062,-0.6883421114967302,0.01270670443809,216.85231397951773,138.8572069491845,5754.0
-1.32,0.85,0.91,-0.7008940040702882,-0.188874851683829,-0.6878036678149734,0.0,216.03940420120338,140.11861344014605,5741.0
-1.32,0.85,0.91,-0.7008776861951462,-0.1923733343027617,-0.6868426666691665,0.0031812710925553,215.03959291966217,141.64823852397876,6991.0
0.92,0.41,0.62,-0.70052296905193,-0.1961813857017033,-0.6861042925972392,0.0064291068174595,213.84157680973468,143.45044450097166,8279.0
-0.16,0.5,-0.17,-0.70052296905193,-0.1961813857017033,-0.6861042925972392,0.0064291068174595,212.55603844816014,145.3484795903427,8770.0
0.07,0.44,0.4,-0.7002704543165151,-0.1998006763609108,-0.6852807192972533,0.0095559560747794,211.46119431719023,146.93676632465923,7380.0
0.07,0.44,0.4,-0.7000261173614599,-0.2030519467286299,-0.6845269229051041,0.0124993503680289,210.60204233965968,148.16554850019688,5736.0
0.63,0.41,-0.33,-0.7000261173614599,-0.2030519467286299,-0.6845269229051041,0.0124993503680289,209.73590175623653,149.38909436266857,5735.0
0.63,0.41,-0.33,-0.6996460174356047,-0.2064918796543052,-0.6838245620895904,0.0155087783628914,208.85561984321984,150.61732987908275,5781.0
0.0,0.49,0.2,-0.6994758305964698,-0.2096675046974028,-0.683203128739358,0.0025660799082368,207.78673318351852,152.08853840089753,6957.0
-0.46,0.37,-0.16,-0.6994758305964698,-0.2096675046974028,-0.683203128739358,0.0025660799082368,206.52933665946802,153.79168735338112,8099.0
0.3,0.49,-1.16,-0.699168559520634,-0.2128693957193331,-0.6825097600909951,0.0055111817661963,205.31194771180634,155.41317230783397,7757.0
0.35,0.0,0.13,-0.6988767311521599,-0.2160802518842043,-0.68176828893511,0.0085228869652702,204.14668662649234,156.94069051531767,7350.0
0.35,0.0,0.13,-0.6988767311521599,-0.2160802518842043,-0.68176828893511,0.0085228869652702,203.0888759742466,158.30716489002347,6611.0
-0.45,0.06,0.21,-0.6986301762693221,-0.2193096702346336,-0.6809449240513733,0.0115393135039098,202.16446910361296,159.48597879454584,5731.0
-0.45,0.06,0.21,-0.6983021463824111,-0.2227689270001401,-0.6801041213598644,0.0143701645867696,201.2330569024709,160.65959918313908,5732.0
-0.42,0.9,-0.32,-0.6983021463824111,-0.2227689270001401,-0.6801041213598644,0.0143701645867696,200.1100567605631,162.05620994977085,6856.0
1.0,1.34,-0.63,-0.6980198956329495,-0.2261421182343006,-0.6794311516736735,0.0011303965921181,198.89720256640334,163.54251071589647,7339.0
1.0,1.34,-0.63,-0.6977840182847282,-0.2290752721469724,-0.678678700662594,0.0041478650100686,197.71065996228387,164.97498276186653,7116.0
-0.24,1.13,0.12,-0.6973779631334645,-0.2320190571788735,-0.6780692478843687,0.0072958012016127,196.33091666796315,166.61458867793453,8198.0
0.44,0.61,-0.8,-0.6973779631334645,-0.2320190571788735,-0.6780692478843687,0.0072958012016127,195.09103231470195,168.06468727958264,7299.0
-0.46,-0.11,0.43,-0.696863266630098,-0.2347845709087043,-0.6776021195260595,0.0106376923548447,194.11068229861698,169.19601950863202,5727.0
-0.46,-0.11,0.43,-0.696863266630098,-0.2347845709087043,-0.6776021195260595,0.0106376923548447,193.1239446845091,170.32143725760028,5726.0
0.39,0.38,-0.01,-0.6965115042325577,-0.2376088807059064,-0.6769207402082903,0.0138584182808322,192.12859379251395,171.4434409573932,5738.0
0.39,0.38,-0.01,-0.6962665330970891,-0.2405376096862623,-0.6762795285700786,0.0007566058496029,190.9370767794159,172.76944958797387,6820.0
0.12,0.24,-0.11,-0.6960461032155063,-0.2435625018957351,-0.6754126995574997,0.0038490447190776,189.50562328635274,174.33837426926686,8125.0
0.01,0.72,-0.07,-0.6960461032155063,-0.2435625018957351,-0.6754126995574997,0.0038490447190776,187.9764429851551,175.98609854942728,8600.0
-0.77,0.76,0.36,-0.6958930368536532,-0.2466568241334273,-0.6744226527764988,0.0068831525423818,186.68517633181008,177.35527885563758,7200.0
-0.77,0.76,0.36,-0.6954880046285563,-0.2496931491401568,-0.6736848822662799,0.0099220006112388,185.66454162272314,178.42345132864153,5652.0
1.28,0.94,-1.69,-0.6954880046285563,-0.2496931491401568,-0.6736848822662799,0.0099220006112388,184.63870615114018,179.48481325959838,5647.0
1.28,0.94,-1.69,-0.6949634743047722,-0.252800237240278,-0.6730165935636223,0.0129024889659786,183.58957523489002,180.5577964671497,5741.0
-0.38,1.01,0.25,-0.694762659087909,-0.2557719284413297,-0.6722243406410987,6.330988327755686e-05,182.28532196177753,181.87443854838727,7090.0
-0.56,0.79,0.11,-0.694762659087909,-0.2557719284413297,-0.6722243406410987,6.330988327755686e-05,180.73382855813009,183.4162839409861,8368.0
0.19,-0.16,-0.67,-0.6943240877872209,-0.2587952518502336,-0.6715115778298055,0.0033585084103972,179.2682079707202,184.84901842034924,7841.0
0.46,1.31,-2.99,-0.6937313633613648,-0.2622186574139052,-0.6707697876516807,0.006786985085459,177.8902860634712,186.1754444717573,7317.0
0.46,1.31,-2.99,-0.6937313633613648,-0.2622186574139052,-0.6707697876516807,0.006786985085459,176.6372554868136,187.3646977797209,6609.0
1.52,-0.11,1.9,-0.6936359206416088,-0.264922450744777,-0.6697656015713869,0.0099671279096405,175.54061716575282,188.39252035329483,5750.0
1.52,-0.11,1.9,-0.694237768385778,-0.2670194144400035,-0.6682475398027314,0.0134081619340411,174.44953456450693,189.40329957587036,5690.0
-3.24,-0.39,4.11,-0.694237768385778,-0.2670194144400035,-0.6682475398027314,0.0134081619340411,173.18614599147895,190.5592003462917,6551.0
-1.88,-0.26,4.42,-0.6939223142815939,-0.2705972614312861,-0.6672696926220478,0.0003180503777988,171.7661738879006,191.84011965152516,7316.0
-1.88,-0.26,4.42,-0.6920448260547434,-0.2750099943479433,-0.6674085140610735,0.003055666603866,170.33398370179097,193.11287889801142,7330.0
3.12,-0.28,-0.01,-0.6913733957414377,-0.2778493875410331,-0.6669022570222275,0.0066276000697861,168.7457107529592,194.50227531439995,8073.0
-3.88,-0.24,0.63,-0.6913733957414377,-0.2778493875410331,-0.6669022570222275,0.0066276000697861,167.32002422911222,195.73006793022196,7198.0
0.16,1.5,-1.96,-0.691421587262994,-0.2806249408686628,-0.6656551154195985,0.0094392025564913,166.17172160271554,196.70589452171888,5765.0
0.16,1.5,-1.96,-0.691421587262994,-0.2806249408686628,-0.6656551154195985,0.0094392025564913,165.01812930426726,197.67464936334179,5763.0
3.84,1.85,-3.3200000000000003,-0.6908706199192594,-0.2835224772432881,-0.6649565889060277,0.0120634282302974,163.87663308806708,198.62200061352476,5675.0
3.84,1.85,-3.3200000000000003,-0.6906254803460189,-0.2863709319003475,-0.6639179726408995,0.015526134862067,162.48587335652044,199.7613349964622,6878.0
-1.99,0.15,2.8000000000000003,-0.6907046188039275,-0.2892809378745355,-0.6627488979168925,0.0027507917577631,160.81010526661265,201.11280427695536,8236.0
-1.1,-0.06,1.05,-0.6907046188039275,-0.2892809378745355,-0.6627488979168925,0.0027507917577631,159.02052644667174,202.53079313680522,8735.0
1.66,-0.58,-2.24,-0.6897965958366874,-0.2932211856977526,-0.661940903375774,0.0060193910145422,157.50273190416652,203.71337570892157,7361.0
1.66,-0.58,-2.24,-0.6889287546231669,-0.2970316197361142,-0.6611100832883647,0.0091019615888062,156.3159792169797,204.6254252077116,5726.0
0.36,0.34,-1.05,-0.6889287546231669,-0.2970316197361142,-0.6611100832883647,0.0091019615888062,155.1258229895245,205.52914402055663,5717.0
0.36,0.34,-1.05,-0.6885264882679633,-0.3006368919142448,-0.6598485773235186,0.012189716061397,153.92897532704703,206.4270344571305,5724.0
0.45,0.92,0.33,-0.6879033946702332,-0.3040364737530467,-0.6588741411560006,0.0153495389157114,152.5039733505416,207.4820187686087,6783.0
-0.78,1.02,-0.33,-0.6879033946702332,-0.3040364737530467,-0.6588741411560006,0.0153495389157114,150.82121485383732,208.70843574233564,7966.0
1.76,1.47,-0.38,-0.6872686838670762,-0.3075604523705301,-0.6580751974827524,0.0023149020040432,149.2306490219245,209.848667835884,7487.0
1.76,1.47,-0.38,-0.6865601485229478,-0.3108028501705384,-0.6572694905222032,0.0057937565276198,147.7021299028034,210.92731170281243,7157.0
-0.6900000000000001,-0.24,-1.07,-0.6865601485229478,-0.3108028501705384,-0.6572694905222032,0.0057937565276198,146.2893145987194,211.90961855054363,6583.0
0.09,-0.53,0.3,-0.6861409043604698,-0.3138098875945075,-0.656235833946863,0.00940978508704,145.0557582740623,212.7559094162529,5723.0
0.09,-0.53,0.3,-0.6861409043604698,-0.3138098875945075,-0.656235833946863,0.00940978508704,143.7982251244787,213.60786607952838,5811.0
0.7000000000000001,-0.2,-0.55,-0.6853788184731983,-0.3171377229143071,-0.655374944382628,0.012775843161146,142.37564303467008,214.55867791926804,6546.0
-0.61,0.04,0.8200000000000001,-0.6846902918301149,-0.3204823345025026,-0.6543988337725426,0.0158884833308374,140.8150555461202,215.58610839185138,7148.0
-0.61,0.04,0.8200000000000001,-0.6841983543276002,-0.3235085877233705,-0.6536127932656066,0.0022632021927479,139.17162783960907,216.65065890616015,7491.0
-0.39,0.09,-0.97,-0.6835775929232915,-0.3264809562262173,-0.6527677326608649,0.0051134011780077,137.29621286395877,217.84398071375423,8504.0
1.24,1.12,-0.8,-0.6835775929232915,-0.3264809562262173,-0.6527677326608649,0.0051134011780077,135.6566029554189,218.86876450191752,7397.0
-0.33,2.38,0.92,-0.6832975259509279,-0.3291751002210255,-0.6516759808903254,0.0081645792574506,134.36741139942387,219.662579320689,5792.0
-0.33,2.38,0.92,-0.6832975259509279,-0.3291751002210255,-0.6516759808903254,0.0081645792574506,133.08252602571156,220.44339696760213,5752.0
-1.08,0.58,0.67,-0.6825085773477013,-0.3319452894485493,-0.6510461060984251,0.011547051303858,131.80073841961956,221.21215010040254,5718.0
-1.08,0.58,0.67,-0.6820441709099033,-0.3346244708625675,-0.6500885731489593,0.015068493253128,130.2579982513945,222.12407319230329,6856.0
-2.03,-0.31,0.0,-0.6815867236861085,-0.337606553688415,-0.6491983469307954,0.0016909594289922,128.4299269169235,223.18602974226158,8088.0
0.15,0.39,0.89,-0.6815867236861085,-0.337606553688415,-0.6491983469307954,0.0016909594289922,126.56087452828916,224.25118737396832,8230.0
0.89,-0.2,-0.74,-0.6808000321984118,-0.340855792708367,-0.6483096710596391,0.0048182098682749,124.939288492269,225.1586644813954,7109.0
0.89,-0.2,-0.74,-0.6803517292977366,-0.3440866812572093,-0.6470446078500317,0.0076912726630707,123.58807621052405,225.9031593815848,5902.0
-0.38,-0.44,-2.14,-0.6803517292977366,-0.3440866812572093,-0.6470446078500317,0.0076912726630707,122.27636809756847,226.6158419106395,5711.0
-0.38,-0.44,-2.14,-0.6798879451576653,-0.346468808904722,-0.6462197897160765,0.0105702348479406,120.95616596310427,227.32324103686798,5730.0
0.21,1.32,-0.29,-0.6798879451576653,-0.346468808904722,-0.6462197897160765,0.0105702348479406,119.34081583196563,228.17541426841075,6987.0
0.62,0.76,-0.45,-0.6793838261914319,-0.348837464602139,-0.6454146348818602,0.0137836526275377,117.48924897633744,229.1342976836427,7977.0
-1.55,1.11,1.24,-0.6788151328519336,-0.3513458686082428,-0.6447991485517499,0.0003924921265405,115.73856924589897,230.02355007457876,7512.0
-1.55,1.11,1.24,-0.6778735120229917,-0.3541003194507965,-0.6442713174469172,0.0038645798830183,113.92490233773007,230.92718901709833,7752.0
2.28,0.26,-0.13,-0.6778735120229917,-0.3541003194507965,-0.6442713174469172,0.0038645798830183,112.25664473382889,231.74273605250914,7104.0
0.72,-0.71,-0.7000000000000001,-0.6771491216077714,-0.3569361484515882,-0.643442492854489,0.0068855953678884,110.89617515234211,232.39683374904456,5775.0
0.72,-0.71,-0.7000000000000001,-0.6766850321787771,-0.3599402436395261,-0.6422205733221746,0.0096500484798486,109.56217401252702,233.0287107324948,5647.0
0.95,0.0,0.08,-0.6766850321787771,-0.3599402436395261,-0.6422205733221746,0.0096500484798486,108.07180204024284,233.7236308201945,6291.0
-2.42,-1.05,0.27,-0.6759367869061657,-0.3634655228833368,-0.6409768053162298,0.0122885649573646,106.38043596732923,234.4983002995991,7117.0
-2.42,-1.05,0.27,-0.6754398531848372,-0.3669567573199149,-0.6394611211084806,0.0146019717019216,104.57771059780833,235.30778237474647,7560.0
2.86,-0.28,-1.62,-0.6748896754961451,-0.3703598628893203,-0.6380248473379475,0.0167866628220363,102.601029078923,236.176372298217,8260.0
0.63,1.68,0.6,-0.6748896754961451,-0.3703598628893203,-0.6380248473379475,0.0167866628220363,100.87885855880548,236.9170865426817,7172.0
0.63,1.68,0.6,-0.6741116962674655,-0.3739939267101247,-0.6369429606437632,0.0023724724866192,99.4901797563411,237.50358761932617,5767.0
-0.14,1.13,-0.09,-0.6741116962674655,-0.3739939267101247,-0.6369429606437632,0.0023724724866192,98.09784959807175,238.0820486811933,5768.0
0.81,0.0,-1.55,-0.6731534244464005,-0.3777127663388849,-0.6357450159723136,0.0050801542372216,96.70966634618961,238.6493042839402,5737.0
0.81,0.0,-1.55,-0.672616940094463,-0.3806916774061749,-0.6345081444901322,0.0077274334241017,95.02188348034902,239.32632880618667,6957.0
0.73,0.09,-1.7,-0.6723443674729661,-0.3833844062360599,-0.6331330958451662,0.0105797697478043,93.01818056347688,240.11219895011666,8234.0
1.38,2.12,0.15,-0.6723443674729661,-0.3833844062360599,-0.6331330958451662,0.0105797697478043,91.01482564104022,240.87870705716404,8206.0
-1.8,1.14,0.89,-0.6717497468421322,-0.3860326292843401,-0.632087046166091,0.0140375501557941,89.25504963324589,241.536303927519,7187.0
-1.8,1.14,0.89,-0.6708894747933201,-0.3890588661275486,-0.6313005634113282,0.0003315654219597,87.7564717704367,242.0848026258661,6105.0
-0.17,0.3,-0.2,-0.6708894747933201,-0.3890588661275486,-0.6313005634113282,0.0003315654219597,86.34589180514983,242.59150225919572,5734.0
-0.17,0.3,-0.2,-0.670113140258058,-0.3919341743933265,-0.6303353411286777,0.0036523855627978,84.92819138647731,243.09144844650928,5751.0
1.12,0.06,-0.9,-0.670113140258058,-0.3919341743933265,-0.6303353411286777,0.0036523855627978,83.25039348876771,243.67113490104924,6791.0
0.52,-0.18,-0.12,-0.669425917476293,-0.3949925449298878,-0.6291286982460721,0.0068491973279088,81.3333141133208,244.31770712607772,7740.0
-0.5700000000000001,-0.63,-0.12,-0.6686532486420936,-0.3982757874516583,-0.6278403001787258,0.0097871181470066,79.46616405925455,244.93137563347747,7519.0
-0.5700000000000001,-0.63,-0.12,-0.6677680885966395,-0.401767246038581,-0.6265116311815961,0.012330282103042,77.576688049496,245.53636690166934,7590.0
-0.09,-0.42,-0.19,-0.6677680885966395,-0.401767246038581,-0.6265116311815961,0.012330282103042,75.8862070555655,246.064084292527,6775.0
0.67,0.23,-0.78,-0.667042415620898,-0.4052164239337515,-0.6250061325518608,0.0148795097212624,74.44340762134603,246.5044199638662,5771.0
0.67,0.23,-0.78,-0.6663935829643005,-0.4088550102999016,-0.62350389070735,0.000267225496928,72.97624480895634,246.9427417309188,5858.0
0.1,0.74,-0.48,-0.6663935829643005,-0.4088550102999016,-0.62350389070735,0.000267225496928,71.36235080525195,247.4139545125702,6432.0
0.02,1.01,-0.42,-0.6656374119791154,-0.4123032899478797,-0.6220329115661362,0.0028088788609587,69.59644159499724,247.91648859507941,7024.0
0.02,1.01,-0.42,-0.6648636141437599,-0.4157657548815193,-0.620534909081501,0.0056247903704376,67.69005981832498,248.44376788680287,7567.0
0.23,0.8200000000000001,-0.52,-0.6641474146093506,-0.4188051238414946,-0.6192227535504646,0.0085826218142349,65.59416907028488,249.00533123605786,8301.0
0.8300000000000001,1.3,-0.25,-0.6641474146093506,-0.4188051238414946,-0.6192227535504646,0.0085826218142349,63.80768988668712,249.46909369964922,7061.0
0.8300000000000001,1.3,-0.25,-0.6633194379373458,-0.4216423112784566,-0.6181266882175813,0.0120200627040681,62.31319430395027,249.846584558681,5897.0
-1.64,0.41,1.07,-0.6633194379373458,-0.4216423112784566,-0.6181266882175813,0.0120200627040681,60.817481783978,250.21487547597067,5893.0
-0.05,-0.72,-1.31,-0.6621200510726533,-0.4248704532477171,-0.6171313943422445,0.0151979617654295,59.333328382637944,250.57096029475971,5839.0
-0.05,-0.72,-1.31,-0.6613886782702153,-0.4280168075771098,-0.6159266255377921,0.0010102678384982,57.55591587242156,250.98519189005302,6982.0
1.94,-0.08,-1.69,-0.660846410394558,-0.4311451272224114,-0.6143126800983804,0.0039789711412673,55.45530657320188,251.45766835169732,8237.0
-1.17,0.32,1.09,-0.660846410394558,-0.4311451272224114,-0.6143126800983804,0.0039789711412673,53.29839611022397,251.92366100086284,8442.0
0.8200000000000001,-0.39,-0.1,-0.6598057082016623,-0.4347384248697473,-0.6128744865047883,0.0066176398939476,51.45366579161019,252.30689700562147,7208.0
0.8200000000000001,-0.39,-0.1,-0.6587280189497473,-0.4384759781309587,-0.6113380003450909,0.0090588623295634,49.92240245240037,252.6143379410214,5975.0
0.23,-0.21,-0.66,-0.6587280189497473,-0.4384759781309587,-0.6113380003450909,0.0090588623295634,48.446553512064824,252.90152520853377,5752.0
0.23,-0.21,-0.66,-0.6578609384884521,-0.4420256984843704,-0.6096719479325079,0.0115057983068967,46.969052863185226,253.18009019892403,5752.0
-0.58,0.24,-1.25,-0.6571991902142926,-0.4453152982872802,-0.6079380487269443,0.0139584527460711,45.16084900068253,253.50887108252752,7031.0
1.28,2.11,-1.64,-0.6571991902142926,-0.4453152982872802,-0.6079380487269443,0.0139584527460711,43.03647881698086,253.87814299587816,8249.0
-0.21,1.9,-1.01,-0.6564515434416405,-0.4480617677636088,-0.6066442834782164,0.0171678975078287,41.03476768174586,254.2093582882132,7762.0
-0.32,0.87,1.75,-0.6556417627188814,-0.4507834581381503,-0.6057360224061511,0.0034675650626011,39.15684852104072,254.50538543201847,7273.0
-0.32,0.87,1.75,-0.6556417627188814,-0.4507834581381503,-0.6057360224061511,0.0034675650626011,37.40714452886374,254.76843512923006,6769.0
-1.53,-0.76,1.22,-0.6539773196467512,-0.4540317390487233,-0.6050805461898766,0.0068101355789519,35.868974956152805,254.9895422082931,5945.0
-1.53,-0.76,1.22,-0.6524086474926366,-0.4578521646561683,-0.6038547688457506,0.0096834982694631,34.39633529118253,255.19236297063546,5687.0
1.05,-2.45,-1.54,-0.6524086474926366,-0.4578521646561683,-0.6038547688457506,0.0096834982694631,32.71202883762287,255.4137294064799,6499.0
-1.44,-1.27,-1.57,-0.6515097697754703,-0.4615799594940746,-0.6019450529299298,0.0118791470125675,30.835306247988235,255.64708855880363,7235.0
-1.44,-1.27,-1.57,-0.6509746505925743,-0.4649818932804102,-0.5998642235281001,0.0136658895894316,28.92705067118207,255.87003681452595,7350.0
1.44,1.93,-1.53,-0.6503308227091175,-0.4682847129648547,-0.5979267189646209,0.0162138023334799,26.827153598477317,256.09871891480384,8081.0
0.24,2.02,-0.95,-0.6503308227091175,-0.4682847129648547,-0.5979267189646209,0.0162138023334799,24.968193085067636,256.2866351062161,7148.0
0.24,2.02,-0.95,-0.649277128655773,-0.4717281006508012,-0.5965811801664549,0.0016446069749592,23.499440039457845,256.425479073028,5644.0
0.96,1.62,0.09,-0.649277128655773,-0.4717281006508012,-0.5965811801664549,0.0016446069749592,22.030176055799057,256.5558834697628,5643.0
-0.18,1.58,0.18,-0.6476867936305198,-0.4748696540351348,-0.5958004721316672,0.0047356563272762,20.538302186354244,256.67962159723936,5727.0
-0.18,1.58,0.18,-0.6461098308147522,-0.4776730266547029,-0.595235040986819,0.0081124664860758,18.713615592547402,256.8191009085079,7001.0
-0.05,-0.27,-1.01,-0.6446978499154655,-0.4805966988421313,-0.5943588060906199,0.0113624380726395,16.54184667260507,256.9681250829761,8328.0
1.0,-0.09,-1.07,-0.6446978499154655,-0.4805966988421313,-0.5943588060906199,0.0113624380726395,14.29686286820946,257.1027998916535,8604.0
-0.67,-1.53,-0.35,-0.6435172719750133,-0.48389684456048,-0.5928857275833679,0.0146928051163766,12.4184143394869,257.2003751655367,7196.0
-0.67,-1.53,-0.35,-0.6423328482558462,-0.487741933706262,-0.590940694357325,0.017476095344524,10.932096629506024,257.26783565631195,5692.0
0.92,-1.28,-1.38,-0.6423328482558462,-0.487741933706262,-0.590940694357325,0.017476095344524,9.407537337476295,257.32809454321927,5837.0
0.92,-1.28,-1.38,-0.6415872929385555,-0.4916022540027362,-0.5888019678887262,0.0022829826037278,7.866971506500891,257.3797986620471,5897.0
-0.17,0.18,-0.13,-0.6406313223033769,-0.4953670616123971,-0.5866681086275194,0.0048490692648395,6.056182695198404,257.42877199559956,6930.0
-0.62,1.35,-0.25,-0.6406313223033769,-0.4953670616123971,-0.5866681086275194,0.0048490692648395,3.923098318633956,257.47011341043515,8162.0
0.65,1.68,-1.7,-0.6393719950074968,-0.4990237369888155,-0.5849115982973313,0.0075620168680357,1.9037091218611992,257.492962800111,7726.0
0.11,0.92,-1.1,-0.637958357267041,-0.5024443271286172,-0.5834747677139517,0.0107716280366439,1.5767327539022172e-14,257.5,7283.0
