ACC_X,ACC_Y,ACC_Z,QUAT_W,QUAT_X,QUAT_Y,QUAT_Z,X_pos,Y_pos,dt
-8.290000000000001,0.5700000000000001,6.0600000000000005,-0.7278661218726772,-0.0363170098544438,-0.6845908950041045,0.0150761368639455,257.5,0.0,
3.24,2.95,0.14,-0.7269362048219231,-0.0353426872610541,-0.685794631049988,0.0006104091064085,257.4938070736607,1.7858663758496474,7576.0
1.69,-1.27,-3.62,-0.7269362048219231,-0.0353426872610541,-0.685794631049988,0.0006104091064085,257.480738494156,3.1494927375758235,5785.0
1.69,-1.27,-3.62,-0.7273068187220859,-0.0347324867690194,-0.6854325025119852,0.0008545778818387,257.46079891691136,4.492996891356779,5700.0
-3.1,0.23,1.89,-0.7273068187220859,-0.0347324867690194,-0.6854325025119852,0.0008545778818387,257.42621970809466,6.1637169629841555,7089.0
-0.04,-1.59,-1.81,-0.7269893267246733,-0.0343656583497893,-0.6857871608523681,0.0012208049147349,257.3736079198964,8.06696636260726,8077.0
-1.3,0.66,1.28,-0.7270559528389492,-0.0340607188048135,-0.6857313889843636,0.0014039364381912,257.312056134368,9.836450981114643,7511.0
-1.3,0.66,1.28,-0.7269216494627886,-0.0334497492573354,-0.6859029788406545,0.001770150964348,257.23725420950274,11.629490391056438,7613.0
1.57,-0.28,-1.26,-0.7269216494627886,-0.0334497492573354,-0.6859029788406545,0.001770150964348,257.1600093714197,13.227984732806373,6789.0
-1.39,0.3,2.76,-0.7269920381465055,-0.0329618556338466,-0.6858507590775932,0.0021974570422564,257.08661668448366,14.584975890462609,5765.0
-1.39,0.3,2.76,-0.7264425047184144,-0.0323514433661675,-0.6864610039545659,0.0024416183672579,256.99851909852714,16.06272645486995,6280.0
1.72,0.24,-2.18,-0.7264425047184144,-0.0323514433661675,-0.6864610039545659,0.0024416183672579,256.8873401603101,17.752308733264954,7183.0
1.55,-1.98,-1.54,-0.7258658564382933,-0.0314956930644264,-0.6871066217562957,0.0033570990669446,256.76129350042686,19.49071984272688,7394.0
-3.37,-0.97,1.82,-0.7264110307882774,-0.0309461719695535,-0.6865533378965251,0.0037233066866721,256.62548328059125,21.204040440514444,7291.0
-3.37,-0.97,1.82,-0.7261831031132979,-0.0305195891028535,-0.6868128331706168,0.0038454682269595,256.4623190748845,23.093914668850278,8047.0
-0.13,-0.71,-3.5,-0.7261831031132979,-0.0305195891028535,-0.6868128331706168,0.0038454682269595,256.3058924162222,24.76972976687296,7140.0
0.45,1.28,0.94,-0.7261278521476743,-0.030336713392518,-0.6868793476981992,0.0038454988807417,256.17171902668923,26.120879979644364,5760.0
0.45,1.28,0.94,-0.7261278521476743,-0.030336713392518,-0.6868793476981992,0.0038454988807417,256.03047321800256,27.47083514867487,5758.0
-1.15,1.01,0.7000000000000001,-0.7262160817878587,-0.0302742626127733,-0.6867862962075126,0.0042725773848672,255.87096070351765,28.91887737549506,6180.0
-1.15,1.01,0.7000000000000001,-0.7258430884231618,-0.0308843426456542,-0.6871461057406623,0.0053101537750433,255.68027971810682,30.55887045148519,7004.0
2.1,-0.34,-1.66,-0.7259705862675705,-0.0316170139302674,-0.6869681308593835,0.0064698908814833,255.45262120356648,32.40691778350994,7899.0
-0.33,0.88,1.17,-0.7259705862675705,-0.0316170139302674,-0.6869681308593835,0.0064698908814833,255.18849993784733,34.42498365244781,8634.0
-0.59,-0.05,0.6,-0.726417263004835,-0.0325307008218431,-0.6864405105877482,0.0076901844344319,254.95575718380263,36.108335309646634,7209.0
-0.59,-0.05,0.6,-0.726382141110551,-0.0323487551288624,-0.6864649979892755,0.0093994496034807,254.76318563652464,37.44287975476365,5720.0
0.96,-1.96,-1.37,-0.726382141110551,-0.0323487551288624,-0.6864649979892755,0.0093994496034807,254.56270555999902,38.7824565747613,5746.0
-0.68,-2.01,-0.29,-0.7265987170120349,-0.0328357925033578,-0.6861948236342972,0.0106197544527588,254.34628726243233,40.17730896683171,5988.0
-0.68,-2.01,-0.29,-0.7266901831174607,-0.0336888369094514,-0.6860438690201877,0.0114127038080931,254.07870363350642,41.83613700996783,7128.0
1.39,-1.42,-1.56,-0.7266901831174607,-0.0336888369094514,-0.6860438690201877,0.0114127038080931,253.75276986476192,43.7696445720225,8318.0
-1.66,-0.52,0.42,-0.7269641545029658,-0.0346057153558208,-0.6857058413097826,0.0115352384519402,253.4195661273063,45.65932001079122,8140.0
0.01,1.76,0.54,-0.7271509020968051,-0.0354603553901497,-0.6854651486863538,0.0114742630178109,253.11553749732627,47.3156916618537,7144.0
0.01,1.76,0.54,-0.7271509020968051,-0.0354603553901497,-0.6854651486863538,0.0114742630178109,252.84076515420963,48.76266477781749,6248.0
-0.77,3.17,0.97,-0.7271371545576282,-0.0382061321766892,-0.6853301249393661,0.0115961104050654,252.58090537552386,50.09127907810567,5743.0
-0.77,3.17,0.97,-0.7268538849925036,-0.0414386051981452,-0.6854152797943583,0.0131212078315187,252.31608797821588,51.40857659349481,5700.0
0.58,-0.43,-1.41,-0.7268538849925036,-0.0414386051981452,-0.6854152797943583,0.0131212078315187,251.9842418057297,53.011242973463084,6943.0
-0.89,-0.96,-1.94,-0.7265317905340978,-0.0444890109449271,-0.6855213442309551,0.0152568624639667,251.60220304337597,54.79581575010838,7742.0
2.38,-1.26,-1.29,-0.7264402605499662,-0.0480346567848112,-0.6855467153837356,0.0017089839770962,251.2337068058887,56.461266055347764,7236.0
2.38,-1.26,-1.29,-0.726811984064889,-0.0500491960810555,-0.6850025946557146,0.0032959226687524,250.82702205554148,58.24135134720781,7746.0
0.49,4.0200000000000005,2.78,-0.726811984064889,-0.0500491960810555,-0.6850025946557146,0.0032959226687524,250.44816164539324,59.84954743724448,7009.0
1.15,-0.88,-0.49,-0.7269214725068887,-0.0516352280218999,-0.6847465995008215,0.0064086275913705,250.1284227037101,61.172070062685684,5772.0
1.15,-0.88,-0.49,-0.7269214725068887,-0.0516352280218999,-0.6847465995008215,0.0064086275913705,249.7922004583882,62.53084510988478,5938.0
0.63,-3.75,-1.27,-0.7264950317478003,-0.0527949426583085,-0.6850525276264228,0.0109862308421913,249.4053772841103,64.05628604415487,6676.0
-3.74,-4.29,-1.02,-0.7270383740426115,-0.0532217479990897,-0.6843755278827908,0.0145871534080074,248.9835246202868,65.67689447331553,7104.0
-3.74,-4.29,-1.02,-0.7271682559725053,-0.0534143908643336,-0.6843756982629078,0.0017703055257893,248.52821005361773,67.3793648496694,7476.0
3.31,-0.87,-3.51,-0.7276667807938244,-0.0571389351361593,-0.6835306161533936,0.0047005320571413,248.0056514477344,69.27804017136214,8354.0
-7.01,-5.79,5.0,-0.7276667807938244,-0.0571389351361593,-0.6835306161533936,0.0047005320571413,247.54928557399106,70.89147488807544,7113.0
-7.01,-5.79,5.0,-0.7269827640844221,-0.064529793553681,-0.6835762520535165,0.0074480934849092,247.17296037525782,72.19264269529982,5746.0
0.08,-4.15,-6.0,-0.7269827640844221,-0.064529793553681,-0.6835762520535165,0.0074480934849092,246.7899978670875,73.49113519849143,5743.0
6.26,-1.44,-5.29,-0.7258412653435838,-0.0708197382284933,-0.6841430918866348,0.0093408792663443,246.40035086916504,74.78714522932644,5741.0
6.26,-1.44,-5.29,-0.7277966073814065,-0.0752156211973737,-0.6815805154606176,0.0101345723366591,245.9191927439936,76.35444086719865,6955.0
-4.2,7.63,3.88,-0.7306870424453297,-0.0773546526385555,-0.6782421753446831,0.0100127569319045,245.33251253958684,78.21897654030927,8292.0
3.17,2.71,0.67,-0.7306870424453297,-0.0773546526385555,-0.6782421753446831,0.0100127569319045,244.73477460191185,80.06959535648603,8250.0
3.24,-0.32,0.12,-0.7320731112921902,-0.079984635178713,-0.6763891515341854,0.0130051353382182,244.19774021987163,81.69280061001758,7253.0
3.24,-0.32,0.12,-0.7334833951215699,-0.0810367550850323,-0.6748584630329255,0.001099217476662,243.73249506472735,83.07057752009824,6169.0
-6.43,1.75,4.1,-0.7334833951215699,-0.0810367550850323,-0.6748584630329255,0.001099217476662,243.29347136071803,84.34771362195589,5729.0
-6.43,1.75,4.1,-0.7332556907198317,-0.0798238537207079,-0.6752352920705029,0.0046416318919462,242.84352263864338,85.63453457837376,5783.0
2.24,-2.81,-0.77,-0.7332556907198317,-0.0798238537207079,-0.6752352920705029,0.0046416318919462,242.29345194686232,87.17874249880833,6954.0
0.41,-2.98,0.27,-0.7316945021183131,-0.0801999233058974,-0.6768433740690397,0.0086124822438168,241.66184862999944,88.91457089100322,7836.0
-0.21,2.34,0.03,-0.7302415979127929,-0.078436524319895,-0.678561458057161,0.0122175271526316,241.0469239285252,90.56837452773341,7485.0
-0.21,2.34,0.03,-0.729210830102011,-0.0794958345871222,-0.6796557787183399,0.0,240.41071855318555,92.2438963007364,7603.0
2.06,-3.42,-0.91,-0.729210830102011,-0.0794958345871222,-0.6796557787183399,0.0,239.833212525837,93.7351597296164,6784.0
1.87,0.09,-1.82,-0.7284649383288077,-0.0796300180069158,-0.6804302536369919,0.0035445441630092,239.33465851055533,95.00090123591386,5771.0
1.87,0.09,-1.82,-0.7279097796026088,-0.0804374229538192,-0.6809064526637889,0.0066012474764532,238.82069912828808,96.28563583357433,5870.0
0.93,-0.54,-1.3,-0.7279097796026088,-0.0804374229538192,-0.6809064526637889,0.0066012474764532,238.24711082413307,97.69628541532812,6460.0
-1.77,-1.88,0.79,-0.7278075669160822,-0.0808742995993597,-0.6809212571710263,0.0100863638956117,237.61071976226484,99.23404584142706,7060.0
-1.77,-1.88,0.79,-0.727470013117982,-0.0822362722847273,-0.6810630758212474,0.0133290017532123,236.91853165877646,100.87546459198755,7557.0
0.43,-2.53,0.26,-0.7269147811007447,-0.0837853987975786,-0.6815972770795726,0.0002446289015987,236.1428735908542,102.6781050285495,8325.0
1.14,-1.73,-1.19,-0.7269147811007447,-0.0837853987975786,-0.6815972770795726,0.0002446289015987,235.4695589254271,104.21293978899556,7110.0
1.14,-1.73,-1.19,-0.7267749293713596,-0.0856324609594263,-0.6815120571499484,0.0025689738287827,234.91841424953054,105.4494601526531,5743.0
-0.27,-1.2,-0.23,-0.7267749293713596,-0.0856324609594263,-0.6815120571499484,0.0025689738287827,234.35765097154214,106.68993125455103,5775.0
0.28,-2.17,0.46,-0.7267474723955782,-0.0879682546552897,-0.6812339943263602,0.0044657041653937,233.79814229335057,107.91051227836057,5696.0
0.28,-2.17,0.46,-0.7265671801166873,-0.0907291283355546,-0.6810496673171912,0.0063014836268119,233.10233969299105,109.40543510106531,6995.0
-0.35,-2.57,0.3,-0.7261631184000811,-0.0940971333810198,-0.6810111779350664,0.0075253234108357,232.25007920731414,111.20319558446289,8440.0
2.45,-2.18,-2.09,-0.7261631184000811,-0.0940971333810198,-0.6810111779350664,0.0075253234108357,231.38260931923435,112.99707122143728,8453.0
-2.4,-3.31,0.15,-0.7260954104088809,-0.0980813131276174,-0.6805117683127643,0.0083213091611702,230.6288127496794,114.5277290863366,7238.0
-2.4,-3.31,0.15,-0.726283275631123,-0.1024873198552764,-0.6796591934044242,0.0085049178864975,229.9983895722961,115.78856072233701,5980.0
2.23,-0.71,-0.94,-0.726283275631123,-0.1024873198552764,-0.6796591934044242,0.0085049178864975,229.38796213578138,116.99321701360864,5729.0
2.23,-0.71,-0.94,-0.7264607129659626,-0.1072589598104381,-0.6787356766555566,0.0082601024383395,228.7692775012379,118.19842499611241,5747.0
-0.63,-1.99,0.04,-0.7268735011173633,-0.1122126263509464,-0.6774974981374212,0.0077704490439314,228.00506986139052,119.66594384996269,7019.0
0.81,0.5700000000000001,-0.22,-0.7268735011173633,-0.1122126263509464,-0.6774974981374212,0.0077704490439314,227.11391206803341,121.34875749324172,8078.0
-7.12,5.41,2.42,-0.7273891306285007,-0.1174688477421752,-0.6760576914328315,0.0072194396008211,226.27708662483928,122.90211580186474,7485.0
-7.12,5.41,2.42,-0.7273840432000647,-0.1216895333438412,-0.6753187878578782,0.0069746640528898,225.44364873234576,124.42431935215356,7362.0
5.34,2.41,-0.48,-0.7273840432000647,-0.1216895333438412,-0.6753187878578782,0.0069746640528898,224.67832641074347,125.80103195628966,6682.0
0.15,3.62,-5.2700000000000005,-0.7266232059173864,-0.1248874074338851,-0.675530121543406,0.0089948304227247,224.00650959101208,126.99343944020023,5806.0
0.15,3.62,-5.2700000000000005,-0.7267051667172721,-0.127054061487709,-0.6749900019980457,0.0120566715380918,223.30782633999613,128.21803576449815,5981.0
-5.38,3.84,4.44,-0.7267051667172721,-0.127054061487709,-0.6749900019980457,0.0120566715380918,222.53784111925273,129.54983315304665,6526.0
2.74,3.39,-3.51,-0.726601024733489,-0.1291816786474268,-0.674805906185753,0.000183670633148,221.55440348705943,131.22460247793958,8239.0
-0.58,-2.6,-4.89,-0.7256422034642712,-0.129974909745183,-0.6756612768139086,0.0056351044752859,220.56432308722185,132.88201300806523,8190.0
-0.58,-2.6,-4.89,-0.7256907900447856,-0.1301500665418496,-0.6755058067595809,0.0112134944336904,219.61380017864502,134.44712258391468,7768.0
2.69,-2.22,0.11,-0.7256907900447856,-0.1301500665418496,-0.6755058067595809,0.0112134944336904,218.73604720347234,135.87049589149336,7094.0
1.4,-4.62,-4.1,-0.7242278888232218,-0.1315942177812675,-0.676726482777352,0.0147714049768446,218.0204530125773,137.01580955565154,5729.0
1.4,-4.62,-4.1,-0.7242278888232218,-0.1315942177812675,-0.676726482777352,0.0147714049768446,217.2848219609458,138.1794345964698,5840.0
3.45,-3.84,-3.12,-0.722896225424971,-0.1346577412022424,-0.6777037139194825,0.0024527821712612,216.45747573884248,139.47190110114806,6510.0
-3.34,-4.16,1.61,-0.7230593793503345,-0.1390428037142428,-0.6766300002538713,0.0049066715029287,215.54251475970054,140.88177430407484,7130.0
-3.34,-4.16,1.61,-0.7231077480961458,-0.1444007158990776,-0.6754444701634426,0.0061956127042509,214.5495708436277,142.38936635442684,7658.0
-2.04,4.48,-0.05,-0.7237501051899368,-0.149804861576015,-0.6735697707226229,0.0069320021941399,213.44552471302737,144.03908490399547,8421.0
-0.08,4.42,3.02,-0.7237501051899368,-0.149804861576015,-0.6735697707226229,0.0069320021941399,212.50028479625573,145.42997958299452,7134.0
-0.08,4.42,3.02,-0.7239267260620074,-0.1551665980346484,-0.6721431717950073,0.0087737538627737,211.7053912743828,146.58471033965472,5947.0
3.1,1.11,-1.94,-0.7239267260620074,-0.1551665980346484,-0.6721431717950073,0.0087737538627737,210.89989508361333,147.7412747126574,5979.0
-0.23,2.86,0.87,-0.7232258682412903,-0.1590937325368263,-0.671913229197777,0.012889538515715,210.11002332409655,148.86244690568407,5818.0
-0.23,2.86,0.87,-0.7228414168668361,-0.1612728598719041,-0.6719293068768101,0.0015353471046449,209.1597566572343,150.1946942973903,6942.0
-7.51,-6.84,-1.39,-0.7218812641480694,-0.1628964275839744,-0.6725391927222182,0.0065748463792852,207.9704048369885,151.8372836688641,8603.0
5.12,-3.2,-3.02,-0.7218812641480694,-0.1628964275839744,-0.6725391927222182,0.0065748463792852,206.7022425308252,153.5592163718216,9072.0
-0.64,-2.65,-2.12,-0.7208454252726928,-0.1653371584228806,-0.673026722948157,0.0089736896393087,205.68022346097638,154.92545199883338,7238.0
-0.64,-2.65,-2.12,-0.7209143840913763,-0.1671640977609118,-0.6724681505365405,0.011189358511396,204.8584465465585,156.01047041314516,5774.0
-0.5700000000000001,-2.32,1.92,-0.7209143840913763,-0.1671640977609118,-0.6724681505365405,0.011189358511396,204.0318087841278,157.09000924399078,5768.0
-1.16,2.29,-1.73,-0.7206357245833357,-0.1710733497560235,-0.6717488399478078,0.0130979955061225,203.1999166352107,158.16461007268163,5765.0
-1.16,2.29,-1.73,-0.7207090063979634,-0.1767637552814257,-0.6701523582277017,0.0151300917881804,202.18454313139696,159.4605296578068,6984.0
1.57,3.39,0.58,-0.7207090063979634,-0.1767637552814257,-0.6701523582277017,0.0151300917881804,200.95530715638586,161.00687726206797,8380.0
-2.32,2.64,1.64,-0.7210408961545706,-0.1813525237661107,-0.6687335852617323,0.0025845965382343,199.73076055845385,162.52345457422933,8269.0
0.22,0.28,-0.47,-0.7205064057630982,-0.1853909406727643,-0.668170869538638,0.0069575477568988,198.65054752255315,163.84202748071036,7231.0
0.22,0.28,-0.47,-0.7195897700065605,-0.189631619184948,-0.6679000596439318,0.0118288729316146,197.7150022089481,164.96977875209643,6216.0
-0.92,-4.7,-0.98,-0.7195897700065605,-0.189631619184948,-0.6679000596439318,0.0118288729316146,196.83021355210317,166.0244470944971,5840.0
-0.92,-4.7,-0.98,-0.7190028333298056,-0.1926626827523549,-0.6676014649947244,0.0149766576803654,195.91440735655155,167.1041441440971,6006.0
1.72,-0.93,0.08,-0.7190028333298056,-0.1926626827523549,-0.6676014649947244,0.0149766576803654,194.84557282909088,168.3491988365357,6961.0
-0.86,-0.15,1.87,-0.7188460604834609,-0.1956958054699807,-0.6670551100755265,0.0009864942934844,193.59655500698847,169.78405075102341,8070.0
1.0,0.43,0.99,-0.7185840842808606,-0.1996443808099859,-0.6661597025420629,0.0032071386475499,192.39871183792462,171.1402514989015,7676.0
1.0,0.43,0.99,-0.7180725022630886,-0.2033654380013009,-0.6655652244296216,0.0061083672215196,191.24299445273851,172.43076022783703,7349.0
-0.43,-0.25,-0.12,-0.7180725022630886,-0.2033654380013009,-0.6655652244296216,0.0061083672215196,190.18338487488813,173.59876185483057,6690.0
0.21,-1.06,-1.61,-0.7176560095759307,-0.2067288814785645,-0.6649398361561952,0.0093827381262292,189.27638734630065,174.58722517164065,5691.0
0.21,-1.06,-1.61,-0.7176560095759307,-0.2067288814785645,-0.6649398361561952,0.0093827381262292,188.35396559180435,175.58198553906772,5755.0
0.1,-0.27,-1.94,-0.7171652880188075,-0.2099065542044197,-0.6644261890807156,0.0122893216495085,187.29452468832966,176.71166068421368,6570.0
0.22,-0.53,-0.63,-0.7167100521320674,-0.2129557408584808,-0.6638881320757862,0.0151361057471214,186.11121556201292,177.95748211870708,7289.0
0.22,-0.53,-0.63,-0.7163267136856791,-0.2164186938741424,-0.6633501867933227,0.0023490175284825,184.87450168159933,179.2419276508159,7564.0
-0.05,-0.6900000000000001,0.73,-0.7158158264402256,-0.2198656698630552,-0.6627512006336147,0.0052569850740814,183.5186639457315,180.62987013108787,8231.0
-0.27,-0.4,-0.61,-0.7158158264402256,-0.2198656698630552,-0.6627512006336147,0.0052569850740814,182.33759251646296,181.82203484534074,7119.0
-0.27,-0.4,-0.61,-0.7151719992838446,-0.2232940345544939,-0.6622719162846502,0.0080432874735617,181.3788244592883,182.77847804861128,5745.0
1.0,0.01,-0.96,-0.7151719992838446,-0.2232940345544939,-0.6622719162846502,0.0080432874735617,180.41520768982335,183.7297004684814,5744.0
-0.25,0.29,-0.16,-0.7147801269856232,-0.2261891906127537,-0.6616683794361589,0.011080422857056,179.43442956796716,184.68767009635005,5816.0
-0.25,0.29,-0.16,-0.7142634667443443,-0.2292108809868046,-0.6611256834731531,0.0142443941169859,178.2453741742421,185.83550948482485,7011.0
2.3000000000000003,-0.44,-1.17,-0.71381951434963,-0.2322175482087223,-0.6607075744470746,0.0014873822143072,176.83918519394825,187.1741236921933,8236.0
-1.63,-0.4,0.65,-0.71381951434963,-0.2322175482087223,-0.6607075744470746,0.0014873822143072,175.41207173114466,188.51221469970525,8299.0
0.0,-1.46,0.76,-0.7135404299209346,-0.2349530450135066,-0.6600264479080931,0.0047127029350822,174.1804972738863,189.65074312910477,7115.0
0.0,-1.46,0.76,-0.7129840320450936,-0.2381783587731565,-0.6594419836936392,0.0078172631428543,173.15781445948363,190.58494508122894,5876.0
-1.25,-1.1,0.34,-0.7129840320450936,-0.2381783587731565,-0.6594419836936392,0.0078172631428543,172.16781198104633,191.4797496281502,5661.0
-1.25,-1.1,0.34,-0.7126170294737478,-0.2410979566616756,-0.6587362296842694,0.0107389151654144,171.16279517507485,192.3786566848188,5720.0
-0.27,-0.41,0.18,-0.7126170294737478,-0.2410979566616756,-0.6587362296842694,0.0107389151654144,169.9332264563131,193.46562626510016,6962.0
0.67,0.44,-1.35,-0.7121079992195569,-0.244241803517094,-0.6580804454285902,0.0133516368563883,168.50682421582064,194.70927094696472,8028.0
1.15,0.17,-0.79,-0.7115485607415613,-0.247311437581994,-0.6576744360220665,0.0001864156564688,167.14682550074122,195.8779944889797,7607.0
1.15,0.17,-0.79,-0.7111069940714205,-0.2501340768688751,-0.6570760438355139,0.0032953283803257,165.7841323032933,197.03266601364388,7577.0
0.01,-1.06,0.43,-0.7111069940714205,-0.2501340768688751,-0.6570760438355139,0.0032953283803257,164.56218256427053,198.0543815967819,6757.0
0.42,-1.77,-1.24,-0.7104481485975227,-0.2535715108304293,-0.6564491124344186,0.0062832979867206,163.5315833331774,198.9061870645156,5672.0
0.42,-1.77,-1.24,-0.7097713134739582,-0.2570290960650739,-0.6558008057751402,0.009275208358851,162.4799338966444,199.76616600651388,5763.0
0.43,0.6,-2.86,-0.7097713134739582,-0.2570290960650739,-0.6558008057751402,0.009275208358851,161.30729549529255,200.7142407005402,6397.0
1.75,-1.07,1.34,-0.7098317541345869,-0.2593436364145319,-0.6547741713799168,0.0122696196862782,159.99709778607564,201.76020098134555,7112.0
1.75,-1.07,1.34,-0.7101512505145652,-0.2618117949461771,-0.653376543255349,0.0154556832055824,158.54920074252908,202.89997768335317,7817.0
-3.25,-1.08,4.16,-0.7084940665331761,-0.2653500794911244,-0.6539273639351189,0.0021203061580959,156.95904329714259,204.132576349895,8535.0
4.33,0.49,-4.94,-0.7084940665331761,-0.2653500794911244,-0.6539273639351189,0.0021203061580959,155.61578927380594,205.15841715291728,7170.0
4.33,0.49,-4.94,-0.7082586661078953,-0.2679762721180106,-0.6530907516802471,0.0055542357285754,154.5467265828086,205.96494678109332,5681.0
1.52,-1.24,-1.53,-0.7082586661078953,-0.2679762721180106,-0.6530907516802471,0.0055542357285754,153.47405171841834,206.76548418227895,5678.0
-2.43,0.0,-0.38,-0.7079975580482817,-0.2706590294241204,-0.6522295577539255,0.0089303740672933,152.38658938192566,207.56824751523143,5734.0
-2.43,0.0,-0.38,-0.7076560879724993,-0.2736895068714832,-0.6512935456898332,0.011559944924937,151.05143021834434,208.5418793168237,7010.0
2.12,-0.23,-1.9,-0.7074847917469107,-0.2766787630119381,-0.6501481983724594,0.014881253242224,149.46713957516923,209.6802904118956,8276.0
-1.38,-0.87,1.29,-0.7074847917469107,-0.2766787630119381,-0.6501481983724594,0.014881253242224,147.877357283868,210.80449995846683,8260.0
-2.02,-0.13,1.67,-0.7068694844414902,-0.2800319531582568,-0.6495489773816102,0.0019398861559566,146.49670976963424,211.76629577596043,7138.0
-2.02,-0.13,1.67,-0.7059675902533993,-0.283413989133128,-0.6490468398950225,0.0049469078969326,145.33191914206603,212.56736174324595,5997.0
0.96,-1.01,-0.11,-0.7059675902533993,-0.283413989133128,-0.6490468398950225,0.0049469078969326,144.2094269041969,213.33047412866986,5758.0
0.96,-1.01,-0.11,-0.7053435072157055,-0.2866867933112875,-0.648256803673283,0.0080209638347201,143.0788120355052,214.09040974903237,5779.0
0.66,0.01,-0.65,-0.704820935321625,-0.2898293917310099,-0.6473817914822471,0.0110990485366483,141.72068797439817,214.99185240390688,6915.0
-1.09,-0.62,-0.09,-0.704820935321625,-0.2898293917310099,-0.6473817914822471,0.0110990485366483,140.15622777012064,216.01500368550808,7930.0
0.5,0.19,-0.36,-0.7041116405679587,-0.2927889595303534,-0.6467586382081767,0.0143068758621775,138.56153258554048,217.0413593938865,8045.0
-0.35,-0.62,-0.39,-0.7035385104829652,-0.2958730514984154,-0.6461349933805345,0.0015073133593636,137.0351689646854,218.00828531691204,7665.0
-0.35,-0.62,-0.39,-0.7035385104829652,-0.2958730514984154,-0.6461349933805345,0.0015073133593636,135.7333032807848,218.82120642315837,6511.0
0.36,-0.24,0.15,-0.7029331790436326,-0.2988236012852928,-0.6454187501046248,0.0049028693521777,134.58240084012678,219.5309258034217,5736.0
0.36,-0.24,0.15,-0.7022667509208648,-0.3018432205427133,-0.6447039024847283,0.0083041486268524,133.44492431649041,220.22420887397038,5651.0
-0.5,-0.62,0.18,-0.7022667509208648,-0.3018432205427133,-0.6447039024847283,0.0083041486268524,132.1282958308148,221.016658740568,6519.0
-0.05,-1.81,-1.1,-0.7015714919577123,-0.3050447705766055,-0.6438994569013303,0.0117736578117286,130.64489423841306,221.89673636498998,7317.0
-0.05,-1.81,-1.1,-0.7010230746514013,-0.3080720729861305,-0.6429878160667775,0.0149971677992839,129.123816152932,222.78530046235952,7473.0
0.15,-0.92,0.67,-0.7002966285983967,-0.3115512738901368,-0.6422749338658206,0.0018289447252659,127.4379792311701,223.7539082328527,8248.0
0.53,-1.32,-0.6900000000000001,-0.7002966285983967,-0.3115512738901368,-0.6422749338658206,0.0018289447252659,125.95505823807162,224.5920152281554,7226.0
0.53,-1.32,-0.6900000000000001,-0.6997159179147214,-0.3144840280480794,-0.6414641101907845,0.0046071310550892,124.77398806341102,225.25030943985794,5736.0
0.28,-0.8300000000000001,-0.34,-0.6997159179147214,-0.3144840280480794,-0.6414641101907845,0.0046071310550892,123.58989107092229,225.90216649044683,5734.0
-0.53,0.24,1.3,-0.6991639682321172,-0.3172448611047809,-0.6406792496609391,0.0074526963190054,122.39450765477932,226.55205692278358,5772.0
-0.53,0.24,1.3,-0.6984439837917312,-0.3205257413400786,-0.6397873306732944,0.0105556692573048,120.97123038121673,227.3152247871985,6851.0
0.17,0.03,0.04,-0.6976893875539105,-0.3233827318139079,-0.6391110601556947,0.0137905781563833,119.2601971584371,228.2175614928236,8206.0
1.0,-0.39,0.0,-0.6976893875539105,-0.3233827318139079,-0.6391110601556947,0.0137905781563833,117.40797254200119,229.17595420020987,8847.0
-0.64,-1.91,-0.72,-0.6970293960686528,-0.3265089094330856,-0.638389510472253,0.0008865641450859,115.86056394082254,229.96212671506274,7363.0
-0.64,-1.91,-0.72,-0.6964348168773281,-0.3294899092679251,-0.6374954793856624,0.0038025379026881,114.64531329324258,230.57038435127407,5765.0
-0.33,-0.8200000000000001,-0.42,-0.6964348168773281,-0.3294899092679251,-0.6374954793856624,0.0038025379026881,113.42729271189359,231.17201229398512,5763.0
-0.33,-0.8200000000000001,-0.42,-0.6958557143000377,-0.3323565712270711,-0.6366150582836094,0.0067232436164254,112.22521012212248,231.75796040922836,5673.0
0.41,0.62,0.12,-0.6951009127236301,-0.335266044396154,-0.6358690968892025,0.0100941679717834,110.7460739824095,232.46840021276586,6961.0
-1.31,0.06,0.65,-0.6951009127236301,-0.335266044396154,-0.6358690968892025,0.0100941679717834,108.95497028140737,233.31323248152395,8401.0
1.47,-1.47,-1.23,-0.6941459900017017,-0.3378266119975324,-0.6354902407779015,0.0136630401767248,107.28044301958973,234.0879248178354,7827.0
1.23,-1.73,-1.62,-0.6938192097739336,-0.3403257332255015,-0.6346597832506222,0.0005088982926736,105.77409441373847,234.77242374468415,7019.0
1.23,-1.73,-1.62,-0.6938192097739336,-0.3403257332255015,-0.6346597832506222,0.0005088982926736,104.38729997134536,235.39231424303634,6444.0
2.76,0.03,0.26,-0.6930674695602125,-0.3429684418997671,-0.6340491392017413,0.0034379609917556,103.1394471519244,235.9417395061658,5784.0
2.76,0.03,0.26,-0.6919344728766438,-0.346094687989782,-0.6335616623079382,0.0066912064516529,101.89909407426627,236.4800723673008,5736.0
-0.24,-2.17,-1.23,-0.6919344728766438,-0.346094687989782,-0.6335616623079382,0.0066912064516529,100.4456450547008,237.10108053221745,6705.0
-0.27,-1.96,-0.66,-0.6912119758142532,-0.3493372696811539,-0.6325319889406615,0.0096311717586003,98.85739248391882,237.7676722165577,7307.0
-0.27,-1.96,-0.66,-0.6905401102033774,-0.3526746264442281,-0.6313673719746354,0.0122558422221342,97.29527284426565,238.41115720989214,7167.0
0.28,-1.16,0.53,-0.6895104962654656,-0.3563812357481038,-0.6303584933433032,0.014692182151293,95.51819110740786,239.1286790988666,8130.0
1.99,-1.24,-1.29,-0.6895104962654656,-0.3563812357481038,-0.6303584933433032,0.014692182151293,93.91714433195062,239.76200699971537,7304.0
-1.63,-1.05,-0.27,-0.6888144985119969,-0.3600069093299661,-0.6292289116720877,0.0007671963970803,92.65883760365591,240.2510974250468,5727.0
-1.63,-1.05,-0.27,-0.6888144985119969,-0.3600069093299661,-0.6292289116720877,0.0007671963970803,91.39864512160082,240.73333310934666,5724.0
0.94,-0.31,0.12,-0.688179015401499,-0.3633779685303071,-0.627978545615052,0.0030068247395993,90.14985421491146,241.2037598899118,5661.0
0.94,-0.31,0.12,-0.6873875326067392,-0.3666152209115302,-0.6269466020198575,0.0054422448092001,88.63222125756633,241.76554625287247,6865.0
-0.22,-0.03,0.4,-0.6865481528860538,-0.3696403447503167,-0.6260627159915662,0.0079451209480047,86.80578041795931,242.42732206999491,8241.0
2.07,-0.05,-1.16,-0.6865481528860538,-0.3696403447503167,-0.6260627159915662,0.0079451209480047,84.9407971350954,243.08704404401024,8392.0
-0.52,-0.19,0.34,-0.6859285191406439,-0.37217795199375,-0.6251922584930337,0.0109671600535811,83.34942960556042,243.63727667257268,7143.0
-0.52,-0.19,0.34,-0.6850841232893683,-0.3750244985247835,-0.624356089122226,0.0139944095649439,82.03877562583189,244.08172666919253,5871.0
-1.64,-0.3,0.8,-0.6850841232893683,-0.3750244985247835,-0.624356089122226,0.0139944095649439,80.75910404634251,244.50811257222537,5722.0
-1.64,-0.3,0.8,-0.684083021145841,-0.3781253636845587,-0.6237397654524689,0.0005783698628757,79.46309057525318,244.9323727812008,5785.0
0.61,-0.93,-0.62,-0.6833369185998174,-0.3811968916146586,-0.6226773389858075,0.0035379394260557,77.92380880569307,245.42642486336672,6858.0
-0.01,-1.22,-0.02,-0.6833369185998174,-0.3811968916146586,-0.6226773389858075,0.0035379394260557,76.14099170353802,245.985364162996,7926.0
-1.07,-1.07,1.0,-0.6825971637522483,-0.3844076094331593,-0.6214911635257712,0.006374598548389,74.42028972425112,246.511400298969,7633.0
0.05,-0.74,0.22,-0.6814773712700781,-0.3880071160678147,-0.6204505088026773,0.008957480341044,72.72263809516164,247.01754575025666,7515.0
0.05,-0.74,0.22,-0.6814773712700781,-0.3880071160678147,-0.6204505088026773,0.008957480341044,71.19713020680308,247.46154984222403,6740.0
1.1,-0.97,-0.94,-0.6805326217563809,-0.3913820442439313,-0.619322740413683,0.0116098826572029,69.89014743979624,247.83385017152833,5765.0
1.1,-0.97,-0.94,-0.6798247857141709,-0.3944287760624427,-0.6181105615053829,0.0142665727511947,68.56417680408646,248.2039557685936,5840.0
0.54,-0.67,0.24,-0.6798247857141709,-0.3944287760624427,-0.6181105615053829,0.0142665727511947,67.06647777979732,248.61282661643173,6586.0
-1.1,-0.99,0.23,-0.6790341242197292,-0.3976756757183301,-0.6170628903858197,0.0003231034089359,65.39854817713028,249.05678046647026,7322.0
-1.1,-0.99,0.23,-0.6780725755275288,-0.4008674001449469,-0.6160474324589575,0.0029104603108297,63.69661798717386,249.49747665456667,7458.0
1.26,-0.42,-0.74,-0.677388891686878,-0.4039213700883525,-0.6147839926845641,0.0056972400333026,61.81873437364279,249.9693862864831,8214.0
-0.11,-0.58,-0.76,-0.677388891686878,-0.4039213700883525,-0.6147839926845641,0.0056972400333026,60.16795929396952,250.3718567938482,7208.0
0.78,0.07,0.51,-0.6766285134930718,-0.4067806895121169,-0.6137029042026042,0.0084894488332144,58.84760675080184,250.68547859759045,5757.0
0.78,0.07,0.51,-0.6766285134930718,-0.4067806895121169,-0.6137029042026042,0.0084894488332144,57.52607922778879,250.99203216173652,5755.0
-1.35,-0.8300000000000001,0.8300000000000001,-0.6757104623157054,-0.4097986741981865,-0.612654532076567,0.0116121517621458,56.19904422309301,251.2924937764971,5772.0
-1.35,-0.8300000000000001,0.8300000000000001,-0.6745114940803449,-0.4130709169004596,-0.6117164026414603,0.0144811844786672,54.61960021210879,251.64051596010808,6861.0
0.6900000000000001,-1.06,-0.62,-0.6736286987809081,-0.4163611800977643,-0.6106283890503127,0.0008452053937025,52.75308506740337,252.03841377034436,8096.0
-0.96,-0.38,-0.18,-0.6736286987809081,-0.4163611800977643,-0.6106283890503127,0.0008452053937025,50.802791419983656,252.43875768973675,8446.0
-0.23,-0.75,0.2,-0.6726866625745547,-0.4196236974957091,-0.6094209213048433,0.003840204459787,49.14336664439544,252.76704594320543,7176.0
-0.23,-0.75,0.2,-0.6717277256475017,-0.4228841729995427,-0.6081973606745349,0.0068417316124733,47.79595125623987,253.0252893358906,5820.0
1.28,-0.4,0.09,-0.6717277256475017,-0.4228841729995427,-0.6081973606745349,0.0068417316124733,46.46735095792977,253.27265011238893,5733.0
1.28,-0.4,0.09,-0.6706950186662014,-0.4263196135573996,-0.6068938584429211,0.009981163102415,45.13143668164489,253.51410892305518,5759.0
-0.84,-1.66,0.61,-0.6694225859999571,-0.4298487010961488,-0.6057582257434259,0.0126675752715559,43.50154795753927,253.79886785661182,7019.0
0.07,-1.03,-0.31,-0.6694225859999571,-0.4298487010961488,-0.6057582257434259,0.0126675752715559,41.6256226826642,254.1132769775725,8069.0
-0.2,-0.79,-0.56,-0.6682669753879062,-0.4333538778190354,-0.6044731013680905,0.0153602053223941,39.88134011559746,254.39286293169476,7494.0
-0.2,-0.79,-0.56,-0.6673873722044857,-0.4366580973350851,-0.6032595533241645,0.0013087309975575,38.16315582278027,254.6562850935476,7374.0
0.05,-0.37,-0.58,-0.6673873722044857,-0.4366580973350851,-0.6032595533241645,0.0013087309975575,36.60214076201349,254.88533361423083,6693.0
1.29,0.7000000000000001,-1.07,-0.6664396734185138,-0.4395763500086727,-0.6021737420685127,0.0041926805365953,35.28027810467043,255.07166047379138,5663.0
1.29,0.7000000000000001,-1.07,-0.6656360396768245,-0.4421392438574748,-0.6011519333397477,0.0076095181435411,33.93643684558435,255.25392896922403,5753.0
-1.14,0.01,1.04,-0.6656360396768245,-0.4421392438574748,-0.6011519333397477,0.0076095181435411,32.46865440668091,255.4447816672314,6279.0
-1.86,-1.87,2.45,-0.6645020265823046,-0.4449719976342953,-0.6002589480930307,0.0112326855027257,30.84768443931558,255.64559523827594,6929.0
-1.86,-1.87,2.45,-0.6626205090203892,-0.4488931713550195,-0.5993572170714397,0.0141388854147859,29.053794092416652,255.85567620992006,7662.0
0.39,-3.44,-0.93,-0.6613502890181827,-0.4524404743940076,-0.5980323174780263,0.0164547743087724,27.026168585851607,256.0777932808098,8653.0
1.69,-2.05,-1.78,-0.6613502890181827,-0.4524404743940076,-0.5980323174780263,0.0164547743087724,25.291742145395478,256.2549078149545,7396.0
1.69,-2.05,-1.78,-0.6607570284212823,-0.4557694820093746,-0.5963813187316539,0.0019108450163758,23.943450713097114,256.3844011790684,5746.0
-1.38,0.5,0.78,-0.6607570284212823,-0.4557694820093746,-0.5963813187316539,0.0019108450163758,22.59684497225699,256.50659367217014,5736.0
0.28,0.98,-0.4,-0.659762003766699,-0.4592545068706913,-0.5947949365158545,0.0042871668744212,21.250086012551066,256.62167454145253,5734.0
0.28,0.98,-0.4,-0.6584425553426976,-0.4625537493964644,-0.59367446682458,0.0069323642144774,19.62751760059551,256.7508725454274,6905.0
1.15,0.89,-0.86,-0.6569366967689091,-0.4654816626698087,-0.5930081684630285,0.0101148550473626,17.681757710304996,256.89220588463576,8276.0
-0.24,1.18,0.23,-0.6569366967689091,-0.4654816626698087,-0.5930081684630285,0.0101148550473626,15.733571163651176,257.0188801205824,8282.0
0.6900000000000001,-0.68,-0.07,-0.6555162687927492,-0.4683015638699159,-0.5922948956664034,0.0133724789230595,14.085064648405126,257.11448997256116,7005.0
0.6900000000000001,-0.68,-0.07,-0.6540272655408733,-0.4713291970398955,-0.591448536707447,0.0169042117081819,12.686024760724555,257.1873145700819,5943.0
-0.84,-2.64,-0.13,-0.6540272655408733,-0.4713291970398955,-0.591448536707447,0.0169042117081819,11.331590115553817,257.2505492034042,5752.0
-0.84,-2.64,-0.13,-0.6527295459134277,-0.4748934375536114,-0.5902645298751347,0.0028544056213035,9.974250206956278,257.3067514326218,5763.0
-0.25,-2.28,0.42,-0.6527295459134277,-0.4748934375536114,-0.5902645298751347,0.0028544056213035,8.369252210888394,257.3639555521141,6813.0
1.5,-1.66,-0.93,-0.6514889272862677,-0.4787642795236431,-0.5884866317576152,0.0055160237646394,6.591433274054668,257.41562308335847,7545.0
-0.43,0.05,-0.45,-0.650474069173605,-0.4824831696478452,-0.5865377307798405,0.0081833190660073,4.905924758602883,257.45326158792966,7152.0
-0.43,0.05,-0.45,-0.6492459005770362,-0.4861351896093339,-0.5848408138045706,0.0106564776459094,3.099757642271049,257.4813420474563,7663.0
0.39,0.84,0.25,-0.6492459005770362,-0.4861351896093339,-0.5848408138045706,0.0106564776459094,1.4108292594844027,257.49613504051007,7165.0
0.0,0.22,-0.43,-0.647767759720375,-0.4895771774021696,-0.5835445174048474,0.0136716144077707,1.5767327539022172e-14,257.5,5985.0
