ACC_X,ACC_Y,ACC_Z,QUAT_W,QUAT_X,QUAT_Y,QUAT_Z,X_pos,Y_pos,dt
-4.41,1.55,5.76,0.721834721240968,0.0635351268125346,0.6890601169198046,0.0106807369761705,257.5,0.0,
2.11,3.65,1.85,0.721834721240968,0.0635351268125346,0.6890601169198046,0.0106807369761705,257.49080402867577,2.176198673399816,9276.0
0.18,-0.13,-0.28,0.7206960720594328,0.0625604229218257,0.6903618962622158,0.0091551838422184,257.4677693364532,4.074033984998157,8090.0
-1.05,0.08,-3.44,0.7211015811118472,0.0628026683846035,0.6899138614378604,0.0093380060863404,257.435651422816,5.756333599642757,7172.0
-1.05,0.08,-3.44,0.7211015811118472,0.0628026683846035,0.6899138614378604,0.0093380060863404,257.3984357507613,7.231547072460208,6290.0
0.75,-1.13,-1.77,0.7209949049030149,0.0625598728117828,0.6900506556195282,0.0090940693160542,257.3568782242291,8.584126669575499,5768.0
0.75,-1.13,-1.77,0.7210074748483616,0.0623168231457019,0.6900626860776751,0.0088500875182436,257.301593560073,10.106431192413915,6493.0
-1.79,-0.28,1.45,0.7207574274733352,0.0619501049102748,0.6903622035863235,0.0084227728843526,257.22288318637146,11.943130464426938,7836.0
0.0,-1.53,1.21,0.7207574274733352,0.0619501049102748,0.6903622035863235,0.0084227728843526,257.12295823766993,13.929621211987461,8478.0
-1.27,0.6900000000000001,1.71,0.7208247428427225,0.0618285744707601,0.6903071838739366,0.0080566355677594,257.0144117932095,15.806395243398672,8013.0
2.03,-1.22,0.0,0.7205482597519467,0.0614037737662395,0.690639860999007,0.0075076184624726,256.90610201875916,17.478694045234214,7143.0
2.03,-1.22,0.0,0.7205482597519467,0.0614037737662395,0.690639860999007,0.0075076184624726,256.7972896629741,19.010576575963228,6546.0
-2.43,-2.15,-0.97,0.7204688036929087,0.0612190960779386,0.6907442774815865,0.0070191386330637,256.689474224231,20.4147942063554,6003.0
-2.43,-2.15,-0.97,0.7202619063574944,0.0611560401805109,0.6909655996841958,0.0070189068071444,256.57578839023967,21.797128524807352,5912.0
-0.39,-0.32,-1.53,0.7202619063574944,0.0611560401805109,0.6909655996841958,0.0070189068071444,256.4321108160444,23.426961869348585,6974.0
0.14,0.67,-0.32,0.7201847242813649,0.060915700892686,0.6910697049168246,0.006775193185459,256.2573794916912,25.266686685265196,7877.0
0.35,0.86,0.55,0.7201087271200083,0.0613416910286157,0.6911163855890705,0.0062257238655908,256.07793223002636,27.024851984683245,7533.0
0.35,0.86,0.55,0.7198207932228893,0.0618925026988899,0.6913770986886855,0.0050051136304822,255.88637000705552,28.78221055812577,7535.0
-0.26,-1.23,-1.54,0.7198207932228893,0.0618925026988899,0.6913770986886855,0.0050051136304822,255.7051045659657,30.35044478930329,6729.0
-1.21,-1.22,-0.32,0.719867737612929,0.0622575116470398,0.6913025263866401,0.0039063536719711,255.54210493912385,31.693573532844272,5767.0
-1.21,-1.22,-0.32,0.7202049505486642,0.0621382015135638,0.6909670345123212,0.0028688560620211,255.36644831387363,33.07910330643369,5953.0
0.91,1.2,0.59,0.7202049505486642,0.0621382015135638,0.6909670345123212,0.0028688560620211,255.1462068523064,34.73705699796807,7129.0
-2.23,-0.11,0.8200000000000001,0.7205244232056202,0.0630550431354969,0.6905534394887479,0.0021364245012027,254.89510192875093,36.534052782735124,7734.0
-2.23,-0.11,0.8200000000000001,0.7200259272093368,0.0628710329794521,0.6910930440712201,0.0005493585405971,254.64954126719354,38.208129140379235,7212.0
1.39,-2.77,-2.25,0.720084960624313,0.0636589772784504,0.6907884034875381,0.0153806924968068,254.36687930346164,40.04673161967384,7929.0
-0.74,-1.88,0.51,0.720084960624313,0.0636589772784504,0.6907884034875381,0.0153806924968068,254.10068104715762,41.70244466899597,7148.0
0.38,-1.09,-0.1,0.7202480120614575,0.0641509034471688,0.6905835600392652,0.0148932639782199,253.87837059694033,43.03513614527803,5759.0
0.38,-1.09,-0.1,0.7202480120614575,0.0641509034471688,0.6905835600392652,0.0148932639782199,253.64927268812002,44.36548731601781,5754.0
-0.39,-0.42,0.37,0.7202734505892768,0.0649411873084476,0.6904883947560791,0.0146483881146874,253.4127040358931,45.697389785597686,5766.0
-0.39,-0.42,0.37,0.7202367542043201,0.0657979000874794,0.6904506918270567,0.0144047350840864,253.1187373191588,47.298570992733815,6939.0
0.22,0.96,0.9,0.7201192450048647,0.068422925381459,0.6903329938129361,0.0136723775962951,252.75552931621408,49.2025649746072,8262.0
-1.28,0.33,0.54,0.7201192450048647,0.068422925381459,0.6903329938129361,0.0136723775962951,252.36439478862124,51.17091207876721,8554.0
2.63,-1.5,-2.61,0.7194494562555614,0.0714199782639578,0.6907593795170485,0.0119643724271245,252.02781364046194,52.803703957284924,7106.0
2.63,-1.5,-2.61,0.7195295727168959,0.0735584232734249,0.6904724694155263,0.0106827585666799,251.7508827842314,54.10862239384932,5686.0
-0.34,-0.22,-1.56,0.7195295727168959,0.0735584232734249,0.6904724694155263,0.0106827585666799,251.4673974721198,55.411172236282006,5682.0
-0.34,-0.22,-1.56,0.7199809964311648,0.0753922783273264,0.6898240851002342,0.0092790496402863,251.17169461964664,56.736494621142825,5788.0
3.69,1.18,0.2,0.7206175328409672,0.0781421926496474,0.6888722670770479,0.0076921220889496,250.79660626007114,58.37218762759237,7153.0
-1.65,2.78,3.73,0.7206175328409672,0.0781421926496474,0.6888722670770479,0.0076921220889496,250.34692352358024,60.27161755153635,8320.0
-3.89,2.26,2.17,0.7209319262472773,0.0802256564269073,0.6883288055988994,0.0049454171770011,249.91052807988427,62.05624831419785,7831.0
2.54,-2.69,-3.04,0.7201402687139075,0.0812165316195621,0.6890581524775486,0.0008549108591532,249.49348498696463,63.71225116929437,7279.0
2.54,-2.69,-3.04,0.7201402687139075,0.0812165316195621,0.6890581524775486,0.0008549108591532,249.11019517537298,65.19479012687728,6527.0
1.26,-2.17,1.41,0.7207038009876597,0.0817676995019891,0.6882776259050934,0.0131903085081625,248.7645073858727,66.50165310023574,5762.0
1.26,-2.17,1.41,0.721517373594917,0.0831815357064734,0.6873164484879969,0.009466327484951,248.41276678641006,67.80374102894795,5749.0
-6.11,-4.78,6.24,0.721517373594917,0.0831815357064734,0.6873164484879969,0.009466327484951,248.00194575184278,69.2913046730975,6578.0
3.0700000000000003,-1.32,-0.8200000000000001,0.7205386546811419,0.0868604583720399,0.6879201703135825,0.0067191634465009,247.54109866317697,70.92005691359316,7215.0
3.0700000000000003,-1.32,-0.8200000000000001,0.7192928116588255,0.0925538143080619,0.6885026318494109,0.0039709557293887,247.05983648862818,72.57883434040743,7362.0
2.26,-4.75,-8.46,0.7208818067574796,0.0973883888440903,0.6861787924140397,0.0018940025433919,246.5140991365827,74.41134944938898,8150.0
-3.34,4.32,5.39,0.7208818067574796,0.0973883888440903,0.6861787924140397,0.0018940025433919,246.02253660836115,76.02079637038544,7173.0
-3.34,4.32,5.39,0.7235227538099613,0.0995897727335109,0.6830758645157379,0.0020162346627029,245.62217080952604,77.3045872300992,5732.0
-1.34,6.7700000000000005,3.13,0.7235227538099613,0.0995897727335109,0.6830758645157379,0.0020162346627029,245.2143183927014,78.5887272781719,5743.0
3.88,1.22,0.58,0.7244315615746758,0.1014827379417674,0.6816633998894036,0.0153354408328619,244.78723292648837,79.90907705757293,5915.0
3.88,1.22,0.58,0.7249635465004588,0.1021170097110567,0.6810856213223985,0.011061148269121,244.26868801645833,81.48041516044302,7053.0
1.36,-0.68,1.54,0.7250749504400147,0.1022024377959622,0.6810032054335022,0.0074573549109494,243.65366655130254,83.30150524514352,8193.0
3.01,-3.16,0.0,0.7250749504400147,0.1022024377959622,0.6810032054335022,0.0074573549109494,242.9951965188142,85.20319517942315,8578.0
1.88,-1.11,0.66,0.7231372543794763,0.1025891370348969,0.6830308932978956,0.0040962289519297,242.43302337286647,86.78985642510985,7175.0
1.88,-1.11,0.66,0.7214848241332487,0.1033400587155852,0.6846737499635549,0.0015286990934258,241.97438024830788,88.06048661827455,5758.0
-0.17,-0.85,-3.02,0.7214848241332487,0.1033400587155852,0.6846737499635549,0.0015286990934258,241.50915898698628,89.32847320646756,5757.0
-0.17,-0.85,-3.02,0.7209856299014249,0.1058546331941786,0.6846611630514294,0.0146153999615301,241.04100741737315,90.58411970769413,5712.0
3.73,-1.94,-3.89,0.7215721212677088,0.1075293540042919,0.6838328656245642,0.0119884831540621,240.4687131376177,92.09260557687645,6877.0
-3.09,-2.33,2.66,0.7215721212677088,0.1075293540042919,0.6838328656245642,0.0119884831540621,239.78287843458745,93.86384399556547,8096.0
3.09,-0.66,-0.91,0.7216725139207332,0.1099301099869083,0.6833774394344758,0.0099714011841213,239.11300014796728,95.55743383033159,7763.0
0.21,-0.95,-0.36,0.7215255975966239,0.1126982235879743,0.6831029676220051,0.0083820068575203,238.4748164194702,97.13913698247475,7270.0
0.21,-0.95,-0.36,0.7215255975966239,0.1126982235879743,0.6831029676220051,0.0083820068575203,237.89141490301412,98.55924469800883,6544.0
-2.14,-0.79,0.71,0.7218039648585864,0.1152830340618495,0.6823972377164256,0.0065473910003279,237.37236409531806,99.80285949710942,5744.0
-2.14,-0.79,0.71,0.7218039648585864,0.1152830340618495,0.6823972377164256,0.0065473910003279,236.85178314910456,101.032088066562,5690.0
-0.74,-0.95,-0.08,0.7216556477891467,0.118603175493162,0.6819988584601637,0.0048958999171583,236.22811629780472,102.4818377586529,6727.0
0.65,-0.29,-0.8300000000000001,0.7214335039167933,0.1216160492307345,0.6817108990095226,0.003672351763384,235.48513095964503,104.17774760916477,7892.0
1.27,-0.54,-1.31,0.7215494132299448,0.1247470057823742,0.681028060026838,0.0023259991264623,234.75330744022614,105.81651405085441,7650.0
1.27,-0.54,-1.31,0.7220468227311326,0.1275136525433615,0.6799911917674796,0.000795812521874,233.9845218047944,107.50578382478633,7911.0
-1.52,-1.33,0.39,0.7220468227311326,0.1275136525433615,0.6799911917674796,0.000795812521874,233.28211120722165,109.02158772785087,7121.0
0.46,0.75,0.36,0.7221048906017211,0.1305126845339835,0.6791924178726768,0.0151203719886932,232.70857149777825,110.24051320391895,5742.0
0.46,0.75,0.36,0.7221048906017211,0.1305126845339835,0.6791924178726768,0.0151203719886932,232.11718667785942,111.4803195580088,5855.0
-1.11,1.51,-0.02,0.7218890410728768,0.1336627461121365,0.6788451058842226,0.0134091348596234,231.49752336677787,112.76145917399322,6066.0
-1.11,1.51,-0.02,0.7214895629833401,0.1362017475659917,0.6788040332830271,0.0112684899065388,230.80196459276706,114.17838298083883,6728.0
0.6,1.06,0.4,0.7208545022992585,0.1383761319420483,0.6790782641476529,0.0085757673624996,229.98061065850814,115.82386939288331,7839.0
-0.25,-1.56,-0.75,0.7208545022992585,0.1383761319420483,0.6790782641476529,0.0085757673624996,229.0680636879166,117.61833274735953,8581.0
0.8200000000000001,1.19,-0.24,0.7201069668053635,0.1388992166891652,0.6797912700336516,0.0060657355325219,228.29548116229668,119.11097044720711,7164.0
0.8200000000000001,1.19,-0.24,0.7196968589338373,0.1404705101487145,0.6799213959816053,0.0033708019451044,227.66988464760902,120.30242568021808,5736.0
0.04,-3.0,-0.21,0.7196968589338373,0.1404705101487145,0.6799213959816053,0.0033708019451044,227.03851283927483,121.4897678314122,5732.0
0.04,-3.0,-0.21,0.7192619435671241,0.1419152304915957,0.6800896618029213,0.0006130247537433,226.40530767758204,122.66575176233752,5693.0
0.28,0.15,-0.16,0.7188630396117058,0.1440178490445967,0.6799310114536306,0.0137335028463131,225.62641145069622,124.09259629760807,6929.0
1.75,-0.53,-1.05,0.7188630396117058,0.1440178490445967,0.6799310114536306,0.0137335028463131,224.65806606960132,125.83720971901214,8505.0
-0.73,-1.91,0.03,0.7183189886266341,0.1457734343008204,0.6801738156627678,0.0114680825470144,223.71643650629824,127.50374910928475,8159.0
0.45,-1.92,0.27,0.7182617545244352,0.1485106932875273,0.6796771919148298,0.0091400633208763,222.87991516438186,128.9604335302807,7160.0
0.45,-1.92,0.27,0.7182617545244352,0.1485106932875273,0.6796771919148298,0.0091400633208763,222.1262936284682,130.25421175101985,6382.0
-2.05,-3.85,-1.0,0.7179808920546105,0.1515478382648169,0.6793269899870661,0.0071785818125439,221.44075033223982,131.41630070997522,5751.0
-2.05,-3.85,-1.0,0.7176956812964883,0.1547561994040478,0.6789145877107,0.006197611474944,220.7456244872505,132.58061423048918,5780.0
-3.28,0.73,0.97,0.7176956812964883,0.1547561994040478,0.6789145877107,0.006197611474944,219.91877286739364,133.94768882104583,6810.0
3.59,2.43,-2.69,0.7175496682487675,0.1585212789160594,0.6782108607438531,0.0048483085692484,219.00624586546692,135.43453869642946,7436.0
-1.55,2.28,1.92,0.7173586134809428,0.161554536723012,0.677706550136313,0.0032531878595439,218.11409855397935,136.8666870059511,7192.0
-1.55,2.28,1.92,0.7173801802434203,0.1637498237512155,0.67716415678746,0.0006139850909306,217.11677510904624,138.44333124512656,7952.0
-0.4,1.64,-2.47,0.7173801802434203,0.1637498237512155,0.67716415678746,0.0006139850909306,216.20852095361082,139.8575184502143,7164.0
-0.4,-3.12,2.41,0.7167771631922999,0.1656510719048528,0.6772223651549527,0.0126526217324433,215.475694772288,140.98395285421594,5728.0
-0.4,-3.12,2.41,0.7167771631922999,0.1656510719048528,0.6772223651549527,0.0126526217324433,214.72288635118255,142.12787227358726,5837.0
0.5,-1.9,-4.66,0.7156533770952401,0.1677927002787689,0.6779292035430013,0.0098918435536,213.894798676027,143.37107483499548,6367.0
4.05,-1.09,-6.18,0.7143596940711805,0.1709841408333497,0.6785280067577933,0.0073753044212803,212.97409974771378,144.73521629738514,7015.0
4.05,-1.09,-6.18,0.7148845513604609,0.1746020060082309,0.6770746099185376,0.004918366366429,211.92630050214015,146.26514675573463,7904.0
-2.5500000000000003,-0.15,-0.65,0.715185510952301,0.1791345996048196,0.6755828051007721,0.0028902595885432,210.76566626369694,147.9327006595226,8660.0
2.77,2.84,-0.26,0.715185510952301,0.1791345996048196,0.6755828051007721,0.0028902595885432,209.79696993412583,149.30332014546596,7154.0
2.77,2.84,-0.26,0.7145868051928792,0.1833677598588252,0.6749114596346967,0.0153780409140242,209.01397656902907,150.3974986454275,5735.0
-0.73,-0.79,0.93,0.7145868051928792,0.1833677598588252,0.6749114596346967,0.0153780409140242,208.22596676561483,151.48662239460313,5730.0
-2.4,-2.47,1.5,0.7143095897494143,0.1860553067217369,0.674550500056314,0.0112630238604293,207.43019670990455,152.57445229424982,5745.0
-2.4,-2.47,1.5,0.7134680085730069,0.1894042974342426,0.674552691284827,0.0082510324630001,206.45697742072664,153.88881205044623,6971.0
2.07,-2.95,-2.59,0.7134680085730069,0.1894042974342426,0.674552691284827,0.0082510324630001,205.29798047215075,155.43162231044366,8225.0
-0.7000000000000001,-2.93,-0.23,0.7131267762872853,0.1918179823234522,0.6742580714555261,0.0056670694841867,204.1527650298025,156.93278347969948,8048.0
1.61,0.03,-1.37,0.7128481983416279,0.194340324796395,0.6738445757683502,0.0035737916417853,203.1229515453125,158.26344036296138,7172.0
1.61,0.03,-1.37,0.7128481983416279,0.194340324796395,0.6738445757683502,0.0035737916417853,202.22034064243272,159.41513049412364,6237.0
-0.88,3.86,1.87,0.712827783375357,0.1977132568794869,0.6728906915867325,0.0020338333781243,201.3822758916689,160.47251776142775,5751.0
-0.88,3.86,1.87,0.7127401975796217,0.2015177050586216,0.671684586821273,0.0152263301160842,200.5455988520717,161.5169117494015,5704.0
-1.4,3.31,1.96,0.7127401975796217,0.2015177050586216,0.671684586821273,0.0152263301160842,199.52135866356554,162.78045778607716,6933.0
-1.49,-4.55,-1.62,0.7117940948869261,0.2048590163029276,0.6717599179581094,0.0109800978325567,198.35173936365885,164.2036464010807,7852.0
-0.28,-2.62,-1.34,0.7113021425279172,0.2080264011385126,0.6713635426654194,0.0067284503632337,197.23608418326495,165.54207047168407,7427.0
-0.28,-2.62,-1.34,0.71089618066968,0.210823450382756,0.6709422344489292,0.0040756730302466,196.07444786070258,166.91632902781149,7670.0
0.32,-2.18,0.53,0.71089618066968,0.210823450382756,0.6709422344489292,0.0040756730302466,195.024923152954,168.1413968931637,6876.0
-0.32,-3.5,-0.51,0.7103977796879902,0.2135703212784922,0.670612044396307,0.0014826982096279,194.13984697646706,169.16255441424957,5760.0
-0.32,-3.5,-0.51,0.7103977796879902,0.2135703212784922,0.670612044396307,0.0014826982096279,193.22973140008125,170.2014127528102,5887.0
1.29,3.0700000000000003,0.67,0.7098572202374058,0.2167017123409281,0.670001901030135,0.0155095893349224,192.25913061009578,171.29704228926465,6239.0
-3.23,2.73,2.32,0.7100759497062484,0.220786150100167,0.6684776633071968,0.0135364408935992,191.19842395238604,172.48018053713784,6773.0
-3.23,2.73,2.32,0.7096857316959198,0.2249348153532078,0.6675684346776259,0.0101427851850222,189.99145982906694,173.80878916792452,7651.0
1.86,1.52,-0.7000000000000001,0.7096857316959198,0.2249348153532078,0.6675684346776259,0.0101427851850222,188.65570931999565,175.25773404038208,8400.0
-0.97,-3.18,0.13,0.7087570215680941,0.2284535993893839,0.6674113146073495,0.0058800032354352,187.5256186312249,176.46640574618277,7053.0
-0.97,-3.18,0.13,0.7080421725224948,0.2310798937789912,0.6672888704301398,0.0019819235060111,186.6079502360112,177.43653205784418,5692.0
1.87,-1.07,0.1,0.7080421725224948,0.2310798937789912,0.6672888704301398,0.0019819235060111,185.68607585742637,178.40104044727457,5687.0
1.87,-1.07,0.1,0.7073393837433002,0.2340657083106059,0.6668208625058368,0.0153028665835679,184.7376441726653,179.38297808190634,5819.0
-1.41,-2.94,-0.37,0.7069253511198493,0.2372328409975152,0.666198417089181,0.0125218275101902,183.57322896617046,180.57441570425738,7101.0
0.2,-1.64,1.26,0.7069253511198493,0.2372328409975152,0.666198417089181,0.0125218275101902,182.17710057581593,181.9828399212108,8453.0
0.76,1.25,-0.24,0.7065486287587895,0.2409322761983584,0.6653079688689805,0.0102946609649749,180.7937231678045,183.35724600659572,8312.0
-2.02,1.39,0.65,0.7062724091871402,0.2450206223210064,0.6641430086918342,0.0076316881604162,179.5870337964277,184.53928387256934,7200.0
-2.02,1.39,0.65,0.7056180575314601,0.2479752328887507,0.6637714608947506,0.0043460857041093,178.5427599878183,185.5498123306308,6194.0
1.13,0.27,-1.3,0.7056180575314601,0.2479752328887507,0.6637714608947506,0.0043460857041093,177.56604329330563,186.48471859420525,5763.0
1.13,0.27,-1.3,0.7045971114182908,0.2513711236044797,0.6635924298614553,0.0007455396646697,176.60321317172617,187.39678518432976,5653.0
1.1,-2.3000000000000003,-2.76,0.7045971114182908,0.2513711236044797,0.6635924298614553,0.0007455396646697,175.44843572874805,188.47837117381764,6744.0
1.45,0.35,0.78,0.7041957674381704,0.2540425546402862,0.6628602404414025,0.0136749111869006,174.14692591264196,189.68157052064072,7555.0
-0.7000000000000001,-0.79,-0.03,0.7037346109192013,0.2568646878565003,0.6623128476958529,0.0109462917827467,172.92375273951666,190.79734206346404,7057.0
-0.7000000000000001,-0.79,-0.03,0.7031003652897713,0.2600917435200455,0.661774469693382,0.0075307731433179,171.56085766575856,192.02375404358008,7815.0
0.79,-1.21,0.4,0.7031003652897713,0.2600917435200455,0.661774469693382,0.0075307731433179,170.29258846265387,193.1493834178334,7228.0
0.49,-1.04,-0.02,0.7025329620354521,0.2635121420542551,0.6610536222556993,0.0041105652033989,169.27979544118142,194.0376274215694,5742.0
0.49,-1.04,-0.02,0.7025329620354521,0.2635121420542551,0.6610536222556993,0.0041105652033989,168.2446095250297,194.93589039930612,5842.0
1.97,0.03,-0.89,0.7020569251602621,0.2669872940423047,0.6601765653104887,0.0008725074968702,167.1115033612549,195.90813011292127,6364.0
0.01,-0.78,-0.22,0.7012074066187229,0.2706928725773123,0.659428041351089,0.0137185975505663,165.87051482518024,196.9599510347971,6934.0
0.01,-0.78,-0.22,0.7008205082037609,0.2742124054360931,0.6584467659891257,0.0102970065764577,164.4594065677424,198.13973249044727,7840.0
-0.86,-0.29,1.66,0.7002596894823102,0.2775933576874047,0.6576683126672798,0.0071193797022191,162.87605735818698,199.443325131358,8742.0
0.35,-0.33,0.92,0.7002596894823102,0.2775933576874047,0.6576683126672798,0.0071193797022191,161.56130801306844,200.50983455458348,7216.0
0.35,-0.33,0.92,0.6994690218587553,0.2809875556001576,0.6570958984831088,0.0037498339270483,160.51232962449876,201.3505451656793,5730.0
-0.6900000000000001,-1.55,0.1,0.6994690218587553,0.2809875556001576,0.6570958984831088,0.0037498339270483,159.45695020483552,202.18736615172722,5741.0
0.75,0.24,-2.73,0.698851067444449,0.2841935967842828,0.6563846386996145,0.0006254260492611,158.39739311873046,203.01851110967777,5740.0
0.75,0.24,-2.73,0.6986594009545211,0.286409680086775,0.6554820622479721,0.0137041118503394,157.11556190919765,204.0121324969598,6913.0
2.1,-0.95,1.7,0.6986594009545211,0.286409680086775,0.6554820622479721,0.0137041118503394,155.58420957596772,205.18236700706365,8215.0
-3.71,-2.45,5.78,0.6987666406900769,0.2888252148111341,0.6543657132613921,0.0105209531847941,154.0670760983419,206.32398324602917,8093.0
4.5,-1.0,-2.75,0.6973899107800338,0.2926781916669845,0.6541554958260155,0.0082082729840237,152.71899220363065,207.32380331333735,7154.0
4.5,-1.0,-2.75,0.6959073942477956,0.2955678400292016,0.6544626886348761,0.0055803007557486,151.54751428350485,208.18165364529818,6189.0
-0.12,-1.12,-4.7,0.6959073942477956,0.2955678400292016,0.6544626886348761,0.0055803007557486,150.4574786877917,208.97080443667892,5736.0
-0.12,-1.12,-4.7,0.6955703282026825,0.2987200372156748,0.6534069455080944,0.0027606976764313,149.36983140714005,209.74962089453837,5702.0
-0.8300000000000001,1.1,-0.8300000000000001,0.6955703282026825,0.2987200372156748,0.6534069455080944,0.0027606976764313,148.0369540065154,210.69245418019327,6959.0
0.11,-0.07,0.86,0.6952232655660586,0.3019707339148222,0.6520935578322784,0.0158832839252494,146.52126480106278,211.74930687276603,7876.0
-0.37,-0.68,1.09,0.6944965870444768,0.3055583916400335,0.6512672690415273,0.0126294955212105,145.02245852526696,212.77860917697348,7750.0
-0.37,-0.68,1.09,0.6938677924720872,0.3086372236227119,0.6505403582675133,0.0093697934636886,143.4940200444216,213.8123387727919,7865.0
-0.8300000000000001,-0.56,1.63,0.6938677924720872,0.3086372236227119,0.6505403582675133,0.0093697934636886,142.17951550671978,214.68869409047704,6734.0
0.52,-1.7,0.02,0.6931007294203332,0.3117159641168537,0.6499274705097413,0.0062305431955518,141.06050866109925,215.42558551915775,5711.0
0.52,-1.7,0.02,0.6931007294203332,0.3117159641168537,0.6499274705097413,0.0062305431955518,139.9085343036565,216.1755120937674,5859.0
0.55,-1.44,-1.72,0.6922575375472624,0.3149201790315997,0.6493024251273523,0.0033381538977349,138.6327852105036,216.9958544875417,6465.0
-0.65,-0.32,0.58,0.6917513030050193,0.3179219655906439,0.6483868477460258,0.0005042378518487,137.24782823278915,217.87446763075016,6991.0
-0.65,-0.32,0.58,0.6909098857084027,0.3210791627696466,0.6475821731130881,0.0137488229196195,135.75245685783185,218.80932442897057,7517.0
0.25,-0.2,-0.29,0.6901441920601539,0.3240534371718337,0.6469707306216003,0.0109196035509792,134.08791906597006,219.8333003904501,8330.0
-0.02,-0.67,0.21,0.6901441920601539,0.3240534371718337,0.6469707306216003,0.0109196035509792,132.6568312578189,220.69983035932438,7131.0
-0.02,-0.67,0.21,0.6893805557950036,0.3268445886267157,0.646424560382138,0.0078963226861885,131.50001944159027,221.39104518218747,5744.0
0.2,-1.2,-1.45,0.6893805557950036,0.3268445886267157,0.646424560382138,0.0078963226861885,130.33818977388938,222.07702782247785,5751.0
-0.62,-0.48,0.6,0.6885980757565818,0.3297885927046488,0.6457938431528534,0.0047419755469418,129.18475578650452,222.7499694105056,5692.0
-0.62,-0.48,0.6,0.6878142734610339,0.3328011099578228,0.645098785873749,0.0015820550958253,127.78656020581703,223.55501566899613,6877.0
0.13,-1.11,0.11,0.6878142734610339,0.3328011099578228,0.645098785873749,0.0015820550958253,126.10894030962487,224.50564619622259,8219.0
0.2,-1.59,-0.8300000000000001,0.6867537855566673,0.3360305778461524,0.6443858140943461,0.0148192904666414,124.39528623323181,225.4596699255819,8360.0
-1.11,-0.63,0.68,0.686007323046834,0.3392643385319385,0.6435438246690274,0.0120418875996765,122.89486343787236,226.28102558673962,7291.0
-1.11,-0.63,0.68,0.6853013987112325,0.3423018001893743,0.6427357004297147,0.0090713783222906,121.64033127556954,226.95788113033154,6076.0
0.52,-0.64,-0.48,0.6853013987112325,0.3423018001893743,0.6427357004297147,0.0090713783222906,120.44615060094242,227.59388130047586,5767.0
0.52,-0.64,-0.48,0.684401645590248,0.3453117393659887,0.6421185754638004,0.0061583450484465,119.24552565723509,228.22522781395068,5782.0
1.1,-0.62,-0.65,0.684401645590248,0.3453117393659887,0.6421185754638004,0.0061583450484465,117.80612657203537,228.9715408999415,6911.0
0.15,0.0,-0.17,0.6838333405129154,0.3478260273153409,0.6413876360469586,0.0033041566350744,116.16319010768241,229.80940638713295,7861.0
1.62,-0.35,-0.32,0.6835197137367793,0.3505049913839574,0.6402710484961531,0.0001908029348851,114.5655642515967,230.61002035408885,7617.0
1.62,-0.35,-0.32,0.6824489970274262,0.3535418085524042,0.6396089471254154,0.0131130019016556,112.95715004778118,231.40210079660696,7642.0
0.0,-1.76,-1.03,0.6824489970274262,0.3535418085524042,0.6396089471254154,0.0131130019016556,111.5321298257309,232.09229633173157,6749.0
-1.17,-0.53,0.92,0.6816935905314347,0.3565556360683721,0.6388049501249978,0.0094954047853775,110.32404222695578,232.66898312131093,5706.0
-1.17,-0.53,0.92,0.6816935905314347,0.3565556360683721,0.6388049501249978,0.0094954047853775,109.0921470750823,233.24912314207876,5804.0
1.55,-0.14,0.18,0.6811459232490026,0.3592969785275248,0.6378924872685938,0.0062519715723894,107.71167707968449,233.88981299039463,6487.0
-1.31,0.09,1.02,0.6804669137403586,0.3620089089709171,0.6371075824312649,0.0028735933857278,106.21760489511473,234.57210066490282,7001.0
-1.31,0.09,1.02,0.6797740651945183,0.3644979988470136,0.6362414209969006,0.0156615239771165,104.6026019365612,235.2967183538719,7545.0
1.7,-1.15,-0.64,0.6789224769952492,0.3667896602243376,0.6359138132941927,0.0119681846906213,102.76822984940023,236.10366565053758,8542.0
-1.72,-2.61,0.08,0.6789224769952492,0.3667896602243376,0.6359138132941927,0.0119681846906213,101.2066391706011,236.77725014830236,7249.0
-1.72,-2.61,0.08,0.6780176757148152,0.3694084775745653,0.6354133334347101,0.0089052685367437,99.96136299769562,237.30565924065723,5766.0
0.23,0.18,1.38,0.6780176757148152,0.3694084775745653,0.6354133334347101,0.0089052685367437,98.71007780078587,237.8288681816461,5781.0
-0.72,-1.89,-0.06,0.677071690061011,0.3720110697143327,0.6349390796830906,0.005835719245648,97.4556198844688,238.34565687868937,5783.0
-0.72,-1.89,-0.06,0.6762026400181353,0.3751759449602186,0.6340242355282545,0.002503740905792,95.96272573342634,238.95063354134717,6866.0
-0.16,-1.5,0.8200000000000001,0.6752660301581048,0.378596198467176,0.6327928313823404,0.0159354815376543,94.17398710933874,239.6612404038878,8204.0
0.37,-1.33,0.56,0.6752660301581048,0.378596198467176,0.6327928313823404,0.0159354815376543,92.34253847396035,240.37284702766482,8375.0
-0.8,-1.71,-0.9,0.6741624832113071,0.3825528000515984,0.6316494702936698,0.0133134548773841,90.7791057669725,240.9676408901179,7130.0
-0.8,-1.71,-0.9,0.6741624832113071,0.3825528000515984,0.6316494702936698,0.0133134548773841,89.48732190920069,241.4503452420789,5878.0
-0.65,0.62,1.69,0.6736904370173725,0.3860878311895853,0.6300479646021443,0.0108140639612954,88.24168224565129,241.90836181177679,5657.0
-0.65,0.62,1.69,0.6727168857726153,0.389894904491081,0.6287796212546185,0.0083751383978586,86.9658753427228,242.3699373393367,5783.0
-0.18,0.21,1.22,0.6727168857726153,0.389894904491081,0.6287796212546185,0.0083751383978586,85.42278197340718,242.91808973381075,6980.0
-0.6,-0.13,0.59,0.6713784011122031,0.3937222932377173,0.6278535816009914,0.0058033092681615,83.68899893142608,243.5208439905212,7824.0
0.92,-0.9,-0.9,0.6702611863214369,0.3973806571190262,0.6267603640219042,0.0031625226894319,82.03480685297923,244.08306058510982,7447.0
0.92,-0.9,-0.9,0.6696133440448317,0.4004759401576374,0.6254892809495476,0.0003876198807784,80.3204459925798,244.65256171876288,7700.0
-0.48,-0.18,-0.04,0.6696133440448317,0.4004759401576374,0.6254892809495476,0.0003876198807784,78.78463677963421,245.15144504469293,6883.0
0.79,0.43,0.58,0.6689827180495354,0.4032260032627974,0.6242373052435931,0.0140960982538951,77.51536533390065,245.55573326060198,5678.0
0.79,0.43,0.58,0.6680600705327902,0.4059500680534038,0.6235227324972707,0.010940131000004,76.22228257246255,245.96018710239198,5775.0
-0.5700000000000001,0.1,0.56,0.6680600705327902,0.4059500680534038,0.6235227324972707,0.010940131000004,74.828996236429,246.387644418807,6212.0
-0.14,-0.35,-0.12,0.6671137372190893,0.4087068130674805,0.6227820752878878,0.0077774845493335,73.304454772214,246.84551223497752,6785.0
-0.14,-0.35,-0.12,0.6662965240749636,0.4114063072297692,0.6219113641151589,0.0044774503468224,71.57678846535335,247.352002928996,7674.0
-0.5700000000000001,-0.48,0.2,0.6653290890913259,0.4144257649949778,0.6209564918987299,0.0012343767886666,69.65727521158618,247.89940300472153,8508.0
-0.81,-1.18,1.21,0.6653290890913259,0.4144257649949778,0.6209564918987299,0.0012343767886666,68.0422601901528,248.34754041104483,7144.0
-0.81,-1.18,1.21,0.6640731175254524,0.4178094183412683,0.619853599319684,0.0149566017460687,66.74594880328421,248.69907180837924,5725.0
0.31,-1.49,0.6900000000000001,0.6640731175254524,0.4178094183412683,0.619853599319684,0.0149566017460687,65.44487170356274,249.04461200295864,5738.0
0.22,-1.8,-0.12,0.6629471313467767,0.4213961441668171,0.6186855653854799,0.0124322927920701,64.1415515201963,249.38346250018665,5740.0
0.22,-1.8,-0.12,0.6620643991640344,0.4250450836593348,0.6171753644244142,0.0100984040415691,62.542483425288445,249.78928673383396,7032.0
0.29,-0.74,0.6,0.6610730592953873,0.4288693540131941,0.6156234713757892,0.0078248931855835,60.627150375588535,250.26106096901248,8408.0
-0.63,-0.5700000000000001,0.77,0.6610730592953873,0.4288693540131941,0.6156234713757892,0.0078248931855835,58.743208611139444,250.70996278981048,8255.0
-0.91,-0.38,0.0,0.6598745480757134,0.4326939228307764,0.6142556865283963,0.0056126210201277,57.11722297259415,251.0853895388956,7113.0
-0.91,-0.38,0.0,0.6587599662771247,0.4364080649179445,0.612839464909468,0.0033313592741827,55.7293640464129,251.39707234369772,6063.0
1.3,0.99,-1.12,0.6587599662771247,0.4364080649179445,0.612839464909468,0.0033313592741827,54.40859994713883,251.68622181556185,5763.0
1.3,0.99,-1.12,0.6578223266981661,0.4393983709200694,0.6117178689665619,0.0003269819697276,53.083581011539636,251.96901283092592,5775.0
0.51,0.35,-0.93,0.6578223266981661,0.4393983709200694,0.6117178689665619,0.0003269819697276,51.52127448983861,252.29309993525925,6801.0
-0.5700000000000001,0.96,-0.01,0.6568344867169014,0.4420145155328749,0.6107408385262416,0.0136840518066021,49.7862067085253,252.6412152076062,7543.0
-0.21,-0.17,0.09,0.6557519286791712,0.4447520580172801,0.6099850207481582,0.010163138580669,48.11677961351631,252.96447481736305,7248.0
-0.21,-0.17,0.09,0.6543491754713827,0.447899219858535,0.6092374962391861,0.0065664744151669,46.32317668465486,253.2990590228125,7777.0
-0.86,-1.83,0.47,0.6543491754713827,0.447899219858535,0.6092374962391861,0.0065664744151669,44.70123618896655,253.59031819684725,7024.0
0.65,-2.18,-0.54,0.6528289739611615,0.4515690797829849,0.6081849138020691,0.0032874860205517,43.37396454307783,253.82070285895873,5742.0
0.65,-2.18,-0.54,0.6528289739611615,0.4515690797829849,0.6081849138020691,0.0032874860205517,42.01935065993936,254.0484681514869,5855.0
0.96,-1.61,-0.95,0.6516572155549524,0.4553503343765638,0.6066290778198693,0.000329153053619,40.54237599174679,254.2883515793514,6378.0
-0.24,-1.01,-0.39,0.6507587984819966,0.4587931903829529,0.604826759743571,0.0143661182854759,38.95109672762034,254.53695618458937,6865.0
-0.24,-1.01,-0.39,0.649610413350532,0.4624993903704276,0.6032944972249914,0.011677944664132,37.164922049088055,254.80388256281577,7698.0
-0.79,-0.34,0.88,0.6479722873223648,0.4665268364279167,0.6019999415551511,0.008983102046467,35.17357247078066,255.086396735778,8573.0
1.71,-0.42,-0.62,0.6479722873223648,0.4665268364279167,0.6019999415551511,0.008983102046467,33.48412990329528,255.3136562047147,7266.0
1.71,-0.42,-0.62,0.6468347089925827,0.4699322607198949,0.6006086112944111,0.0061502533418168,32.105631058541434,255.49066216660998,5924.0
0.8,-0.85,-1.08,0.6468347089925827,0.4699322607198949,0.6006086112944111,0.0061502533418168,30.75997178590153,255.6561638915255,5779.0
-0.54,0.68,1.75,0.6457760166361295,0.4730084174355899,0.5993558989513544,0.0029798934319755,29.413925908076067,255.81452453423012,5777.0
-0.54,0.68,1.75,0.6442464521790423,0.4765885722077727,0.5981720249034266,0.0002651765598596,27.820082455351983,255.99275968702202,6836.0
0.94,-1.29,-1.01,0.6442464521790423,0.4765885722077727,0.5981720249034266,0.0002651765598596,25.95231422033864,256.1888510193385,8005.0
1.75,0.17,-0.11,0.6430923784857332,0.4792501452300036,0.5971050687869804,0.0147318654446221,24.075457368792737,256.37203894435027,8038.0
-1.64,-0.21,0.21,0.642082239669662,0.4820102004101965,0.5960341187868021,0.0118276558689019,22.392003952602067,256.5245566392946,7205.0
-1.64,-0.21,0.21,0.6405118028159091,0.4854237159390124,0.5950033294466267,0.0089154026776079,20.93815159993658,256.64731404707527,6219.0
0.0,-0.58,0.8300000000000001,0.6405118028159091,0.4854237159390124,0.5950033294466267,0.0089154026776079,19.58842852520699,256.7538577468951,5771.0
0.0,-0.58,0.8300000000000001,0.6390212734812897,0.4887416953541356,0.5939240773855081,0.0061284225122775,18.255013228357747,256.8521062635705,5699.0
0.12,0.37,1.14,0.6390212734812897,0.4887416953541356,0.5939240773855081,0.0061284225122775,16.610675578181294,256.9636850935097,7025.0
-0.2,-1.32,-1.77,0.6375196361379757,0.4920466997059894,0.5928305635064165,0.0032683053118603,14.75767275536964,257.0767610945132,7913.0
1.24,-0.09,0.04,0.6364462245623582,0.4947985391167379,0.5917013168544064,0.0004007006660413,13.041208631439142,257.1695488922265,7327.0
1.24,-0.09,0.04,0.635186370921317,0.4977710648634892,0.5903843003331202,0.0144436526075381,11.257364345235635,257.2538080340087,7612.0
-0.4,-0.8,0.09,0.635186370921317,0.4977710648634892,0.5903843003331202,0.0144436526075381,9.614584521285904,257.3204417928802,7008.0
2.3000000000000003,1.2,0.13,0.6337831471994938,0.5012009357409626,0.5890533910104541,0.0115172426115491,8.238498924818428,257.3681742863048,5869.0
2.3000000000000003,1.2,0.13,0.6337831471994938,0.5012009357409626,0.5890533910104541,0.0115172426115491,6.890789743944959,257.40778352004963,5747.0
-1.69,1.05,1.15,0.6323660111740267,0.5062013456014403,0.5863538045909356,0.0079146361177911,5.447427897230516,257.44237322030824,6154.0
0.2,-2.01,-0.81,0.6303581142842132,0.5102931014696865,0.5850061928237736,0.0041656579711811,3.8596276490689507,257.47107269441074,6769.0
0.2,-2.01,-0.81,0.6291604103761276,0.5131526512864545,0.5838070289222763,0.0009420583684776,2.0368461368935677,257.4919440639156,7770.0
-0.32,-0.13,0.95,0.6277937225208781,0.5159283747981797,0.5826432508496685,0.0148255280114419,1.5767327539022172e-14,257.5,8682.0
